pokec.txt	3.09092 3.09155 3.09293 3.09621 3.10008 
orkut.txt	6.00908 6.05333 6.09269 6.11166 6.23738 
usaRoadNet.txt	0.716737 0.719208 0.71984 0.721991 0.746065 
lj.txt	2.73035 2.74323 2.75152 2.76198 2.7689 
patents.txt	0.531652 0.532065 0.533925 0.535146 0.540078 
