%!PS-Adobe-2.0 EPSF-2.0
%%Title: dd_pokec_thresh_200.eps
%%Creator: gnuplot 5.4 patchlevel 3
%%CreationDate: Tue May  3 12:31:17 2022
%%DocumentFonts: (atend)
%%BoundingBox: 50 50 410 302
%%EndComments
%%BeginProlog
/gnudict 256 dict def
gnudict begin
%
% The following true/false flags may be edited by hand if desired.
% The unit line width and grayscale image gamma correction may also be changed.
%
/Color true def
/Blacktext false def
/Solid false def
/Dashlength 1 def
/Landscape false def
/Level1 false def
/Level3 false def
/Rounded false def
/ClipToBoundingBox false def
/SuppressPDFMark false def
/TransparentPatterns false def
/gnulinewidth 5.000 def
/userlinewidth gnulinewidth def
/Gamma 1.0 def
/BackgroundColor {-1.000 -1.000 -1.000} def
%
/vshift -53 def
/dl1 {
  10.0 Dashlength userlinewidth gnulinewidth div mul mul mul
  Rounded { currentlinewidth 0.75 mul sub dup 0 le { pop 0.01 } if } if
} def
/dl2 {
  10.0 Dashlength userlinewidth gnulinewidth div mul mul mul
  Rounded { currentlinewidth 0.75 mul add } if
} def
/hpt_ 31.5 def
/vpt_ 31.5 def
/hpt hpt_ def
/vpt vpt_ def
/doclip {
  ClipToBoundingBox {
    newpath 50 50 moveto 410 50 lineto 410 302 lineto 50 302 lineto closepath
    clip
  } if
} def
%
% Gnuplot Prolog Version 5.2 (Dec 2017)
%
%/SuppressPDFMark true def
%
/M {moveto} bind def
/L {lineto} bind def
/R {rmoveto} bind def
/V {rlineto} bind def
/N {newpath moveto} bind def
/Z {closepath} bind def
/C {setrgbcolor} bind def
/f {rlineto fill} bind def
/g {setgray} bind def
/Gshow {show} def   % May be redefined later in the file to support UTF-8
/vpt2 vpt 2 mul def
/hpt2 hpt 2 mul def
/Lshow {currentpoint stroke M 0 vshift R 
	Blacktext {gsave 0 setgray textshow grestore} {textshow} ifelse} def
/Rshow {currentpoint stroke M dup stringwidth pop neg vshift R
	Blacktext {gsave 0 setgray textshow grestore} {textshow} ifelse} def
/Cshow {currentpoint stroke M dup stringwidth pop -2 div vshift R 
	Blacktext {gsave 0 setgray textshow grestore} {textshow} ifelse} def
/UP {dup vpt_ mul /vpt exch def hpt_ mul /hpt exch def
  /hpt2 hpt 2 mul def /vpt2 vpt 2 mul def} def
/DL {Color {setrgbcolor Solid {pop []} if 0 setdash}
 {pop pop pop 0 setgray Solid {pop []} if 0 setdash} ifelse} def
/BL {stroke userlinewidth 2 mul setlinewidth
	Rounded {1 setlinejoin 1 setlinecap} if} def
/AL {stroke userlinewidth 2 div setlinewidth
	Rounded {1 setlinejoin 1 setlinecap} if} def
/UL {dup gnulinewidth mul /userlinewidth exch def
	dup 1 lt {pop 1} if 10 mul /udl exch def} def
/PL {stroke userlinewidth setlinewidth
	Rounded {1 setlinejoin 1 setlinecap} if} def
3.8 setmiterlimit
% Classic Line colors (version 5.0)
/LCw {1 1 1} def
/LCb {0 0 0} def
/LCa {0 0 0} def
/LC0 {1 0 0} def
/LC1 {0 1 0} def
/LC2 {0 0 1} def
/LC3 {1 0 1} def
/LC4 {0 1 1} def
/LC5 {1 1 0} def
/LC6 {0 0 0} def
/LC7 {1 0.3 0} def
/LC8 {0.5 0.5 0.5} def
% Default dash patterns (version 5.0)
/LTB {BL [] LCb DL} def
/LTw {PL [] 1 setgray} def
/LTb {PL [] LCb DL} def
/LTa {AL [1 udl mul 2 udl mul] 0 setdash LCa setrgbcolor} def
/LT0 {PL [] LC0 DL} def
/LT1 {PL [2 dl1 3 dl2] LC1 DL} def
/LT2 {PL [1 dl1 1.5 dl2] LC2 DL} def
/LT3 {PL [6 dl1 2 dl2 1 dl1 2 dl2] LC3 DL} def
/LT4 {PL [1 dl1 2 dl2 6 dl1 2 dl2 1 dl1 2 dl2] LC4 DL} def
/LT5 {PL [4 dl1 2 dl2] LC5 DL} def
/LT6 {PL [1.5 dl1 1.5 dl2 1.5 dl1 1.5 dl2 1.5 dl1 6 dl2] LC6 DL} def
/LT7 {PL [3 dl1 3 dl2 1 dl1 3 dl2] LC7 DL} def
/LT8 {PL [2 dl1 2 dl2 2 dl1 6 dl2] LC8 DL} def
/SL {[] 0 setdash} def
/Pnt {stroke [] 0 setdash gsave 1 setlinecap M 0 0 V stroke grestore} def
/Dia {stroke [] 0 setdash 2 copy vpt add M
  hpt neg vpt neg V hpt vpt neg V
  hpt vpt V hpt neg vpt V closepath stroke
  Pnt} def
/Pls {stroke [] 0 setdash vpt sub M 0 vpt2 V
  currentpoint stroke M
  hpt neg vpt neg R hpt2 0 V stroke
 } def
/Box {stroke [] 0 setdash 2 copy exch hpt sub exch vpt add M
  0 vpt2 neg V hpt2 0 V 0 vpt2 V
  hpt2 neg 0 V closepath stroke
  Pnt} def
/Crs {stroke [] 0 setdash exch hpt sub exch vpt add M
  hpt2 vpt2 neg V currentpoint stroke M
  hpt2 neg 0 R hpt2 vpt2 V stroke} def
/TriU {stroke [] 0 setdash 2 copy vpt 1.12 mul add M
  hpt neg vpt -1.62 mul V
  hpt 2 mul 0 V
  hpt neg vpt 1.62 mul V closepath stroke
  Pnt} def
/Star {2 copy Pls Crs} def
/BoxF {stroke [] 0 setdash exch hpt sub exch vpt add M
  0 vpt2 neg V hpt2 0 V 0 vpt2 V
  hpt2 neg 0 V closepath fill} def
/TriUF {stroke [] 0 setdash vpt 1.12 mul add M
  hpt neg vpt -1.62 mul V
  hpt 2 mul 0 V
  hpt neg vpt 1.62 mul V closepath fill} def
/TriD {stroke [] 0 setdash 2 copy vpt 1.12 mul sub M
  hpt neg vpt 1.62 mul V
  hpt 2 mul 0 V
  hpt neg vpt -1.62 mul V closepath stroke
  Pnt} def
/TriDF {stroke [] 0 setdash vpt 1.12 mul sub M
  hpt neg vpt 1.62 mul V
  hpt 2 mul 0 V
  hpt neg vpt -1.62 mul V closepath fill} def
/DiaF {stroke [] 0 setdash vpt add M
  hpt neg vpt neg V hpt vpt neg V
  hpt vpt V hpt neg vpt V closepath fill} def
/Pent {stroke [] 0 setdash 2 copy gsave
  translate 0 hpt M 4 {72 rotate 0 hpt L} repeat
  closepath stroke grestore Pnt} def
/PentF {stroke [] 0 setdash gsave
  translate 0 hpt M 4 {72 rotate 0 hpt L} repeat
  closepath fill grestore} def
/Circle {stroke [] 0 setdash 2 copy
  hpt 0 360 arc stroke Pnt} def
/CircleF {stroke [] 0 setdash hpt 0 360 arc fill} def
/C0 {BL [] 0 setdash 2 copy moveto vpt 90 450 arc} bind def
/C1 {BL [] 0 setdash 2 copy moveto
	2 copy vpt 0 90 arc closepath fill
	vpt 0 360 arc closepath} bind def
/C2 {BL [] 0 setdash 2 copy moveto
	2 copy vpt 90 180 arc closepath fill
	vpt 0 360 arc closepath} bind def
/C3 {BL [] 0 setdash 2 copy moveto
	2 copy vpt 0 180 arc closepath fill
	vpt 0 360 arc closepath} bind def
/C4 {BL [] 0 setdash 2 copy moveto
	2 copy vpt 180 270 arc closepath fill
	vpt 0 360 arc closepath} bind def
/C5 {BL [] 0 setdash 2 copy moveto
	2 copy vpt 0 90 arc
	2 copy moveto
	2 copy vpt 180 270 arc closepath fill
	vpt 0 360 arc} bind def
/C6 {BL [] 0 setdash 2 copy moveto
	2 copy vpt 90 270 arc closepath fill
	vpt 0 360 arc closepath} bind def
/C7 {BL [] 0 setdash 2 copy moveto
	2 copy vpt 0 270 arc closepath fill
	vpt 0 360 arc closepath} bind def
/C8 {BL [] 0 setdash 2 copy moveto
	2 copy vpt 270 360 arc closepath fill
	vpt 0 360 arc closepath} bind def
/C9 {BL [] 0 setdash 2 copy moveto
	2 copy vpt 270 450 arc closepath fill
	vpt 0 360 arc closepath} bind def
/C10 {BL [] 0 setdash 2 copy 2 copy moveto vpt 270 360 arc closepath fill
	2 copy moveto
	2 copy vpt 90 180 arc closepath fill
	vpt 0 360 arc closepath} bind def
/C11 {BL [] 0 setdash 2 copy moveto
	2 copy vpt 0 180 arc closepath fill
	2 copy moveto
	2 copy vpt 270 360 arc closepath fill
	vpt 0 360 arc closepath} bind def
/C12 {BL [] 0 setdash 2 copy moveto
	2 copy vpt 180 360 arc closepath fill
	vpt 0 360 arc closepath} bind def
/C13 {BL [] 0 setdash 2 copy moveto
	2 copy vpt 0 90 arc closepath fill
	2 copy moveto
	2 copy vpt 180 360 arc closepath fill
	vpt 0 360 arc closepath} bind def
/C14 {BL [] 0 setdash 2 copy moveto
	2 copy vpt 90 360 arc closepath fill
	vpt 0 360 arc} bind def
/C15 {BL [] 0 setdash 2 copy vpt 0 360 arc closepath fill
	vpt 0 360 arc closepath} bind def
/Rec {newpath 4 2 roll moveto 1 index 0 rlineto 0 exch rlineto
	neg 0 rlineto closepath} bind def
/Square {dup Rec} bind def
/Bsquare {vpt sub exch vpt sub exch vpt2 Square} bind def
/S0 {BL [] 0 setdash 2 copy moveto 0 vpt rlineto BL Bsquare} bind def
/S1 {BL [] 0 setdash 2 copy vpt Square fill Bsquare} bind def
/S2 {BL [] 0 setdash 2 copy exch vpt sub exch vpt Square fill Bsquare} bind def
/S3 {BL [] 0 setdash 2 copy exch vpt sub exch vpt2 vpt Rec fill Bsquare} bind def
/S4 {BL [] 0 setdash 2 copy exch vpt sub exch vpt sub vpt Square fill Bsquare} bind def
/S5 {BL [] 0 setdash 2 copy 2 copy vpt Square fill
	exch vpt sub exch vpt sub vpt Square fill Bsquare} bind def
/S6 {BL [] 0 setdash 2 copy exch vpt sub exch vpt sub vpt vpt2 Rec fill Bsquare} bind def
/S7 {BL [] 0 setdash 2 copy exch vpt sub exch vpt sub vpt vpt2 Rec fill
	2 copy vpt Square fill Bsquare} bind def
/S8 {BL [] 0 setdash 2 copy vpt sub vpt Square fill Bsquare} bind def
/S9 {BL [] 0 setdash 2 copy vpt sub vpt vpt2 Rec fill Bsquare} bind def
/S10 {BL [] 0 setdash 2 copy vpt sub vpt Square fill 2 copy exch vpt sub exch vpt Square fill
	Bsquare} bind def
/S11 {BL [] 0 setdash 2 copy vpt sub vpt Square fill 2 copy exch vpt sub exch vpt2 vpt Rec fill
	Bsquare} bind def
/S12 {BL [] 0 setdash 2 copy exch vpt sub exch vpt sub vpt2 vpt Rec fill Bsquare} bind def
/S13 {BL [] 0 setdash 2 copy exch vpt sub exch vpt sub vpt2 vpt Rec fill
	2 copy vpt Square fill Bsquare} bind def
/S14 {BL [] 0 setdash 2 copy exch vpt sub exch vpt sub vpt2 vpt Rec fill
	2 copy exch vpt sub exch vpt Square fill Bsquare} bind def
/S15 {BL [] 0 setdash 2 copy Bsquare fill Bsquare} bind def
/D0 {gsave translate 45 rotate 0 0 S0 stroke grestore} bind def
/D1 {gsave translate 45 rotate 0 0 S1 stroke grestore} bind def
/D2 {gsave translate 45 rotate 0 0 S2 stroke grestore} bind def
/D3 {gsave translate 45 rotate 0 0 S3 stroke grestore} bind def
/D4 {gsave translate 45 rotate 0 0 S4 stroke grestore} bind def
/D5 {gsave translate 45 rotate 0 0 S5 stroke grestore} bind def
/D6 {gsave translate 45 rotate 0 0 S6 stroke grestore} bind def
/D7 {gsave translate 45 rotate 0 0 S7 stroke grestore} bind def
/D8 {gsave translate 45 rotate 0 0 S8 stroke grestore} bind def
/D9 {gsave translate 45 rotate 0 0 S9 stroke grestore} bind def
/D10 {gsave translate 45 rotate 0 0 S10 stroke grestore} bind def
/D11 {gsave translate 45 rotate 0 0 S11 stroke grestore} bind def
/D12 {gsave translate 45 rotate 0 0 S12 stroke grestore} bind def
/D13 {gsave translate 45 rotate 0 0 S13 stroke grestore} bind def
/D14 {gsave translate 45 rotate 0 0 S14 stroke grestore} bind def
/D15 {gsave translate 45 rotate 0 0 S15 stroke grestore} bind def
/DiaE {stroke [] 0 setdash vpt add M
  hpt neg vpt neg V hpt vpt neg V
  hpt vpt V hpt neg vpt V closepath stroke} def
/BoxE {stroke [] 0 setdash exch hpt sub exch vpt add M
  0 vpt2 neg V hpt2 0 V 0 vpt2 V
  hpt2 neg 0 V closepath stroke} def
/TriUE {stroke [] 0 setdash vpt 1.12 mul add M
  hpt neg vpt -1.62 mul V
  hpt 2 mul 0 V
  hpt neg vpt 1.62 mul V closepath stroke} def
/TriDE {stroke [] 0 setdash vpt 1.12 mul sub M
  hpt neg vpt 1.62 mul V
  hpt 2 mul 0 V
  hpt neg vpt -1.62 mul V closepath stroke} def
/PentE {stroke [] 0 setdash gsave
  translate 0 hpt M 4 {72 rotate 0 hpt L} repeat
  closepath stroke grestore} def
/CircE {stroke [] 0 setdash 
  hpt 0 360 arc stroke} def
/Opaque {gsave closepath 1 setgray fill grestore 0 setgray closepath} def
/DiaW {stroke [] 0 setdash vpt add M
  hpt neg vpt neg V hpt vpt neg V
  hpt vpt V hpt neg vpt V Opaque stroke} def
/BoxW {stroke [] 0 setdash exch hpt sub exch vpt add M
  0 vpt2 neg V hpt2 0 V 0 vpt2 V
  hpt2 neg 0 V Opaque stroke} def
/TriUW {stroke [] 0 setdash vpt 1.12 mul add M
  hpt neg vpt -1.62 mul V
  hpt 2 mul 0 V
  hpt neg vpt 1.62 mul V Opaque stroke} def
/TriDW {stroke [] 0 setdash vpt 1.12 mul sub M
  hpt neg vpt 1.62 mul V
  hpt 2 mul 0 V
  hpt neg vpt -1.62 mul V Opaque stroke} def
/PentW {stroke [] 0 setdash gsave
  translate 0 hpt M 4 {72 rotate 0 hpt L} repeat
  Opaque stroke grestore} def
/CircW {stroke [] 0 setdash 
  hpt 0 360 arc Opaque stroke} def
/BoxFill {gsave Rec 1 setgray fill grestore} def
/Density {
  /Fillden exch def
  currentrgbcolor
  /ColB exch def /ColG exch def /ColR exch def
  /ColR ColR Fillden mul Fillden sub 1 add def
  /ColG ColG Fillden mul Fillden sub 1 add def
  /ColB ColB Fillden mul Fillden sub 1 add def
  ColR ColG ColB setrgbcolor} def
/BoxColFill {gsave Rec PolyFill} def
/PolyFill {gsave Density fill grestore grestore} def
/h {rlineto rlineto rlineto closepath gsave fill grestore stroke} bind def
%
% PostScript Level 1 Pattern Fill routine for rectangles
% Usage: x y w h s a XX PatternFill
%	x,y = lower left corner of box to be filled
%	w,h = width and height of box
%	  a = angle in degrees between lines and x-axis
%	 XX = 0/1 for no/yes cross-hatch
%
/PatternFill {gsave /PFa [ 9 2 roll ] def
  PFa 0 get PFa 2 get 2 div add PFa 1 get PFa 3 get 2 div add translate
  PFa 2 get -2 div PFa 3 get -2 div PFa 2 get PFa 3 get Rec
  TransparentPatterns {} {gsave 1 setgray fill grestore} ifelse
  clip
  currentlinewidth 0.5 mul setlinewidth
  /PFs PFa 2 get dup mul PFa 3 get dup mul add sqrt def
  0 0 M PFa 5 get rotate PFs -2 div dup translate
  0 1 PFs PFa 4 get div 1 add floor cvi
	{PFa 4 get mul 0 M 0 PFs V} for
  0 PFa 6 get ne {
	0 1 PFs PFa 4 get div 1 add floor cvi
	{PFa 4 get mul 0 2 1 roll M PFs 0 V} for
 } if
  stroke grestore} def
%
/languagelevel where
 {pop languagelevel} {1} ifelse
dup 2 lt
	{/InterpretLevel1 true def
	 /InterpretLevel3 false def}
	{/InterpretLevel1 Level1 def
	 2 gt
	    {/InterpretLevel3 Level3 def}
	    {/InterpretLevel3 false def}
	 ifelse }
 ifelse
%
% PostScript level 2 pattern fill definitions
%
/Level2PatternFill {
/Tile8x8 {/PaintType 2 /PatternType 1 /TilingType 1 /BBox [0 0 8 8] /XStep 8 /YStep 8}
	bind def
/KeepColor {currentrgbcolor [/Pattern /DeviceRGB] setcolorspace} bind def
<< Tile8x8
 /PaintProc {0.5 setlinewidth pop 0 0 M 8 8 L 0 8 M 8 0 L stroke} 
>> matrix makepattern
/Pat1 exch def
<< Tile8x8
 /PaintProc {0.5 setlinewidth pop 0 0 M 8 8 L 0 8 M 8 0 L stroke
	0 4 M 4 8 L 8 4 L 4 0 L 0 4 L stroke}
>> matrix makepattern
/Pat2 exch def
<< Tile8x8
 /PaintProc {0.5 setlinewidth pop 0 0 M 0 8 L
	8 8 L 8 0 L 0 0 L fill}
>> matrix makepattern
/Pat3 exch def
<< Tile8x8
 /PaintProc {0.5 setlinewidth pop -4 8 M 8 -4 L
	0 12 M 12 0 L stroke}
>> matrix makepattern
/Pat4 exch def
<< Tile8x8
 /PaintProc {0.5 setlinewidth pop -4 0 M 8 12 L
	0 -4 M 12 8 L stroke}
>> matrix makepattern
/Pat5 exch def
<< Tile8x8
 /PaintProc {0.5 setlinewidth pop -2 8 M 4 -4 L
	0 12 M 8 -4 L 4 12 M 10 0 L stroke}
>> matrix makepattern
/Pat6 exch def
<< Tile8x8
 /PaintProc {0.5 setlinewidth pop -2 0 M 4 12 L
	0 -4 M 8 12 L 4 -4 M 10 8 L stroke}
>> matrix makepattern
/Pat7 exch def
<< Tile8x8
 /PaintProc {0.5 setlinewidth pop 8 -2 M -4 4 L
	12 0 M -4 8 L 12 4 M 0 10 L stroke}
>> matrix makepattern
/Pat8 exch def
<< Tile8x8
 /PaintProc {0.5 setlinewidth pop 0 -2 M 12 4 L
	-4 0 M 12 8 L -4 4 M 8 10 L stroke}
>> matrix makepattern
/Pat9 exch def
/Pattern1 {PatternBgnd KeepColor Pat1 setpattern} bind def
/Pattern2 {PatternBgnd KeepColor Pat2 setpattern} bind def
/Pattern3 {PatternBgnd KeepColor Pat3 setpattern} bind def
/Pattern4 {PatternBgnd KeepColor Landscape {Pat5} {Pat4} ifelse setpattern} bind def
/Pattern5 {PatternBgnd KeepColor Landscape {Pat4} {Pat5} ifelse setpattern} bind def
/Pattern6 {PatternBgnd KeepColor Landscape {Pat9} {Pat6} ifelse setpattern} bind def
/Pattern7 {PatternBgnd KeepColor Landscape {Pat8} {Pat7} ifelse setpattern} bind def
} def
%
%
%End of PostScript Level 2 code
%
/PatternBgnd {
  TransparentPatterns {} {gsave 1 setgray fill grestore} ifelse
} def
%
% Substitute for Level 2 pattern fill codes with
% grayscale if Level 2 support is not selected.
%
/Level1PatternFill {
/Pattern1 {0.250 Density} bind def
/Pattern2 {0.500 Density} bind def
/Pattern3 {0.750 Density} bind def
/Pattern4 {0.125 Density} bind def
/Pattern5 {0.375 Density} bind def
/Pattern6 {0.625 Density} bind def
/Pattern7 {0.875 Density} bind def
} def
%
% Now test for support of Level 2 code
%
Level1 {Level1PatternFill} {Level2PatternFill} ifelse
%
/Symbol-Oblique /Symbol findfont [1 0 .167 1 0 0] makefont
dup length dict begin {1 index /FID eq {pop pop} {def} ifelse} forall
currentdict end definefont pop
%
/Metrics {ExtendTextBox Gswidth} def
/Lwidth {currentpoint stroke M 0 vshift R Metrics} def
/Rwidth {currentpoint stroke M dup stringwidth pop neg vshift R Metrics} def
/Cwidth {currentpoint stroke M dup stringwidth pop -2 div vshift R Metrics} def
/GLwidth {currentpoint stroke M 0 vshift R {ExtendTextBox} forall} def
/GRwidth {currentpoint stroke M dup Gwidth vshift R {ExtendTextBox} forall} def
/GCwidth {currentpoint stroke M dup Gwidth 2 div vshift R {ExtendTextBox} forall} def
/GLwidth2 {0 Gwidth AddGlyphWidth} def
/GRwidth2 {Gwidth -1 mul 0 AddGlyphWidth} def
/GCwidth2 {Gwidth 2 div dup -1 mul AddGlyphWidth} def
/AddGlyphWidth { dup TBx2 gt {userdict /TBx2 3 -1 roll put} {pop} ifelse
                 dup TBx1 lt {userdict /TBx1 3 -1 roll put} {pop} ifelse } def
/MFshow {
   { dup 5 get 3 ge
     { 5 get 3 eq {gsave} {grestore} ifelse }
     {dup dup 0 get findfont exch 1 get scalefont setfont
     [ currentpoint ] exch dup 2 get 0 exch R dup 5 get 2 ne {dup dup 6
     get exch 4 get {textshow} {Metrics pop 0 R} ifelse }if dup 5 get 0 eq
     {dup 3 get {2 get neg 0 exch R pop} {pop aload pop M} ifelse} {dup 5
     get 1 eq {dup 2 get exch dup 3 get exch 6 get Gswidth pop -2 div
     dup 0 R} {dup 6 get Gswidth pop -2 div 0 R 6 get
     textshow 2 index {aload pop M neg 3 -1 roll neg R pop pop} {pop pop pop
     pop aload pop M} ifelse }ifelse }ifelse }
     ifelse }
   forall} def
/Gswidth {dup type /stringtype eq {stringwidth} {pop (n) stringwidth} ifelse} def
/MFwidth {0 exch { dup 5 get 3 ge { 5 get 3 eq { 0 } { pop } ifelse }
 {dup 3 get{dup dup 0 get findfont exch 1 get scalefont setfont
     6 get Gswidth pop add} {pop} ifelse} ifelse} forall} def
/MLshow { currentpoint stroke M
  0 exch R
  Blacktext {gsave 0 setgray MFshow grestore} {MFshow} ifelse } bind def
/MRshow { currentpoint stroke M
  exch dup MFwidth neg 3 -1 roll R
  Blacktext {gsave 0 setgray MFshow grestore} {MFshow} ifelse } bind def
/MCshow { currentpoint stroke M
  exch dup MFwidth -2 div 3 -1 roll R
  Blacktext {gsave 0 setgray MFshow grestore} {MFshow} ifelse } bind def
/XYsave    { [( ) 1 2 true false 3 ()] } bind def
/XYrestore { [( ) 1 2 true false 4 ()] } bind def
Level1 SuppressPDFMark or 
{} {
/SDict 10 dict def
systemdict /pdfmark known not {
  userdict /pdfmark systemdict /cleartomark get put
} if
SDict begin [
  /Title (dd_pokec_thresh_200.eps)
  /Subject (gnuplot plot)
  /Creator (gnuplot 5.4 patchlevel 3)
%  /Producer (gnuplot)
%  /Keywords ()
  /CreationDate (Tue May  3 12:31:17 2022)
  /DOCINFO pdfmark
end
} ifelse
%
% Support for boxed text - Ethan A Merritt Sep 2016
%
/InitTextBox { userdict /TBy2 3 -1 roll put userdict /TBx2 3 -1 roll put
           userdict /TBy1 3 -1 roll put userdict /TBx1 3 -1 roll put
	   /Boxing true def } def
/ExtendTextBox { dup type /stringtype eq
    { Boxing { gsave dup false charpath pathbbox
      dup TBy2 gt {userdict /TBy2 3 -1 roll put} {pop} ifelse
      dup TBx2 gt {userdict /TBx2 3 -1 roll put} {pop} ifelse
      dup TBy1 lt {userdict /TBy1 3 -1 roll put} {pop} ifelse
      dup TBx1 lt {userdict /TBx1 3 -1 roll put} {pop} ifelse
      grestore } if }
    {} ifelse} def
/PopTextBox { newpath TBx1 TBxmargin sub TBy1 TBymargin sub M
               TBx1 TBxmargin sub TBy2 TBymargin add L
	       TBx2 TBxmargin add TBy2 TBymargin add L
	       TBx2 TBxmargin add TBy1 TBymargin sub L closepath } def
/DrawTextBox { PL PopTextBox stroke /Boxing false def} def
/FillTextBox { gsave PopTextBox fill grestore /Boxing false def} def
0 0 0 0 InitTextBox
/TBxmargin 20 def
/TBymargin 20 def
/Boxing false def
/textshow { ExtendTextBox Gshow } def
%
end
%%EndProlog
%%Page: 1 1
gnudict begin
gsave
doclip
50 50 translate
0.050 0.050 scale
0 setgray
newpath
(Helvetica) findfont 160 scalefont setfont
BackgroundColor 0 lt 3 1 roll 0 lt exch 0 lt or or not {BackgroundColor C 1.000 0 0 7200.00 5040.00 BoxColFill} if
1.000 UL
LTb
LCb setrgbcolor
1072 512 M
63 0 V
5776 0 R
-63 0 V
stroke
976 512 M
[ [(Helvetica) 160.0 0.0 true true 0 ( 1)]
] -53.3 MRshow
/Helvetica findfont 160 scalefont setfont
/vshift -53 def
1.000 UL
LTb
LCb setrgbcolor
1072 700 M
31 0 V
5808 0 R
-31 0 V
1072 810 M
31 0 V
5808 0 R
-31 0 V
1072 888 M
31 0 V
5808 0 R
-31 0 V
1072 948 M
31 0 V
5808 0 R
-31 0 V
1072 997 M
31 0 V
5808 0 R
-31 0 V
-5808 42 R
31 0 V
5808 0 R
-31 0 V
-5808 36 R
31 0 V
5808 0 R
-31 0 V
-5808 32 R
31 0 V
5808 0 R
-31 0 V
-5808 29 R
63 0 V
5776 0 R
-63 0 V
stroke
976 1136 M
[ [(Helvetica) 160.0 0.0 true true 0 ( 10)]
] -53.3 MRshow
/Helvetica findfont 160 scalefont setfont
1.000 UL
LTb
LCb setrgbcolor
1072 1324 M
31 0 V
5808 0 R
-31 0 V
1072 1434 M
31 0 V
5808 0 R
-31 0 V
-5808 77 R
31 0 V
5808 0 R
-31 0 V
-5808 61 R
31 0 V
5808 0 R
-31 0 V
-5808 49 R
31 0 V
5808 0 R
-31 0 V
-5808 42 R
31 0 V
5808 0 R
-31 0 V
-5808 36 R
31 0 V
5808 0 R
-31 0 V
-5808 32 R
31 0 V
5808 0 R
-31 0 V
-5808 29 R
63 0 V
5776 0 R
-63 0 V
stroke
976 1760 M
[ [(Helvetica) 160.0 0.0 true true 0 ( 100)]
] -53.3 MRshow
/Helvetica findfont 160 scalefont setfont
1.000 UL
LTb
LCb setrgbcolor
1072 1948 M
31 0 V
5808 0 R
-31 0 V
1072 2057 M
31 0 V
5808 0 R
-31 0 V
-5808 78 R
31 0 V
5808 0 R
-31 0 V
-5808 61 R
31 0 V
5808 0 R
-31 0 V
-5808 49 R
31 0 V
5808 0 R
-31 0 V
-5808 42 R
31 0 V
5808 0 R
-31 0 V
-5808 36 R
31 0 V
5808 0 R
-31 0 V
-5808 32 R
31 0 V
5808 0 R
-31 0 V
-5808 29 R
63 0 V
5776 0 R
-63 0 V
stroke
976 2384 M
[ [(Helvetica) 160.0 0.0 true true 0 ( 1000)]
] -53.3 MRshow
/Helvetica findfont 160 scalefont setfont
1.000 UL
LTb
LCb setrgbcolor
1072 2571 M
31 0 V
5808 0 R
-31 0 V
1072 2681 M
31 0 V
5808 0 R
-31 0 V
-5808 78 R
31 0 V
5808 0 R
-31 0 V
-5808 61 R
31 0 V
5808 0 R
-31 0 V
-5808 49 R
31 0 V
5808 0 R
-31 0 V
-5808 42 R
31 0 V
5808 0 R
-31 0 V
-5808 36 R
31 0 V
5808 0 R
-31 0 V
-5808 32 R
31 0 V
5808 0 R
-31 0 V
-5808 28 R
63 0 V
5776 0 R
-63 0 V
stroke
976 3007 M
[ [(Helvetica) 160.0 0.0 true true 0 ( 10000)]
] -53.3 MRshow
/Helvetica findfont 160 scalefont setfont
1.000 UL
LTb
LCb setrgbcolor
1072 3195 M
31 0 V
5808 0 R
-31 0 V
1072 3305 M
31 0 V
5808 0 R
-31 0 V
-5808 78 R
31 0 V
5808 0 R
-31 0 V
-5808 60 R
31 0 V
5808 0 R
-31 0 V
-5808 50 R
31 0 V
5808 0 R
-31 0 V
-5808 42 R
31 0 V
5808 0 R
-31 0 V
-5808 36 R
31 0 V
5808 0 R
-31 0 V
-5808 32 R
31 0 V
5808 0 R
-31 0 V
-5808 28 R
63 0 V
5776 0 R
-63 0 V
stroke
976 3631 M
[ [(Helvetica) 160.0 0.0 true true 0 ( 100000)]
] -53.3 MRshow
/Helvetica findfont 160 scalefont setfont
1.000 UL
LTb
LCb setrgbcolor
1072 3819 M
31 0 V
5808 0 R
-31 0 V
1072 3929 M
31 0 V
5808 0 R
-31 0 V
-5808 78 R
31 0 V
5808 0 R
-31 0 V
-5808 60 R
31 0 V
5808 0 R
-31 0 V
-5808 50 R
31 0 V
5808 0 R
-31 0 V
-5808 42 R
31 0 V
5808 0 R
-31 0 V
-5808 36 R
31 0 V
5808 0 R
-31 0 V
-5808 32 R
31 0 V
5808 0 R
-31 0 V
-5808 28 R
63 0 V
5776 0 R
-63 0 V
stroke
976 4255 M
[ [(Helvetica) 160.0 0.0 true true 0 ( 1x10)]
[(Helvetica) 128.0 80.0 true true 0 (6)]
] -69.3 MRshow
/Helvetica findfont 160 scalefont setfont
1.000 UL
LTb
LCb setrgbcolor
1072 4443 M
31 0 V
5808 0 R
-31 0 V
1072 4553 M
31 0 V
5808 0 R
-31 0 V
-5808 78 R
31 0 V
5808 0 R
-31 0 V
-5808 60 R
31 0 V
5808 0 R
-31 0 V
-5808 50 R
31 0 V
5808 0 R
-31 0 V
-5808 41 R
31 0 V
5808 0 R
-31 0 V
-5808 37 R
31 0 V
5808 0 R
-31 0 V
-5808 31 R
31 0 V
5808 0 R
-31 0 V
-5808 29 R
63 0 V
5776 0 R
-63 0 V
stroke
976 4879 M
[ [(Helvetica) 160.0 0.0 true true 0 ( 1x10)]
[(Helvetica) 128.0 80.0 true true 0 (7)]
] -69.3 MRshow
/Helvetica findfont 160 scalefont setfont
1.000 UL
LTb
LCb setrgbcolor
1072 512 M
0 63 V
0 4304 R
0 -63 V
stroke
1072 352 M
[ [(Helvetica) 160.0 0.0 true true 0 ( 0)]
] -53.3 MCshow
/Helvetica findfont 160 scalefont setfont
1.000 UL
LTb
LCb setrgbcolor
1656 512 M
0 63 V
0 4304 R
0 -63 V
stroke
1656 352 M
[ [(Helvetica) 160.0 0.0 true true 0 ( 200)]
] -53.3 MCshow
/Helvetica findfont 160 scalefont setfont
1.000 UL
LTb
LCb setrgbcolor
2240 512 M
0 63 V
0 4304 R
0 -63 V
stroke
2240 352 M
[ [(Helvetica) 160.0 0.0 true true 0 ( 400)]
] -53.3 MCshow
/Helvetica findfont 160 scalefont setfont
1.000 UL
LTb
LCb setrgbcolor
2824 512 M
0 63 V
0 4304 R
0 -63 V
stroke
2824 352 M
[ [(Helvetica) 160.0 0.0 true true 0 ( 600)]
] -53.3 MCshow
/Helvetica findfont 160 scalefont setfont
1.000 UL
LTb
LCb setrgbcolor
3408 512 M
0 63 V
0 4304 R
0 -63 V
stroke
3408 352 M
[ [(Helvetica) 160.0 0.0 true true 0 ( 800)]
] -53.3 MCshow
/Helvetica findfont 160 scalefont setfont
1.000 UL
LTb
LCb setrgbcolor
3992 512 M
0 63 V
0 4304 R
0 -63 V
stroke
3992 352 M
[ [(Helvetica) 160.0 0.0 true true 0 ( 1000)]
] -53.3 MCshow
/Helvetica findfont 160 scalefont setfont
1.000 UL
LTb
LCb setrgbcolor
4575 512 M
0 63 V
0 4304 R
0 -63 V
stroke
4575 352 M
[ [(Helvetica) 160.0 0.0 true true 0 ( 1200)]
] -53.3 MCshow
/Helvetica findfont 160 scalefont setfont
1.000 UL
LTb
LCb setrgbcolor
5159 512 M
0 63 V
0 4304 R
0 -63 V
stroke
5159 352 M
[ [(Helvetica) 160.0 0.0 true true 0 ( 1400)]
] -53.3 MCshow
/Helvetica findfont 160 scalefont setfont
1.000 UL
LTb
LCb setrgbcolor
5743 512 M
0 63 V
0 4304 R
0 -63 V
stroke
5743 352 M
[ [(Helvetica) 160.0 0.0 true true 0 ( 1600)]
] -53.3 MCshow
/Helvetica findfont 160 scalefont setfont
1.000 UL
LTb
LCb setrgbcolor
6327 512 M
0 63 V
0 4304 R
0 -63 V
stroke
6327 352 M
[ [(Helvetica) 160.0 0.0 true true 0 ( 1800)]
] -53.3 MCshow
/Helvetica findfont 160 scalefont setfont
1.000 UL
LTb
LCb setrgbcolor
6911 512 M
0 63 V
0 4304 R
0 -63 V
stroke
6911 352 M
[ [(Helvetica) 160.0 0.0 true true 0 ( 2000)]
] -53.3 MCshow
/Helvetica findfont 160 scalefont setfont
1.000 UL
LTb
LCb setrgbcolor
1.000 UL
LTB
LCb setrgbcolor
1072 4879 N
0 -4367 V
5839 0 V
0 4367 V
-5839 0 V
Z stroke
1.000 UP
1.000 UL
LTb
LCb setrgbcolor
LCb setrgbcolor
152 2695 M
currentpoint gsave translate -270 rotate 0 0 moveto
[ [(Helvetica) 160.0 0.0 true true 0 (Number of points with each degree)]
] -53.3 MCshow
grestore
/Helvetica findfont 160 scalefont setfont
LTb
LCb setrgbcolor
3991 112 M
[ [(Helvetica) 160.0 0.0 true true 0 (Various degree values)]
] -53.3 MCshow
/Helvetica findfont 160 scalefont setfont
LTb
% Begin plot #1
0.200 UP
2.000 UL
LTb
0.00 0.38 0.68 C
1072 4616 M
3 -14 V
3 -36 V
3 -41 V
3 -46 V
3 -50 V
3 -52 V
2 -54 V
3 -55 V
3 -56 V
3 -56 V
3 -52 V
3 -52 V
3 -51 V
3 -48 V
3 -46 V
3 -42 V
3 -41 V
3 -37 V
2 -35 V
3 -33 V
3 -30 V
3 -30 V
3 -28 V
3 -24 V
3 -24 V
3 -22 V
3 -17 V
3 -19 V
3 -19 V
3 -18 V
3 -18 V
2 -14 V
3 -11 V
3 -20 V
3 -9 V
3 -13 V
3 -11 V
3 -8 V
3 -7 V
3 -17 V
3 -6 V
3 -9 V
3 -14 V
2 -9 V
3 -7 V
3 -8 V
3 -9 V
3 -12 V
3 -7 V
3 -4 V
3 -8 V
3 -5 V
3 -5 V
3 -12 V
3 -6 V
2 4 V
3 -15 V
3 0 V
3 -6 V
3 -5 V
3 -2 V
3 -12 V
3 3 V
3 -11 V
3 -1 V
3 -6 V
3 -3 V
3 -2 V
2 -1 V
3 -5 V
3 -10 V
3 2 V
3 -7 V
3 0 V
3 -1 V
3 -4 V
3 -1 V
3 -6 V
3 5 V
3 -5 V
2 -1 V
3 0 V
3 -4 V
3 4 V
3 -8 V
3 1 V
3 0 V
3 -3 V
3 0 V
3 1 V
3 1 V
3 -5 V
3 6 V
2 2 V
3 -3 V
3 -4 V
3 2 V
3 2 V
3 2 V
3 -2 V
3 0 V
3 -6 V
3 7 V
3 -7 V
3 6 V
2 -1 V
3 -4 V
3 -1 V
3 3 V
3 1 V
3 -2 V
3 -1 V
3 7 V
3 -5 V
3 7 V
3 -3 V
3 4 V
3 1 V
2 0 V
3 3 V
3 0 V
3 0 V
3 -8 V
3 5 V
3 2 V
3 -1 V
3 4 V
3 3 V
3 4 V
3 -2 V
2 -2 V
3 -3 V
3 -3 V
3 -2 V
3 1 V
3 3 V
3 2 V
3 -3 V
3 -7 V
3 3 V
3 4 V
3 1 V
2 -6 V
3 1 V
3 7 V
3 -4 V
3 -6 V
3 3 V
3 -7 V
3 -2 V
3 2 V
3 -5 V
3 4 V
3 6 V
3 -5 V
2 -1 V
3 -3 V
3 1 V
3 0 V
3 2 V
3 -7 V
3 1 V
3 -7 V
3 -3 V
3 -3 V
3 0 V
3 3 V
2 -6 V
3 -1 V
3 -2 V
3 -1 V
3 -4 V
3 -7 V
3 -3 V
3 2 V
3 -6 V
3 -9 V
3 1 V
3 0 V
3 -3 V
2 -5 V
3 -3 V
3 0 V
3 -1 V
3 -11 V
3 1 V
3 -2 V
3 -8 V
3 2 V
3 -9 V
3 1 V
3 -9 V
2 -6 V
3 -5 V
3 7 V
3 -5 V
3 -5 V
3 -7 V
3 3 V
3 -16 V
3 -2 V
3 -17 V
3 16 V
3 -6 V
2 -12 V
3 -2 V
3 -6 V
3 -4 V
3 -2 V
3 -3 V
3 -15 V
3 0 V
3 -1 V
3 -12 V
3 -3 V
3 -9 V
3 -6 V
2 -2 V
3 4 V
3 2 V
3 -10 V
3 -13 V
3 -6 V
3 -1 V
3 -2 V
3 -11 V
3 -4 V
3 -5 V
3 -9 V
2 1 V
3 -8 V
3 -1 V
3 -3 V
3 -10 V
3 -11 V
3 -10 V
3 -5 V
3 0 V
3 1 V
3 -8 V
3 1 V
3 -6 V
2 1 V
3 -16 V
3 5 V
3 3 V
3 -11 V
3 1 V
3 -14 V
stroke 1799 2774 M
3 -9 V
3 -7 V
3 6 V
3 -8 V
3 -5 V
2 1 V
3 -5 V
3 -3 V
3 -9 V
3 3 V
3 -12 V
3 -16 V
3 -4 V
3 -1 V
3 7 V
3 -19 V
3 7 V
3 -13 V
2 2 V
3 -4 V
3 -11 V
3 3 V
3 -1 V
3 -2 V
3 -8 V
3 2 V
3 -19 V
3 -6 V
3 21 V
3 -17 V
2 -4 V
3 -6 V
3 -20 V
3 3 V
3 1 V
3 -2 V
3 9 V
3 -12 V
3 -4 V
3 -5 V
3 4 V
3 -3 V
2 -13 V
3 -4 V
3 1 V
3 -13 V
3 -1 V
3 -4 V
3 2 V
3 -1 V
3 -3 V
3 -11 V
3 1 V
3 10 V
3 -27 V
2 -12 V
3 15 V
3 1 V
3 -18 V
3 18 V
3 -15 V
3 -1 V
3 -5 V
3 -9 V
3 4 V
3 0 V
3 -11 V
2 11 V
3 -19 V
3 18 V
3 -16 V
3 4 V
3 -7 V
3 -8 V
3 -10 V
3 16 V
3 -10 V
3 -5 V
3 8 V
3 -33 V
2 22 V
3 -3 V
3 -18 V
3 -16 V
3 34 V
3 -25 V
3 -12 V
3 24 V
3 -18 V
3 14 V
3 -19 V
3 9 V
2 -12 V
3 1 V
3 11 V
3 -24 V
3 -10 V
3 18 V
3 -17 V
3 2 V
3 2 V
3 -6 V
3 6 V
3 -21 V
3 17 V
2 -8 V
3 -9 V
3 -12 V
3 19 V
3 14 V
3 -30 V
3 9 V
3 15 V
3 -8 V
3 -2 V
3 11 V
3 -2 V
2 -3 V
3 14 V
3 -6 V
3 -11 V
3 3 V
3 -1 V
3 -7 V
3 14 V
3 -2 V
3 -43 V
3 31 V
3 -9 V
2 -2 V
3 -8 V
3 22 V
3 -31 V
3 6 V
3 -15 V
3 2 V
3 7 V
3 -1 V
3 1 V
3 24 V
3 -12 V
3 -14 V
2 -14 V
3 0 V
3 0 V
3 1 V
3 -11 V
3 7 V
3 -10 V
3 20 V
3 -19 V
3 11 V
3 -14 V
3 12 V
2 -23 V
3 12 V
3 13 V
3 -16 V
3 -10 V
3 6 V
3 0 V
3 0 V
3 10 V
3 -15 V
3 -2 V
3 1 V
3 -20 V
2 28 V
3 -36 V
3 5 V
3 -10 V
3 -21 V
3 7 V
3 -1 V
3 9 V
3 -18 V
3 38 V
3 -37 V
3 -12 V
2 12 V
3 1 V
3 -2 V
3 0 V
3 17 V
3 -6 V
3 9 V
3 -5 V
3 -5 V
3 -11 V
3 -30 V
3 45 V
2 -20 V
3 -8 V
3 -3 V
3 8 V
3 -9 V
3 10 V
3 15 V
3 -18 V
3 -28 V
3 30 V
3 4 V
3 -30 V
3 -4 V
2 -2 V
3 2 V
3 -5 V
3 -21 V
3 33 V
3 -17 V
3 -19 V
3 13 V
3 21 V
3 -23 V
3 -14 V
3 26 V
2 -1 V
3 -16 V
3 -21 V
3 28 V
3 38 V
3 -7 V
3 -4 V
3 0 V
3 -26 V
3 10 V
3 -17 V
3 -19 V
3 -3 V
2 12 V
3 9 V
3 -1 V
3 29 V
3 -24 V
3 46 V
3 -16 V
3 -22 V
3 -32 V
3 8 V
3 1 V
3 9 V
2 -9 V
3 7 V
3 -24 V
3 -20 V
3 3 V
3 18 V
3 -2 V
3 -28 V
stroke 2526 2159 M
3 35 V
3 -18 V
3 -9 V
3 9 V
3 -11 V
2 91 V
3 -14 V
3 -80 V
3 -19 V
3 -35 V
3 40 V
3 -13 V
3 -25 V
3 -35 V
3 9 V
3 3 V
3 7 V
2 27 V
3 -39 V
3 31 V
3 0 V
3 -16 V
3 13 V
3 -3 V
3 -61 V
3 7 V
3 20 V
3 4 V
3 9 V
2 33 V
3 -81 V
3 18 V
3 16 V
3 -38 V
3 20 V
3 3 V
3 9 V
3 -38 V
3 -19 V
3 73 V
3 -14 V
3 -48 V
2 -8 V
3 14 V
3 6 V
3 9 V
3 -21 V
3 -2 V
3 2 V
3 24 V
3 36 V
3 -22 V
3 28 V
3 -47 V
2 20 V
3 -13 V
3 39 V
3 -29 V
3 -43 V
3 23 V
3 41 V
3 -62 V
3 -7 V
3 4 V
3 45 V
3 -14 V
3 -34 V
2 -5 V
3 3 V
3 -11 V
3 3 V
3 23 V
3 -28 V
3 17 V
3 -10 V
3 -34 V
3 29 V
3 -21 V
3 -16 V
2 4 V
3 15 V
3 -32 V
3 12 V
3 -17 V
3 24 V
3 -22 V
3 -7 V
3 5 V
3 0 V
3 1 V
3 1 V
3 -9 V
2 39 V
3 -11 V
3 -23 V
3 22 V
3 -27 V
3 12 V
3 -11 V
3 -22 V
3 57 V
3 -36 V
3 20 V
3 -47 V
2 55 V
3 -43 V
3 -8 V
3 48 V
3 -28 V
3 34 V
3 10 V
3 -41 V
3 23 V
3 6 V
3 -5 V
3 -22 V
2 -58 V
3 47 V
3 31 V
3 -30 V
3 13 V
3 -10 V
3 -24 V
3 31 V
3 9 V
3 -7 V
3 14 V
3 -14 V
3 23 V
2 -4 V
3 -14 V
3 5 V
3 17 V
3 -13 V
3 -10 V
3 37 V
3 -25 V
3 12 V
3 -50 V
3 16 V
3 24 V
2 -66 V
3 108 V
3 -36 V
3 -6 V
3 -22 V
3 4 V
3 -16 V
3 -11 V
3 -29 V
3 -7 V
3 36 V
3 -27 V
3 -16 V
2 14 V
3 -68 V
3 19 V
3 -31 V
3 35 V
3 40 V
3 33 V
3 -21 V
3 6 V
3 -38 V
3 42 V
3 -31 V
2 22 V
3 -24 V
3 -6 V
3 32 V
3 11 V
3 -18 V
3 0 V
3 10 V
3 -20 V
3 5 V
3 -66 V
3 52 V
3 -15 V
2 2 V
3 -10 V
3 -75 V
3 54 V
3 40 V
3 0 V
3 -29 V
3 -13 V
3 -22 V
3 43 V
3 -48 V
3 23 V
2 -59 V
3 24 V
3 87 V
3 -66 V
3 -7 V
3 5 V
3 -7 V
3 -20 V
3 32 V
3 24 V
3 0 V
3 -43 V
2 14 V
3 27 V
3 -25 V
3 -7 V
3 10 V
3 19 V
3 66 V
3 -68 V
3 -65 V
3 -17 V
3 -3 V
3 -15 V
3 73 V
2 14 V
3 -49 V
3 -9 V
3 0 V
3 71 V
3 -88 V
3 -9 V
3 51 V
3 -3 V
3 -19 V
3 66 V
3 -22 V
2 -36 V
3 3 V
3 28 V
3 -87 V
3 59 V
3 -59 V
3 -14 V
3 48 V
3 33 V
3 -118 V
3 99 V
3 32 V
3 -24 V
2 26 V
3 -2 V
3 -49 V
3 68 V
3 -48 V
3 -26 V
3 -6 V
3 21 V
stroke 3253 1746 M
3 87 V
3 -50 V
3 -15 V
3 -25 V
2 25 V
3 30 V
3 -15 V
3 -32 V
3 -23 V
3 9 V
3 -34 V
3 70 V
3 -95 V
3 25 V
3 -100 V
3 93 V
2 -11 V
3 11 V
3 -14 V
3 -27 V
3 34 V
3 -59 V
3 48 V
3 76 V
3 -20 V
3 -45 V
3 -18 V
3 -8 V
3 4 V
2 -16 V
3 0 V
3 38 V
3 -7 V
3 10 V
3 -37 V
3 41 V
3 23 V
3 -7 V
3 0 V
3 28 V
3 -24 V
2 15 V
3 -3 V
3 58 V
3 -55 V
3 12 V
3 -122 V
3 -9 V
3 23 V
3 -63 V
3 67 V
3 -36 V
3 89 V
3 -174 V
2 133 V
3 -44 V
3 5 V
3 18 V
3 -4 V
3 45 V
3 -50 V
3 -116 V
3 112 V
3 30 V
3 35 V
3 -70 V
2 128 V
3 -28 V
3 28 V
3 -21 V
3 -10 V
3 -13 V
3 -25 V
3 -188 V
3 147 V
3 107 V
3 -86 V
3 -44 V
3 -58 V
2 34 V
3 -22 V
3 -6 V
3 -50 V
3 38 V
3 -6 V
3 46 V
3 5 V
3 -57 V
3 46 V
3 -59 V
3 48 V
2 -48 V
3 -28 V
3 87 V
3 21 V
3 -49 V
3 49 V
3 -73 V
3 -14 V
3 55 V
3 37 V
3 -5 V
3 37 V
2 -63 V
3 -61 V
3 152 V
3 -70 V
3 -75 V
3 65 V
3 47 V
3 -47 V
3 10 V
3 -142 V
3 104 V
3 -6 V
3 17 V
2 41 V
3 -46 V
3 46 V
3 60 V
3 -64 V
3 0 V
3 -20 V
3 -34 V
3 12 V
3 90 V
3 -79 V
3 83 V
2 57 V
3 -105 V
3 -24 V
3 -34 V
3 -51 V
3 109 V
3 -58 V
3 72 V
3 -14 V
3 -24 V
3 24 V
3 0 V
3 5 V
2 -40 V
3 -41 V
3 81 V
3 -122 V
3 59 V
3 23 V
3 21 V
3 -32 V
3 -127 V
3 49 V
3 -32 V
3 0 V
2 -127 V
3 143 V
3 0 V
3 -62 V
3 -10 V
3 103 V
3 51 V
3 -12 V
3 -142 V
3 20 V
3 90 V
3 26 V
3 -207 V
2 118 V
3 95 V
3 -132 V
3 10 V
3 19 V
3 -97 V
3 58 V
3 -46 V
3 -103 V
3 103 V
3 -69 V
3 0 V
2 -53 V
3 110 V
3 -130 V
3 -168 V
3 36 V
3 0 V
3 235 V
3 -83 V
3 68 V
3 -110 V
3 22 V
3 -45 V
2 0 V
3 84 V
3 17 V
3 -56 V
3 0 V
3 142 V
3 -54 V
3 -133 V
3 45 V
3 20 V
3 -20 V
3 208 V
3 -31 V
2 -74 V
3 14 V
3 91 V
3 -42 V
3 -127 V
3 34 V
3 -17 V
3 -101 V
3 0 V
3 118 V
3 0 V
3 -53 V
2 68 V
3 15 V
3 -235 V
3 262 V
3 -27 V
3 -203 V
3 230 V
3 -201 V
3 110 V
3 127 V
3 69 V
3 -93 V
3 149 V
2 -114 V
3 -74 V
3 74 V
3 -138 V
3 34 V
3 -173 V
3 29 V
3 91 V
3 -188 V
3 97 V
3 -29 V
3 0 V
2 100 V
3 -45 V
3 -165 V
3 -187 V
3 352 V
3 -123 V
3 -91 V
3 -138 V
3 138 V
stroke 3980 948 M
3 127 V
3 -36 V
3 -91 V
3 188 V
2 -248 V
3 219 V
3 -159 V
3 214 V
3 -87 V
3 -127 V
3 159 V
3 0 V
3 -407 V
3 188 V
3 60 V
3 -138 V
2 0 V
3 0 V
3 229 V
3 -151 V
3 0 V
3 -78 V
3 187 V
3 0 V
3 -187 V
3 0 V
3 297 V
3 -32 V
2 -375 V
3 110 V
3 0 V
3 187 V
3 -49 V
3 91 V
3 97 V
3 -61 V
3 -187 V
3 274 V
3 -87 V
3 -127 V
3 91 V
2 36 V
3 -36 V
3 0 V
3 68 V
3 -219 V
3 248 V
3 -61 V
3 -187 V
3 219 V
3 -159 V
3 49 V
3 78 V
2 -563 V
3 595 V
3 -110 V
3 0 V
3 78 V
3 -78 V
3 110 V
3 -159 V
3 214 V
3 -123 V
3 123 V
3 -87 V
3 87 V
2 -55 V
3 100 V
3 -100 V
3 156 V
3 -156 V
3 0 V
3 255 V
3 -82 V
3 0 V
3 30 V
3 63 V
3 110 V
2 -347 V
3 144 V
3 -118 V
3 -87 V
3 152 V
3 53 V
3 -118 V
3 272 V
3 -85 V
3 46 V
3 29 V
3 -40 V
2 -11 V
3 -36 V
3 0 V
3 97 V
3 -124 V
3 39 V
3 -86 V
3 -17 V
3 0 V
3 -110 V
3 110 V
3 -84 V
3 -214 V
2 188 V
3 91 V
3 -120 V
3 29 V
3 -61 V
3 152 V
3 -152 V
3 -36 V
3 36 V
3 61 V
3 26 V
3 -123 V
2 97 V
3 -29 V
3 139 V
3 -139 V
3 -68 V
3 97 V
3 -61 V
3 87 V
3 65 V
3 -188 V
3 -42 V
3 139 V
3 -139 V
2 165 V
3 23 V
3 -237 V
3 91 V
3 -91 V
3 -138 V
3 326 V
3 -139 V
3 165 V
3 -87 V
3 -36 V
3 -42 V
2 110 V
3 0 V
3 -219 V
3 0 V
3 60 V
3 -60 V
3 -188 V
3 297 V
3 -109 V
3 -376 V
3 563 V
3 -375 V
3 297 V
2 -187 V
3 265 V
3 -36 V
3 0 V
3 36 V
3 -36 V
3 207 V
3 -84 V
3 45 V
3 -100 V
3 78 V
3 -49 V
2 127 V
3 -101 V
3 0 V
3 84 V
3 -207 V
3 146 V
3 -23 V
3 -26 V
3 49 V
3 -49 V
3 159 V
3 -133 V
2 0 V
3 -123 V
3 146 V
3 -78 V
3 55 V
3 -123 V
3 68 V
3 -68 V
3 0 V
3 0 V
3 -42 V
3 -297 V
3 110 V
2 229 V
3 -151 V
3 -78 V
3 -298 V
3 436 V
3 49 V
3 -49 V
3 91 V
3 68 V
3 -297 V
3 -298 V
3 485 V
2 -485 V
3 376 V
3 0 V
3 60 V
3 -248 V
3 248 V
3 -248 V
3 375 V
3 -265 V
3 -298 V
3 298 V
3 78 V
3 -376 V
2 485 V
3 -187 V
3 229 V
3 -91 V
3 49 V
3 110 V
3 -407 V
3 339 V
3 -229 V
3 326 V
3 0 V
3 -139 V
2 42 V
3 -151 V
3 187 V
3 -265 V
3 78 V
3 0 V
3 0 V
3 0 V
3 0 V
3 -78 V
3 -110 V
3 110 V
3 78 V
2 -78 V
3 78 V
3 109 V
3 -187 V
3 -298 V
3 188 V
3 0 V
3 188 V
3 109 V
stroke 4707 997 M
3 -485 V
3 376 V
3 187 V
2 -127 V
3 91 V
3 -229 V
3 326 V
3 -29 V
3 100 V
3 -259 V
3 -60 V
3 -78 V
3 0 V
3 187 V
3 -49 V
2 91 V
3 -91 V
3 -248 V
3 110 V
3 78 V
3 -78 V
3 297 V
3 -68 V
3 0 V
3 -42 V
3 -109 V
3 187 V
3 -78 V
2 0 V
3 42 V
3 -151 V
3 60 V
3 49 V
3 0 V
3 0 V
3 -109 V
3 -78 V
3 375 V
3 -188 V
3 210 V
2 -71 V
3 -139 V
3 230 V
3 0 V
3 -42 V
3 125 V
3 -83 V
3 -188 V
3 224 V
3 -156 V
3 0 V
3 139 V
3 0 V
2 -139 V
3 173 V
3 -17 V
3 -36 V
3 68 V
3 -159 V
3 -29 V
3 0 V
3 78 V
3 -23 V
3 84 V
3 -61 V
2 95 V
3 -53 V
3 -42 V
3 -23 V
3 23 V
3 0 V
3 -146 V
3 168 V
3 -71 V
3 71 V
3 39 V
3 0 V
2 -84 V
3 65 V
3 -91 V
3 -139 V
3 165 V
3 -123 V
3 168 V
3 -100 V
3 -110 V
3 313 V
3 -148 V
3 0 V
3 23 V
2 -49 V
3 -188 V
3 127 V
3 -36 V
3 -229 V
3 375 V
3 -237 V
3 91 V
3 36 V
3 -78 V
3 139 V
3 -97 V
2 0 V
3 68 V
3 0 V
3 -159 V
3 91 V
3 123 V
3 -26 V
3 -188 V
3 159 V
3 156 V
3 -224 V
3 0 V
3 -91 V
2 159 V
3 0 V
3 29 V
3 -97 V
3 68 V
6 -32 V
3 -36 V
3 168 V
3 -45 V
3 -26 V
3 26 V
2 45 V
3 -210 V
3 -109 V
3 375 V
3 61 V
3 -29 V
3 29 V
3 -97 V
3 188 V
3 19 V
3 -124 V
3 -148 V
3 0 V
2 84 V
3 -139 V
3 -110 V
3 0 V
3 210 V
3 -168 V
3 -91 V
3 49 V
3 -297 V
3 248 V
3 -60 V
3 0 V
2 187 V
3 -78 V
3 -49 V
3 127 V
3 -375 V
3 188 V
3 -78 V
3 0 V
3 187 V
3 -49 V
3 -248 V
3 110 V
2 187 V
3 42 V
3 -91 V
3 127 V
3 -265 V
6 138 V
3 -60 V
3 151 V
3 -42 V
3 42 V
3 -527 V
3 527 V
2 -42 V
3 0 V
3 -49 V
3 49 V
3 -49 V
3 -60 V
3 -188 V
3 0 V
3 0 V
3 297 V
3 42 V
3 -151 V
2 0 V
3 0 V
3 151 V
3 -229 V
6 138 V
3 -60 V
3 151 V
3 -339 V
3 188 V
3 -188 V
3 188 V
3 -376 V
5 0 V
3 0 V
3 188 V
3 -188 V
3 0 V
3 376 V
6 -188 V
3 -188 V
3 376 V
3 -78 V
2 -110 V
3 -188 V
3 376 V
6 60 V
3 -248 V
3 0 V
3 0 V
3 0 V
9 110 V
3 -110 V
2 110 V
3 -110 V
3 -188 V
3 376 V
3 -376 V
3 298 V
3 -110 V
3 188 V
6 -376 V
6 298 V
2 0 V
6 -110 V
3 0 V
3 0 V
3 -188 V
6 0 V
3 0 V
3 0 V
3 188 V
3 0 V
2 248 V
3 -436 V
3 188 V
3 -188 V
3 376 V
3 -188 V
3 0 V
3 -188 V
3 436 V
3 -138 V
stroke 5469 810 M
6 -298 V
3 0 V
2 188 V
3 -188 V
3 436 V
3 -60 V
3 -376 V
3 298 V
3 0 V
3 0 V
3 0 V
6 138 V
3 -248 V
2 110 V
3 138 V
3 -248 V
3 339 V
3 -339 V
3 -188 V
3 376 V
3 -78 V
3 78 V
3 109 V
3 -485 V
3 563 V
3 -127 V
2 -436 V
3 188 V
3 -188 V
3 0 V
3 0 V
3 298 V
3 -298 V
3 376 V
3 -78 V
3 -110 V
3 -188 V
3 0 V
2 376 V
3 -188 V
3 110 V
3 -298 V
3 376 V
3 -376 V
6 563 V
3 -265 V
3 0 V
3 -298 V
6 376 V
2 -188 V
6 -188 V
3 485 V
3 -49 V
3 -436 V
3 0 V
3 188 V
3 188 V
3 -188 V
6 -188 V
2 0 V
3 188 V
3 -188 V
3 188 V
3 -188 V
3 0 V
3 188 V
3 -188 V
3 188 V
3 -188 V
3 0 V
3 188 V
2 -188 V
3 0 V
6 0 V
3 0 V
6 298 V
3 -110 V
3 -188 V
3 298 V
3 -110 V
3 -188 V
3 0 V
2 188 V
3 188 V
3 -376 V
3 188 V
3 0 V
3 -188 V
3 436 V
3 -138 V
3 -298 V
9 0 V
2 188 V
3 110 V
3 -298 V
3 188 V
3 -188 V
9 0 V
3 188 V
3 188 V
3 -78 V
6 -298 V
2 298 V
3 -298 V
3 376 V
3 -188 V
3 -188 V
3 188 V
6 110 V
3 -298 V
3 0 V
3 0 V
5 188 V
9 0 V
3 0 V
3 -188 V
3 0 V
9 0 V
3 0 V
3 0 V
2 0 V
9 0 V
6 376 V
6 -188 V
3 -188 V
3 0 V
3 0 V
3 0 V
3 0 V
11 0 V
3 0 V
6 0 V
6 188 V
3 0 V
14 -188 V
9 188 V
3 -188 V
23 0 V
3 188 V
12 -188 V
3 0 V
9 0 V
3 0 V
2 0 V
27 0 V
3 0 V
6 0 V
2 0 V
9 0 V
9 188 V
3 -188 V
6 298 V
6 -298 V
5 0 V
3 0 V
15 0 V
3 0 V
6 0 V
5 0 V
6 0 V
3 188 V
3 110 V
3 -298 V
3 0 V
9 188 V
14 0 V
6 -188 V
9 0 V
15 0 V
14 188 V
15 -188 V
26 188 V
3 -188 V
3 0 V
3 0 V
3 0 V
3 0 V
8 0 V
9 0 V
9 188 V
3 -188 V
44 0 V
3 0 V
2 0 V
12 0 V
9 188 V
3 -188 V
6 0 V
3 0 V
2 188 V
6 -188 V
3 188 V
3 110 V
3 -110 V
6 0 V
3 -188 V
3 436 V
3 -60 V
3 -376 V
3 0 V
2 298 V
3 0 V
3 -298 V
3 0 V
3 436 V
3 -248 V
3 -188 V
3 188 V
9 0 V
3 -188 V
2 188 V
15 -188 V
6 0 V
6 298 V
3 -110 V
3 110 V
3 78 V
5 -376 V
6 0 V
3 0 V
3 188 V
3 -188 V
3 188 V
3 0 V
3 188 V
3 -78 V
3 0 V
5 -110 V
3 110 V
3 0 V
6 -110 V
3 0 V
3 -188 V
6 188 V
8 -188 V
1072 4616 CircleF
1075 4602 CircleF
1078 4566 CircleF
1081 4525 CircleF
1084 4479 CircleF
1087 4429 CircleF
1090 4377 CircleF
1092 4323 CircleF
1095 4268 CircleF
1098 4212 CircleF
1101 4156 CircleF
1104 4104 CircleF
1107 4052 CircleF
1110 4001 CircleF
1113 3953 CircleF
1116 3907 CircleF
1119 3865 CircleF
1122 3824 CircleF
1125 3787 CircleF
1127 3752 CircleF
1130 3719 CircleF
1133 3689 CircleF
1136 3659 CircleF
1139 3631 CircleF
1142 3607 CircleF
1145 3583 CircleF
1148 3561 CircleF
1151 3544 CircleF
1154 3525 CircleF
1157 3506 CircleF
1160 3488 CircleF
1163 3470 CircleF
1165 3456 CircleF
1168 3445 CircleF
1171 3425 CircleF
1174 3416 CircleF
1177 3403 CircleF
1180 3392 CircleF
1183 3384 CircleF
1186 3377 CircleF
1189 3360 CircleF
1192 3354 CircleF
1195 3345 CircleF
1198 3331 CircleF
1200 3322 CircleF
1203 3315 CircleF
1206 3307 CircleF
1209 3298 CircleF
1212 3286 CircleF
1215 3279 CircleF
1218 3275 CircleF
1221 3267 CircleF
1224 3262 CircleF
1227 3257 CircleF
1230 3245 CircleF
1233 3239 CircleF
1235 3243 CircleF
1238 3228 CircleF
1241 3228 CircleF
1244 3222 CircleF
1247 3217 CircleF
1250 3215 CircleF
1253 3203 CircleF
1256 3206 CircleF
1259 3195 CircleF
1262 3194 CircleF
1265 3188 CircleF
1268 3185 CircleF
1271 3183 CircleF
1273 3182 CircleF
1276 3177 CircleF
1279 3167 CircleF
1282 3169 CircleF
1285 3162 CircleF
1288 3162 CircleF
1291 3161 CircleF
1294 3157 CircleF
1297 3156 CircleF
1300 3150 CircleF
1303 3155 CircleF
1306 3150 CircleF
1308 3149 CircleF
1311 3149 CircleF
1314 3145 CircleF
1317 3149 CircleF
1320 3141 CircleF
1323 3142 CircleF
1326 3142 CircleF
1329 3139 CircleF
1332 3139 CircleF
1335 3140 CircleF
1338 3141 CircleF
1341 3136 CircleF
1344 3142 CircleF
1346 3144 CircleF
1349 3141 CircleF
1352 3137 CircleF
1355 3139 CircleF
1358 3141 CircleF
1361 3143 CircleF
1364 3141 CircleF
1367 3141 CircleF
1370 3135 CircleF
1373 3142 CircleF
1376 3135 CircleF
1379 3141 CircleF
1381 3140 CircleF
1384 3136 CircleF
1387 3135 CircleF
1390 3138 CircleF
1393 3139 CircleF
1396 3137 CircleF
1399 3136 CircleF
1402 3143 CircleF
1405 3138 CircleF
1408 3145 CircleF
1411 3142 CircleF
1414 3146 CircleF
1417 3147 CircleF
1419 3147 CircleF
1422 3150 CircleF
1425 3150 CircleF
1428 3150 CircleF
1431 3142 CircleF
1434 3147 CircleF
1437 3149 CircleF
1440 3148 CircleF
1443 3152 CircleF
1446 3155 CircleF
1449 3159 CircleF
1452 3157 CircleF
1454 3155 CircleF
1457 3152 CircleF
1460 3149 CircleF
1463 3147 CircleF
1466 3148 CircleF
1469 3151 CircleF
1472 3153 CircleF
1475 3150 CircleF
1478 3143 CircleF
1481 3146 CircleF
1484 3150 CircleF
1487 3151 CircleF
1489 3145 CircleF
1492 3146 CircleF
1495 3153 CircleF
1498 3149 CircleF
1501 3143 CircleF
1504 3146 CircleF
1507 3139 CircleF
1510 3137 CircleF
1513 3139 CircleF
1516 3134 CircleF
1519 3138 CircleF
1522 3144 CircleF
1525 3139 CircleF
1527 3138 CircleF
1530 3135 CircleF
1533 3136 CircleF
1536 3136 CircleF
1539 3138 CircleF
1542 3131 CircleF
1545 3132 CircleF
1548 3125 CircleF
1551 3122 CircleF
1554 3119 CircleF
1557 3119 CircleF
1560 3122 CircleF
1562 3116 CircleF
1565 3115 CircleF
1568 3113 CircleF
1571 3112 CircleF
1574 3108 CircleF
1577 3101 CircleF
1580 3098 CircleF
1583 3100 CircleF
1586 3094 CircleF
1589 3085 CircleF
1592 3086 CircleF
1595 3086 CircleF
1598 3083 CircleF
1600 3078 CircleF
1603 3075 CircleF
1606 3075 CircleF
1609 3074 CircleF
1612 3063 CircleF
1615 3064 CircleF
1618 3062 CircleF
1621 3054 CircleF
1624 3056 CircleF
1627 3047 CircleF
1630 3048 CircleF
1633 3039 CircleF
1635 3033 CircleF
1638 3028 CircleF
1641 3035 CircleF
1644 3030 CircleF
1647 3025 CircleF
1650 3018 CircleF
1653 3021 CircleF
1656 3005 CircleF
1659 3003 CircleF
1662 2986 CircleF
1665 3002 CircleF
1668 2996 CircleF
1670 2984 CircleF
1673 2982 CircleF
1676 2976 CircleF
1679 2972 CircleF
1682 2970 CircleF
1685 2967 CircleF
1688 2952 CircleF
1691 2952 CircleF
1694 2951 CircleF
1697 2939 CircleF
1700 2936 CircleF
1703 2927 CircleF
1706 2921 CircleF
1708 2919 CircleF
1711 2923 CircleF
1714 2925 CircleF
1717 2915 CircleF
1720 2902 CircleF
1723 2896 CircleF
1726 2895 CircleF
1729 2893 CircleF
1732 2882 CircleF
1735 2878 CircleF
1738 2873 CircleF
1741 2864 CircleF
1743 2865 CircleF
1746 2857 CircleF
1749 2856 CircleF
1752 2853 CircleF
1755 2843 CircleF
1758 2832 CircleF
1761 2822 CircleF
1764 2817 CircleF
1767 2817 CircleF
1770 2818 CircleF
1773 2810 CircleF
1776 2811 CircleF
1779 2805 CircleF
1781 2806 CircleF
1784 2790 CircleF
1787 2795 CircleF
1790 2798 CircleF
1793 2787 CircleF
1796 2788 CircleF
1799 2774 CircleF
1802 2765 CircleF
1805 2758 CircleF
1808 2764 CircleF
1811 2756 CircleF
1814 2751 CircleF
1816 2752 CircleF
1819 2747 CircleF
1822 2744 CircleF
1825 2735 CircleF
1828 2738 CircleF
1831 2726 CircleF
1834 2710 CircleF
1837 2706 CircleF
1840 2705 CircleF
1843 2712 CircleF
1846 2693 CircleF
1849 2700 CircleF
1852 2687 CircleF
1854 2689 CircleF
1857 2685 CircleF
1860 2674 CircleF
1863 2677 CircleF
1866 2676 CircleF
1869 2674 CircleF
1872 2666 CircleF
1875 2668 CircleF
1878 2649 CircleF
1881 2643 CircleF
1884 2664 CircleF
1887 2647 CircleF
1889 2643 CircleF
1892 2637 CircleF
1895 2617 CircleF
1898 2620 CircleF
1901 2621 CircleF
1904 2619 CircleF
1907 2628 CircleF
1910 2616 CircleF
1913 2612 CircleF
1916 2607 CircleF
1919 2611 CircleF
1922 2608 CircleF
1924 2595 CircleF
1927 2591 CircleF
1930 2592 CircleF
1933 2579 CircleF
1936 2578 CircleF
1939 2574 CircleF
1942 2576 CircleF
1945 2575 CircleF
1948 2572 CircleF
1951 2561 CircleF
1954 2562 CircleF
1957 2572 CircleF
1960 2545 CircleF
1962 2533 CircleF
1965 2548 CircleF
1968 2549 CircleF
1971 2531 CircleF
1974 2549 CircleF
1977 2534 CircleF
1980 2533 CircleF
1983 2528 CircleF
1986 2519 CircleF
1989 2523 CircleF
1992 2523 CircleF
1995 2512 CircleF
1997 2523 CircleF
2000 2504 CircleF
2003 2522 CircleF
2006 2506 CircleF
2009 2510 CircleF
2012 2503 CircleF
2015 2495 CircleF
2018 2485 CircleF
2021 2501 CircleF
2024 2491 CircleF
2027 2486 CircleF
2030 2494 CircleF
2033 2461 CircleF
2035 2483 CircleF
2038 2480 CircleF
2041 2462 CircleF
2044 2446 CircleF
2047 2480 CircleF
2050 2455 CircleF
2053 2443 CircleF
2056 2467 CircleF
2059 2449 CircleF
2062 2463 CircleF
2065 2444 CircleF
2068 2453 CircleF
2070 2441 CircleF
2073 2442 CircleF
2076 2453 CircleF
2079 2429 CircleF
2082 2419 CircleF
2085 2437 CircleF
2088 2420 CircleF
2091 2422 CircleF
2094 2424 CircleF
2097 2418 CircleF
2100 2424 CircleF
2103 2403 CircleF
2106 2420 CircleF
2108 2412 CircleF
2111 2403 CircleF
2114 2391 CircleF
2117 2410 CircleF
2120 2424 CircleF
2123 2394 CircleF
2126 2403 CircleF
2129 2418 CircleF
2132 2410 CircleF
2135 2408 CircleF
2138 2419 CircleF
2141 2417 CircleF
2143 2414 CircleF
2146 2428 CircleF
2149 2422 CircleF
2152 2411 CircleF
2155 2414 CircleF
2158 2413 CircleF
2161 2406 CircleF
2164 2420 CircleF
2167 2418 CircleF
2170 2375 CircleF
2173 2406 CircleF
2176 2397 CircleF
2178 2395 CircleF
2181 2387 CircleF
2184 2409 CircleF
2187 2378 CircleF
2190 2384 CircleF
2193 2369 CircleF
2196 2371 CircleF
2199 2378 CircleF
2202 2377 CircleF
2205 2378 CircleF
2208 2402 CircleF
2211 2390 CircleF
2214 2376 CircleF
2216 2362 CircleF
2219 2362 CircleF
2222 2362 CircleF
2225 2363 CircleF
2228 2352 CircleF
2231 2359 CircleF
2234 2349 CircleF
2237 2369 CircleF
2240 2350 CircleF
2243 2361 CircleF
2246 2347 CircleF
2249 2359 CircleF
2251 2336 CircleF
2254 2348 CircleF
2257 2361 CircleF
2260 2345 CircleF
2263 2335 CircleF
2266 2341 CircleF
2269 2341 CircleF
2272 2341 CircleF
2275 2351 CircleF
2278 2336 CircleF
2281 2334 CircleF
2284 2335 CircleF
2287 2315 CircleF
2289 2343 CircleF
2292 2307 CircleF
2295 2312 CircleF
2298 2302 CircleF
2301 2281 CircleF
2304 2288 CircleF
2307 2287 CircleF
2310 2296 CircleF
2313 2278 CircleF
2316 2316 CircleF
2319 2279 CircleF
2322 2267 CircleF
2324 2279 CircleF
2327 2280 CircleF
2330 2278 CircleF
2333 2278 CircleF
2336 2295 CircleF
2339 2289 CircleF
2342 2298 CircleF
2345 2293 CircleF
2348 2288 CircleF
2351 2277 CircleF
2354 2247 CircleF
2357 2292 CircleF
2359 2272 CircleF
2362 2264 CircleF
2365 2261 CircleF
2368 2269 CircleF
2371 2260 CircleF
2374 2270 CircleF
2377 2285 CircleF
2380 2267 CircleF
2383 2239 CircleF
2386 2269 CircleF
2389 2273 CircleF
2392 2243 CircleF
2395 2239 CircleF
2397 2237 CircleF
2400 2239 CircleF
2403 2234 CircleF
2406 2213 CircleF
2409 2246 CircleF
2412 2229 CircleF
2415 2210 CircleF
2418 2223 CircleF
2421 2244 CircleF
2424 2221 CircleF
2427 2207 CircleF
2430 2233 CircleF
2432 2232 CircleF
2435 2216 CircleF
2438 2195 CircleF
2441 2223 CircleF
2444 2261 CircleF
2447 2254 CircleF
2450 2250 CircleF
2453 2250 CircleF
2456 2224 CircleF
2459 2234 CircleF
2462 2217 CircleF
2465 2198 CircleF
2468 2195 CircleF
2470 2207 CircleF
2473 2216 CircleF
2476 2215 CircleF
2479 2244 CircleF
2482 2220 CircleF
2485 2266 CircleF
2488 2250 CircleF
2491 2228 CircleF
2494 2196 CircleF
2497 2204 CircleF
2500 2205 CircleF
2503 2214 CircleF
2505 2205 CircleF
2508 2212 CircleF
2511 2188 CircleF
2514 2168 CircleF
2517 2171 CircleF
2520 2189 CircleF
2523 2187 CircleF
2526 2159 CircleF
2529 2194 CircleF
2532 2176 CircleF
2535 2167 CircleF
2538 2176 CircleF
2541 2165 CircleF
2543 2256 CircleF
2546 2242 CircleF
2549 2162 CircleF
2552 2143 CircleF
2555 2108 CircleF
2558 2148 CircleF
2561 2135 CircleF
2564 2110 CircleF
2567 2075 CircleF
2570 2084 CircleF
2573 2087 CircleF
2576 2094 CircleF
2578 2121 CircleF
2581 2082 CircleF
2584 2113 CircleF
2587 2113 CircleF
2590 2097 CircleF
2593 2110 CircleF
2596 2107 CircleF
2599 2046 CircleF
2602 2053 CircleF
2605 2073 CircleF
2608 2077 CircleF
2611 2086 CircleF
2613 2119 CircleF
2616 2038 CircleF
2619 2056 CircleF
2622 2072 CircleF
2625 2034 CircleF
2628 2054 CircleF
2631 2057 CircleF
2634 2066 CircleF
2637 2028 CircleF
2640 2009 CircleF
2643 2082 CircleF
2646 2068 CircleF
2649 2020 CircleF
2651 2012 CircleF
2654 2026 CircleF
2657 2032 CircleF
2660 2041 CircleF
2663 2020 CircleF
2666 2018 CircleF
2669 2020 CircleF
2672 2044 CircleF
2675 2080 CircleF
2678 2058 CircleF
2681 2086 CircleF
2684 2039 CircleF
2686 2059 CircleF
2689 2046 CircleF
2692 2085 CircleF
2695 2056 CircleF
2698 2013 CircleF
2701 2036 CircleF
2704 2077 CircleF
2707 2015 CircleF
2710 2008 CircleF
2713 2012 CircleF
2716 2057 CircleF
2719 2043 CircleF
2722 2009 CircleF
2724 2004 CircleF
2727 2007 CircleF
2730 1996 CircleF
2733 1999 CircleF
2736 2022 CircleF
2739 1994 CircleF
2742 2011 CircleF
2745 2001 CircleF
2748 1967 CircleF
2751 1996 CircleF
2754 1975 CircleF
2757 1959 CircleF
2759 1963 CircleF
2762 1978 CircleF
2765 1946 CircleF
2768 1958 CircleF
2771 1941 CircleF
2774 1965 CircleF
2777 1943 CircleF
2780 1936 CircleF
2783 1941 CircleF
2786 1941 CircleF
2789 1942 CircleF
2792 1943 CircleF
2795 1934 CircleF
2797 1973 CircleF
2800 1962 CircleF
2803 1939 CircleF
2806 1961 CircleF
2809 1934 CircleF
2812 1946 CircleF
2815 1935 CircleF
2818 1913 CircleF
2821 1970 CircleF
2824 1934 CircleF
2827 1954 CircleF
2830 1907 CircleF
2832 1962 CircleF
2835 1919 CircleF
2838 1911 CircleF
2841 1959 CircleF
2844 1931 CircleF
2847 1965 CircleF
2850 1975 CircleF
2853 1934 CircleF
2856 1957 CircleF
2859 1963 CircleF
2862 1958 CircleF
2865 1936 CircleF
2867 1878 CircleF
2870 1925 CircleF
2873 1956 CircleF
2876 1926 CircleF
2879 1939 CircleF
2882 1929 CircleF
2885 1905 CircleF
2888 1936 CircleF
2891 1945 CircleF
2894 1938 CircleF
2897 1952 CircleF
2900 1938 CircleF
2903 1961 CircleF
2905 1957 CircleF
2908 1943 CircleF
2911 1948 CircleF
2914 1965 CircleF
2917 1952 CircleF
2920 1942 CircleF
2923 1979 CircleF
2926 1954 CircleF
2929 1966 CircleF
2932 1916 CircleF
2935 1932 CircleF
2938 1956 CircleF
2940 1890 CircleF
2943 1998 CircleF
2946 1962 CircleF
2949 1956 CircleF
2952 1934 CircleF
2955 1938 CircleF
2958 1922 CircleF
2961 1911 CircleF
2964 1882 CircleF
2967 1875 CircleF
2970 1911 CircleF
2973 1884 CircleF
2976 1868 CircleF
2978 1882 CircleF
2981 1814 CircleF
2984 1833 CircleF
2987 1802 CircleF
2990 1837 CircleF
2993 1877 CircleF
2996 1910 CircleF
2999 1889 CircleF
3002 1895 CircleF
3005 1857 CircleF
3008 1899 CircleF
3011 1868 CircleF
3013 1890 CircleF
3016 1866 CircleF
3019 1860 CircleF
3022 1892 CircleF
3025 1903 CircleF
3028 1885 CircleF
3031 1885 CircleF
3034 1895 CircleF
3037 1875 CircleF
3040 1880 CircleF
3043 1814 CircleF
3046 1866 CircleF
3049 1851 CircleF
3051 1853 CircleF
3054 1843 CircleF
3057 1768 CircleF
3060 1822 CircleF
3063 1862 CircleF
3066 1862 CircleF
3069 1833 CircleF
3072 1820 CircleF
3075 1798 CircleF
3078 1841 CircleF
3081 1793 CircleF
3084 1816 CircleF
3086 1757 CircleF
3089 1781 CircleF
3092 1868 CircleF
3095 1802 CircleF
3098 1795 CircleF
3101 1800 CircleF
3104 1793 CircleF
3107 1773 CircleF
3110 1805 CircleF
3113 1829 CircleF
3116 1829 CircleF
3119 1786 CircleF
3121 1800 CircleF
3124 1827 CircleF
3127 1802 CircleF
3130 1795 CircleF
3133 1805 CircleF
3136 1824 CircleF
3139 1890 CircleF
3142 1822 CircleF
3145 1757 CircleF
3148 1740 CircleF
3151 1737 CircleF
3154 1722 CircleF
3157 1795 CircleF
3159 1809 CircleF
3162 1760 CircleF
3165 1751 CircleF
3168 1751 CircleF
3171 1822 CircleF
3174 1734 CircleF
3177 1725 CircleF
3180 1776 CircleF
3183 1773 CircleF
3186 1754 CircleF
3189 1820 CircleF
3192 1798 CircleF
3194 1762 CircleF
3197 1765 CircleF
3200 1793 CircleF
3203 1706 CircleF
3206 1765 CircleF
3209 1706 CircleF
3212 1692 CircleF
3215 1740 CircleF
3218 1773 CircleF
3221 1655 CircleF
3224 1754 CircleF
3227 1786 CircleF
3230 1762 CircleF
3232 1788 CircleF
3235 1786 CircleF
3238 1737 CircleF
3241 1805 CircleF
3244 1757 CircleF
3247 1731 CircleF
3250 1725 CircleF
3253 1746 CircleF
3256 1833 CircleF
3259 1783 CircleF
3262 1768 CircleF
3265 1743 CircleF
3267 1768 CircleF
3270 1798 CircleF
3273 1783 CircleF
3276 1751 CircleF
3279 1728 CircleF
3282 1737 CircleF
3285 1703 CircleF
3288 1773 CircleF
3291 1678 CircleF
3294 1703 CircleF
3297 1603 CircleF
3300 1696 CircleF
3302 1685 CircleF
3305 1696 CircleF
3308 1682 CircleF
3311 1655 CircleF
3314 1689 CircleF
3317 1630 CircleF
3320 1678 CircleF
3323 1754 CircleF
3326 1734 CircleF
3329 1689 CircleF
3332 1671 CircleF
3335 1663 CircleF
3338 1667 CircleF
3340 1651 CircleF
3343 1651 CircleF
3346 1689 CircleF
3349 1682 CircleF
3352 1692 CircleF
3355 1655 CircleF
3358 1696 CircleF
3361 1719 CircleF
3364 1712 CircleF
3367 1712 CircleF
3370 1740 CircleF
3373 1716 CircleF
3375 1731 CircleF
3378 1728 CircleF
3381 1786 CircleF
3384 1731 CircleF
3387 1743 CircleF
3390 1621 CircleF
3393 1612 CircleF
3396 1635 CircleF
3399 1572 CircleF
3402 1639 CircleF
3405 1603 CircleF
3408 1692 CircleF
3411 1518 CircleF
3413 1651 CircleF
3416 1607 CircleF
3419 1612 CircleF
3422 1630 CircleF
3425 1626 CircleF
3428 1671 CircleF
3431 1621 CircleF
3434 1505 CircleF
3437 1617 CircleF
3440 1647 CircleF
3443 1682 CircleF
3446 1612 CircleF
3448 1740 CircleF
3451 1712 CircleF
3454 1740 CircleF
3457 1719 CircleF
3460 1709 CircleF
3463 1696 CircleF
3466 1671 CircleF
3469 1483 CircleF
3472 1630 CircleF
3475 1737 CircleF
3478 1651 CircleF
3481 1607 CircleF
3484 1549 CircleF
3486 1583 CircleF
3489 1561 CircleF
3492 1555 CircleF
3495 1505 CircleF
3498 1543 CircleF
3501 1537 CircleF
3504 1583 CircleF
3507 1588 CircleF
3510 1531 CircleF
3513 1577 CircleF
3516 1518 CircleF
3519 1566 CircleF
3521 1518 CircleF
3524 1490 CircleF
3527 1577 CircleF
3530 1598 CircleF
3533 1549 CircleF
3536 1598 CircleF
3539 1525 CircleF
3542 1511 CircleF
3545 1566 CircleF
3548 1603 CircleF
3551 1598 CircleF
3554 1635 CircleF
3556 1572 CircleF
3559 1511 CircleF
3562 1663 CircleF
3565 1593 CircleF
3568 1518 CircleF
3571 1583 CircleF
3574 1630 CircleF
3577 1583 CircleF
3580 1593 CircleF
3583 1451 CircleF
3586 1555 CircleF
3589 1549 CircleF
3592 1566 CircleF
3594 1607 CircleF
3597 1561 CircleF
3600 1607 CircleF
3603 1667 CircleF
3606 1603 CircleF
3609 1603 CircleF
3612 1583 CircleF
3615 1549 CircleF
3618 1561 CircleF
3621 1651 CircleF
3624 1572 CircleF
3627 1655 CircleF
3629 1712 CircleF
3632 1607 CircleF
3635 1583 CircleF
3638 1549 CircleF
3641 1498 CircleF
3644 1607 CircleF
3647 1549 CircleF
3650 1621 CircleF
3653 1607 CircleF
3656 1583 CircleF
3659 1607 CircleF
3662 1607 CircleF
3665 1612 CircleF
3667 1572 CircleF
3670 1531 CircleF
3673 1612 CircleF
3676 1490 CircleF
3679 1549 CircleF
3682 1572 CircleF
3685 1593 CircleF
3688 1561 CircleF
3691 1434 CircleF
3694 1483 CircleF
3697 1451 CircleF
3700 1451 CircleF
3702 1324 CircleF
3705 1467 CircleF
3708 1467 CircleF
3711 1405 CircleF
3714 1395 CircleF
3717 1498 CircleF
3720 1549 CircleF
3723 1537 CircleF
3726 1395 CircleF
3729 1415 CircleF
3732 1505 CircleF
3735 1531 CircleF
3738 1324 CircleF
3740 1442 CircleF
3743 1537 CircleF
3746 1405 CircleF
3749 1415 CircleF
3752 1434 CircleF
3755 1337 CircleF
3758 1395 CircleF
3761 1349 CircleF
3764 1246 CircleF
3767 1349 CircleF
3770 1280 CircleF
3773 1280 CircleF
3775 1227 CircleF
3778 1337 CircleF
3781 1207 CircleF
3784 1039 CircleF
3787 1075 CircleF
3790 1075 CircleF
3793 1310 CircleF
3796 1227 CircleF
3799 1295 CircleF
3802 1185 CircleF
3805 1207 CircleF
3808 1162 CircleF
3810 1162 CircleF
3813 1246 CircleF
3816 1263 CircleF
3819 1207 CircleF
3822 1207 CircleF
3825 1349 CircleF
3828 1295 CircleF
3831 1162 CircleF
3834 1207 CircleF
3837 1227 CircleF
3840 1207 CircleF
3843 1415 CircleF
3846 1384 CircleF
3848 1310 CircleF
3851 1324 CircleF
3854 1415 CircleF
3857 1373 CircleF
3860 1246 CircleF
3863 1280 CircleF
3866 1263 CircleF
3869 1162 CircleF
3872 1162 CircleF
3875 1280 CircleF
3878 1280 CircleF
3881 1227 CircleF
3883 1295 CircleF
3886 1310 CircleF
3889 1075 CircleF
3892 1337 CircleF
3895 1310 CircleF
3898 1107 CircleF
3901 1337 CircleF
3904 1136 CircleF
3907 1246 CircleF
3910 1373 CircleF
3913 1442 CircleF
3916 1349 CircleF
3919 1498 CircleF
3921 1384 CircleF
3924 1310 CircleF
3927 1384 CircleF
3930 1246 CircleF
3933 1280 CircleF
3936 1107 CircleF
3939 1136 CircleF
3942 1227 CircleF
3945 1039 CircleF
3948 1136 CircleF
3951 1107 CircleF
3954 1107 CircleF
3956 1207 CircleF
3959 1162 CircleF
3962 997 CircleF
3965 810 CircleF
3968 1162 CircleF
3971 1039 CircleF
3974 948 CircleF
3977 810 CircleF
3980 948 CircleF
3983 1075 CircleF
3986 1039 CircleF
3989 948 CircleF
3992 1136 CircleF
3994 888 CircleF
3997 1107 CircleF
4000 948 CircleF
4003 1162 CircleF
4006 1075 CircleF
4009 948 CircleF
4012 1107 CircleF
4015 1107 CircleF
4018 700 CircleF
4021 888 CircleF
4024 948 CircleF
4027 810 CircleF
4029 810 CircleF
4032 810 CircleF
4035 1039 CircleF
4038 888 CircleF
4041 888 CircleF
4044 810 CircleF
4047 997 CircleF
4050 997 CircleF
4053 810 CircleF
4056 810 CircleF
4059 1107 CircleF
4062 1075 CircleF
4064 700 CircleF
4067 810 CircleF
4070 810 CircleF
4073 997 CircleF
4076 948 CircleF
4079 1039 CircleF
4082 1136 CircleF
4085 1075 CircleF
4088 888 CircleF
4091 1162 CircleF
4094 1075 CircleF
4097 948 CircleF
4100 1039 CircleF
4102 1075 CircleF
4105 1039 CircleF
4108 1039 CircleF
4111 1107 CircleF
4114 888 CircleF
4117 1136 CircleF
4120 1075 CircleF
4123 888 CircleF
4126 1107 CircleF
4129 948 CircleF
4132 997 CircleF
4135 1075 CircleF
4137 512 CircleF
4140 1107 CircleF
4143 997 CircleF
4146 997 CircleF
4149 1075 CircleF
4152 997 CircleF
4155 1107 CircleF
4158 948 CircleF
4161 1162 CircleF
4164 1039 CircleF
4167 1162 CircleF
4170 1075 CircleF
4173 1162 CircleF
4175 1107 CircleF
4178 1207 CircleF
4181 1107 CircleF
4184 1263 CircleF
4187 1107 CircleF
4190 1107 CircleF
4193 1362 CircleF
4196 1280 CircleF
4199 1280 CircleF
4202 1310 CircleF
4205 1373 CircleF
4208 1483 CircleF
4210 1136 CircleF
4213 1280 CircleF
4216 1162 CircleF
4219 1075 CircleF
4222 1227 CircleF
4225 1280 CircleF
4228 1162 CircleF
4231 1434 CircleF
4234 1349 CircleF
4237 1395 CircleF
4240 1424 CircleF
4243 1384 CircleF
4245 1373 CircleF
4248 1337 CircleF
4251 1337 CircleF
4254 1434 CircleF
4257 1310 CircleF
4260 1349 CircleF
4263 1263 CircleF
4266 1246 CircleF
4269 1246 CircleF
4272 1136 CircleF
4275 1246 CircleF
4278 1162 CircleF
4281 948 CircleF
4283 1136 CircleF
4286 1227 CircleF
4289 1107 CircleF
4292 1136 CircleF
4295 1075 CircleF
4298 1227 CircleF
4301 1075 CircleF
4304 1039 CircleF
4307 1075 CircleF
4310 1136 CircleF
4313 1162 CircleF
4316 1039 CircleF
4318 1136 CircleF
4321 1107 CircleF
4324 1246 CircleF
4327 1107 CircleF
4330 1039 CircleF
4333 1136 CircleF
4336 1075 CircleF
4339 1162 CircleF
4342 1227 CircleF
4345 1039 CircleF
4348 997 CircleF
4351 1136 CircleF
4354 997 CircleF
4356 1162 CircleF
4359 1185 CircleF
4362 948 CircleF
4365 1039 CircleF
4368 948 CircleF
4371 810 CircleF
4374 1136 CircleF
4377 997 CircleF
4380 1162 CircleF
4383 1075 CircleF
4386 1039 CircleF
4389 997 CircleF
4391 1107 CircleF
4394 1107 CircleF
4397 888 CircleF
4400 888 CircleF
4403 948 CircleF
4406 888 CircleF
4409 700 CircleF
4412 997 CircleF
4415 888 CircleF
4418 512 CircleF
4421 1075 CircleF
4424 700 CircleF
4427 997 CircleF
4429 810 CircleF
4432 1075 CircleF
4435 1039 CircleF
4438 1039 CircleF
4441 1075 CircleF
4444 1039 CircleF
4447 1246 CircleF
4450 1162 CircleF
4453 1207 CircleF
4456 1107 CircleF
4459 1185 CircleF
4462 1136 CircleF
4464 1263 CircleF
4467 1162 CircleF
4470 1162 CircleF
4473 1246 CircleF
4476 1039 CircleF
4479 1185 CircleF
4482 1162 CircleF
4485 1136 CircleF
4488 1185 CircleF
4491 1136 CircleF
4494 1295 CircleF
4497 1162 CircleF
4499 1162 CircleF
4502 1039 CircleF
4505 1185 CircleF
4508 1107 CircleF
4511 1162 CircleF
4514 1039 CircleF
4517 1107 CircleF
4520 1039 CircleF
4523 1039 CircleF
4526 1039 CircleF
4529 997 CircleF
4532 700 CircleF
4535 810 CircleF
4537 1039 CircleF
4540 888 CircleF
4543 810 CircleF
4546 512 CircleF
4549 948 CircleF
4552 997 CircleF
4555 948 CircleF
4558 1039 CircleF
4561 1107 CircleF
4564 810 CircleF
4567 512 CircleF
4570 997 CircleF
4572 512 CircleF
4575 888 CircleF
4578 888 CircleF
4581 948 CircleF
4584 700 CircleF
4587 948 CircleF
4590 700 CircleF
4593 1075 CircleF
4596 810 CircleF
4599 512 CircleF
4602 810 CircleF
4605 888 CircleF
4608 512 CircleF
4610 997 CircleF
4613 810 CircleF
4616 1039 CircleF
4619 948 CircleF
4622 997 CircleF
4625 1107 CircleF
4628 700 CircleF
4631 1039 CircleF
4634 810 CircleF
4637 1136 CircleF
4640 1136 CircleF
4643 997 CircleF
4645 1039 CircleF
4648 888 CircleF
4651 1075 CircleF
4654 810 CircleF
4657 888 CircleF
4660 888 CircleF
4663 888 CircleF
4666 888 CircleF
4669 888 CircleF
4672 810 CircleF
4675 700 CircleF
4678 810 CircleF
4681 888 CircleF
4683 810 CircleF
4686 888 CircleF
4689 997 CircleF
4692 810 CircleF
4695 512 CircleF
4698 700 CircleF
4701 700 CircleF
4704 888 CircleF
4707 997 CircleF
4710 512 CircleF
4713 888 CircleF
4716 1075 CircleF
4718 948 CircleF
4721 1039 CircleF
4724 810 CircleF
4727 1136 CircleF
4730 1107 CircleF
4733 1207 CircleF
4736 948 CircleF
4739 888 CircleF
4742 810 CircleF
4745 810 CircleF
4748 997 CircleF
4751 948 CircleF
4753 1039 CircleF
4756 948 CircleF
4759 700 CircleF
4762 810 CircleF
4765 888 CircleF
4768 810 CircleF
4771 1107 CircleF
4774 1039 CircleF
4777 1039 CircleF
4780 997 CircleF
4783 888 CircleF
4786 1075 CircleF
4789 997 CircleF
4791 997 CircleF
4794 1039 CircleF
4797 888 CircleF
4800 948 CircleF
4803 997 CircleF
4806 997 CircleF
4809 997 CircleF
4812 888 CircleF
4815 810 CircleF
4818 1185 CircleF
4821 997 CircleF
4824 1207 CircleF
4826 1136 CircleF
4829 997 CircleF
4832 1227 CircleF
4835 1227 CircleF
4838 1185 CircleF
4841 1310 CircleF
4844 1227 CircleF
4847 1039 CircleF
4850 1263 CircleF
4853 1107 CircleF
4856 1107 CircleF
4859 1246 CircleF
4862 1246 CircleF
4864 1107 CircleF
4867 1280 CircleF
4870 1263 CircleF
4873 1227 CircleF
4876 1295 CircleF
4879 1136 CircleF
4882 1107 CircleF
4885 1107 CircleF
4888 1185 CircleF
4891 1162 CircleF
4894 1246 CircleF
4897 1185 CircleF
4899 1280 CircleF
4902 1227 CircleF
4905 1185 CircleF
4908 1162 CircleF
4911 1185 CircleF
4914 1185 CircleF
4917 1039 CircleF
4920 1207 CircleF
4923 1136 CircleF
4926 1207 CircleF
4929 1246 CircleF
4932 1246 CircleF
4934 1162 CircleF
4937 1227 CircleF
4940 1136 CircleF
4943 997 CircleF
4946 1162 CircleF
4949 1039 CircleF
4952 1207 CircleF
4955 1107 CircleF
4958 997 CircleF
4961 1310 CircleF
4964 1162 CircleF
4967 1162 CircleF
4970 1185 CircleF
4972 1136 CircleF
4975 948 CircleF
4978 1075 CircleF
4981 1039 CircleF
4984 810 CircleF
4987 1185 CircleF
4990 948 CircleF
4993 1039 CircleF
4996 1075 CircleF
4999 997 CircleF
5002 1136 CircleF
5005 1039 CircleF
5007 1039 CircleF
5010 1107 CircleF
5013 1107 CircleF
5016 948 CircleF
5019 1039 CircleF
5022 1162 CircleF
5025 1136 CircleF
5028 948 CircleF
5031 1107 CircleF
5034 1263 CircleF
5037 1039 CircleF
5040 1039 CircleF
5043 948 CircleF
5045 1107 CircleF
5048 1107 CircleF
5051 1136 CircleF
5054 1039 CircleF
5057 1107 CircleF
5063 1075 CircleF
5066 1039 CircleF
5069 1207 CircleF
5072 1162 CircleF
5075 1136 CircleF
5078 1162 CircleF
5080 1207 CircleF
5083 997 CircleF
5086 888 CircleF
5089 1263 CircleF
5092 1324 CircleF
5095 1295 CircleF
5098 1324 CircleF
5101 1227 CircleF
5104 1415 CircleF
5107 1434 CircleF
5110 1310 CircleF
5113 1162 CircleF
5116 1162 CircleF
5118 1246 CircleF
5121 1107 CircleF
5124 997 CircleF
5127 997 CircleF
5130 1207 CircleF
5133 1039 CircleF
5136 948 CircleF
5139 997 CircleF
5142 700 CircleF
5145 948 CircleF
5148 888 CircleF
5151 888 CircleF
5153 1075 CircleF
5156 997 CircleF
5159 948 CircleF
5162 1075 CircleF
5165 700 CircleF
5168 888 CircleF
5171 810 CircleF
5174 810 CircleF
5177 997 CircleF
5180 948 CircleF
5183 700 CircleF
5186 810 CircleF
5188 997 CircleF
5191 1039 CircleF
5194 948 CircleF
5197 1075 CircleF
5200 810 CircleF
5206 948 CircleF
5209 888 CircleF
5212 1039 CircleF
5215 997 CircleF
5218 1039 CircleF
5221 512 CircleF
5224 1039 CircleF
5226 997 CircleF
5229 997 CircleF
5232 948 CircleF
5235 997 CircleF
5238 948 CircleF
5241 888 CircleF
5244 700 CircleF
5247 700 CircleF
5250 700 CircleF
5253 997 CircleF
5256 1039 CircleF
5259 888 CircleF
5261 888 CircleF
5264 888 CircleF
5267 1039 CircleF
5270 810 CircleF
5276 948 CircleF
5279 888 CircleF
5282 1039 CircleF
5285 700 CircleF
5288 888 CircleF
5291 700 CircleF
5294 888 CircleF
5297 512 CircleF
5302 512 CircleF
5305 512 CircleF
5308 700 CircleF
5311 512 CircleF
5314 512 CircleF
5317 888 CircleF
5323 700 CircleF
5326 512 CircleF
5329 888 CircleF
5332 810 CircleF
5334 700 CircleF
5337 512 CircleF
5340 888 CircleF
5346 948 CircleF
5349 700 CircleF
5352 700 CircleF
5355 700 CircleF
5358 700 CircleF
5367 810 CircleF
5370 700 CircleF
5372 810 CircleF
5375 700 CircleF
5378 512 CircleF
5381 888 CircleF
5384 512 CircleF
5387 810 CircleF
5390 700 CircleF
5393 888 CircleF
5399 512 CircleF
5405 810 CircleF
5407 810 CircleF
5413 700 CircleF
5416 700 CircleF
5419 700 CircleF
5422 512 CircleF
5428 512 CircleF
5431 512 CircleF
5434 512 CircleF
5437 700 CircleF
5440 700 CircleF
5442 948 CircleF
5445 512 CircleF
5448 700 CircleF
5451 512 CircleF
5454 888 CircleF
5457 700 CircleF
5460 700 CircleF
5463 512 CircleF
5466 948 CircleF
5469 810 CircleF
5475 512 CircleF
5478 512 CircleF
5480 700 CircleF
5483 512 CircleF
5486 948 CircleF
5489 888 CircleF
5492 512 CircleF
5495 810 CircleF
5498 810 CircleF
5501 810 CircleF
5504 810 CircleF
5510 948 CircleF
5513 700 CircleF
5515 810 CircleF
5518 948 CircleF
5521 700 CircleF
5524 1039 CircleF
5527 700 CircleF
5530 512 CircleF
5533 888 CircleF
5536 810 CircleF
5539 888 CircleF
5542 997 CircleF
5545 512 CircleF
5548 1075 CircleF
5551 948 CircleF
5553 512 CircleF
5556 700 CircleF
5559 512 CircleF
5562 512 CircleF
5565 512 CircleF
5568 810 CircleF
5571 512 CircleF
5574 888 CircleF
5577 810 CircleF
5580 700 CircleF
5583 512 CircleF
5586 512 CircleF
5588 888 CircleF
5591 700 CircleF
5594 810 CircleF
5597 512 CircleF
5600 888 CircleF
5603 512 CircleF
5609 1075 CircleF
5612 810 CircleF
5615 810 CircleF
5618 512 CircleF
5624 888 CircleF
5626 700 CircleF
5632 512 CircleF
5635 997 CircleF
5638 948 CircleF
5641 512 CircleF
5644 512 CircleF
5647 700 CircleF
5650 888 CircleF
5653 700 CircleF
5659 512 CircleF
5661 512 CircleF
5664 700 CircleF
5667 512 CircleF
5670 700 CircleF
5673 512 CircleF
5676 512 CircleF
5679 700 CircleF
5682 512 CircleF
5685 700 CircleF
5688 512 CircleF
5691 512 CircleF
5694 700 CircleF
5696 512 CircleF
5699 512 CircleF
5705 512 CircleF
5708 512 CircleF
5714 810 CircleF
5717 700 CircleF
5720 512 CircleF
5723 810 CircleF
5726 700 CircleF
5729 512 CircleF
5732 512 CircleF
5734 700 CircleF
5737 888 CircleF
5740 512 CircleF
5743 700 CircleF
5746 700 CircleF
5749 512 CircleF
5752 948 CircleF
5755 810 CircleF
5758 512 CircleF
5767 512 CircleF
5769 700 CircleF
5772 810 CircleF
5775 512 CircleF
5778 700 CircleF
5781 512 CircleF
5790 512 CircleF
5793 700 CircleF
5796 888 CircleF
5799 810 CircleF
5805 512 CircleF
5807 810 CircleF
5810 512 CircleF
5813 888 CircleF
5816 700 CircleF
5819 512 CircleF
5822 700 CircleF
5828 810 CircleF
5831 512 CircleF
5834 512 CircleF
5837 512 CircleF
5842 700 CircleF
5851 700 CircleF
5854 700 CircleF
5857 512 CircleF
5860 512 CircleF
5869 512 CircleF
5872 512 CircleF
5875 512 CircleF
5877 512 CircleF
5886 512 CircleF
5892 888 CircleF
5898 700 CircleF
5901 512 CircleF
5904 512 CircleF
5907 512 CircleF
5910 512 CircleF
5913 512 CircleF
5924 512 CircleF
5927 512 CircleF
5933 512 CircleF
5939 700 CircleF
5942 700 CircleF
5956 512 CircleF
5965 700 CircleF
5968 512 CircleF
5991 512 CircleF
5994 700 CircleF
6006 512 CircleF
6009 512 CircleF
6018 512 CircleF
6021 512 CircleF
6023 512 CircleF
6050 512 CircleF
6053 512 CircleF
6059 512 CircleF
6061 512 CircleF
6070 512 CircleF
6079 700 CircleF
6082 512 CircleF
6088 810 CircleF
6094 512 CircleF
6099 512 CircleF
6102 512 CircleF
6117 512 CircleF
6120 512 CircleF
6126 512 CircleF
6131 512 CircleF
6137 512 CircleF
6140 700 CircleF
6143 810 CircleF
6146 512 CircleF
6149 512 CircleF
6158 700 CircleF
6172 700 CircleF
6178 512 CircleF
6187 512 CircleF
6202 512 CircleF
6216 700 CircleF
6231 512 CircleF
6257 700 CircleF
6260 512 CircleF
6263 512 CircleF
6266 512 CircleF
6269 512 CircleF
6272 512 CircleF
6280 512 CircleF
6289 512 CircleF
6298 700 CircleF
6301 512 CircleF
6345 512 CircleF
6348 512 CircleF
6350 512 CircleF
6362 512 CircleF
6371 700 CircleF
6374 512 CircleF
6380 512 CircleF
6383 512 CircleF
6385 700 CircleF
6391 512 CircleF
6394 700 CircleF
6397 810 CircleF
6400 700 CircleF
6406 700 CircleF
6409 512 CircleF
6412 948 CircleF
6415 888 CircleF
6418 512 CircleF
6421 512 CircleF
6423 810 CircleF
6426 810 CircleF
6429 512 CircleF
6432 512 CircleF
6435 948 CircleF
6438 700 CircleF
6441 512 CircleF
6444 700 CircleF
6453 700 CircleF
6456 512 CircleF
6458 700 CircleF
6473 512 CircleF
6479 512 CircleF
6485 810 CircleF
6488 700 CircleF
6491 810 CircleF
6494 888 CircleF
6499 512 CircleF
6505 512 CircleF
6508 512 CircleF
6511 700 CircleF
6514 512 CircleF
6517 700 CircleF
6520 700 CircleF
6523 888 CircleF
6526 810 CircleF
6529 810 CircleF
6534 700 CircleF
6537 810 CircleF
6540 810 CircleF
6546 700 CircleF
6549 700 CircleF
6552 512 CircleF
6558 700 CircleF
6566 512 CircleF
% End plot #1
2.000 UL
LTb
LCb setrgbcolor
1.000 UL
LTB
LCb setrgbcolor
1072 4879 N
0 -4367 V
5839 0 V
0 4367 V
-5839 0 V
Z stroke
1.000 UP
1.000 UL
LTb
LCb setrgbcolor
stroke
grestore
end
showpage
%%Trailer
%%DocumentFonts: Helvetica
