0	3786929
1	3590092
2	3141267
3	2688592
4	2264012
5	1879124
6	1547376
7	1265019
8	1031233
9	835912
10	681226
11	559336
12	462500
13	382378
14	320118
15	269957
16	231751
17	198425
18	173209
19	152659
20	135158
21	120790
22	107857
23	97837
24	89735
25	82248
26	75991
27	70938
28	66134
29	61885
30	58200
31	54099
32	51463
33	48915
34	46319
35	44472
36	42556
37	40935
38	39534
39	38234
40	36407
41	35424
42	34327
43	32555
44	31490
45	30947
46	29622
47	28676
48	27630
49	26876
50	26595
51	25899
52	25432
53	24424
54	23935
55	23348
56	23466
57	22653
58	21975
59	21749
60	21506
61	21098
62	20953
63	20087
64	19790
65	19559
66	19118
67	19435
68	19293
69	18554
70	18311
71	18072
72	17924
73	17554
74	17811
75	17214
76	17406
77	17129
78	16916
79	16950
80	17208
81	16895
82	16868
83	16612
84	16622
85	16388
86	16365
87	16412
88	16294
89	16314
90	16253
91	16276
92	16313
93	16612
94	16322
95	16094
96	16151
97	16330
98	16469
99	16369
100	16275
101	16142
102	16327
103	15968
104	16328
105	15991
106	16110
107	16156
108	16006
109	16209
110	16166
111	16418
112	16438
113	16439
114	16256
115	16693
116	16777
117	16889
118	16653
119	16798
120	17070
121	17141
122	16477
123	16525
124	17089
125	16938
126	17034
127	17119
128	17104
129	17372
130	17026
131	17419
132	16914
133	16670
134	16873
135	16568
136	17114
137	16991
138	16764
139	16707
140	16745
141	16700
142	16880
143	16722
144	16890
145	16700
146	16538
147	16714
148	16338
149	16178
150	16073
151	16325
152	16007
153	16186
154	16312
155	16119
156	16106
157	16150
158	15901
159	15920
160	15833
161	15561
162	15383
163	15224
164	15220
165	15125
166	15211
167	14772
168	14796
169	14916
170	14283
171	14372
172	14093
173	13773
174	13683
175	13716
176	13540
177	13075
178	13179
179	12819
180	12762
181	12947
182	12737
183	12689
184	12218
185	12086
186	12052
187	11874
188	11612
189	11452
190	11292
191	11178
192	10967
193	11131
194	10924
195	10622
196	10447
197	10206
198	10210
199	9827
200	9349
201	9393
202	9430
203	9434
204	9296
205	8893
206	8730
207	8668
208	8387
209	8195
210	8079
211	7987
212	7925
213	7556
214	7421
215	7408
216	7314
217	7260
218	7247
219	7043
220	6830
221	6557
222	6669
223	6514
224	6400
225	6185
226	6000
227	5747
228	5810
229	5840
230	5639
231	5322
232	5383
233	5330
234	5155
235	4965
236	4945
237	4802
238	4798
239	4627
240	4696
241	4687
242	4555
243	4490
244	4442
245	4355
246	4272
247	4353
248	4184
249	4191
250	3887
251	3931
252	3786
253	3802
254	3822
255	3699
256	3661
257	3636
258	3470
259	3434
260	3351
261	3172
262	3091
263	3063
264	3217
265	3157
266	3194
267	2961
268	3001
269	2838
270	2968
271	2867
272	2807
273	2818
274	2714
275	2579
276	2682
277	2568
278	2621
279	2483
280	2392
281	2395
282	2467
283	2357
284	2370
285	2348
286	2375
287	2325
288	2319
289	2355
290	2174
291	2065
292	2066
293	2001
294	2008
295	2036
296	2001
297	1979
298	1938
299	1906
300	1975
301	1850
302	1766
303	1805
304	1841
305	1795
306	1863
307	1722
308	1721
309	1607
310	1651
311	1645
312	1605
313	1756
314	1601
315	1621
316	1604
317	1694
318	1527
319	1519
320	1503
321	1427
322	1399
323	1470
324	1544
325	1450
326	1437
327	1427
328	1304
329	1396
330	1356
331	1315
332	1277
333	1303
334	1330
335	1247
336	1259
337	1293
338	1294
339	1360
340	1334
341	1183
342	1201
343	1223
344	1207
345	1114
346	1118
347	1134
348	1142
349	1236
350	1111
351	1101
352	1082
353	1055
354	1030
355	1053
356	1131
357	1067
358	1216
359	1173
360	1098
361	1145
362	1065
363	1094
364	1182
365	1118
366	1147
367	1090
368	1089
369	1069
370	1137
371	1034
372	1083
373	1044
374	1067
375	1021
376	1028
377	1081
378	1036
379	923
380	1004
381	1009
382	982
383	962
384	1036
385	1065
386	1074
387	910
388	883
389	889
390	894
391	1015
392	921
393	833
394	862
395	857
396	885
397	888
398	935
399	886
400	833
401	857
402	902
403	871
404	876
405	849
406	865
407	908
408	851
409	862
410	807
411	724
412	796
413	793
414	771
415	779
416	738
417	770
418	732
419	793
420	731
421	704
422	646
423	714
424	676
425	665
426	696
427	645
428	649
429	699
430	704
431	767
432	713
433	674
434	708
435	639
436	661
437	638
438	615
439	642
440	640
441	697
442	669
443	680
444	705
445	624
446	611
447	573
448	550
449	568
450	547
451	567
452	572
453	554
454	560
455	598
456	577
457	568
458	560
459	534
460	583
461	590
462	515
463	567
464	612
465	618
466	598
467	592
468	621
469	537
470	577
471	561
472	518
473	561
474	527
475	599
476	578
477	508
478	546
479	592
480	567
481	541
482	538
483	534
484	518
485	502
486	470
487	471
488	488
489	447
490	465
491	463
492	471
493	506
494	491
495	420
496	454
497	448
498	449
499	451
500	679
501	606
502	414
503	376
504	410
505	361
506	355
507	297
508	356
509	345
510	356
511	408
512	345
513	382
514	343
515	348
516	316
517	337
518	327
519	345
520	326
521	332
522	302
523	291
524	313
525	325
526	270
527	308
528	243
529	282
530	273
531	276
532	317
533	297
534	300
535	284
536	302
537	274
538	255
539	272
540	263
541	297
542	303
543	310
544	278
545	282
546	323
547	295
548	267
549	268
550	273
551	314
552	286
553	281
554	281
555	323
556	258
557	259
558	288
559	233
560	235
561	246
562	224
563	254
564	258
565	276
566	218
567	254
568	268
569	228
570	196
571	164
572	199
573	221
574	213
575	217
576	208
577	183
578	186
579	218
580	195
581	230
582	198
583	191
584	226
585	214
586	195
587	215
588	196
589	201
590	181
591	176
592	174
593	197
594	155
595	186
596	175
597	220
598	201
599	204
600	202
601	212
602	216
603	188
604	183
605	191
606	211
607	180
608	190
609	194
610	231
611	202
612	185
613	178
614	154
615	173
616	180
617	210
618	193
619	200
620	210
621	217
622	226
623	243
624	199
625	216
626	204
627	187
628	230
629	191
630	198
631	179
632	196
633	202
634	165
635	172
636	198
637	198
638	171
639	183
640	157
641	151
642	137
643	152
644	139
645	169
646	170
647	134
648	177
649	179
650	125
651	132
652	137
653	147
654	150
655	168
656	139
657	167
658	159
659	160
660	156
661	162
662	154
663	163
664	170
665	150
666	148
667	174
668	142
669	151
670	148
671	139
672	151
673	134
674	110
675	120
676	99
677	118
678	128
679	142
680	128
681	140
682	139
683	121
684	115
685	113
686	120
687	126
688	96
689	97
690	127
691	99
692	133
693	121
694	99
695	124
696	127
697	114
698	117
699	128
700	117
701	107
702	131
703	138
704	116
705	104
706	92
707	96
708	109
709	72
710	86
711	97
712	92
713	101
714	108
715	96
716	115
717	111
718	106
719	118
720	99
721	112
722	92
723	92
724	86
725	91
726	101
727	90
728	90
729	79
730	84
731	100
732	111
733	86
734	110
735	114
736	137
737	87
738	109
739	91
740	82
741	111
742	109
743	91
744	103
745	102
746	105
747	97
748	108
749	105
750	72
751	99
752	101
753	86
754	77
755	90
756	83
757	80
758	66
759	65
760	67
761	71
762	84
763	91
764	86
765	77
766	77
767	68
768	78
769	69
770	62
771	78
772	73
773	80
774	70
775	77
776	67
777	74
778	83
779	70
780	92
781	83
782	103
783	104
784	85
785	94
786	117
787	67
788	68
789	46
790	55
791	48
792	56
793	61
794	65
795	63
796	43
797	79
798	72
799	58
800	51
801	65
802	53
803	52
804	51
805	49
806	82
807	76
808	90
809	100
810	83
811	78
812	66
813	67
814	81
815	89
816	47
817	44
818	53
819	51
820	45
821	43
822	54
823	50
824	55
825	58
826	46
827	44
828	39
829	47
830	35
831	53
832	48
833	50
834	54
835	39
836	47
837	41
838	51
839	42
840	48
841	41
842	43
843	61
844	61
845	50
846	44
847	48
848	59
849	43
850	65
851	44
852	52
853	49
854	55
855	53
856	57
857	55
858	46
859	50
860	49
861	67
862	57
863	61
864	75
865	65
866	64
867	64
868	56
869	46
870	60
871	39
872	67
873	59
874	44
875	46
876	60
877	63
878	58
879	48
880	62
881	52
882	63
883	62
884	40
885	32
886	45
887	37
888	37
889	38
890	40
891	27
892	26
893	33
894	31
895	26
896	27
897	30
898	23
899	47
900	43
901	30
902	28
903	25
904	34
905	35
906	33
907	46
908	27
909	21
910	30
911	30
912	22
913	17
914	14
915	14
916	16
917	21
918	14
919	12
920	16
921	15
922	12
923	17
924	10
925	16
926	15
927	8
928	15
929	16
930	24
931	25
932	17
933	17
934	9
935	8
936	18
937	26
938	15
939	19
940	14
941	22
942	15
943	25
944	15
945	19
946	13
947	13
948	13
949	15
950	17
951	18
952	9
953	11
954	19
955	14
956	20
957	19
958	16
959	20
960	15
961	23
962	20
963	32
964	15
965	16
966	17
967	19
968	20
969	15
970	28
971	16
972	21
973	19
974	16
975	13
976	11
977	18
978	16
979	6
980	14
981	7
982	6
983	5
984	5
985	6
986	9
987	7
988	8
989	6
990	2
991	16
992	7
993	5
994	4
995	4
996	4
997	3
998	4
999	3
1000	4
1001	4
1002	3
1003	2
1004	5
1005	4
1006	8
1007	3
1008	3
1009	5
1010	5
1011	6
1012	2
1013	6
1014	6
1015	4
1016	8
1017	10
1018	9
1019	9
1020	3
1021	6
1022	8
1023	13
1024	2
1025	6
1026	7
1027	4
1028	8
1029	6
1030	9
1031	11
1032	7
1033	4
1034	8
1035	6
1036	4
1037	6
1038	10
1039	6
1040	9
1041	5
1042	6
1043	7
1044	4
1045	6
1046	8
1047	6
1048	6
1049	11
1050	4
1051	8
1052	10
1053	11
1054	15
1055	21
1056	12
1057	11
1058	10
1059	6
1060	5
1061	14
1062	14
1063	17
1064	18
1065	27
1066	19
1067	22
1068	45
1069	18
1070	18
1071	26
1072	23
1073	24
1074	24
1075	23
1076	14
1077	27
1078	15
1079	21
1080	22
1081	23
1082	20
1083	11
1084	29
1085	8
1086	13
1087	8
1088	7
1089	11
1090	12
1091	11
1092	10
1093	9
1094	12
1095	6
1096	11
1097	6
1098	13
1099	12
1100	11
1101	7
1102	10
1103	10
1104	17
1105	9
1106	13
1107	12
1108	8
1109	8
1110	8
1111	6
1112	8
1113	3
1114	7
1115	1
1116	5
1117	4
1118	3
1119	6
1120	3
1121	12
1122	9
1123	5
1124	4
1125	9
1126	5
1127	11
1128	7
1129	2
1130	7
1131	3
1132	4
1133	5
1134	1
1135	5
1136	5
1137	7
1138	6
1139	4
1140	7
1141	7
1142	7
1143	7
1144	13
1145	6
1146	13
1147	15
1148	9
1149	11
1150	16
1151	12
1152	11
1153	15
1154	9
1155	14
1156	7
1157	14
1158	13
1159	8
1160	11
1161	11
1162	11
1163	8
1164	13
1165	13
1166	7
1167	4
1168	10
1169	6
1170	5
1171	6
1172	6
1173	5
1174	7
1175	3
1176	3
1177	4
1178	5
1179	5
1180	7
1181	3
1182	6
1183	4
1184	7
1185	6
1186	2
1187	3
1188	2
1189	3
1190	4
1191	5
1192	2
1193	1
1194	2
1195	3
1196	7
1197	3
1198	1
1199	5
1200	3
1201	1
1202	8
1203	4
1204	5
1205	6
1206	5
1207	10
1208	2
1209	7
1210	6
1211	8
1212	10
1213	6
1214	3
1215	5
1216	9
1218	4
1219	5
1220	4
1221	2
1222	7
1223	6
1224	2
1225	4
1226	5
1227	3
1228	4
1229	4
1230	5
1231	4
1232	2
1233	2
1234	5
1235	6
1236	3
1237	8
1238	6
1239	3
1240	6
1241	5
1242	9
1243	6
1244	8
1245	8
1246	2
1247	6
1248	2
1249	4
1250	4
1251	7
1252	2
1253	2
1254	2
1255	6
1256	4
1257	6
1258	9
1259	10
1260	6
1261	3
1262	7
1263	7
1264	4
1265	11
1266	7
1267	5
1268	6
1269	2
1270	11
1271	9
1272	9
1273	15
1274	10
1275	16
1276	17
1277	9
1278	16
1279	11
1280	13
1281	8
1282	15
1283	11
1284	16
1285	17
1286	16
1287	17
1288	8
1289	8
1290	11
1291	13
1292	17
1293	19
1294	18
1295	14
1296	11
1297	10
1298	13
1299	6
1300	11
1301	6
1302	14
1303	12
1304	14
1305	10
1306	12
1307	9
1308	14
1309	5
1310	13
1311	11
1312	17
1313	15
1314	10
1315	15
1316	10
1317	17
1318	8
1319	7
1320	11
1321	9
1322	4
1323	12
1324	7
1325	10
1326	5
1327	4
1328	6
1329	3
1330	8
1331	6
1332	6
1333	6
1334	12
1335	7
1336	9
1337	12
1338	10
1339	2
1340	6
1341	10
1342	6
1343	8
1344	5
1345	9
1346	7
1347	11
1348	9
1349	6
1350	14
1351	12
1352	15
1353	17
1354	10
1355	9
1356	7
1357	22
1358	15
1359	18
1360	20
1361	25
1362	22
1363	25
1364	14
1365	9
1366	13
1367	13
1368	7
1369	11
1370	7
1371	10
1372	8
1373	5
1374	2
1375	6
1376	7
1377	3
1378	7
1379	3
1380	6
1381	9
1382	4
1383	7
1384	4
1385	5
1386	2
1387	6
1388	2
1389	6
1390	3
1391	8
1392	3
1393	4
1394	4
1395	1
1396	6
1397	2
1398	6
1399	8
1400	5
1401	4
1402	11
1403	2
1404	4
1405	4
1406	7
1407	8
1408	9
1409	1
1410	4
1411	2
1412	7
1413	3
1414	6
1415	5
1416	3
1417	7
1418	4
1419	4
1420	2
1423	5
1424	4
1425	5
1426	4
1427	4
1428	4
1429	2
1430	3
1431	4
1432	2
1433	2
1434	4
1435	1
1436	1
1439	2
1440	3
1441	3
1442	3
1443	1
1444	3
1445	2
1446	1
1447	2
1448	4
1449	2
1450	1
1451	1
1452	5
1453	2
1454	2
1455	1
1456	4
1457	1
1458	1
1459	1
1460	1
1461	3
1462	2
1463	1
1464	4
1465	1
1466	2
1467	1
1469	3
1470	3
1474	1
1475	3
1477	2
1478	2
1479	1
1482	1
1483	1
1484	1
1485	4
1486	2
1487	3
1488	1
1489	3
1490	3
1491	4
1492	1
1493	1
1494	3
1495	2
1496	2
1497	2
1498	2
1499	4
1500	2
1501	3
1502	3
1503	1
1505	5
1506	1
1507	4
1508	3
1509	3
1510	4
1511	3
1512	2
1513	5
1514	4
1515	6
1516	2
1517	2
1518	2
1519	6
1520	5
1521	3
1522	3
1523	5
1524	3
1525	1
1527	2
1528	3
1530	6
1531	1
1532	5
1533	3
1534	1
1536	3
1537	2
1538	3
1539	2
1540	5
1541	2
1544	7
1545	1
1547	2
1548	2
1549	3
1550	1
1551	3
1552	1
1553	4
1554	4
1555	1
1556	3
1557	2
1558	3
1560	1
1561	3
1562	1
1563	1
1564	1
1565	1
1566	1
1567	3
1568	2
1569	1
1571	1
1572	2
1574	1
1575	1
1576	1
1578	2
1579	3
1581	2
1582	5
1583	1
1585	1
1586	3
1587	5
1588	1
1589	2
1590	2
1591	1
1592	5
1593	1
1594	2
1596	1
1597	2
1598	3
1600	2
1602	2
1603	1
1604	4
1605	3
1606	1
1607	2
1608	2
1609	1
1610	1
1611	1
1612	2
1613	4
1614	2
1615	1
1617	2
1618	1
1620	1
1621	1
1623	2
1624	2
1625	1
1626	1
1627	1
1629	2
1630	1
1635	1
1636	2
1637	2
1639	2
1640	2
1641	1
1643	1
1644	1
1648	2
1651	2
1653	2
1656	1
1658	1
1662	2
1664	1
1671	1
1672	1
1674	1
1676	1
1677	1
1680	1
1681	1
1682	1
1691	1
1692	1
1694	1
1695	1
1698	1
1699	2
1700	1
1703	1
1704	2
1706	1
1708	1
1709	1
1714	1
1715	1
1718	1
1720	1
1722	3
1723	2
1724	1
1725	2
1728	1
1732	2
1734	1
1735	1
1743	1
1744	1
1748	1
1753	1
1759	1
1760	1
1761	1
1762	1
1764	1
1766	1
1767	1
1769	2
1776	2
1777	1
1790	1
1792	2
1793	1
1797	1
1800	1
1801	1
1802	1
1804	2
1805	1
1807	1
1808	2
1809	3
1810	1
1811	1
1812	1
1813	1
1814	4
1815	3
1816	3
1817	2
1818	1
1819	3
1820	2
1821	2
1822	3
1823	2
1824	4
1825	1
1828	1
1829	2
1831	2
1836	1
1838	2
1839	2
1840	2
1841	4
1842	3
1844	1
1847	2
1848	2
1849	1
1850	1
1851	2
1852	3
1853	5
1854	3
1855	1
1856	2
1857	4
1858	1
1859	1
1861	1
1862	2
1863	2
1864	1
1867	1
