200	0.932199	0.923899802458105	0.940498197541895
250	0.932199	0.783899802458105	0.970498197541895
350	0.932199	0.653899802458105	0.980498197541895
400	1.34554	1.33937679859538	1.35170320140462
600	1.769334	1.76097865226	1.77768934774
800	2.217794	2.20207843020603	2.23350956979397
1000	2.678404	2.66649487393784	2.69031312606216
1200	3.177646	3.16929026028973	3.18600173971027
1400	3.824812	3.79507717899281	3.85454682100719
1600	4.351686	4.32322771634508	4.38014428365492
1800	5.51644	5.49522112142947	5.53765887857053
2000	6.114232	6.08246100756726	6.14600299243274

