%!PS-Adobe-2.0 EPSF-2.0
%%Title: nbrDist.eps
%%Creator: gnuplot 4.6 patchlevel 2
%%CreationDate: Thu Sep 19 11:15:24 2019
%%DocumentFonts: (atend)
%%BoundingBox: 50 50 410 302
%%EndComments
%%BeginProlog
/gnudict 256 dict def
gnudict begin
%
% The following true/false flags may be edited by hand if desired.
% The unit line width and grayscale image gamma correction may also be changed.
%
/Color true def
/Blacktext false def
/Solid false def
/Dashlength 1 def
/Landscape false def
/Level1 false def
/Rounded false def
/ClipToBoundingBox false def
/SuppressPDFMark false def
/TransparentPatterns false def
/gnulinewidth 5.000 def
/userlinewidth gnulinewidth def
/Gamma 1.0 def
/BackgroundColor {-1.000 -1.000 -1.000} def
%
/vshift -53 def
/dl1 {
  10.0 Dashlength mul mul
  Rounded { currentlinewidth 0.75 mul sub dup 0 le { pop 0.01 } if } if
} def
/dl2 {
  10.0 Dashlength mul mul
  Rounded { currentlinewidth 0.75 mul add } if
} def
/hpt_ 31.5 def
/vpt_ 31.5 def
/hpt hpt_ def
/vpt vpt_ def
/doclip {
  ClipToBoundingBox {
    newpath 50 50 moveto 410 50 lineto 410 302 lineto 50 302 lineto closepath
    clip
  } if
} def
%
% Gnuplot Prolog Version 4.6 (September 2012)
%
%/SuppressPDFMark true def
%
/M {moveto} bind def
/L {lineto} bind def
/R {rmoveto} bind def
/V {rlineto} bind def
/N {newpath moveto} bind def
/Z {closepath} bind def
/C {setrgbcolor} bind def
/f {rlineto fill} bind def
/g {setgray} bind def
/Gshow {show} def   % May be redefined later in the file to support UTF-8
/vpt2 vpt 2 mul def
/hpt2 hpt 2 mul def
/Lshow {currentpoint stroke M 0 vshift R 
	Blacktext {gsave 0 setgray show grestore} {show} ifelse} def
/Rshow {currentpoint stroke M dup stringwidth pop neg vshift R
	Blacktext {gsave 0 setgray show grestore} {show} ifelse} def
/Cshow {currentpoint stroke M dup stringwidth pop -2 div vshift R 
	Blacktext {gsave 0 setgray show grestore} {show} ifelse} def
/UP {dup vpt_ mul /vpt exch def hpt_ mul /hpt exch def
  /hpt2 hpt 2 mul def /vpt2 vpt 2 mul def} def
/DL {Color {setrgbcolor Solid {pop []} if 0 setdash}
 {pop pop pop 0 setgray Solid {pop []} if 0 setdash} ifelse} def
/BL {stroke userlinewidth 2 mul setlinewidth
	Rounded {1 setlinejoin 1 setlinecap} if} def
/AL {stroke userlinewidth 2 div setlinewidth
	Rounded {1 setlinejoin 1 setlinecap} if} def
/UL {dup gnulinewidth mul /userlinewidth exch def
	dup 1 lt {pop 1} if 10 mul /udl exch def} def
/PL {stroke userlinewidth setlinewidth
	Rounded {1 setlinejoin 1 setlinecap} if} def
3.8 setmiterlimit
% Default Line colors
/LCw {1 1 1} def
/LCb {0 0 0} def
/LCa {0 0 0} def
/LC0 {1 0 0} def
/LC1 {0 1 0} def
/LC2 {0 0 1} def
/LC3 {1 0 1} def
/LC4 {0 1 1} def
/LC5 {1 1 0} def
/LC6 {0 0 0} def
/LC7 {1 0.3 0} def
/LC8 {0.5 0.5 0.5} def
% Default Line Types
/LTw {PL [] 1 setgray} def
/LTb {BL [] LCb DL} def
/LTa {AL [1 udl mul 2 udl mul] 0 setdash LCa setrgbcolor} def
/LT0 {PL [] LC0 DL} def
/LT1 {PL [4 dl1 2 dl2] LC1 DL} def
/LT2 {PL [2 dl1 3 dl2] LC2 DL} def
/LT3 {PL [1 dl1 1.5 dl2] LC3 DL} def
/LT4 {PL [6 dl1 2 dl2 1 dl1 2 dl2] LC4 DL} def
/LT5 {PL [3 dl1 3 dl2 1 dl1 3 dl2] LC5 DL} def
/LT6 {PL [2 dl1 2 dl2 2 dl1 6 dl2] LC6 DL} def
/LT7 {PL [1 dl1 2 dl2 6 dl1 2 dl2 1 dl1 2 dl2] LC7 DL} def
/LT8 {PL [2 dl1 2 dl2 2 dl1 2 dl2 2 dl1 2 dl2 2 dl1 4 dl2] LC8 DL} def
/Pnt {stroke [] 0 setdash gsave 1 setlinecap M 0 0 V stroke grestore} def
/Dia {stroke [] 0 setdash 2 copy vpt add M
  hpt neg vpt neg V hpt vpt neg V
  hpt vpt V hpt neg vpt V closepath stroke
  Pnt} def
/Pls {stroke [] 0 setdash vpt sub M 0 vpt2 V
  currentpoint stroke M
  hpt neg vpt neg R hpt2 0 V stroke
 } def
/Box {stroke [] 0 setdash 2 copy exch hpt sub exch vpt add M
  0 vpt2 neg V hpt2 0 V 0 vpt2 V
  hpt2 neg 0 V closepath stroke
  Pnt} def
/Crs {stroke [] 0 setdash exch hpt sub exch vpt add M
  hpt2 vpt2 neg V currentpoint stroke M
  hpt2 neg 0 R hpt2 vpt2 V stroke} def
/TriU {stroke [] 0 setdash 2 copy vpt 1.12 mul add M
  hpt neg vpt -1.62 mul V
  hpt 2 mul 0 V
  hpt neg vpt 1.62 mul V closepath stroke
  Pnt} def
/Star {2 copy Pls Crs} def
/BoxF {stroke [] 0 setdash exch hpt sub exch vpt add M
  0 vpt2 neg V hpt2 0 V 0 vpt2 V
  hpt2 neg 0 V closepath fill} def
/TriUF {stroke [] 0 setdash vpt 1.12 mul add M
  hpt neg vpt -1.62 mul V
  hpt 2 mul 0 V
  hpt neg vpt 1.62 mul V closepath fill} def
/TriD {stroke [] 0 setdash 2 copy vpt 1.12 mul sub M
  hpt neg vpt 1.62 mul V
  hpt 2 mul 0 V
  hpt neg vpt -1.62 mul V closepath stroke
  Pnt} def
/TriDF {stroke [] 0 setdash vpt 1.12 mul sub M
  hpt neg vpt 1.62 mul V
  hpt 2 mul 0 V
  hpt neg vpt -1.62 mul V closepath fill} def
/DiaF {stroke [] 0 setdash vpt add M
  hpt neg vpt neg V hpt vpt neg V
  hpt vpt V hpt neg vpt V closepath fill} def
/Pent {stroke [] 0 setdash 2 copy gsave
  translate 0 hpt M 4 {72 rotate 0 hpt L} repeat
  closepath stroke grestore Pnt} def
/PentF {stroke [] 0 setdash gsave
  translate 0 hpt M 4 {72 rotate 0 hpt L} repeat
  closepath fill grestore} def
/Circle {stroke [] 0 setdash 2 copy
  hpt 0 360 arc stroke Pnt} def
/CircleF {stroke [] 0 setdash hpt 0 360 arc fill} def
/C0 {BL [] 0 setdash 2 copy moveto vpt 90 450 arc} bind def
/C1 {BL [] 0 setdash 2 copy moveto
	2 copy vpt 0 90 arc closepath fill
	vpt 0 360 arc closepath} bind def
/C2 {BL [] 0 setdash 2 copy moveto
	2 copy vpt 90 180 arc closepath fill
	vpt 0 360 arc closepath} bind def
/C3 {BL [] 0 setdash 2 copy moveto
	2 copy vpt 0 180 arc closepath fill
	vpt 0 360 arc closepath} bind def
/C4 {BL [] 0 setdash 2 copy moveto
	2 copy vpt 180 270 arc closepath fill
	vpt 0 360 arc closepath} bind def
/C5 {BL [] 0 setdash 2 copy moveto
	2 copy vpt 0 90 arc
	2 copy moveto
	2 copy vpt 180 270 arc closepath fill
	vpt 0 360 arc} bind def
/C6 {BL [] 0 setdash 2 copy moveto
	2 copy vpt 90 270 arc closepath fill
	vpt 0 360 arc closepath} bind def
/C7 {BL [] 0 setdash 2 copy moveto
	2 copy vpt 0 270 arc closepath fill
	vpt 0 360 arc closepath} bind def
/C8 {BL [] 0 setdash 2 copy moveto
	2 copy vpt 270 360 arc closepath fill
	vpt 0 360 arc closepath} bind def
/C9 {BL [] 0 setdash 2 copy moveto
	2 copy vpt 270 450 arc closepath fill
	vpt 0 360 arc closepath} bind def
/C10 {BL [] 0 setdash 2 copy 2 copy moveto vpt 270 360 arc closepath fill
	2 copy moveto
	2 copy vpt 90 180 arc closepath fill
	vpt 0 360 arc closepath} bind def
/C11 {BL [] 0 setdash 2 copy moveto
	2 copy vpt 0 180 arc closepath fill
	2 copy moveto
	2 copy vpt 270 360 arc closepath fill
	vpt 0 360 arc closepath} bind def
/C12 {BL [] 0 setdash 2 copy moveto
	2 copy vpt 180 360 arc closepath fill
	vpt 0 360 arc closepath} bind def
/C13 {BL [] 0 setdash 2 copy moveto
	2 copy vpt 0 90 arc closepath fill
	2 copy moveto
	2 copy vpt 180 360 arc closepath fill
	vpt 0 360 arc closepath} bind def
/C14 {BL [] 0 setdash 2 copy moveto
	2 copy vpt 90 360 arc closepath fill
	vpt 0 360 arc} bind def
/C15 {BL [] 0 setdash 2 copy vpt 0 360 arc closepath fill
	vpt 0 360 arc closepath} bind def
/Rec {newpath 4 2 roll moveto 1 index 0 rlineto 0 exch rlineto
	neg 0 rlineto closepath} bind def
/Square {dup Rec} bind def
/Bsquare {vpt sub exch vpt sub exch vpt2 Square} bind def
/S0 {BL [] 0 setdash 2 copy moveto 0 vpt rlineto BL Bsquare} bind def
/S1 {BL [] 0 setdash 2 copy vpt Square fill Bsquare} bind def
/S2 {BL [] 0 setdash 2 copy exch vpt sub exch vpt Square fill Bsquare} bind def
/S3 {BL [] 0 setdash 2 copy exch vpt sub exch vpt2 vpt Rec fill Bsquare} bind def
/S4 {BL [] 0 setdash 2 copy exch vpt sub exch vpt sub vpt Square fill Bsquare} bind def
/S5 {BL [] 0 setdash 2 copy 2 copy vpt Square fill
	exch vpt sub exch vpt sub vpt Square fill Bsquare} bind def
/S6 {BL [] 0 setdash 2 copy exch vpt sub exch vpt sub vpt vpt2 Rec fill Bsquare} bind def
/S7 {BL [] 0 setdash 2 copy exch vpt sub exch vpt sub vpt vpt2 Rec fill
	2 copy vpt Square fill Bsquare} bind def
/S8 {BL [] 0 setdash 2 copy vpt sub vpt Square fill Bsquare} bind def
/S9 {BL [] 0 setdash 2 copy vpt sub vpt vpt2 Rec fill Bsquare} bind def
/S10 {BL [] 0 setdash 2 copy vpt sub vpt Square fill 2 copy exch vpt sub exch vpt Square fill
	Bsquare} bind def
/S11 {BL [] 0 setdash 2 copy vpt sub vpt Square fill 2 copy exch vpt sub exch vpt2 vpt Rec fill
	Bsquare} bind def
/S12 {BL [] 0 setdash 2 copy exch vpt sub exch vpt sub vpt2 vpt Rec fill Bsquare} bind def
/S13 {BL [] 0 setdash 2 copy exch vpt sub exch vpt sub vpt2 vpt Rec fill
	2 copy vpt Square fill Bsquare} bind def
/S14 {BL [] 0 setdash 2 copy exch vpt sub exch vpt sub vpt2 vpt Rec fill
	2 copy exch vpt sub exch vpt Square fill Bsquare} bind def
/S15 {BL [] 0 setdash 2 copy Bsquare fill Bsquare} bind def
/D0 {gsave translate 45 rotate 0 0 S0 stroke grestore} bind def
/D1 {gsave translate 45 rotate 0 0 S1 stroke grestore} bind def
/D2 {gsave translate 45 rotate 0 0 S2 stroke grestore} bind def
/D3 {gsave translate 45 rotate 0 0 S3 stroke grestore} bind def
/D4 {gsave translate 45 rotate 0 0 S4 stroke grestore} bind def
/D5 {gsave translate 45 rotate 0 0 S5 stroke grestore} bind def
/D6 {gsave translate 45 rotate 0 0 S6 stroke grestore} bind def
/D7 {gsave translate 45 rotate 0 0 S7 stroke grestore} bind def
/D8 {gsave translate 45 rotate 0 0 S8 stroke grestore} bind def
/D9 {gsave translate 45 rotate 0 0 S9 stroke grestore} bind def
/D10 {gsave translate 45 rotate 0 0 S10 stroke grestore} bind def
/D11 {gsave translate 45 rotate 0 0 S11 stroke grestore} bind def
/D12 {gsave translate 45 rotate 0 0 S12 stroke grestore} bind def
/D13 {gsave translate 45 rotate 0 0 S13 stroke grestore} bind def
/D14 {gsave translate 45 rotate 0 0 S14 stroke grestore} bind def
/D15 {gsave translate 45 rotate 0 0 S15 stroke grestore} bind def
/DiaE {stroke [] 0 setdash vpt add M
  hpt neg vpt neg V hpt vpt neg V
  hpt vpt V hpt neg vpt V closepath stroke} def
/BoxE {stroke [] 0 setdash exch hpt sub exch vpt add M
  0 vpt2 neg V hpt2 0 V 0 vpt2 V
  hpt2 neg 0 V closepath stroke} def
/TriUE {stroke [] 0 setdash vpt 1.12 mul add M
  hpt neg vpt -1.62 mul V
  hpt 2 mul 0 V
  hpt neg vpt 1.62 mul V closepath stroke} def
/TriDE {stroke [] 0 setdash vpt 1.12 mul sub M
  hpt neg vpt 1.62 mul V
  hpt 2 mul 0 V
  hpt neg vpt -1.62 mul V closepath stroke} def
/PentE {stroke [] 0 setdash gsave
  translate 0 hpt M 4 {72 rotate 0 hpt L} repeat
  closepath stroke grestore} def
/CircE {stroke [] 0 setdash 
  hpt 0 360 arc stroke} def
/Opaque {gsave closepath 1 setgray fill grestore 0 setgray closepath} def
/DiaW {stroke [] 0 setdash vpt add M
  hpt neg vpt neg V hpt vpt neg V
  hpt vpt V hpt neg vpt V Opaque stroke} def
/BoxW {stroke [] 0 setdash exch hpt sub exch vpt add M
  0 vpt2 neg V hpt2 0 V 0 vpt2 V
  hpt2 neg 0 V Opaque stroke} def
/TriUW {stroke [] 0 setdash vpt 1.12 mul add M
  hpt neg vpt -1.62 mul V
  hpt 2 mul 0 V
  hpt neg vpt 1.62 mul V Opaque stroke} def
/TriDW {stroke [] 0 setdash vpt 1.12 mul sub M
  hpt neg vpt 1.62 mul V
  hpt 2 mul 0 V
  hpt neg vpt -1.62 mul V Opaque stroke} def
/PentW {stroke [] 0 setdash gsave
  translate 0 hpt M 4 {72 rotate 0 hpt L} repeat
  Opaque stroke grestore} def
/CircW {stroke [] 0 setdash 
  hpt 0 360 arc Opaque stroke} def
/BoxFill {gsave Rec 1 setgray fill grestore} def
/Density {
  /Fillden exch def
  currentrgbcolor
  /ColB exch def /ColG exch def /ColR exch def
  /ColR ColR Fillden mul Fillden sub 1 add def
  /ColG ColG Fillden mul Fillden sub 1 add def
  /ColB ColB Fillden mul Fillden sub 1 add def
  ColR ColG ColB setrgbcolor} def
/BoxColFill {gsave Rec PolyFill} def
/PolyFill {gsave Density fill grestore grestore} def
/h {rlineto rlineto rlineto gsave closepath fill grestore} bind def
%
% PostScript Level 1 Pattern Fill routine for rectangles
% Usage: x y w h s a XX PatternFill
%	x,y = lower left corner of box to be filled
%	w,h = width and height of box
%	  a = angle in degrees between lines and x-axis
%	 XX = 0/1 for no/yes cross-hatch
%
/PatternFill {gsave /PFa [ 9 2 roll ] def
  PFa 0 get PFa 2 get 2 div add PFa 1 get PFa 3 get 2 div add translate
  PFa 2 get -2 div PFa 3 get -2 div PFa 2 get PFa 3 get Rec
  TransparentPatterns {} {gsave 1 setgray fill grestore} ifelse
  clip
  currentlinewidth 0.5 mul setlinewidth
  /PFs PFa 2 get dup mul PFa 3 get dup mul add sqrt def
  0 0 M PFa 5 get rotate PFs -2 div dup translate
  0 1 PFs PFa 4 get div 1 add floor cvi
	{PFa 4 get mul 0 M 0 PFs V} for
  0 PFa 6 get ne {
	0 1 PFs PFa 4 get div 1 add floor cvi
	{PFa 4 get mul 0 2 1 roll M PFs 0 V} for
 } if
  stroke grestore} def
%
/languagelevel where
 {pop languagelevel} {1} ifelse
 2 lt
	{/InterpretLevel1 true def}
	{/InterpretLevel1 Level1 def}
 ifelse
%
% PostScript level 2 pattern fill definitions
%
/Level2PatternFill {
/Tile8x8 {/PaintType 2 /PatternType 1 /TilingType 1 /BBox [0 0 8 8] /XStep 8 /YStep 8}
	bind def
/KeepColor {currentrgbcolor [/Pattern /DeviceRGB] setcolorspace} bind def
<< Tile8x8
 /PaintProc {0.5 setlinewidth pop 0 0 M 8 8 L 0 8 M 8 0 L stroke} 
>> matrix makepattern
/Pat1 exch def
<< Tile8x8
 /PaintProc {0.5 setlinewidth pop 0 0 M 8 8 L 0 8 M 8 0 L stroke
	0 4 M 4 8 L 8 4 L 4 0 L 0 4 L stroke}
>> matrix makepattern
/Pat2 exch def
<< Tile8x8
 /PaintProc {0.5 setlinewidth pop 0 0 M 0 8 L
	8 8 L 8 0 L 0 0 L fill}
>> matrix makepattern
/Pat3 exch def
<< Tile8x8
 /PaintProc {0.5 setlinewidth pop -4 8 M 8 -4 L
	0 12 M 12 0 L stroke}
>> matrix makepattern
/Pat4 exch def
<< Tile8x8
 /PaintProc {0.5 setlinewidth pop -4 0 M 8 12 L
	0 -4 M 12 8 L stroke}
>> matrix makepattern
/Pat5 exch def
<< Tile8x8
 /PaintProc {0.5 setlinewidth pop -2 8 M 4 -4 L
	0 12 M 8 -4 L 4 12 M 10 0 L stroke}
>> matrix makepattern
/Pat6 exch def
<< Tile8x8
 /PaintProc {0.5 setlinewidth pop -2 0 M 4 12 L
	0 -4 M 8 12 L 4 -4 M 10 8 L stroke}
>> matrix makepattern
/Pat7 exch def
<< Tile8x8
 /PaintProc {0.5 setlinewidth pop 8 -2 M -4 4 L
	12 0 M -4 8 L 12 4 M 0 10 L stroke}
>> matrix makepattern
/Pat8 exch def
<< Tile8x8
 /PaintProc {0.5 setlinewidth pop 0 -2 M 12 4 L
	-4 0 M 12 8 L -4 4 M 8 10 L stroke}
>> matrix makepattern
/Pat9 exch def
/Pattern1 {PatternBgnd KeepColor Pat1 setpattern} bind def
/Pattern2 {PatternBgnd KeepColor Pat2 setpattern} bind def
/Pattern3 {PatternBgnd KeepColor Pat3 setpattern} bind def
/Pattern4 {PatternBgnd KeepColor Landscape {Pat5} {Pat4} ifelse setpattern} bind def
/Pattern5 {PatternBgnd KeepColor Landscape {Pat4} {Pat5} ifelse setpattern} bind def
/Pattern6 {PatternBgnd KeepColor Landscape {Pat9} {Pat6} ifelse setpattern} bind def
/Pattern7 {PatternBgnd KeepColor Landscape {Pat8} {Pat7} ifelse setpattern} bind def
} def
%
%
%End of PostScript Level 2 code
%
/PatternBgnd {
  TransparentPatterns {} {gsave 1 setgray fill grestore} ifelse
} def
%
% Substitute for Level 2 pattern fill codes with
% grayscale if Level 2 support is not selected.
%
/Level1PatternFill {
/Pattern1 {0.250 Density} bind def
/Pattern2 {0.500 Density} bind def
/Pattern3 {0.750 Density} bind def
/Pattern4 {0.125 Density} bind def
/Pattern5 {0.375 Density} bind def
/Pattern6 {0.625 Density} bind def
/Pattern7 {0.875 Density} bind def
} def
%
% Now test for support of Level 2 code
%
Level1 {Level1PatternFill} {Level2PatternFill} ifelse
%
/Symbol-Oblique /Symbol findfont [1 0 .167 1 0 0] makefont
dup length dict begin {1 index /FID eq {pop pop} {def} ifelse} forall
currentdict end definefont pop
/MFshow {
   { dup 5 get 3 ge
     { 5 get 3 eq {gsave} {grestore} ifelse }
     {dup dup 0 get findfont exch 1 get scalefont setfont
     [ currentpoint ] exch dup 2 get 0 exch R dup 5 get 2 ne {dup dup 6
     get exch 4 get {Gshow} {stringwidth pop 0 R} ifelse }if dup 5 get 0 eq
     {dup 3 get {2 get neg 0 exch R pop} {pop aload pop M} ifelse} {dup 5
     get 1 eq {dup 2 get exch dup 3 get exch 6 get stringwidth pop -2 div
     dup 0 R} {dup 6 get stringwidth pop -2 div 0 R 6 get
     show 2 index {aload pop M neg 3 -1 roll neg R pop pop} {pop pop pop
     pop aload pop M} ifelse }ifelse }ifelse }
     ifelse }
   forall} def
/Gswidth {dup type /stringtype eq {stringwidth} {pop (n) stringwidth} ifelse} def
/MFwidth {0 exch { dup 5 get 3 ge { 5 get 3 eq { 0 } { pop } ifelse }
 {dup 3 get{dup dup 0 get findfont exch 1 get scalefont setfont
     6 get Gswidth pop add} {pop} ifelse} ifelse} forall} def
/MLshow { currentpoint stroke M
  0 exch R
  Blacktext {gsave 0 setgray MFshow grestore} {MFshow} ifelse } bind def
/MRshow { currentpoint stroke M
  exch dup MFwidth neg 3 -1 roll R
  Blacktext {gsave 0 setgray MFshow grestore} {MFshow} ifelse } bind def
/MCshow { currentpoint stroke M
  exch dup MFwidth -2 div 3 -1 roll R
  Blacktext {gsave 0 setgray MFshow grestore} {MFshow} ifelse } bind def
/XYsave    { [( ) 1 2 true false 3 ()] } bind def
/XYrestore { [( ) 1 2 true false 4 ()] } bind def
Level1 SuppressPDFMark or 
{} {
/SDict 10 dict def
systemdict /pdfmark known not {
  userdict /pdfmark systemdict /cleartomark get put
} if
SDict begin [
  /Title (nbrDist.eps)
  /Subject (gnuplot plot)
  /Creator (gnuplot 4.6 patchlevel 2)
  /Author (anju)
%  /Producer (gnuplot)
%  /Keywords ()
  /CreationDate (Thu Sep 19 11:15:24 2019)
  /DOCINFO pdfmark
end
} ifelse
end
%%EndProlog
%%Page: 1 1
gnudict begin
gsave
doclip
50 50 translate
0.050 0.050 scale
0 setgray
newpath
(Helvetica) findfont 160 scalefont setfont
BackgroundColor 0 lt 3 1 roll 0 lt exch 0 lt or or not {BackgroundColor C 1.000 0 0 7200.00 5040.00 BoxColFill} if
1.000 UL
LTb
LCb setrgbcolor
1072 512 M
63 0 V
5776 0 R
-63 0 V
stroke
976 512 M
[ [(Helvetica) 160.0 0.0 true true 0 ( 1)]
] -53.3 MRshow
1.000 UL
LTb
LCb setrgbcolor
1072 698 M
31 0 V
5808 0 R
-31 0 V
1072 945 M
31 0 V
5808 0 R
-31 0 V
1072 1071 M
31 0 V
5808 0 R
-31 0 V
-5808 60 R
63 0 V
5776 0 R
-63 0 V
stroke
976 1131 M
[ [(Helvetica) 160.0 0.0 true true 0 ( 10)]
] -53.3 MRshow
1.000 UL
LTb
LCb setrgbcolor
1072 1318 M
31 0 V
5808 0 R
-31 0 V
1072 1564 M
31 0 V
5808 0 R
-31 0 V
1072 1691 M
31 0 V
5808 0 R
-31 0 V
-5808 60 R
63 0 V
5776 0 R
-63 0 V
stroke
976 1751 M
[ [(Helvetica) 160.0 0.0 true true 0 ( 100)]
] -53.3 MRshow
1.000 UL
LTb
LCb setrgbcolor
1072 1937 M
31 0 V
5808 0 R
-31 0 V
1072 2183 M
31 0 V
5808 0 R
-31 0 V
1072 2310 M
31 0 V
5808 0 R
-31 0 V
-5808 60 R
63 0 V
5776 0 R
-63 0 V
stroke
976 2370 M
[ [(Helvetica) 160.0 0.0 true true 0 ( 1000)]
] -53.3 MRshow
1.000 UL
LTb
LCb setrgbcolor
1072 2556 M
31 0 V
5808 0 R
-31 0 V
1072 2803 M
31 0 V
5808 0 R
-31 0 V
1072 2929 M
31 0 V
5808 0 R
-31 0 V
-5808 60 R
63 0 V
5776 0 R
-63 0 V
stroke
976 2989 M
[ [(Helvetica) 160.0 0.0 true true 0 ( 10000)]
] -53.3 MRshow
1.000 UL
LTb
LCb setrgbcolor
1072 3176 M
31 0 V
5808 0 R
-31 0 V
1072 3422 M
31 0 V
5808 0 R
-31 0 V
1072 3548 M
31 0 V
5808 0 R
-31 0 V
-5808 60 R
63 0 V
5776 0 R
-63 0 V
stroke
976 3608 M
[ [(Helvetica) 160.0 0.0 true true 0 ( 100000)]
] -53.3 MRshow
1.000 UL
LTb
LCb setrgbcolor
1072 3795 M
31 0 V
5808 0 R
-31 0 V
1072 4041 M
31 0 V
5808 0 R
-31 0 V
1072 4168 M
31 0 V
5808 0 R
-31 0 V
-5808 60 R
63 0 V
5776 0 R
-63 0 V
stroke
976 4228 M
[ [(Helvetica) 160.0 0.0 true true 0 ( 1e+06)]
] -53.3 MRshow
1.000 UL
LTb
LCb setrgbcolor
1072 4414 M
31 0 V
5808 0 R
-31 0 V
1072 4661 M
31 0 V
5808 0 R
-31 0 V
1072 4787 M
31 0 V
5808 0 R
-31 0 V
-5808 60 R
63 0 V
5776 0 R
-63 0 V
stroke
976 4847 M
[ [(Helvetica) 160.0 0.0 true true 0 ( 1e+07)]
] -53.3 MRshow
1.000 UL
LTb
LCb setrgbcolor
1072 512 M
0 63 V
0 4272 R
0 -63 V
stroke
1072 352 M
[ [(Helvetica) 160.0 0.0 true true 0 ( 0)]
] -53.3 MCshow
1.000 UL
LTb
LCb setrgbcolor
1656 512 M
0 63 V
0 4272 R
0 -63 V
stroke
1656 352 M
[ [(Helvetica) 160.0 0.0 true true 0 ( 200)]
] -53.3 MCshow
1.000 UL
LTb
LCb setrgbcolor
2240 512 M
0 63 V
0 4272 R
0 -63 V
stroke
2240 352 M
[ [(Helvetica) 160.0 0.0 true true 0 ( 400)]
] -53.3 MCshow
1.000 UL
LTb
LCb setrgbcolor
2824 512 M
0 63 V
0 4272 R
0 -63 V
stroke
2824 352 M
[ [(Helvetica) 160.0 0.0 true true 0 ( 600)]
] -53.3 MCshow
1.000 UL
LTb
LCb setrgbcolor
3408 512 M
0 63 V
0 4272 R
0 -63 V
stroke
3408 352 M
[ [(Helvetica) 160.0 0.0 true true 0 ( 800)]
] -53.3 MCshow
1.000 UL
LTb
LCb setrgbcolor
3992 512 M
0 63 V
0 4272 R
0 -63 V
stroke
3992 352 M
[ [(Helvetica) 160.0 0.0 true true 0 ( 1000)]
] -53.3 MCshow
1.000 UL
LTb
LCb setrgbcolor
4575 512 M
0 63 V
0 4272 R
0 -63 V
stroke
4575 352 M
[ [(Helvetica) 160.0 0.0 true true 0 ( 1200)]
] -53.3 MCshow
1.000 UL
LTb
LCb setrgbcolor
5159 512 M
0 63 V
0 4272 R
0 -63 V
stroke
5159 352 M
[ [(Helvetica) 160.0 0.0 true true 0 ( 1400)]
] -53.3 MCshow
1.000 UL
LTb
LCb setrgbcolor
5743 512 M
0 63 V
0 4272 R
0 -63 V
stroke
5743 352 M
[ [(Helvetica) 160.0 0.0 true true 0 ( 1600)]
] -53.3 MCshow
1.000 UL
LTb
LCb setrgbcolor
6327 512 M
0 63 V
0 4272 R
0 -63 V
stroke
6327 352 M
[ [(Helvetica) 160.0 0.0 true true 0 ( 1800)]
] -53.3 MCshow
1.000 UL
LTb
LCb setrgbcolor
6911 512 M
0 63 V
0 4272 R
0 -63 V
stroke
6911 352 M
[ [(Helvetica) 160.0 0.0 true true 0 ( 2000)]
] -53.3 MCshow
1.000 UL
LTb
LCb setrgbcolor
1.000 UL
LTb
LCb setrgbcolor
1072 4847 N
0 -4335 V
5839 0 V
0 4335 V
-5839 0 V
Z stroke
LCb setrgbcolor
128 2679 M
currentpoint gsave translate -270 rotate 0 0 moveto
[ [(Helvetica) 160.0 0.0 true true 0 (Number of points with each degree)]
] -53.3 MCshow
grestore
LTb
LCb setrgbcolor
3991 112 M
[ [(Helvetica) 160.0 0.0 true true 0 (Degree)]
] -53.3 MCshow
LTb
1.000 UP
1.000 UL
LTb
LCb setrgbcolor
% Begin plot #1
0.200 UP
2.000 UL
LT0
0.00 0.38 0.68 C 1072 4586 M
3 -15 V
3 -35 V
3 -42 V
3 -47 V
3 -50 V
3 -52 V
2 -54 V
3 -55 V
3 -56 V
3 -56 V
3 -53 V
3 -51 V
3 -51 V
3 -48 V
3 -45 V
3 -42 V
3 -41 V
3 -37 V
2 -34 V
3 -33 V
3 -30 V
3 -30 V
3 -26 V
3 -24 V
3 -23 V
3 -21 V
3 -19 V
3 -19 V
3 -18 V
3 -16 V
3 -20 V
2 -13 V
3 -14 V
3 -15 V
3 -11 V
3 -11 V
3 -11 V
3 -9 V
3 -9 V
3 -13 V
3 -8 V
3 -8 V
3 -14 V
2 -9 V
3 -5 V
3 -12 V
3 -9 V
3 -10 V
3 -7 V
3 -3 V
3 -7 V
3 -5 V
3 -11 V
3 -5 V
3 -7 V
2 2 V
3 -10 V
3 -8 V
3 -3 V
3 -3 V
3 -5 V
3 -2 V
3 -11 V
3 -4 V
3 -3 V
3 -7 V
3 5 V
3 -2 V
2 -11 V
3 -3 V
3 -4 V
3 -2 V
3 -6 V
3 4 V
3 -9 V
3 3 V
3 -4 V
3 -3 V
3 0 V
3 4 V
2 -5 V
3 0 V
3 -4 V
3 0 V
3 -4 V
3 0 V
3 0 V
3 -2 V
3 1 V
3 -1 V
3 0 V
3 1 V
3 5 V
2 -5 V
3 -4 V
3 1 V
3 3 V
3 2 V
3 -1 V
3 -2 V
3 -2 V
3 3 V
3 -6 V
3 6 V
stroke 1376 3121 M
3 -6 V
2 2 V
3 1 V
3 -2 V
3 3 V
3 -1 V
3 4 V
3 1 V
3 0 V
3 -3 V
3 7 V
3 1 V
3 2 V
3 -4 V
2 3 V
3 4 V
3 1 V
3 -11 V
3 1 V
3 9 V
3 -2 V
3 1 V
3 2 V
3 -1 V
3 5 V
3 -6 V
2 6 V
3 -8 V
3 -3 V
3 3 V
3 -5 V
3 9 V
3 -2 V
3 -4 V
3 -1 V
3 1 V
3 -1 V
3 3 V
2 -3 V
3 3 V
3 -3 V
3 -3 V
3 3 V
3 -6 V
3 -2 V
3 -2 V
3 4 V
3 -5 V
3 3 V
3 2 V
3 -3 V
2 -1 V
3 1 V
3 -4 V
3 0 V
3 -1 V
3 -5 V
3 -3 V
3 -3 V
3 0 V
3 -2 V
3 2 V
3 -8 V
2 1 V
3 2 V
3 -12 V
3 2 V
3 -6 V
3 -6 V
3 -2 V
3 1 V
3 -3 V
3 -10 V
3 2 V
3 -7 V
3 -1 V
2 4 V
3 -5 V
3 -1 V
3 -10 V
3 -3 V
3 -1 V
3 -4 V
3 -6 V
3 -3 V
3 -4 V
3 -3 V
3 -5 V
2 4 V
3 -5 V
3 -8 V
3 -4 V
3 -6 V
3 0 V
3 -11 V
3 -13 V
3 1 V
3 1 V
3 0 V
3 -3 V
2 -12 V
3 -5 V
3 -2 V
3 -9 V
stroke 1679 2942 M
3 -6 V
3 -4 V
3 -3 V
3 -2 V
3 -13 V
3 -5 V
3 -1 V
3 -3 V
3 -2 V
2 0 V
3 -8 V
3 -8 V
3 -11 V
3 4 V
3 -6 V
3 -5 V
3 -9 V
3 -8 V
3 -12 V
3 3 V
3 1 V
2 -9 V
3 -15 V
3 3 V
3 -3 V
3 -9 V
3 -10 V
3 -1 V
3 -8 V
3 0 V
3 -10 V
3 4 V
3 -1 V
3 -7 V
2 -4 V
3 -3 V
3 -5 V
3 -6 V
3 5 V
3 -10 V
3 0 V
3 -20 V
3 3 V
3 -10 V
3 1 V
3 1 V
2 -8 V
3 -3 V
3 -2 V
3 -13 V
3 -2 V
3 -7 V
3 -15 V
3 -7 V
3 -2 V
3 13 V
3 -5 V
3 3 V
3 -20 V
2 3 V
3 -15 V
3 12 V
3 -9 V
3 -6 V
3 1 V
3 -10 V
3 -13 V
3 10 V
3 -11 V
3 5 V
3 -15 V
2 -10 V
3 1 V
3 8 V
3 -13 V
3 2 V
3 -3 V
3 4 V
3 -6 V
3 -1 V
3 4 V
3 -21 V
3 -14 V
2 0 V
3 -9 V
3 1 V
3 4 V
3 -5 V
3 -3 V
3 -5 V
3 -5 V
3 10 V
3 -18 V
3 -12 V
3 6 V
3 5 V
2 -7 V
3 10 V
3 -21 V
3 0 V
3 -19 V
3 8 V
3 -1 V
3 -7 V
stroke 1983 2497 M
3 24 V
3 -25 V
3 4 V
3 -3 V
2 15 V
3 -28 V
3 -2 V
3 -3 V
3 -14 V
3 -5 V
3 13 V
3 14 V
3 -17 V
3 -3 V
3 -2 V
3 -24 V
3 19 V
2 -8 V
3 -8 V
3 -8 V
3 5 V
3 6 V
3 -18 V
3 3 V
3 7 V
3 0 V
3 14 V
3 -6 V
3 -32 V
2 4 V
3 5 V
3 -4 V
3 -21 V
3 1 V
3 4 V
3 2 V
3 21 V
3 -29 V
3 -2 V
3 -5 V
3 -7 V
3 -6 V
2 6 V
3 19 V
3 -16 V
3 35 V
3 -9 V
3 -18 V
3 11 V
3 -19 V
3 7 V
3 21 V
3 -15 V
3 7 V
2 -14 V
3 0 V
3 -5 V
3 16 V
3 -25 V
3 12 V
3 -10 V
3 6 V
3 -12 V
3 2 V
3 14 V
3 -12 V
2 -31 V
3 23 V
3 1 V
3 -7 V
3 -6 V
3 20 V
3 8 V
3 2 V
3 -45 V
3 -8 V
3 2 V
3 2 V
3 34 V
2 -26 V
3 -27 V
3 9 V
3 -2 V
3 9 V
3 1 V
3 14 V
3 -15 V
3 -16 V
3 7 V
3 14 V
3 -9 V
2 1 V
3 -8 V
3 5 V
3 13 V
3 -18 V
3 4 V
3 -18 V
3 -29 V
3 25 V
3 -1 V
3 -7 V
3 3 V
3 -15 V
stroke 2287 2288 M
2 12 V
3 -14 V
3 21 V
3 -21 V
3 -11 V
3 -23 V
3 27 V
3 -14 V
3 -5 V
3 12 V
3 -20 V
3 2 V
2 20 V
3 1 V
3 24 V
3 -20 V
3 -15 V
3 13 V
3 -28 V
3 10 V
3 -10 V
3 -10 V
3 12 V
3 -1 V
2 23 V
3 -11 V
3 4 V
3 10 V
3 -33 V
3 -6 V
3 -17 V
3 -11 V
3 9 V
3 -10 V
3 9 V
3 3 V
3 -9 V
2 3 V
3 18 V
3 -10 V
3 -4 V
3 -4 V
3 -13 V
3 24 V
3 3 V
3 -37 V
3 26 V
3 21 V
3 2 V
2 -8 V
3 -3 V
3 13 V
3 -39 V
3 19 V
3 -8 V
3 -21 V
3 21 V
3 -16 V
3 34 V
3 -10 V
3 -34 V
3 19 V
2 22 V
3 -12 V
3 -12 V
3 -2 V
3 -2 V
3 -8 V
3 -8 V
3 -18 V
3 0 V
3 10 V
3 -24 V
3 11 V
2 -1 V
3 4 V
3 20 V
3 -8 V
3 -42 V
3 20 V
3 -3 V
3 0 V
3 2 V
3 110 V
3 -31 V
3 -102 V
3 -26 V
2 23 V
3 -34 V
3 -5 V
3 -48 V
3 49 V
3 -8 V
3 8 V
3 37 V
3 -45 V
3 27 V
3 -29 V
3 4 V
2 -26 V
3 17 V
3 -8 V
3 15 V
3 -16 V
stroke 2590 2068 M
3 5 V
3 -25 V
3 -10 V
3 19 V
3 11 V
3 -50 V
3 35 V
2 -64 V
3 40 V
3 -8 V
3 3 V
3 37 V
3 -18 V
3 3 V
3 -15 V
3 17 V
3 -26 V
3 -20 V
3 18 V
3 -9 V
2 32 V
3 6 V
3 6 V
3 -29 V
3 3 V
3 37 V
3 -24 V
3 -27 V
3 1 V
3 5 V
3 37 V
3 -25 V
2 -5 V
3 0 V
3 38 V
3 -61 V
3 2 V
3 28 V
3 -57 V
3 2 V
3 13 V
3 -26 V
3 34 V
3 4 V
3 19 V
2 -64 V
3 41 V
3 15 V
3 -44 V
3 -40 V
3 -48 V
3 52 V
3 28 V
3 -10 V
3 5 V
3 -11 V
3 -35 V
2 4 V
3 43 V
3 -30 V
3 45 V
3 -41 V
3 -9 V
3 45 V
3 -15 V
3 -25 V
3 26 V
3 -24 V
3 6 V
3 -28 V
2 -7 V
3 -3 V
3 33 V
3 -65 V
3 49 V
3 -16 V
3 62 V
3 -25 V
3 4 V
3 -2 V
3 13 V
3 5 V
2 -38 V
3 -7 V
3 12 V
3 26 V
3 -42 V
3 14 V
3 6 V
3 47 V
3 -36 V
3 -24 V
3 -10 V
3 -39 V
2 31 V
3 11 V
3 41 V
3 -23 V
3 10 V
3 13 V
3 9 V
3 11 V
3 19 V
3 -53 V
stroke 2894 1936 M
3 22 V
3 -16 V
3 -23 V
2 56 V
3 -50 V
3 9 V
3 -27 V
3 25 V
3 8 V
3 -55 V
3 11 V
3 38 V
3 0 V
3 -39 V
3 18 V
2 -41 V
3 -11 V
3 -26 V
3 28 V
3 -24 V
3 53 V
3 1 V
3 -64 V
3 75 V
3 3 V
3 -96 V
3 14 V
3 10 V
2 19 V
3 6 V
3 30 V
3 -51 V
3 49 V
3 -13 V
3 2 V
3 -7 V
3 10 V
3 -13 V
3 15 V
3 11 V
2 -33 V
3 -4 V
3 44 V
3 -55 V
3 16 V
3 -5 V
3 -17 V
3 22 V
3 -32 V
3 -53 V
3 24 V
3 -52 V
3 47 V
2 22 V
3 28 V
3 -28 V
3 24 V
3 -2 V
3 -37 V
3 -14 V
3 -5 V
3 17 V
3 13 V
3 -73 V
3 2 V
2 73 V
3 -67 V
3 79 V
3 -25 V
3 -54 V
3 60 V
3 7 V
3 -29 V
3 7 V
3 24 V
3 -24 V
3 -24 V
2 54 V
3 14 V
3 -47 V
3 -29 V
3 -33 V
3 12 V
3 34 V
3 -112 V
3 48 V
3 32 V
3 -14 V
3 25 V
3 18 V
2 -31 V
3 48 V
3 -9 V
3 -13 V
3 29 V
3 -47 V
3 33 V
3 -53 V
3 0 V
3 -18 V
3 15 V
3 28 V
2 -31 V
3 0 V
stroke 3197 1722 M
3 -35 V
3 17 V
3 47 V
3 28 V
3 -69 V
3 66 V
3 10 V
3 49 V
3 -122 V
3 61 V
3 -49 V
2 -28 V
3 82 V
3 -5 V
3 -49 V
3 34 V
3 -3 V
3 8 V
3 -22 V
3 29 V
3 -7 V
3 -102 V
3 86 V
2 5 V
3 -43 V
3 -30 V
3 42 V
3 -22 V
3 -9 V
3 -52 V
3 -4 V
3 8 V
3 15 V
3 46 V
3 21 V
2 -15 V
3 -30 V
3 0 V
3 -33 V
3 37 V
3 -33 V
3 -29 V
3 62 V
3 -18 V
3 25 V
3 -36 V
3 25 V
3 -37 V
2 27 V
3 30 V
3 -45 V
3 73 V
3 -28 V
3 59 V
3 2 V
3 -54 V
3 27 V
3 59 V
3 -150 V
3 4 V
2 -105 V
3 48 V
3 -37 V
3 42 V
3 23 V
3 17 V
3 -9 V
3 -102 V
3 163 V
3 -25 V
3 -58 V
3 -35 V
3 66 V
2 -55 V
3 -5 V
3 -6 V
3 -10 V
3 138 V
3 -20 V
3 45 V
3 29 V
3 -51 V
3 -16 V
3 -45 V
3 4 V
2 51 V
3 25 V
3 -171 V
3 -18 V
3 50 V
3 -11 V
3 -33 V
3 -12 V
3 61 V
3 -21 V
3 26 V
3 14 V
3 -62 V
2 -12 V
3 -33 V
3 51 V
3 -80 V
3 112 V
3 -27 V
stroke 3501 1553 M
3 11 V
3 21 V
3 -88 V
3 51 V
3 -37 V
3 58 V
2 -52 V
3 36 V
3 -42 V
3 13 V
3 94 V
3 0 V
3 -54 V
3 -34 V
3 23 V
3 56 V
3 -85 V
3 111 V
2 -105 V
3 45 V
3 -16 V
3 31 V
3 -10 V
3 19 V
3 -9 V
3 -48 V
3 22 V
3 -5 V
3 84 V
3 -44 V
3 19 V
2 55 V
3 -38 V
3 -4 V
3 0 V
3 -36 V
3 -53 V
3 71 V
3 -116 V
3 146 V
3 -34 V
3 -79 V
3 12 V
2 71 V
3 13 V
3 -22 V
3 -51 V
3 69 V
3 -47 V
3 51 V
3 -4 V
3 -118 V
3 -60 V
3 92 V
3 -53 V
3 0 V
2 7 V
3 14 V
3 -106 V
3 -10 V
3 64 V
3 -16 V
3 -48 V
3 10 V
3 29 V
3 -72 V
3 193 V
3 -24 V
2 -97 V
3 -19 V
3 -30 V
3 82 V
3 8 V
3 -16 V
3 90 V
3 -144 V
3 -67 V
3 96 V
3 0 V
3 -84 V
3 -69 V
2 -52 V
3 0 V
3 36 V
3 73 V
3 -109 V
3 -42 V
3 78 V
3 -18 V
3 -60 V
3 94 V
3 -143 V
3 127 V
2 -18 V
3 -169 V
3 169 V
3 18 V
3 109 V
3 11 V
3 -104 V
3 0 V
3 -171 V
3 -32 V
3 218 V
stroke 3805 1289 M
3 99 V
2 -148 V
3 64 V
3 -82 V
3 121 V
3 -103 V
3 138 V
3 -138 V
3 64 V
3 -102 V
3 0 V
3 0 V
3 38 V
3 34 V
2 15 V
3 -186 V
3 54 V
3 147 V
3 -82 V
3 96 V
3 -14 V
3 -46 V
3 60 V
3 -78 V
3 115 V
3 -37 V
2 126 V
3 -204 V
3 18 V
3 16 V
3 30 V
3 14 V
3 -78 V
3 168 V
3 -150 V
3 73 V
3 -27 V
3 -46 V
3 -56 V
2 -45 V
3 132 V
3 -31 V
3 -264 V
3 228 V
3 -187 V
3 -41 V
3 -49 V
3 0 V
3 49 V
3 109 V
3 -68 V
2 36 V
3 -77 V
3 -296 V
3 560 V
3 -223 V
3 -90 V
3 -60 V
3 0 V
3 0 V
3 -78 V
3 78 V
3 -78 V
3 78 V
2 0 V
3 -78 V
3 -109 V
3 247 V
3 -60 V
3 186 V
3 -264 V
3 0 V
3 138 V
3 0 V
3 49 V
3 -296 V
2 296 V
3 0 V
3 -109 V
3 186 V
3 60 V
3 -28 V
3 0 V
3 -296 V
3 187 V
3 77 V
3 131 V
3 -504 V
2 296 V
3 41 V
3 -150 V
3 186 V
3 -77 V
3 109 V
3 54 V
3 -122 V
3 -150 V
3 186 V
3 -77 V
3 -109 V
3 109 V
2 137 V
3 -137 V
3 109 V
stroke 4108 1103 M
3 -158 V
3 49 V
3 41 V
3 -150 V
3 109 V
3 77 V
3 -77 V
3 0 V
3 163 V
2 -272 V
3 186 V
3 60 V
3 26 V
3 83 V
3 91 V
3 -151 V
3 -23 V
3 -26 V
3 -137 V
3 -49 V
3 277 V
3 0 V
2 52 V
3 15 V
3 109 V
3 -94 V
3 39 V
3 193 V
3 -247 V
3 0 V
3 99 V
3 -33 V
3 12 V
3 0 V
2 -12 V
3 -133 V
3 176 V
3 -158 V
3 91 V
3 12 V
3 12 V
3 -37 V
3 -161 V
3 261 V
3 -347 V
3 131 V
2 -131 V
3 -36 V
3 122 V
3 23 V
3 -23 V
3 -26 V
3 -28 V
3 77 V
3 -186 V
3 163 V
3 -163 V
3 208 V
3 -22 V
2 -23 V
3 -122 V
3 96 V
3 0 V
3 143 V
3 -171 V
3 99 V
3 -22 V
3 -109 V
3 0 V
3 0 V
3 -77 V
2 77 V
3 -264 V
3 228 V
3 -523 V
3 433 V
3 -60 V
3 -78 V
3 187 V
3 -187 V
3 373 V
3 -77 V
3 -158 V
3 -60 V
2 218 V
3 -158 V
3 212 V
3 -122 V
3 -337 V
3 337 V
3 -228 V
3 78 V
3 60 V
3 -433 V
3 433 V
3 0 V
2 90 V
3 -41 V
3 -109 V
3 150 V
3 0 V
3 0 V
3 0 V
3 167 V
stroke 4412 1202 M
3 -208 V
3 208 V
3 38 V
3 -137 V
3 54 V
2 101 V
3 -78 V
3 -23 V
3 83 V
3 -137 V
3 119 V
3 -187 V
3 187 V
3 -20 V
3 -131 V
3 86 V
3 0 V
2 0 V
3 -86 V
3 131 V
3 0 V
3 -167 V
3 -150 V
3 246 V
3 -137 V
3 -49 V
3 49 V
3 0 V
3 -49 V
2 90 V
3 -228 V
3 0 V
3 78 V
3 60 V
3 0 V
3 90 V
3 -228 V
3 187 V
3 -109 V
3 150 V
3 -41 V
3 -296 V
2 109 V
3 -109 V
3 109 V
3 78 V
3 60 V
3 -247 V
3 -186 V
3 186 V
3 109 V
3 228 V
3 -228 V
3 -295 V
2 433 V
3 -138 V
3 -295 V
3 559 V
3 -186 V
3 60 V
3 49 V
3 -49 V
3 186 V
3 -433 V
3 337 V
3 -41 V
3 77 V
2 60 V
3 -137 V
3 -187 V
3 138 V
3 158 V
6 -218 V
3 60 V
3 -60 V
3 -187 V
3 337 V
3 -41 V
2 -296 V
3 187 V
3 60 V
3 -138 V
3 78 V
3 0 V
3 60 V
3 -60 V
3 -187 V
3 0 V
3 247 V
3 49 V
3 -187 V
2 264 V
3 -77 V
3 -187 V
3 187 V
3 -49 V
3 158 V
3 -109 V
3 77 V
3 0 V
3 -373 V
3 296 V
3 -296 V
2 187 V
stroke 4718 885 M
3 0 V
3 150 V
3 -337 V
3 0 V
3 0 V
3 296 V
3 -109 V
3 109 V
3 109 V
3 28 V
3 -137 V
2 -187 V
3 228 V
3 0 V
3 -150 V
3 272 V
3 -122 V
3 -90 V
3 49 V
3 -296 V
3 459 V
3 -54 V
3 0 V
3 137 V
2 -109 V
3 127 V
3 16 V
3 -171 V
3 155 V
3 -101 V
3 45 V
3 -131 V
3 169 V
3 -83 V
3 101 V
3 16 V
2 -16 V
3 16 V
3 -203 V
3 0 V
3 86 V
3 45 V
3 72 V
3 30 V
3 -15 V
3 -67 V
3 -65 V
3 -26 V
3 71 V
2 -208 V
3 163 V
3 -163 V
3 228 V
3 -42 V
3 42 V
3 -91 V
3 49 V
3 -77 V
3 119 V
3 -277 V
3 257 V
2 -45 V
3 117 V
3 -34 V
3 -109 V
3 109 V
3 -109 V
3 143 V
3 -203 V
3 -36 V
3 122 V
3 -54 V
3 -218 V
2 295 V
3 -145 V
3 96 V
3 -186 V
3 -60 V
3 109 V
3 -187 V
3 264 V
3 -77 V
3 0 V
3 0 V
3 186 V
3 -145 V
2 68 V
3 77 V
3 -49 V
3 -433 V
3 296 V
3 137 V
3 -137 V
3 77 V
3 -126 V
3 158 V
3 -68 V
3 122 V
2 -54 V
3 -109 V
3 228 V
3 -42 V
3 60 V
3 34 V
stroke 5022 1274 M
3 -143 V
3 -28 V
3 -68 V
3 308 V
3 -103 V
3 49 V
3 29 V
2 60 V
3 -35 V
3 35 V
3 -156 V
3 -119 V
3 99 V
3 0 V
3 -167 V
3 122 V
3 -122 V
3 96 V
3 -60 V
2 -126 V
3 -247 V
3 296 V
3 41 V
3 -228 V
3 228 V
3 -228 V
3 187 V
3 109 V
3 -218 V
3 150 V
3 -150 V
3 60 V
2 -247 V
3 296 V
3 -296 V
3 296 V
3 -187 V
3 264 V
3 -264 V
3 78 V
3 0 V
3 -373 V
3 482 V
3 -296 V
2 296 V
3 77 V
3 -126 V
3 -60 V
3 272 V
3 -459 V
3 187 V
3 0 V
3 150 V
3 36 V
3 32 V
3 -591 V
2 373 V
3 -187 V
3 337 V
3 -228 V
3 187 V
3 -49 V
3 -138 V
3 228 V
3 -150 V
3 0 V
3 -187 V
8 247 V
3 -60 V
3 60 V
3 -60 V
3 0 V
3 0 V
3 -187 V
3 109 V
3 78 V
3 -187 V
3 0 V
3 187 V
2 -373 V
3 0 V
9 186 V
3 109 V
3 0 V
3 0 V
3 -295 V
3 295 V
3 -109 V
3 -186 V
3 186 V
2 187 V
3 -187 V
3 -186 V
3 0 V
3 433 V
3 -247 V
3 0 V
3 -186 V
3 373 V
3 -373 V
3 0 V
3 0 V
2 0 V
3 295 V
stroke 5337 807 M
3 -109 V
3 -186 V
3 373 V
3 -373 V
3 186 V
3 -186 V
6 295 V
3 0 V
11 -295 V
3 295 V
6 -109 V
3 0 V
3 -186 V
9 0 V
3 0 V
3 0 V
2 373 V
3 -187 V
3 109 V
3 -295 V
3 295 V
3 0 V
3 78 V
3 -373 V
3 0 V
3 295 V
3 -109 V
3 0 V
2 0 V
3 0 V
3 187 V
3 -187 V
3 109 V
3 0 V
3 -295 V
6 433 V
3 -433 V
3 373 V
3 -78 V
3 0 V
2 78 V
3 -78 V
3 -109 V
3 247 V
3 -60 V
3 109 V
3 -296 V
3 0 V
3 0 V
3 296 V
3 -49 V
3 -138 V
2 0 V
3 138 V
3 -138 V
3 -295 V
6 186 V
3 109 V
6 187 V
3 -482 V
3 433 V
3 -138 V
3 -295 V
5 295 V
3 -109 V
3 109 V
3 -109 V
3 247 V
3 -247 V
9 337 V
3 -523 V
5 186 V
3 0 V
3 109 V
3 -295 V
3 295 V
3 -295 V
3 373 V
3 0 V
3 -373 V
3 295 V
3 -109 V
3 109 V
5 -295 V
3 295 V
3 -295 V
3 0 V
3 0 V
3 0 V
3 0 V
3 295 V
3 -109 V
3 -186 V
6 0 V
2 186 V
6 -186 V
3 0 V
3 0 V
6 186 V
3 109 V
6 -109 V
3 247 V
3 -433 V
5 0 V
stroke 5699 512 M
3 295 V
3 138 V
3 -433 V
3 186 V
3 0 V
3 -186 V
3 433 V
3 -433 V
3 186 V
6 -186 V
2 186 V
3 109 V
6 -109 V
6 0 V
3 -186 V
3 373 V
3 -78 V
3 -295 V
3 186 V
3 0 V
2 -186 V
3 0 V
3 0 V
3 186 V
3 187 V
3 -187 V
3 -186 V
6 186 V
3 -186 V
6 0 V
3 0 V
5 186 V
3 0 V
3 -186 V
3 0 V
3 0 V
6 186 V
3 -186 V
14 0 V
3 186 V
3 0 V
6 0 V
3 0 V
3 -186 V
6 0 V
3 0 V
11 186 V
9 0 V
6 0 V
9 -186 V
6 0 V
11 186 V
6 -186 V
20 0 V
3 0 V
6 0 V
6 0 V
3 0 V
9 0 V
3 0 V
3 0 V
26 0 V
3 0 V
6 0 V
3 0 V
8 0 V
3 186 V
3 -186 V
9 0 V
3 186 V
6 -186 V
6 0 V
2 0 V
15 0 V
3 0 V
9 0 V
6 0 V
5 295 V
3 -109 V
3 -186 V
3 186 V
9 -186 V
12 186 V
5 -186 V
3 0 V
24 0 V
3 0 V
11 0 V
15 0 V
17 0 V
3 0 V
3 0 V
3 0 V
6 0 V
6 0 V
3 0 V
6 186 V
20 0 V
3 -186 V
38 0 V
6 186 V
3 -186 V
11 0 V
9 0 V
stroke 6327 512 M
3 0 V
3 0 V
6 186 V
3 -186 V
6 0 V
2 186 V
3 109 V
3 -295 V
3 0 V
3 0 V
3 0 V
3 373 V
3 -78 V
3 0 V
3 -109 V
3 -186 V
3 295 V
2 -109 V
3 0 V
3 109 V
3 -109 V
3 187 V
3 -373 V
9 0 V
3 186 V
6 0 V
14 -186 V
6 186 V
3 0 V
3 0 V
3 187 V
3 -78 V
6 -295 V
8 186 V
3 0 V
3 -186 V
3 0 V
3 186 V
3 109 V
3 138 V
3 -138 V
3 -295 V
3 186 V
3 187 V
2 -373 V
3 0 V
6 0 V
3 186 V
3 0 V
3 -186 V
9 0 V
1072 4586 CircleF
1075 4571 CircleF
1078 4536 CircleF
1081 4494 CircleF
1084 4447 CircleF
1087 4397 CircleF
1090 4345 CircleF
1092 4291 CircleF
1095 4236 CircleF
1098 4180 CircleF
1101 4124 CircleF
1104 4071 CircleF
1107 4020 CircleF
1110 3969 CircleF
1113 3921 CircleF
1116 3876 CircleF
1119 3834 CircleF
1122 3793 CircleF
1125 3756 CircleF
1127 3722 CircleF
1130 3689 CircleF
1133 3659 CircleF
1136 3629 CircleF
1139 3603 CircleF
1142 3579 CircleF
1145 3556 CircleF
1148 3535 CircleF
1151 3516 CircleF
1154 3497 CircleF
1157 3479 CircleF
1160 3463 CircleF
1163 3443 CircleF
1165 3430 CircleF
1168 3416 CircleF
1171 3401 CircleF
1174 3390 CircleF
1177 3379 CircleF
1180 3368 CircleF
1183 3359 CircleF
1186 3350 CircleF
1189 3337 CircleF
1192 3329 CircleF
1195 3321 CircleF
1198 3307 CircleF
1200 3298 CircleF
1203 3293 CircleF
1206 3281 CircleF
1209 3272 CircleF
1212 3262 CircleF
1215 3255 CircleF
1218 3252 CircleF
1221 3245 CircleF
1224 3240 CircleF
1227 3229 CircleF
1230 3224 CircleF
1233 3217 CircleF
1235 3219 CircleF
1238 3209 CircleF
1241 3201 CircleF
1244 3198 CircleF
1247 3195 CircleF
1250 3190 CircleF
1253 3188 CircleF
1256 3177 CircleF
1259 3173 CircleF
1262 3170 CircleF
1265 3163 CircleF
1268 3168 CircleF
1271 3166 CircleF
1273 3155 CircleF
1276 3152 CircleF
1279 3148 CircleF
1282 3146 CircleF
1285 3140 CircleF
1288 3144 CircleF
1291 3135 CircleF
1294 3138 CircleF
1297 3134 CircleF
1300 3131 CircleF
1303 3131 CircleF
1306 3135 CircleF
1308 3130 CircleF
1311 3130 CircleF
1314 3126 CircleF
1317 3126 CircleF
1320 3122 CircleF
1323 3122 CircleF
1326 3122 CircleF
1329 3120 CircleF
1332 3121 CircleF
1335 3120 CircleF
1338 3120 CircleF
1341 3121 CircleF
1344 3126 CircleF
1346 3121 CircleF
1349 3117 CircleF
1352 3118 CircleF
1355 3121 CircleF
1358 3123 CircleF
1361 3122 CircleF
1364 3120 CircleF
1367 3118 CircleF
1370 3121 CircleF
1373 3115 CircleF
1376 3121 CircleF
1379 3115 CircleF
1381 3117 CircleF
1384 3118 CircleF
1387 3116 CircleF
1390 3119 CircleF
1393 3118 CircleF
1396 3122 CircleF
1399 3123 CircleF
1402 3123 CircleF
1405 3120 CircleF
1408 3127 CircleF
1411 3128 CircleF
1414 3130 CircleF
1417 3126 CircleF
1419 3129 CircleF
1422 3133 CircleF
1425 3134 CircleF
1428 3123 CircleF
1431 3124 CircleF
1434 3133 CircleF
1437 3131 CircleF
1440 3132 CircleF
1443 3134 CircleF
1446 3133 CircleF
1449 3138 CircleF
1452 3132 CircleF
1454 3138 CircleF
1457 3130 CircleF
1460 3127 CircleF
1463 3130 CircleF
1466 3125 CircleF
1469 3134 CircleF
1472 3132 CircleF
1475 3128 CircleF
1478 3127 CircleF
1481 3128 CircleF
1484 3127 CircleF
1487 3130 CircleF
1489 3127 CircleF
1492 3130 CircleF
1495 3127 CircleF
1498 3124 CircleF
1501 3127 CircleF
1504 3121 CircleF
1507 3119 CircleF
1510 3117 CircleF
1513 3121 CircleF
1516 3116 CircleF
1519 3119 CircleF
1522 3121 CircleF
1525 3118 CircleF
1527 3117 CircleF
1530 3118 CircleF
1533 3114 CircleF
1536 3114 CircleF
1539 3113 CircleF
1542 3108 CircleF
1545 3105 CircleF
1548 3102 CircleF
1551 3102 CircleF
1554 3100 CircleF
1557 3102 CircleF
1560 3094 CircleF
1562 3095 CircleF
1565 3097 CircleF
1568 3085 CircleF
1571 3087 CircleF
1574 3081 CircleF
1577 3075 CircleF
1580 3073 CircleF
1583 3074 CircleF
1586 3071 CircleF
1589 3061 CircleF
1592 3063 CircleF
1595 3056 CircleF
1598 3055 CircleF
1600 3059 CircleF
1603 3054 CircleF
1606 3053 CircleF
1609 3043 CircleF
1612 3040 CircleF
1615 3039 CircleF
1618 3035 CircleF
1621 3029 CircleF
1624 3026 CircleF
1627 3022 CircleF
1630 3019 CircleF
1633 3014 CircleF
1635 3018 CircleF
1638 3013 CircleF
1641 3005 CircleF
1644 3001 CircleF
1647 2995 CircleF
1650 2995 CircleF
1653 2984 CircleF
1656 2971 CircleF
1659 2972 CircleF
1662 2973 CircleF
1665 2973 CircleF
1668 2970 CircleF
1670 2958 CircleF
1673 2953 CircleF
1676 2951 CircleF
1679 2942 CircleF
1682 2936 CircleF
1685 2932 CircleF
1688 2929 CircleF
1691 2927 CircleF
1694 2914 CircleF
1697 2909 CircleF
1700 2908 CircleF
1703 2905 CircleF
1706 2903 CircleF
1708 2903 CircleF
1711 2895 CircleF
1714 2887 CircleF
1717 2876 CircleF
1720 2880 CircleF
1723 2874 CircleF
1726 2869 CircleF
1729 2860 CircleF
1732 2852 CircleF
1735 2840 CircleF
1738 2843 CircleF
1741 2844 CircleF
1743 2835 CircleF
1746 2820 CircleF
1749 2823 CircleF
1752 2820 CircleF
1755 2811 CircleF
1758 2801 CircleF
1761 2800 CircleF
1764 2792 CircleF
1767 2792 CircleF
1770 2782 CircleF
1773 2786 CircleF
1776 2785 CircleF
1779 2778 CircleF
1781 2774 CircleF
1784 2771 CircleF
1787 2766 CircleF
1790 2760 CircleF
1793 2765 CircleF
1796 2755 CircleF
1799 2755 CircleF
1802 2735 CircleF
1805 2738 CircleF
1808 2728 CircleF
1811 2729 CircleF
1814 2730 CircleF
1816 2722 CircleF
1819 2719 CircleF
1822 2717 CircleF
1825 2704 CircleF
1828 2702 CircleF
1831 2695 CircleF
1834 2680 CircleF
1837 2673 CircleF
1840 2671 CircleF
1843 2684 CircleF
1846 2679 CircleF
1849 2682 CircleF
1852 2662 CircleF
1854 2665 CircleF
1857 2650 CircleF
1860 2662 CircleF
1863 2653 CircleF
1866 2647 CircleF
1869 2648 CircleF
1872 2638 CircleF
1875 2625 CircleF
1878 2635 CircleF
1881 2624 CircleF
1884 2629 CircleF
1887 2614 CircleF
1889 2604 CircleF
1892 2605 CircleF
1895 2613 CircleF
1898 2600 CircleF
1901 2602 CircleF
1904 2599 CircleF
1907 2603 CircleF
1910 2597 CircleF
1913 2596 CircleF
1916 2600 CircleF
1919 2579 CircleF
1922 2565 CircleF
1924 2565 CircleF
1927 2556 CircleF
1930 2557 CircleF
1933 2561 CircleF
1936 2556 CircleF
1939 2553 CircleF
1942 2548 CircleF
1945 2543 CircleF
1948 2553 CircleF
1951 2535 CircleF
1954 2523 CircleF
1957 2529 CircleF
1960 2534 CircleF
1962 2527 CircleF
1965 2537 CircleF
1968 2516 CircleF
1971 2516 CircleF
1974 2497 CircleF
1977 2505 CircleF
1980 2504 CircleF
1983 2497 CircleF
1986 2521 CircleF
1989 2496 CircleF
1992 2500 CircleF
1995 2497 CircleF
1997 2512 CircleF
2000 2484 CircleF
2003 2482 CircleF
2006 2479 CircleF
2009 2465 CircleF
2012 2460 CircleF
2015 2473 CircleF
2018 2487 CircleF
2021 2470 CircleF
2024 2467 CircleF
2027 2465 CircleF
2030 2441 CircleF
2033 2460 CircleF
2035 2452 CircleF
2038 2444 CircleF
2041 2436 CircleF
2044 2441 CircleF
2047 2447 CircleF
2050 2429 CircleF
2053 2432 CircleF
2056 2439 CircleF
2059 2439 CircleF
2062 2453 CircleF
2065 2447 CircleF
2068 2415 CircleF
2070 2419 CircleF
2073 2424 CircleF
2076 2420 CircleF
2079 2399 CircleF
2082 2400 CircleF
2085 2404 CircleF
2088 2406 CircleF
2091 2427 CircleF
2094 2398 CircleF
2097 2396 CircleF
2100 2391 CircleF
2103 2384 CircleF
2106 2378 CircleF
2108 2384 CircleF
2111 2403 CircleF
2114 2387 CircleF
2117 2422 CircleF
2120 2413 CircleF
2123 2395 CircleF
2126 2406 CircleF
2129 2387 CircleF
2132 2394 CircleF
2135 2415 CircleF
2138 2400 CircleF
2141 2407 CircleF
2143 2393 CircleF
2146 2393 CircleF
2149 2388 CircleF
2152 2404 CircleF
2155 2379 CircleF
2158 2391 CircleF
2161 2381 CircleF
2164 2387 CircleF
2167 2375 CircleF
2170 2377 CircleF
2173 2391 CircleF
2176 2379 CircleF
2178 2348 CircleF
2181 2371 CircleF
2184 2372 CircleF
2187 2365 CircleF
2190 2359 CircleF
2193 2379 CircleF
2196 2387 CircleF
2199 2389 CircleF
2202 2344 CircleF
2205 2336 CircleF
2208 2338 CircleF
2211 2340 CircleF
2214 2374 CircleF
2216 2348 CircleF
2219 2321 CircleF
2222 2330 CircleF
2225 2328 CircleF
2228 2337 CircleF
2231 2338 CircleF
2234 2352 CircleF
2237 2337 CircleF
2240 2321 CircleF
2243 2328 CircleF
2246 2342 CircleF
2249 2333 CircleF
2251 2334 CircleF
2254 2326 CircleF
2257 2331 CircleF
2260 2344 CircleF
2263 2326 CircleF
2266 2330 CircleF
2269 2312 CircleF
2272 2283 CircleF
2275 2308 CircleF
2278 2307 CircleF
2281 2300 CircleF
2284 2303 CircleF
2287 2288 CircleF
2289 2300 CircleF
2292 2286 CircleF
2295 2307 CircleF
2298 2286 CircleF
2301 2275 CircleF
2304 2252 CircleF
2307 2279 CircleF
2310 2265 CircleF
2313 2260 CircleF
2316 2272 CircleF
2319 2252 CircleF
2322 2254 CircleF
2324 2274 CircleF
2327 2275 CircleF
2330 2299 CircleF
2333 2279 CircleF
2336 2264 CircleF
2339 2277 CircleF
2342 2249 CircleF
2345 2259 CircleF
2348 2249 CircleF
2351 2239 CircleF
2354 2251 CircleF
2357 2250 CircleF
2359 2273 CircleF
2362 2262 CircleF
2365 2266 CircleF
2368 2276 CircleF
2371 2243 CircleF
2374 2237 CircleF
2377 2220 CircleF
2380 2209 CircleF
2383 2218 CircleF
2386 2208 CircleF
2389 2217 CircleF
2392 2220 CircleF
2395 2211 CircleF
2397 2214 CircleF
2400 2232 CircleF
2403 2222 CircleF
2406 2218 CircleF
2409 2214 CircleF
2412 2201 CircleF
2415 2225 CircleF
2418 2228 CircleF
2421 2191 CircleF
2424 2217 CircleF
2427 2238 CircleF
2430 2240 CircleF
2432 2232 CircleF
2435 2229 CircleF
2438 2242 CircleF
2441 2203 CircleF
2444 2222 CircleF
2447 2214 CircleF
2450 2193 CircleF
2453 2214 CircleF
2456 2198 CircleF
2459 2232 CircleF
2462 2222 CircleF
2465 2188 CircleF
2468 2207 CircleF
2470 2229 CircleF
2473 2217 CircleF
2476 2205 CircleF
2479 2203 CircleF
2482 2201 CircleF
2485 2193 CircleF
2488 2185 CircleF
2491 2167 CircleF
2494 2167 CircleF
2497 2177 CircleF
2500 2153 CircleF
2503 2164 CircleF
2505 2163 CircleF
2508 2167 CircleF
2511 2187 CircleF
2514 2179 CircleF
2517 2137 CircleF
2520 2157 CircleF
2523 2154 CircleF
2526 2154 CircleF
2529 2156 CircleF
2532 2266 CircleF
2535 2235 CircleF
2538 2133 CircleF
2541 2107 CircleF
2543 2130 CircleF
2546 2096 CircleF
2549 2091 CircleF
2552 2043 CircleF
2555 2092 CircleF
2558 2084 CircleF
2561 2092 CircleF
2564 2129 CircleF
2567 2084 CircleF
2570 2111 CircleF
2573 2082 CircleF
2576 2086 CircleF
2578 2060 CircleF
2581 2077 CircleF
2584 2069 CircleF
2587 2084 CircleF
2590 2068 CircleF
2593 2073 CircleF
2596 2048 CircleF
2599 2038 CircleF
2602 2057 CircleF
2605 2068 CircleF
2608 2018 CircleF
2611 2053 CircleF
2613 1989 CircleF
2616 2029 CircleF
2619 2021 CircleF
2622 2024 CircleF
2625 2061 CircleF
2628 2043 CircleF
2631 2046 CircleF
2634 2031 CircleF
2637 2048 CircleF
2640 2022 CircleF
2643 2002 CircleF
2646 2020 CircleF
2649 2011 CircleF
2651 2043 CircleF
2654 2049 CircleF
2657 2055 CircleF
2660 2026 CircleF
2663 2029 CircleF
2666 2066 CircleF
2669 2042 CircleF
2672 2015 CircleF
2675 2016 CircleF
2678 2021 CircleF
2681 2058 CircleF
2684 2033 CircleF
2686 2028 CircleF
2689 2028 CircleF
2692 2066 CircleF
2695 2005 CircleF
2698 2007 CircleF
2701 2035 CircleF
2704 1978 CircleF
2707 1980 CircleF
2710 1993 CircleF
2713 1967 CircleF
2716 2001 CircleF
2719 2005 CircleF
2722 2024 CircleF
2724 1960 CircleF
2727 2001 CircleF
2730 2016 CircleF
2733 1972 CircleF
2736 1932 CircleF
2739 1884 CircleF
2742 1936 CircleF
2745 1964 CircleF
2748 1954 CircleF
2751 1959 CircleF
2754 1948 CircleF
2757 1913 CircleF
2759 1917 CircleF
2762 1960 CircleF
2765 1930 CircleF
2768 1975 CircleF
2771 1934 CircleF
2774 1925 CircleF
2777 1970 CircleF
2780 1955 CircleF
2783 1930 CircleF
2786 1956 CircleF
2789 1932 CircleF
2792 1938 CircleF
2795 1910 CircleF
2797 1903 CircleF
2800 1900 CircleF
2803 1933 CircleF
2806 1868 CircleF
2809 1917 CircleF
2812 1901 CircleF
2815 1963 CircleF
2818 1938 CircleF
2821 1942 CircleF
2824 1940 CircleF
2827 1953 CircleF
2830 1958 CircleF
2832 1920 CircleF
2835 1913 CircleF
2838 1925 CircleF
2841 1951 CircleF
2844 1909 CircleF
2847 1923 CircleF
2850 1929 CircleF
2853 1976 CircleF
2856 1940 CircleF
2859 1916 CircleF
2862 1906 CircleF
2865 1867 CircleF
2867 1898 CircleF
2870 1909 CircleF
2873 1950 CircleF
2876 1927 CircleF
2879 1937 CircleF
2882 1950 CircleF
2885 1959 CircleF
2888 1970 CircleF
2891 1989 CircleF
2894 1936 CircleF
2897 1958 CircleF
2900 1942 CircleF
2903 1919 CircleF
2905 1975 CircleF
2908 1925 CircleF
2911 1934 CircleF
2914 1907 CircleF
2917 1932 CircleF
2920 1940 CircleF
2923 1885 CircleF
2926 1896 CircleF
2929 1934 CircleF
2932 1934 CircleF
2935 1895 CircleF
2938 1913 CircleF
2940 1872 CircleF
2943 1861 CircleF
2946 1835 CircleF
2949 1863 CircleF
2952 1839 CircleF
2955 1892 CircleF
2958 1893 CircleF
2961 1829 CircleF
2964 1904 CircleF
2967 1907 CircleF
2970 1811 CircleF
2973 1825 CircleF
2976 1835 CircleF
2978 1854 CircleF
2981 1860 CircleF
2984 1890 CircleF
2987 1839 CircleF
2990 1888 CircleF
2993 1875 CircleF
2996 1877 CircleF
2999 1870 CircleF
3002 1880 CircleF
3005 1867 CircleF
3008 1882 CircleF
3011 1893 CircleF
3013 1860 CircleF
3016 1856 CircleF
3019 1900 CircleF
3022 1845 CircleF
3025 1861 CircleF
3028 1856 CircleF
3031 1839 CircleF
3034 1861 CircleF
3037 1829 CircleF
3040 1776 CircleF
3043 1800 CircleF
3046 1748 CircleF
3049 1795 CircleF
3051 1817 CircleF
3054 1845 CircleF
3057 1817 CircleF
3060 1841 CircleF
3063 1839 CircleF
3066 1802 CircleF
3069 1788 CircleF
3072 1783 CircleF
3075 1800 CircleF
3078 1813 CircleF
3081 1740 CircleF
3084 1742 CircleF
3086 1815 CircleF
3089 1748 CircleF
3092 1827 CircleF
3095 1802 CircleF
3098 1748 CircleF
3101 1808 CircleF
3104 1815 CircleF
3107 1786 CircleF
3110 1793 CircleF
3113 1817 CircleF
3116 1793 CircleF
3119 1769 CircleF
3121 1823 CircleF
3124 1837 CircleF
3127 1790 CircleF
3130 1761 CircleF
3133 1728 CircleF
3136 1740 CircleF
3139 1774 CircleF
3142 1662 CircleF
3145 1710 CircleF
3148 1742 CircleF
3151 1728 CircleF
3154 1753 CircleF
3157 1771 CircleF
3159 1740 CircleF
3162 1788 CircleF
3165 1779 CircleF
3168 1766 CircleF
3171 1795 CircleF
3174 1748 CircleF
3177 1781 CircleF
3180 1728 CircleF
3183 1728 CircleF
3186 1710 CircleF
3189 1725 CircleF
3192 1753 CircleF
3194 1722 CircleF
3197 1722 CircleF
3200 1687 CircleF
3203 1704 CircleF
3206 1751 CircleF
3209 1779 CircleF
3212 1710 CircleF
3215 1776 CircleF
3218 1786 CircleF
3221 1835 CircleF
3224 1713 CircleF
3227 1774 CircleF
3230 1725 CircleF
3232 1697 CircleF
3235 1779 CircleF
3238 1774 CircleF
3241 1725 CircleF
3244 1759 CircleF
3247 1756 CircleF
3250 1764 CircleF
3253 1742 CircleF
3256 1771 CircleF
3259 1764 CircleF
3262 1662 CircleF
3265 1748 CircleF
3267 1753 CircleF
3270 1710 CircleF
3273 1680 CircleF
3276 1722 CircleF
3279 1700 CircleF
3282 1691 CircleF
3285 1639 CircleF
3288 1635 CircleF
3291 1643 CircleF
3294 1658 CircleF
3297 1704 CircleF
3300 1725 CircleF
3302 1710 CircleF
3305 1680 CircleF
3308 1680 CircleF
3311 1647 CircleF
3314 1684 CircleF
3317 1651 CircleF
3320 1622 CircleF
3323 1684 CircleF
3326 1666 CircleF
3329 1691 CircleF
3332 1655 CircleF
3335 1680 CircleF
3338 1643 CircleF
3340 1670 CircleF
3343 1700 CircleF
3346 1655 CircleF
3349 1728 CircleF
3352 1700 CircleF
3355 1759 CircleF
3358 1761 CircleF
3361 1707 CircleF
3364 1734 CircleF
3367 1793 CircleF
3370 1643 CircleF
3373 1647 CircleF
3375 1542 CircleF
3378 1590 CircleF
3381 1553 CircleF
3384 1595 CircleF
3387 1618 CircleF
3390 1635 CircleF
3393 1626 CircleF
3396 1524 CircleF
3399 1687 CircleF
3402 1662 CircleF
3405 1604 CircleF
3408 1569 CircleF
3411 1635 CircleF
3413 1580 CircleF
3416 1575 CircleF
3419 1569 CircleF
3422 1559 CircleF
3425 1697 CircleF
3428 1677 CircleF
3431 1722 CircleF
3434 1751 CircleF
3437 1700 CircleF
3440 1684 CircleF
3443 1639 CircleF
3446 1643 CircleF
3448 1694 CircleF
3451 1719 CircleF
3454 1548 CircleF
3457 1530 CircleF
3460 1580 CircleF
3463 1569 CircleF
3466 1536 CircleF
3469 1524 CircleF
3472 1585 CircleF
3475 1564 CircleF
3478 1590 CircleF
3481 1604 CircleF
3484 1542 CircleF
3486 1530 CircleF
3489 1497 CircleF
3492 1548 CircleF
3495 1468 CircleF
3498 1580 CircleF
3501 1553 CircleF
3504 1564 CircleF
3507 1585 CircleF
3510 1497 CircleF
3513 1548 CircleF
3516 1511 CircleF
3519 1569 CircleF
3521 1517 CircleF
3524 1553 CircleF
3527 1511 CircleF
3530 1524 CircleF
3533 1618 CircleF
3536 1618 CircleF
3539 1564 CircleF
3542 1530 CircleF
3545 1553 CircleF
3548 1609 CircleF
3551 1524 CircleF
3554 1635 CircleF
3556 1530 CircleF
3559 1575 CircleF
3562 1559 CircleF
3565 1590 CircleF
3568 1580 CircleF
3571 1599 CircleF
3574 1590 CircleF
3577 1542 CircleF
3580 1564 CircleF
3583 1559 CircleF
3586 1643 CircleF
3589 1599 CircleF
3592 1618 CircleF
3594 1673 CircleF
3597 1635 CircleF
3600 1631 CircleF
3603 1631 CircleF
3606 1595 CircleF
3609 1542 CircleF
3612 1613 CircleF
3615 1497 CircleF
3618 1643 CircleF
3621 1609 CircleF
3624 1530 CircleF
3627 1542 CircleF
3629 1613 CircleF
3632 1626 CircleF
3635 1604 CircleF
3638 1553 CircleF
3641 1622 CircleF
3644 1575 CircleF
3647 1626 CircleF
3650 1622 CircleF
3653 1504 CircleF
3656 1444 CircleF
3659 1536 CircleF
3662 1483 CircleF
3665 1483 CircleF
3667 1490 CircleF
3670 1504 CircleF
3673 1398 CircleF
3676 1388 CircleF
3679 1452 CircleF
3682 1436 CircleF
3685 1388 CircleF
3688 1398 CircleF
3691 1427 CircleF
3694 1355 CircleF
3697 1548 CircleF
3700 1524 CircleF
3702 1427 CircleF
3705 1408 CircleF
3708 1378 CircleF
3711 1460 CircleF
3714 1468 CircleF
3717 1452 CircleF
3720 1542 CircleF
3723 1398 CircleF
3726 1331 CircleF
3729 1427 CircleF
3732 1427 CircleF
3735 1343 CircleF
3738 1274 CircleF
3740 1222 CircleF
3743 1222 CircleF
3746 1258 CircleF
3749 1331 CircleF
3752 1222 CircleF
3755 1180 CircleF
3758 1258 CircleF
3761 1240 CircleF
3764 1180 CircleF
3767 1274 CircleF
3770 1131 CircleF
3773 1258 CircleF
3775 1240 CircleF
3778 1071 CircleF
3781 1240 CircleF
3784 1258 CircleF
3787 1367 CircleF
3790 1378 CircleF
3793 1274 CircleF
3796 1274 CircleF
3799 1103 CircleF
3802 1071 CircleF
3805 1289 CircleF
3808 1388 CircleF
3810 1240 CircleF
3813 1304 CircleF
3816 1222 CircleF
3819 1343 CircleF
3822 1240 CircleF
3825 1378 CircleF
3828 1240 CircleF
3831 1304 CircleF
3834 1202 CircleF
3837 1202 CircleF
3840 1202 CircleF
3843 1240 CircleF
3846 1274 CircleF
3848 1289 CircleF
3851 1103 CircleF
3854 1157 CircleF
3857 1304 CircleF
3860 1222 CircleF
3863 1318 CircleF
3866 1304 CircleF
3869 1258 CircleF
3872 1318 CircleF
3875 1240 CircleF
3878 1355 CircleF
3881 1318 CircleF
3883 1444 CircleF
3886 1240 CircleF
3889 1258 CircleF
3892 1274 CircleF
3895 1304 CircleF
3898 1318 CircleF
3901 1240 CircleF
3904 1408 CircleF
3907 1258 CircleF
3910 1331 CircleF
3913 1304 CircleF
3916 1258 CircleF
3919 1202 CircleF
3921 1157 CircleF
3924 1289 CircleF
3927 1258 CircleF
3930 994 CircleF
3933 1222 CircleF
3936 1035 CircleF
3939 994 CircleF
3942 945 CircleF
3945 945 CircleF
3948 994 CircleF
3951 1103 CircleF
3954 1035 CircleF
3956 1071 CircleF
3959 994 CircleF
3962 698 CircleF
3965 1258 CircleF
3968 1035 CircleF
3971 945 CircleF
3974 885 CircleF
3977 885 CircleF
3980 885 CircleF
3983 807 CircleF
3986 885 CircleF
3989 807 CircleF
3992 885 CircleF
3994 885 CircleF
3997 807 CircleF
4000 698 CircleF
4003 945 CircleF
4006 885 CircleF
4009 1071 CircleF
4012 807 CircleF
4015 807 CircleF
4018 945 CircleF
4021 945 CircleF
4024 994 CircleF
4027 698 CircleF
4029 994 CircleF
4032 994 CircleF
4035 885 CircleF
4038 1071 CircleF
4041 1131 CircleF
4044 1103 CircleF
4047 1103 CircleF
4050 807 CircleF
4053 994 CircleF
4056 1071 CircleF
4059 1202 CircleF
4062 698 CircleF
4064 994 CircleF
4067 1035 CircleF
4070 885 CircleF
4073 1071 CircleF
4076 994 CircleF
4079 1103 CircleF
4082 1157 CircleF
4085 1035 CircleF
4088 885 CircleF
4091 1071 CircleF
4094 994 CircleF
4097 885 CircleF
4100 994 CircleF
4102 1131 CircleF
4105 994 CircleF
4108 1103 CircleF
4111 945 CircleF
4114 994 CircleF
4117 1035 CircleF
4120 885 CircleF
4123 994 CircleF
4126 1071 CircleF
4129 994 CircleF
4132 994 CircleF
4135 1157 CircleF
4137 885 CircleF
4140 1071 CircleF
4143 1131 CircleF
4146 1157 CircleF
4149 1240 CircleF
4152 1331 CircleF
4155 1180 CircleF
4158 1157 CircleF
4161 1131 CircleF
4164 994 CircleF
4167 945 CircleF
4170 1222 CircleF
4173 1222 CircleF
4175 1274 CircleF
4178 1289 CircleF
4181 1398 CircleF
4184 1304 CircleF
4187 1343 CircleF
4190 1536 CircleF
4193 1289 CircleF
4196 1289 CircleF
4199 1388 CircleF
4202 1355 CircleF
4205 1367 CircleF
4208 1367 CircleF
4210 1355 CircleF
4213 1222 CircleF
4216 1398 CircleF
4219 1240 CircleF
4222 1331 CircleF
4225 1343 CircleF
4228 1355 CircleF
4231 1318 CircleF
4234 1157 CircleF
4237 1418 CircleF
4240 1071 CircleF
4243 1202 CircleF
4245 1071 CircleF
4248 1035 CircleF
4251 1157 CircleF
4254 1180 CircleF
4257 1157 CircleF
4260 1131 CircleF
4263 1103 CircleF
4266 1180 CircleF
4269 994 CircleF
4272 1157 CircleF
4275 994 CircleF
4278 1202 CircleF
4281 1180 CircleF
4283 1157 CircleF
4286 1035 CircleF
4289 1131 CircleF
4292 1131 CircleF
4295 1274 CircleF
4298 1103 CircleF
4301 1202 CircleF
4304 1180 CircleF
4307 1071 CircleF
4310 1071 CircleF
4313 1071 CircleF
4316 994 CircleF
4318 1071 CircleF
4321 807 CircleF
4324 1035 CircleF
4327 512 CircleF
4330 945 CircleF
4333 885 CircleF
4336 807 CircleF
4339 994 CircleF
4342 807 CircleF
4345 1180 CircleF
4348 1103 CircleF
4351 945 CircleF
4354 885 CircleF
4356 1103 CircleF
4359 945 CircleF
4362 1157 CircleF
4365 1035 CircleF
4368 698 CircleF
4371 1035 CircleF
4374 807 CircleF
4377 885 CircleF
4380 945 CircleF
4383 512 CircleF
4386 945 CircleF
4389 945 CircleF
4391 1035 CircleF
4394 994 CircleF
4397 885 CircleF
4400 1035 CircleF
4403 1035 CircleF
4406 1035 CircleF
4409 1035 CircleF
4412 1202 CircleF
4415 994 CircleF
4418 1202 CircleF
4421 1240 CircleF
4424 1103 CircleF
4427 1157 CircleF
4429 1258 CircleF
4432 1180 CircleF
4435 1157 CircleF
4438 1240 CircleF
4441 1103 CircleF
4444 1222 CircleF
4447 1035 CircleF
4450 1222 CircleF
4453 1202 CircleF
4456 1071 CircleF
4459 1157 CircleF
4462 1157 CircleF
4464 1157 CircleF
4467 1071 CircleF
4470 1202 CircleF
4473 1202 CircleF
4476 1035 CircleF
4479 885 CircleF
4482 1131 CircleF
4485 994 CircleF
4488 945 CircleF
4491 994 CircleF
4494 994 CircleF
4497 945 CircleF
4499 1035 CircleF
4502 807 CircleF
4505 807 CircleF
4508 885 CircleF
4511 945 CircleF
4514 945 CircleF
4517 1035 CircleF
4520 807 CircleF
4523 994 CircleF
4526 885 CircleF
4529 1035 CircleF
4532 994 CircleF
4535 698 CircleF
4537 807 CircleF
4540 698 CircleF
4543 807 CircleF
4546 885 CircleF
4549 945 CircleF
4552 698 CircleF
4555 512 CircleF
4558 698 CircleF
4561 807 CircleF
4564 1035 CircleF
4567 807 CircleF
4570 512 CircleF
4572 945 CircleF
4575 807 CircleF
4578 512 CircleF
4581 1071 CircleF
4584 885 CircleF
4587 945 CircleF
4590 994 CircleF
4593 945 CircleF
4596 1131 CircleF
4599 698 CircleF
4602 1035 CircleF
4605 994 CircleF
4608 1071 CircleF
4610 1131 CircleF
4613 994 CircleF
4616 807 CircleF
4619 945 CircleF
4622 1103 CircleF
4628 885 CircleF
4631 945 CircleF
4634 885 CircleF
4637 698 CircleF
4640 1035 CircleF
4643 994 CircleF
4645 698 CircleF
4648 885 CircleF
4651 945 CircleF
4654 807 CircleF
4657 885 CircleF
4660 885 CircleF
4663 945 CircleF
4666 885 CircleF
4669 698 CircleF
4672 698 CircleF
4675 945 CircleF
4678 994 CircleF
4681 807 CircleF
4683 1071 CircleF
4686 994 CircleF
4689 807 CircleF
4692 994 CircleF
4695 945 CircleF
4698 1103 CircleF
4701 994 CircleF
4704 1071 CircleF
4707 1071 CircleF
4710 698 CircleF
4713 994 CircleF
4716 698 CircleF
4718 885 CircleF
4721 885 CircleF
4724 1035 CircleF
4727 698 CircleF
4730 698 CircleF
4733 698 CircleF
4736 994 CircleF
4739 885 CircleF
4742 994 CircleF
4745 1103 CircleF
4748 1131 CircleF
4751 994 CircleF
4753 807 CircleF
4756 1035 CircleF
4759 1035 CircleF
4762 885 CircleF
4765 1157 CircleF
4768 1035 CircleF
4771 945 CircleF
4774 994 CircleF
4777 698 CircleF
4780 1157 CircleF
4783 1103 CircleF
4786 1103 CircleF
4789 1240 CircleF
4791 1131 CircleF
4794 1258 CircleF
4797 1274 CircleF
4800 1103 CircleF
4803 1258 CircleF
4806 1157 CircleF
4809 1202 CircleF
4812 1071 CircleF
4815 1240 CircleF
4818 1157 CircleF
4821 1258 CircleF
4824 1274 CircleF
4826 1258 CircleF
4829 1274 CircleF
4832 1071 CircleF
4835 1071 CircleF
4838 1157 CircleF
4841 1202 CircleF
4844 1274 CircleF
4847 1304 CircleF
4850 1289 CircleF
4853 1222 CircleF
4856 1157 CircleF
4859 1131 CircleF
4862 1202 CircleF
4864 994 CircleF
4867 1157 CircleF
4870 994 CircleF
4873 1222 CircleF
4876 1180 CircleF
4879 1222 CircleF
4882 1131 CircleF
4885 1180 CircleF
4888 1103 CircleF
4891 1222 CircleF
4894 945 CircleF
4897 1202 CircleF
4899 1157 CircleF
4902 1274 CircleF
4905 1240 CircleF
4908 1131 CircleF
4911 1240 CircleF
4914 1131 CircleF
4917 1274 CircleF
4920 1071 CircleF
4923 1035 CircleF
4926 1157 CircleF
4929 1103 CircleF
4932 885 CircleF
4934 1180 CircleF
4937 1035 CircleF
4940 1131 CircleF
4943 945 CircleF
4946 885 CircleF
4949 994 CircleF
4952 807 CircleF
4955 1071 CircleF
4958 994 CircleF
4961 994 CircleF
4964 994 CircleF
4967 1180 CircleF
4970 1035 CircleF
4972 1103 CircleF
4975 1180 CircleF
4978 1131 CircleF
4981 698 CircleF
4984 994 CircleF
4987 1131 CircleF
4990 994 CircleF
4993 1071 CircleF
4996 945 CircleF
4999 1103 CircleF
5002 1035 CircleF
5005 1157 CircleF
5007 1103 CircleF
5010 994 CircleF
5013 1222 CircleF
5016 1180 CircleF
5019 1240 CircleF
5022 1274 CircleF
5025 1131 CircleF
5028 1103 CircleF
5031 1035 CircleF
5034 1343 CircleF
5037 1240 CircleF
5040 1289 CircleF
5043 1318 CircleF
5045 1378 CircleF
5048 1343 CircleF
5051 1378 CircleF
5054 1222 CircleF
5057 1103 CircleF
5060 1202 CircleF
5063 1202 CircleF
5066 1035 CircleF
5069 1157 CircleF
5072 1035 CircleF
5075 1131 CircleF
5078 1071 CircleF
5080 945 CircleF
5083 698 CircleF
5086 994 CircleF
5089 1035 CircleF
5092 807 CircleF
5095 1035 CircleF
5098 807 CircleF
5101 994 CircleF
5104 1103 CircleF
5107 885 CircleF
5110 1035 CircleF
5113 885 CircleF
5116 945 CircleF
5118 698 CircleF
5121 994 CircleF
5124 698 CircleF
5127 994 CircleF
5130 807 CircleF
5133 1071 CircleF
5136 807 CircleF
5139 885 CircleF
5142 885 CircleF
5145 512 CircleF
5148 994 CircleF
5151 698 CircleF
5153 994 CircleF
5156 1071 CircleF
5159 945 CircleF
5162 885 CircleF
5165 1157 CircleF
5168 698 CircleF
5171 885 CircleF
5174 885 CircleF
5177 1035 CircleF
5180 1071 CircleF
5183 1103 CircleF
5186 512 CircleF
5188 885 CircleF
5191 698 CircleF
5194 1035 CircleF
5197 807 CircleF
5200 994 CircleF
5203 945 CircleF
5206 807 CircleF
5209 1035 CircleF
5212 885 CircleF
5215 885 CircleF
5218 698 CircleF
5226 945 CircleF
5229 885 CircleF
5232 945 CircleF
5235 885 CircleF
5238 885 CircleF
5241 885 CircleF
5244 698 CircleF
5247 807 CircleF
5250 885 CircleF
5253 698 CircleF
5256 698 CircleF
5259 885 CircleF
5261 512 CircleF
5264 512 CircleF
5273 698 CircleF
5276 807 CircleF
5279 807 CircleF
5282 807 CircleF
5285 512 CircleF
5288 807 CircleF
5291 698 CircleF
5294 512 CircleF
5297 698 CircleF
5299 885 CircleF
5302 698 CircleF
5305 512 CircleF
5308 512 CircleF
5311 945 CircleF
5314 698 CircleF
5317 698 CircleF
5320 512 CircleF
5323 885 CircleF
5326 512 CircleF
5329 512 CircleF
5332 512 CircleF
5334 512 CircleF
5337 807 CircleF
5340 698 CircleF
5343 512 CircleF
5346 885 CircleF
5349 512 CircleF
5352 698 CircleF
5355 512 CircleF
5361 807 CircleF
5364 807 CircleF
5375 512 CircleF
5378 807 CircleF
5384 698 CircleF
5387 698 CircleF
5390 512 CircleF
5399 512 CircleF
5402 512 CircleF
5405 512 CircleF
5407 885 CircleF
5410 698 CircleF
5413 807 CircleF
5416 512 CircleF
5419 807 CircleF
5422 807 CircleF
5425 885 CircleF
5428 512 CircleF
5431 512 CircleF
5434 807 CircleF
5437 698 CircleF
5440 698 CircleF
5442 698 CircleF
5445 698 CircleF
5448 885 CircleF
5451 698 CircleF
5454 807 CircleF
5457 807 CircleF
5460 512 CircleF
5466 945 CircleF
5469 512 CircleF
5472 885 CircleF
5475 807 CircleF
5478 807 CircleF
5480 885 CircleF
5483 807 CircleF
5486 698 CircleF
5489 945 CircleF
5492 885 CircleF
5495 994 CircleF
5498 698 CircleF
5501 698 CircleF
5504 698 CircleF
5507 994 CircleF
5510 945 CircleF
5513 807 CircleF
5515 807 CircleF
5518 945 CircleF
5521 807 CircleF
5524 512 CircleF
5530 698 CircleF
5533 807 CircleF
5539 994 CircleF
5542 512 CircleF
5545 945 CircleF
5548 807 CircleF
5551 512 CircleF
5556 807 CircleF
5559 698 CircleF
5562 807 CircleF
5565 698 CircleF
5568 945 CircleF
5571 698 CircleF
5580 1035 CircleF
5583 512 CircleF
5588 698 CircleF
5591 698 CircleF
5594 807 CircleF
5597 512 CircleF
5600 807 CircleF
5603 512 CircleF
5606 885 CircleF
5609 885 CircleF
5612 512 CircleF
5615 807 CircleF
5618 698 CircleF
5621 807 CircleF
5626 512 CircleF
5629 807 CircleF
5632 512 CircleF
5635 512 CircleF
5638 512 CircleF
5641 512 CircleF
5644 512 CircleF
5647 807 CircleF
5650 698 CircleF
5653 512 CircleF
5659 512 CircleF
5661 698 CircleF
5667 512 CircleF
5670 512 CircleF
5673 512 CircleF
5679 698 CircleF
5682 807 CircleF
5688 698 CircleF
5691 945 CircleF
5694 512 CircleF
5699 512 CircleF
5702 807 CircleF
5705 945 CircleF
5708 512 CircleF
5711 698 CircleF
5714 698 CircleF
5717 512 CircleF
5720 945 CircleF
5723 512 CircleF
5726 698 CircleF
5732 512 CircleF
5734 698 CircleF
5737 807 CircleF
5743 698 CircleF
5749 698 CircleF
5752 512 CircleF
5755 885 CircleF
5758 807 CircleF
5761 512 CircleF
5764 698 CircleF
5767 698 CircleF
5769 512 CircleF
5772 512 CircleF
5775 512 CircleF
5778 698 CircleF
5781 885 CircleF
5784 698 CircleF
5787 512 CircleF
5793 698 CircleF
5796 512 CircleF
5802 512 CircleF
5805 512 CircleF
5810 698 CircleF
5813 698 CircleF
5816 512 CircleF
5819 512 CircleF
5822 512 CircleF
5828 698 CircleF
5831 512 CircleF
5845 512 CircleF
5848 698 CircleF
5851 698 CircleF
5857 698 CircleF
5860 698 CircleF
5863 512 CircleF
5869 512 CircleF
5872 512 CircleF
5883 698 CircleF
5892 698 CircleF
5898 698 CircleF
5907 512 CircleF
5913 512 CircleF
5924 698 CircleF
5930 512 CircleF
5950 512 CircleF
5953 512 CircleF
5959 512 CircleF
5965 512 CircleF
5968 512 CircleF
5977 512 CircleF
5980 512 CircleF
5983 512 CircleF
6009 512 CircleF
6012 512 CircleF
6018 512 CircleF
6021 512 CircleF
6029 512 CircleF
6032 698 CircleF
6035 512 CircleF
6044 512 CircleF
6047 698 CircleF
6053 512 CircleF
6059 512 CircleF
6061 512 CircleF
6076 512 CircleF
6079 512 CircleF
6088 512 CircleF
6094 512 CircleF
6099 807 CircleF
6102 698 CircleF
6105 512 CircleF
6108 698 CircleF
6117 512 CircleF
6129 698 CircleF
6134 512 CircleF
6137 512 CircleF
6161 512 CircleF
6164 512 CircleF
6175 512 CircleF
6190 512 CircleF
6207 512 CircleF
6210 512 CircleF
6213 512 CircleF
6216 512 CircleF
6222 512 CircleF
6228 512 CircleF
6231 512 CircleF
6237 698 CircleF
6257 698 CircleF
6260 512 CircleF
6298 512 CircleF
6304 698 CircleF
6307 512 CircleF
6318 512 CircleF
6327 512 CircleF
6330 512 CircleF
6333 512 CircleF
6339 698 CircleF
6342 512 CircleF
6348 512 CircleF
6350 698 CircleF
6353 807 CircleF
6356 512 CircleF
6359 512 CircleF
6362 512 CircleF
6365 512 CircleF
6368 885 CircleF
6371 807 CircleF
6374 807 CircleF
6377 698 CircleF
6380 512 CircleF
6383 807 CircleF
6385 698 CircleF
6388 698 CircleF
6391 807 CircleF
6394 698 CircleF
6397 885 CircleF
6400 512 CircleF
6409 512 CircleF
6412 698 CircleF
6418 698 CircleF
6432 512 CircleF
6438 698 CircleF
6441 698 CircleF
6444 698 CircleF
6447 885 CircleF
6450 807 CircleF
6456 512 CircleF
6464 698 CircleF
6467 698 CircleF
6470 512 CircleF
6473 512 CircleF
6476 698 CircleF
6479 807 CircleF
6482 945 CircleF
6485 807 CircleF
6488 512 CircleF
6491 698 CircleF
6494 885 CircleF
6496 512 CircleF
6499 512 CircleF
6505 512 CircleF
6508 698 CircleF
6511 698 CircleF
6514 512 CircleF
6523 512 CircleF
% End plot #1
1.000 UL
LTb
LCb setrgbcolor
1072 4847 N
0 -4335 V
5839 0 V
0 4335 V
-5839 0 V
Z stroke
1.000 UP
1.000 UL
LTb
LCb setrgbcolor
stroke
grestore
end
showpage
%%Trailer
%%DocumentFonts: Helvetica
