%!PS-Adobe-2.0 EPSF-2.0
%%Title: nbrDist.eps
%%Creator: gnuplot 4.6 patchlevel 2
%%CreationDate: Thu Sep 19 11:23:32 2019
%%DocumentFonts: (atend)
%%BoundingBox: 50 50 410 302
%%EndComments
%%BeginProlog
/gnudict 256 dict def
gnudict begin
%
% The following true/false flags may be edited by hand if desired.
% The unit line width and grayscale image gamma correction may also be changed.
%
/Color true def
/Blacktext false def
/Solid false def
/Dashlength 1 def
/Landscape false def
/Level1 false def
/Rounded false def
/ClipToBoundingBox false def
/SuppressPDFMark false def
/TransparentPatterns false def
/gnulinewidth 5.000 def
/userlinewidth gnulinewidth def
/Gamma 1.0 def
/BackgroundColor {-1.000 -1.000 -1.000} def
%
/vshift -53 def
/dl1 {
  10.0 Dashlength mul mul
  Rounded { currentlinewidth 0.75 mul sub dup 0 le { pop 0.01 } if } if
} def
/dl2 {
  10.0 Dashlength mul mul
  Rounded { currentlinewidth 0.75 mul add } if
} def
/hpt_ 31.5 def
/vpt_ 31.5 def
/hpt hpt_ def
/vpt vpt_ def
/doclip {
  ClipToBoundingBox {
    newpath 50 50 moveto 410 50 lineto 410 302 lineto 50 302 lineto closepath
    clip
  } if
} def
%
% Gnuplot Prolog Version 4.6 (September 2012)
%
%/SuppressPDFMark true def
%
/M {moveto} bind def
/L {lineto} bind def
/R {rmoveto} bind def
/V {rlineto} bind def
/N {newpath moveto} bind def
/Z {closepath} bind def
/C {setrgbcolor} bind def
/f {rlineto fill} bind def
/g {setgray} bind def
/Gshow {show} def   % May be redefined later in the file to support UTF-8
/vpt2 vpt 2 mul def
/hpt2 hpt 2 mul def
/Lshow {currentpoint stroke M 0 vshift R 
	Blacktext {gsave 0 setgray show grestore} {show} ifelse} def
/Rshow {currentpoint stroke M dup stringwidth pop neg vshift R
	Blacktext {gsave 0 setgray show grestore} {show} ifelse} def
/Cshow {currentpoint stroke M dup stringwidth pop -2 div vshift R 
	Blacktext {gsave 0 setgray show grestore} {show} ifelse} def
/UP {dup vpt_ mul /vpt exch def hpt_ mul /hpt exch def
  /hpt2 hpt 2 mul def /vpt2 vpt 2 mul def} def
/DL {Color {setrgbcolor Solid {pop []} if 0 setdash}
 {pop pop pop 0 setgray Solid {pop []} if 0 setdash} ifelse} def
/BL {stroke userlinewidth 2 mul setlinewidth
	Rounded {1 setlinejoin 1 setlinecap} if} def
/AL {stroke userlinewidth 2 div setlinewidth
	Rounded {1 setlinejoin 1 setlinecap} if} def
/UL {dup gnulinewidth mul /userlinewidth exch def
	dup 1 lt {pop 1} if 10 mul /udl exch def} def
/PL {stroke userlinewidth setlinewidth
	Rounded {1 setlinejoin 1 setlinecap} if} def
3.8 setmiterlimit
% Default Line colors
/LCw {1 1 1} def
/LCb {0 0 0} def
/LCa {0 0 0} def
/LC0 {1 0 0} def
/LC1 {0 1 0} def
/LC2 {0 0 1} def
/LC3 {1 0 1} def
/LC4 {0 1 1} def
/LC5 {1 1 0} def
/LC6 {0 0 0} def
/LC7 {1 0.3 0} def
/LC8 {0.5 0.5 0.5} def
% Default Line Types
/LTw {PL [] 1 setgray} def
/LTb {BL [] LCb DL} def
/LTa {AL [1 udl mul 2 udl mul] 0 setdash LCa setrgbcolor} def
/LT0 {PL [] LC0 DL} def
/LT1 {PL [4 dl1 2 dl2] LC1 DL} def
/LT2 {PL [2 dl1 3 dl2] LC2 DL} def
/LT3 {PL [1 dl1 1.5 dl2] LC3 DL} def
/LT4 {PL [6 dl1 2 dl2 1 dl1 2 dl2] LC4 DL} def
/LT5 {PL [3 dl1 3 dl2 1 dl1 3 dl2] LC5 DL} def
/LT6 {PL [2 dl1 2 dl2 2 dl1 6 dl2] LC6 DL} def
/LT7 {PL [1 dl1 2 dl2 6 dl1 2 dl2 1 dl1 2 dl2] LC7 DL} def
/LT8 {PL [2 dl1 2 dl2 2 dl1 2 dl2 2 dl1 2 dl2 2 dl1 4 dl2] LC8 DL} def
/Pnt {stroke [] 0 setdash gsave 1 setlinecap M 0 0 V stroke grestore} def
/Dia {stroke [] 0 setdash 2 copy vpt add M
  hpt neg vpt neg V hpt vpt neg V
  hpt vpt V hpt neg vpt V closepath stroke
  Pnt} def
/Pls {stroke [] 0 setdash vpt sub M 0 vpt2 V
  currentpoint stroke M
  hpt neg vpt neg R hpt2 0 V stroke
 } def
/Box {stroke [] 0 setdash 2 copy exch hpt sub exch vpt add M
  0 vpt2 neg V hpt2 0 V 0 vpt2 V
  hpt2 neg 0 V closepath stroke
  Pnt} def
/Crs {stroke [] 0 setdash exch hpt sub exch vpt add M
  hpt2 vpt2 neg V currentpoint stroke M
  hpt2 neg 0 R hpt2 vpt2 V stroke} def
/TriU {stroke [] 0 setdash 2 copy vpt 1.12 mul add M
  hpt neg vpt -1.62 mul V
  hpt 2 mul 0 V
  hpt neg vpt 1.62 mul V closepath stroke
  Pnt} def
/Star {2 copy Pls Crs} def
/BoxF {stroke [] 0 setdash exch hpt sub exch vpt add M
  0 vpt2 neg V hpt2 0 V 0 vpt2 V
  hpt2 neg 0 V closepath fill} def
/TriUF {stroke [] 0 setdash vpt 1.12 mul add M
  hpt neg vpt -1.62 mul V
  hpt 2 mul 0 V
  hpt neg vpt 1.62 mul V closepath fill} def
/TriD {stroke [] 0 setdash 2 copy vpt 1.12 mul sub M
  hpt neg vpt 1.62 mul V
  hpt 2 mul 0 V
  hpt neg vpt -1.62 mul V closepath stroke
  Pnt} def
/TriDF {stroke [] 0 setdash vpt 1.12 mul sub M
  hpt neg vpt 1.62 mul V
  hpt 2 mul 0 V
  hpt neg vpt -1.62 mul V closepath fill} def
/DiaF {stroke [] 0 setdash vpt add M
  hpt neg vpt neg V hpt vpt neg V
  hpt vpt V hpt neg vpt V closepath fill} def
/Pent {stroke [] 0 setdash 2 copy gsave
  translate 0 hpt M 4 {72 rotate 0 hpt L} repeat
  closepath stroke grestore Pnt} def
/PentF {stroke [] 0 setdash gsave
  translate 0 hpt M 4 {72 rotate 0 hpt L} repeat
  closepath fill grestore} def
/Circle {stroke [] 0 setdash 2 copy
  hpt 0 360 arc stroke Pnt} def
/CircleF {stroke [] 0 setdash hpt 0 360 arc fill} def
/C0 {BL [] 0 setdash 2 copy moveto vpt 90 450 arc} bind def
/C1 {BL [] 0 setdash 2 copy moveto
	2 copy vpt 0 90 arc closepath fill
	vpt 0 360 arc closepath} bind def
/C2 {BL [] 0 setdash 2 copy moveto
	2 copy vpt 90 180 arc closepath fill
	vpt 0 360 arc closepath} bind def
/C3 {BL [] 0 setdash 2 copy moveto
	2 copy vpt 0 180 arc closepath fill
	vpt 0 360 arc closepath} bind def
/C4 {BL [] 0 setdash 2 copy moveto
	2 copy vpt 180 270 arc closepath fill
	vpt 0 360 arc closepath} bind def
/C5 {BL [] 0 setdash 2 copy moveto
	2 copy vpt 0 90 arc
	2 copy moveto
	2 copy vpt 180 270 arc closepath fill
	vpt 0 360 arc} bind def
/C6 {BL [] 0 setdash 2 copy moveto
	2 copy vpt 90 270 arc closepath fill
	vpt 0 360 arc closepath} bind def
/C7 {BL [] 0 setdash 2 copy moveto
	2 copy vpt 0 270 arc closepath fill
	vpt 0 360 arc closepath} bind def
/C8 {BL [] 0 setdash 2 copy moveto
	2 copy vpt 270 360 arc closepath fill
	vpt 0 360 arc closepath} bind def
/C9 {BL [] 0 setdash 2 copy moveto
	2 copy vpt 270 450 arc closepath fill
	vpt 0 360 arc closepath} bind def
/C10 {BL [] 0 setdash 2 copy 2 copy moveto vpt 270 360 arc closepath fill
	2 copy moveto
	2 copy vpt 90 180 arc closepath fill
	vpt 0 360 arc closepath} bind def
/C11 {BL [] 0 setdash 2 copy moveto
	2 copy vpt 0 180 arc closepath fill
	2 copy moveto
	2 copy vpt 270 360 arc closepath fill
	vpt 0 360 arc closepath} bind def
/C12 {BL [] 0 setdash 2 copy moveto
	2 copy vpt 180 360 arc closepath fill
	vpt 0 360 arc closepath} bind def
/C13 {BL [] 0 setdash 2 copy moveto
	2 copy vpt 0 90 arc closepath fill
	2 copy moveto
	2 copy vpt 180 360 arc closepath fill
	vpt 0 360 arc closepath} bind def
/C14 {BL [] 0 setdash 2 copy moveto
	2 copy vpt 90 360 arc closepath fill
	vpt 0 360 arc} bind def
/C15 {BL [] 0 setdash 2 copy vpt 0 360 arc closepath fill
	vpt 0 360 arc closepath} bind def
/Rec {newpath 4 2 roll moveto 1 index 0 rlineto 0 exch rlineto
	neg 0 rlineto closepath} bind def
/Square {dup Rec} bind def
/Bsquare {vpt sub exch vpt sub exch vpt2 Square} bind def
/S0 {BL [] 0 setdash 2 copy moveto 0 vpt rlineto BL Bsquare} bind def
/S1 {BL [] 0 setdash 2 copy vpt Square fill Bsquare} bind def
/S2 {BL [] 0 setdash 2 copy exch vpt sub exch vpt Square fill Bsquare} bind def
/S3 {BL [] 0 setdash 2 copy exch vpt sub exch vpt2 vpt Rec fill Bsquare} bind def
/S4 {BL [] 0 setdash 2 copy exch vpt sub exch vpt sub vpt Square fill Bsquare} bind def
/S5 {BL [] 0 setdash 2 copy 2 copy vpt Square fill
	exch vpt sub exch vpt sub vpt Square fill Bsquare} bind def
/S6 {BL [] 0 setdash 2 copy exch vpt sub exch vpt sub vpt vpt2 Rec fill Bsquare} bind def
/S7 {BL [] 0 setdash 2 copy exch vpt sub exch vpt sub vpt vpt2 Rec fill
	2 copy vpt Square fill Bsquare} bind def
/S8 {BL [] 0 setdash 2 copy vpt sub vpt Square fill Bsquare} bind def
/S9 {BL [] 0 setdash 2 copy vpt sub vpt vpt2 Rec fill Bsquare} bind def
/S10 {BL [] 0 setdash 2 copy vpt sub vpt Square fill 2 copy exch vpt sub exch vpt Square fill
	Bsquare} bind def
/S11 {BL [] 0 setdash 2 copy vpt sub vpt Square fill 2 copy exch vpt sub exch vpt2 vpt Rec fill
	Bsquare} bind def
/S12 {BL [] 0 setdash 2 copy exch vpt sub exch vpt sub vpt2 vpt Rec fill Bsquare} bind def
/S13 {BL [] 0 setdash 2 copy exch vpt sub exch vpt sub vpt2 vpt Rec fill
	2 copy vpt Square fill Bsquare} bind def
/S14 {BL [] 0 setdash 2 copy exch vpt sub exch vpt sub vpt2 vpt Rec fill
	2 copy exch vpt sub exch vpt Square fill Bsquare} bind def
/S15 {BL [] 0 setdash 2 copy Bsquare fill Bsquare} bind def
/D0 {gsave translate 45 rotate 0 0 S0 stroke grestore} bind def
/D1 {gsave translate 45 rotate 0 0 S1 stroke grestore} bind def
/D2 {gsave translate 45 rotate 0 0 S2 stroke grestore} bind def
/D3 {gsave translate 45 rotate 0 0 S3 stroke grestore} bind def
/D4 {gsave translate 45 rotate 0 0 S4 stroke grestore} bind def
/D5 {gsave translate 45 rotate 0 0 S5 stroke grestore} bind def
/D6 {gsave translate 45 rotate 0 0 S6 stroke grestore} bind def
/D7 {gsave translate 45 rotate 0 0 S7 stroke grestore} bind def
/D8 {gsave translate 45 rotate 0 0 S8 stroke grestore} bind def
/D9 {gsave translate 45 rotate 0 0 S9 stroke grestore} bind def
/D10 {gsave translate 45 rotate 0 0 S10 stroke grestore} bind def
/D11 {gsave translate 45 rotate 0 0 S11 stroke grestore} bind def
/D12 {gsave translate 45 rotate 0 0 S12 stroke grestore} bind def
/D13 {gsave translate 45 rotate 0 0 S13 stroke grestore} bind def
/D14 {gsave translate 45 rotate 0 0 S14 stroke grestore} bind def
/D15 {gsave translate 45 rotate 0 0 S15 stroke grestore} bind def
/DiaE {stroke [] 0 setdash vpt add M
  hpt neg vpt neg V hpt vpt neg V
  hpt vpt V hpt neg vpt V closepath stroke} def
/BoxE {stroke [] 0 setdash exch hpt sub exch vpt add M
  0 vpt2 neg V hpt2 0 V 0 vpt2 V
  hpt2 neg 0 V closepath stroke} def
/TriUE {stroke [] 0 setdash vpt 1.12 mul add M
  hpt neg vpt -1.62 mul V
  hpt 2 mul 0 V
  hpt neg vpt 1.62 mul V closepath stroke} def
/TriDE {stroke [] 0 setdash vpt 1.12 mul sub M
  hpt neg vpt 1.62 mul V
  hpt 2 mul 0 V
  hpt neg vpt -1.62 mul V closepath stroke} def
/PentE {stroke [] 0 setdash gsave
  translate 0 hpt M 4 {72 rotate 0 hpt L} repeat
  closepath stroke grestore} def
/CircE {stroke [] 0 setdash 
  hpt 0 360 arc stroke} def
/Opaque {gsave closepath 1 setgray fill grestore 0 setgray closepath} def
/DiaW {stroke [] 0 setdash vpt add M
  hpt neg vpt neg V hpt vpt neg V
  hpt vpt V hpt neg vpt V Opaque stroke} def
/BoxW {stroke [] 0 setdash exch hpt sub exch vpt add M
  0 vpt2 neg V hpt2 0 V 0 vpt2 V
  hpt2 neg 0 V Opaque stroke} def
/TriUW {stroke [] 0 setdash vpt 1.12 mul add M
  hpt neg vpt -1.62 mul V
  hpt 2 mul 0 V
  hpt neg vpt 1.62 mul V Opaque stroke} def
/TriDW {stroke [] 0 setdash vpt 1.12 mul sub M
  hpt neg vpt 1.62 mul V
  hpt 2 mul 0 V
  hpt neg vpt -1.62 mul V Opaque stroke} def
/PentW {stroke [] 0 setdash gsave
  translate 0 hpt M 4 {72 rotate 0 hpt L} repeat
  Opaque stroke grestore} def
/CircW {stroke [] 0 setdash 
  hpt 0 360 arc Opaque stroke} def
/BoxFill {gsave Rec 1 setgray fill grestore} def
/Density {
  /Fillden exch def
  currentrgbcolor
  /ColB exch def /ColG exch def /ColR exch def
  /ColR ColR Fillden mul Fillden sub 1 add def
  /ColG ColG Fillden mul Fillden sub 1 add def
  /ColB ColB Fillden mul Fillden sub 1 add def
  ColR ColG ColB setrgbcolor} def
/BoxColFill {gsave Rec PolyFill} def
/PolyFill {gsave Density fill grestore grestore} def
/h {rlineto rlineto rlineto gsave closepath fill grestore} bind def
%
% PostScript Level 1 Pattern Fill routine for rectangles
% Usage: x y w h s a XX PatternFill
%	x,y = lower left corner of box to be filled
%	w,h = width and height of box
%	  a = angle in degrees between lines and x-axis
%	 XX = 0/1 for no/yes cross-hatch
%
/PatternFill {gsave /PFa [ 9 2 roll ] def
  PFa 0 get PFa 2 get 2 div add PFa 1 get PFa 3 get 2 div add translate
  PFa 2 get -2 div PFa 3 get -2 div PFa 2 get PFa 3 get Rec
  TransparentPatterns {} {gsave 1 setgray fill grestore} ifelse
  clip
  currentlinewidth 0.5 mul setlinewidth
  /PFs PFa 2 get dup mul PFa 3 get dup mul add sqrt def
  0 0 M PFa 5 get rotate PFs -2 div dup translate
  0 1 PFs PFa 4 get div 1 add floor cvi
	{PFa 4 get mul 0 M 0 PFs V} for
  0 PFa 6 get ne {
	0 1 PFs PFa 4 get div 1 add floor cvi
	{PFa 4 get mul 0 2 1 roll M PFs 0 V} for
 } if
  stroke grestore} def
%
/languagelevel where
 {pop languagelevel} {1} ifelse
 2 lt
	{/InterpretLevel1 true def}
	{/InterpretLevel1 Level1 def}
 ifelse
%
% PostScript level 2 pattern fill definitions
%
/Level2PatternFill {
/Tile8x8 {/PaintType 2 /PatternType 1 /TilingType 1 /BBox [0 0 8 8] /XStep 8 /YStep 8}
	bind def
/KeepColor {currentrgbcolor [/Pattern /DeviceRGB] setcolorspace} bind def
<< Tile8x8
 /PaintProc {0.5 setlinewidth pop 0 0 M 8 8 L 0 8 M 8 0 L stroke} 
>> matrix makepattern
/Pat1 exch def
<< Tile8x8
 /PaintProc {0.5 setlinewidth pop 0 0 M 8 8 L 0 8 M 8 0 L stroke
	0 4 M 4 8 L 8 4 L 4 0 L 0 4 L stroke}
>> matrix makepattern
/Pat2 exch def
<< Tile8x8
 /PaintProc {0.5 setlinewidth pop 0 0 M 0 8 L
	8 8 L 8 0 L 0 0 L fill}
>> matrix makepattern
/Pat3 exch def
<< Tile8x8
 /PaintProc {0.5 setlinewidth pop -4 8 M 8 -4 L
	0 12 M 12 0 L stroke}
>> matrix makepattern
/Pat4 exch def
<< Tile8x8
 /PaintProc {0.5 setlinewidth pop -4 0 M 8 12 L
	0 -4 M 12 8 L stroke}
>> matrix makepattern
/Pat5 exch def
<< Tile8x8
 /PaintProc {0.5 setlinewidth pop -2 8 M 4 -4 L
	0 12 M 8 -4 L 4 12 M 10 0 L stroke}
>> matrix makepattern
/Pat6 exch def
<< Tile8x8
 /PaintProc {0.5 setlinewidth pop -2 0 M 4 12 L
	0 -4 M 8 12 L 4 -4 M 10 8 L stroke}
>> matrix makepattern
/Pat7 exch def
<< Tile8x8
 /PaintProc {0.5 setlinewidth pop 8 -2 M -4 4 L
	12 0 M -4 8 L 12 4 M 0 10 L stroke}
>> matrix makepattern
/Pat8 exch def
<< Tile8x8
 /PaintProc {0.5 setlinewidth pop 0 -2 M 12 4 L
	-4 0 M 12 8 L -4 4 M 8 10 L stroke}
>> matrix makepattern
/Pat9 exch def
/Pattern1 {PatternBgnd KeepColor Pat1 setpattern} bind def
/Pattern2 {PatternBgnd KeepColor Pat2 setpattern} bind def
/Pattern3 {PatternBgnd KeepColor Pat3 setpattern} bind def
/Pattern4 {PatternBgnd KeepColor Landscape {Pat5} {Pat4} ifelse setpattern} bind def
/Pattern5 {PatternBgnd KeepColor Landscape {Pat4} {Pat5} ifelse setpattern} bind def
/Pattern6 {PatternBgnd KeepColor Landscape {Pat9} {Pat6} ifelse setpattern} bind def
/Pattern7 {PatternBgnd KeepColor Landscape {Pat8} {Pat7} ifelse setpattern} bind def
} def
%
%
%End of PostScript Level 2 code
%
/PatternBgnd {
  TransparentPatterns {} {gsave 1 setgray fill grestore} ifelse
} def
%
% Substitute for Level 2 pattern fill codes with
% grayscale if Level 2 support is not selected.
%
/Level1PatternFill {
/Pattern1 {0.250 Density} bind def
/Pattern2 {0.500 Density} bind def
/Pattern3 {0.750 Density} bind def
/Pattern4 {0.125 Density} bind def
/Pattern5 {0.375 Density} bind def
/Pattern6 {0.625 Density} bind def
/Pattern7 {0.875 Density} bind def
} def
%
% Now test for support of Level 2 code
%
Level1 {Level1PatternFill} {Level2PatternFill} ifelse
%
/Symbol-Oblique /Symbol findfont [1 0 .167 1 0 0] makefont
dup length dict begin {1 index /FID eq {pop pop} {def} ifelse} forall
currentdict end definefont pop
/MFshow {
   { dup 5 get 3 ge
     { 5 get 3 eq {gsave} {grestore} ifelse }
     {dup dup 0 get findfont exch 1 get scalefont setfont
     [ currentpoint ] exch dup 2 get 0 exch R dup 5 get 2 ne {dup dup 6
     get exch 4 get {Gshow} {stringwidth pop 0 R} ifelse }if dup 5 get 0 eq
     {dup 3 get {2 get neg 0 exch R pop} {pop aload pop M} ifelse} {dup 5
     get 1 eq {dup 2 get exch dup 3 get exch 6 get stringwidth pop -2 div
     dup 0 R} {dup 6 get stringwidth pop -2 div 0 R 6 get
     show 2 index {aload pop M neg 3 -1 roll neg R pop pop} {pop pop pop
     pop aload pop M} ifelse }ifelse }ifelse }
     ifelse }
   forall} def
/Gswidth {dup type /stringtype eq {stringwidth} {pop (n) stringwidth} ifelse} def
/MFwidth {0 exch { dup 5 get 3 ge { 5 get 3 eq { 0 } { pop } ifelse }
 {dup 3 get{dup dup 0 get findfont exch 1 get scalefont setfont
     6 get Gswidth pop add} {pop} ifelse} ifelse} forall} def
/MLshow { currentpoint stroke M
  0 exch R
  Blacktext {gsave 0 setgray MFshow grestore} {MFshow} ifelse } bind def
/MRshow { currentpoint stroke M
  exch dup MFwidth neg 3 -1 roll R
  Blacktext {gsave 0 setgray MFshow grestore} {MFshow} ifelse } bind def
/MCshow { currentpoint stroke M
  exch dup MFwidth -2 div 3 -1 roll R
  Blacktext {gsave 0 setgray MFshow grestore} {MFshow} ifelse } bind def
/XYsave    { [( ) 1 2 true false 3 ()] } bind def
/XYrestore { [( ) 1 2 true false 4 ()] } bind def
Level1 SuppressPDFMark or 
{} {
/SDict 10 dict def
systemdict /pdfmark known not {
  userdict /pdfmark systemdict /cleartomark get put
} if
SDict begin [
  /Title (nbrDist.eps)
  /Subject (gnuplot plot)
  /Creator (gnuplot 4.6 patchlevel 2)
  /Author (anju)
%  /Producer (gnuplot)
%  /Keywords ()
  /CreationDate (Thu Sep 19 11:23:32 2019)
  /DOCINFO pdfmark
end
} ifelse
end
%%EndProlog
%%Page: 1 1
gnudict begin
gsave
doclip
50 50 translate
0.050 0.050 scale
0 setgray
newpath
(Helvetica) findfont 160 scalefont setfont
BackgroundColor 0 lt 3 1 roll 0 lt exch 0 lt or or not {BackgroundColor C 1.000 0 0 7200.00 5040.00 BoxColFill} if
1.000 UL
LTb
LCb setrgbcolor
1072 512 M
63 0 V
5776 0 R
-63 0 V
stroke
976 512 M
[ [(Helvetica) 160.0 0.0 true true 0 ( 1)]
] -53.3 MRshow
1.000 UL
LTb
LCb setrgbcolor
1072 698 M
31 0 V
5808 0 R
-31 0 V
1072 945 M
31 0 V
5808 0 R
-31 0 V
1072 1071 M
31 0 V
5808 0 R
-31 0 V
-5808 60 R
63 0 V
5776 0 R
-63 0 V
stroke
976 1131 M
[ [(Helvetica) 160.0 0.0 true true 0 ( 10)]
] -53.3 MRshow
1.000 UL
LTb
LCb setrgbcolor
1072 1318 M
31 0 V
5808 0 R
-31 0 V
1072 1564 M
31 0 V
5808 0 R
-31 0 V
1072 1691 M
31 0 V
5808 0 R
-31 0 V
-5808 60 R
63 0 V
5776 0 R
-63 0 V
stroke
976 1751 M
[ [(Helvetica) 160.0 0.0 true true 0 ( 100)]
] -53.3 MRshow
1.000 UL
LTb
LCb setrgbcolor
1072 1937 M
31 0 V
5808 0 R
-31 0 V
1072 2183 M
31 0 V
5808 0 R
-31 0 V
1072 2310 M
31 0 V
5808 0 R
-31 0 V
-5808 60 R
63 0 V
5776 0 R
-63 0 V
stroke
976 2370 M
[ [(Helvetica) 160.0 0.0 true true 0 ( 1000)]
] -53.3 MRshow
1.000 UL
LTb
LCb setrgbcolor
1072 2556 M
31 0 V
5808 0 R
-31 0 V
1072 2803 M
31 0 V
5808 0 R
-31 0 V
1072 2929 M
31 0 V
5808 0 R
-31 0 V
-5808 60 R
63 0 V
5776 0 R
-63 0 V
stroke
976 2989 M
[ [(Helvetica) 160.0 0.0 true true 0 ( 10000)]
] -53.3 MRshow
1.000 UL
LTb
LCb setrgbcolor
1072 3176 M
31 0 V
5808 0 R
-31 0 V
1072 3422 M
31 0 V
5808 0 R
-31 0 V
1072 3548 M
31 0 V
5808 0 R
-31 0 V
-5808 60 R
63 0 V
5776 0 R
-63 0 V
stroke
976 3608 M
[ [(Helvetica) 160.0 0.0 true true 0 ( 100000)]
] -53.3 MRshow
1.000 UL
LTb
LCb setrgbcolor
1072 3795 M
31 0 V
5808 0 R
-31 0 V
1072 4041 M
31 0 V
5808 0 R
-31 0 V
1072 4168 M
31 0 V
5808 0 R
-31 0 V
-5808 60 R
63 0 V
5776 0 R
-63 0 V
stroke
976 4228 M
[ [(Helvetica) 160.0 0.0 true true 0 ( 1e+06)]
] -53.3 MRshow
1.000 UL
LTb
LCb setrgbcolor
1072 4414 M
31 0 V
5808 0 R
-31 0 V
1072 4661 M
31 0 V
5808 0 R
-31 0 V
1072 4787 M
31 0 V
5808 0 R
-31 0 V
-5808 60 R
63 0 V
5776 0 R
-63 0 V
stroke
976 4847 M
[ [(Helvetica) 160.0 0.0 true true 0 ( 1e+07)]
] -53.3 MRshow
1.000 UL
LTb
LCb setrgbcolor
1072 512 M
0 63 V
0 4272 R
0 -63 V
stroke
1072 352 M
[ [(Helvetica) 160.0 0.0 true true 0 ( 0)]
] -53.3 MCshow
1.000 UL
LTb
LCb setrgbcolor
1656 512 M
0 63 V
0 4272 R
0 -63 V
stroke
1656 352 M
[ [(Helvetica) 160.0 0.0 true true 0 ( 200)]
] -53.3 MCshow
1.000 UL
LTb
LCb setrgbcolor
2240 512 M
0 63 V
0 4272 R
0 -63 V
stroke
2240 352 M
[ [(Helvetica) 160.0 0.0 true true 0 ( 400)]
] -53.3 MCshow
1.000 UL
LTb
LCb setrgbcolor
2824 512 M
0 63 V
0 4272 R
0 -63 V
stroke
2824 352 M
[ [(Helvetica) 160.0 0.0 true true 0 ( 600)]
] -53.3 MCshow
1.000 UL
LTb
LCb setrgbcolor
3408 512 M
0 63 V
0 4272 R
0 -63 V
stroke
3408 352 M
[ [(Helvetica) 160.0 0.0 true true 0 ( 800)]
] -53.3 MCshow
1.000 UL
LTb
LCb setrgbcolor
3992 512 M
0 63 V
0 4272 R
0 -63 V
stroke
3992 352 M
[ [(Helvetica) 160.0 0.0 true true 0 ( 1000)]
] -53.3 MCshow
1.000 UL
LTb
LCb setrgbcolor
4575 512 M
0 63 V
0 4272 R
0 -63 V
stroke
4575 352 M
[ [(Helvetica) 160.0 0.0 true true 0 ( 1200)]
] -53.3 MCshow
1.000 UL
LTb
LCb setrgbcolor
5159 512 M
0 63 V
0 4272 R
0 -63 V
stroke
5159 352 M
[ [(Helvetica) 160.0 0.0 true true 0 ( 1400)]
] -53.3 MCshow
1.000 UL
LTb
LCb setrgbcolor
5743 512 M
0 63 V
0 4272 R
0 -63 V
stroke
5743 352 M
[ [(Helvetica) 160.0 0.0 true true 0 ( 1600)]
] -53.3 MCshow
1.000 UL
LTb
LCb setrgbcolor
6327 512 M
0 63 V
0 4272 R
0 -63 V
stroke
6327 352 M
[ [(Helvetica) 160.0 0.0 true true 0 ( 1800)]
] -53.3 MCshow
1.000 UL
LTb
LCb setrgbcolor
6911 512 M
0 63 V
0 4272 R
0 -63 V
stroke
6911 352 M
[ [(Helvetica) 160.0 0.0 true true 0 ( 2000)]
] -53.3 MCshow
1.000 UL
LTb
LCb setrgbcolor
1.000 UL
LTb
LCb setrgbcolor
1072 4847 N
0 -4335 V
5839 0 V
0 4335 V
-5839 0 V
Z stroke
LCb setrgbcolor
128 2679 M
currentpoint gsave translate -270 rotate 0 0 moveto
[ [(Helvetica) 160.0 0.0 true true 0 (Number of points with each degree)]
] -53.3 MCshow
grestore
LTb
LCb setrgbcolor
3991 112 M
[ [(Helvetica) 160.0 0.0 true true 0 (Degree)]
] -53.3 MCshow
LTb
1.000 UP
1.000 UL
LTb
LCb setrgbcolor
% Begin plot #1
0.200 UP
2.000 UL
LT0
0.00 0.38 0.68 C 1072 4585 M
3 -16 V
3 -37 V
3 -44 V
3 -47 V
3 -53 V
3 -54 V
2 -56 V
3 -56 V
3 -58 V
3 -56 V
3 -55 V
3 -52 V
3 -50 V
3 -50 V
3 -44 V
3 -42 V
3 -40 V
3 -38 V
2 -32 V
3 -35 V
3 -31 V
3 -27 V
3 -24 V
3 -27 V
3 -20 V
3 -24 V
3 -17 V
3 -18 V
3 -22 V
3 -14 V
3 -14 V
2 -18 V
3 -12 V
3 -14 V
3 -9 V
3 -15 V
3 -4 V
3 -11 V
3 -14 V
3 -12 V
3 -6 V
3 -13 V
3 -10 V
2 -8 V
3 -8 V
3 -9 V
3 -8 V
3 -7 V
3 -5 V
3 -10 V
3 -1 V
3 -10 V
3 -8 V
3 -4 V
3 -3 V
2 -7 V
3 -6 V
3 -5 V
3 -3 V
3 -11 V
3 0 V
3 -5 V
3 1 V
3 -8 V
3 -10 V
3 1 V
3 -6 V
3 -3 V
2 0 V
3 -5 V
3 -5 V
3 -2 V
3 -1 V
3 -3 V
3 -2 V
3 -3 V
3 -1 V
3 0 V
3 3 V
3 -8 V
2 6 V
3 -4 V
3 -6 V
3 7 V
3 -7 V
3 4 V
3 -5 V
3 -1 V
3 -2 V
3 5 V
3 2 V
3 -3 V
3 -2 V
2 6 V
3 -1 V
3 -6 V
3 4 V
3 3 V
3 -3 V
3 2 V
3 -10 V
3 8 V
3 -7 V
3 -1 V
stroke 1376 3113 M
3 6 V
2 4 V
3 -2 V
3 1 V
3 2 V
3 -1 V
3 -3 V
3 6 V
3 -1 V
3 4 V
3 4 V
3 -6 V
3 3 V
3 1 V
2 0 V
3 0 V
3 5 V
3 -4 V
3 4 V
3 -3 V
3 1 V
3 0 V
3 4 V
3 -9 V
3 5 V
3 -3 V
2 -1 V
3 1 V
3 -6 V
3 -2 V
3 7 V
3 -1 V
3 0 V
3 2 V
3 3 V
3 -5 V
3 -7 V
3 -3 V
2 1 V
3 2 V
3 -4 V
3 1 V
3 -1 V
3 4 V
3 2 V
3 -6 V
3 -5 V
3 1 V
3 -1 V
3 2 V
3 -2 V
2 -5 V
3 3 V
3 -9 V
3 -2 V
3 2 V
3 -7 V
3 1 V
3 -1 V
3 -10 V
3 6 V
3 -8 V
3 1 V
2 -9 V
3 -3 V
3 2 V
3 -5 V
3 -2 V
3 -7 V
3 -7 V
3 5 V
3 0 V
3 -7 V
3 -3 V
3 -1 V
3 -6 V
2 -6 V
3 -10 V
3 0 V
3 -6 V
3 6 V
3 -7 V
3 -7 V
3 -3 V
3 -8 V
3 -6 V
3 -4 V
3 1 V
2 -2 V
3 -10 V
3 4 V
3 -7 V
3 -4 V
3 -9 V
3 -7 V
3 1 V
3 -11 V
3 1 V
3 -8 V
3 -6 V
2 -5 V
3 -10 V
3 -2 V
3 -9 V
stroke 1679 2907 M
3 -8 V
3 -2 V
3 0 V
3 0 V
3 -8 V
3 -3 V
3 -10 V
3 2 V
3 -9 V
2 -13 V
3 -5 V
3 3 V
3 -9 V
3 -7 V
3 -5 V
3 -1 V
3 -16 V
3 2 V
3 -15 V
3 -5 V
3 -7 V
2 2 V
3 0 V
3 0 V
3 -2 V
3 -2 V
3 -11 V
3 1 V
3 -6 V
3 -11 V
3 -19 V
3 1 V
3 10 V
3 -16 V
2 4 V
3 -2 V
3 -13 V
3 -2 V
3 3 V
3 -5 V
3 -9 V
3 -10 V
3 -3 V
3 -15 V
3 -4 V
3 -6 V
2 13 V
3 -9 V
3 -19 V
3 7 V
3 -6 V
3 -6 V
3 8 V
3 -4 V
3 -10 V
3 22 V
3 -35 V
3 -6 V
3 -11 V
2 4 V
3 5 V
3 2 V
3 -4 V
3 -18 V
3 0 V
3 -6 V
3 -7 V
3 5 V
3 -7 V
3 -12 V
3 -2 V
2 0 V
3 6 V
3 0 V
3 -19 V
3 6 V
3 6 V
3 -16 V
3 -9 V
3 -5 V
3 18 V
3 -31 V
3 13 V
2 -14 V
3 -11 V
3 -2 V
3 -4 V
3 -1 V
3 -14 V
3 8 V
3 -18 V
3 17 V
3 15 V
3 -5 V
3 -16 V
3 3 V
2 5 V
3 -17 V
3 -16 V
3 14 V
3 7 V
3 -11 V
3 1 V
3 -4 V
stroke 1983 2486 M
3 -11 V
3 -3 V
3 1 V
3 2 V
2 -20 V
3 -5 V
3 1 V
3 2 V
3 0 V
3 1 V
3 -20 V
3 16 V
3 12 V
3 -21 V
3 -12 V
3 -1 V
3 -3 V
2 -4 V
3 -15 V
3 22 V
3 -14 V
3 3 V
3 3 V
3 -15 V
3 -8 V
3 6 V
3 -6 V
3 19 V
3 -20 V
2 -15 V
3 1 V
3 12 V
3 -1 V
3 2 V
3 11 V
3 -13 V
3 9 V
3 8 V
3 -34 V
3 23 V
3 12 V
3 -21 V
2 16 V
3 -2 V
3 -9 V
3 20 V
3 -40 V
3 24 V
3 -7 V
3 -3 V
3 -2 V
3 20 V
3 -30 V
3 15 V
2 -12 V
3 -4 V
3 -1 V
3 -4 V
3 9 V
3 -17 V
3 -1 V
3 -1 V
3 12 V
3 -15 V
3 4 V
3 -5 V
2 2 V
3 -40 V
3 18 V
3 -17 V
3 11 V
3 22 V
3 -14 V
3 -13 V
3 21 V
3 5 V
3 7 V
3 -37 V
3 27 V
2 -27 V
3 3 V
3 1 V
3 -5 V
3 -18 V
3 32 V
3 -32 V
3 -22 V
3 -6 V
3 25 V
3 -5 V
3 0 V
2 -13 V
3 22 V
3 -12 V
3 -9 V
3 -31 V
3 16 V
3 -5 V
3 23 V
3 -14 V
3 19 V
3 -30 V
3 1 V
3 12 V
stroke 2287 2274 M
2 -28 V
3 21 V
3 23 V
3 -6 V
3 -1 V
3 -6 V
3 5 V
3 -21 V
3 -17 V
3 33 V
3 -34 V
3 0 V
2 14 V
3 -19 V
3 10 V
3 -7 V
3 -4 V
3 -5 V
3 0 V
3 -8 V
3 14 V
3 -5 V
3 -7 V
3 -12 V
2 -17 V
3 17 V
3 15 V
3 -33 V
3 -19 V
3 47 V
3 -3 V
3 -9 V
3 -5 V
3 19 V
3 -6 V
3 -27 V
3 34 V
2 -6 V
3 -23 V
3 13 V
3 -21 V
3 36 V
3 -30 V
3 6 V
3 -1 V
3 -3 V
3 2 V
3 0 V
3 13 V
2 3 V
3 -1 V
3 -5 V
3 37 V
3 -26 V
3 -39 V
3 0 V
3 5 V
3 -14 V
3 1 V
3 35 V
3 -18 V
3 -20 V
2 -1 V
3 -27 V
3 13 V
3 -26 V
3 -11 V
3 24 V
3 2 V
3 28 V
3 67 V
3 -24 V
3 -85 V
3 -26 V
2 -14 V
3 0 V
3 0 V
3 -6 V
3 17 V
3 7 V
3 -5 V
3 -15 V
3 23 V
3 -36 V
3 -3 V
3 4 V
3 14 V
2 9 V
3 -5 V
3 -21 V
3 -19 V
3 8 V
3 5 V
3 -23 V
3 -3 V
3 -42 V
3 27 V
3 -10 V
3 18 V
2 -17 V
3 -4 V
3 3 V
3 38 V
3 -54 V
stroke 2590 2001 M
3 31 V
3 -20 V
3 -10 V
3 11 V
3 28 V
3 -12 V
3 -3 V
2 36 V
3 -22 V
3 7 V
3 -51 V
3 58 V
3 -13 V
3 -3 V
3 19 V
3 25 V
3 -35 V
3 -16 V
3 -53 V
3 32 V
2 -23 V
3 11 V
3 7 V
3 -34 V
3 5 V
3 -16 V
3 17 V
3 9 V
3 46 V
3 -48 V
3 30 V
3 -20 V
2 -23 V
3 -34 V
3 1 V
3 33 V
3 -39 V
3 8 V
3 16 V
3 -23 V
3 3 V
3 6 V
3 7 V
3 -26 V
3 -6 V
2 -10 V
3 39 V
3 -27 V
3 -19 V
3 53 V
3 -38 V
3 5 V
3 3 V
3 10 V
3 1 V
3 -14 V
3 -36 V
2 48 V
3 -28 V
3 32 V
3 -6 V
3 41 V
3 -65 V
3 36 V
3 23 V
3 -7 V
3 -2 V
3 21 V
3 -47 V
3 30 V
2 19 V
3 -41 V
3 -59 V
3 50 V
3 4 V
3 -4 V
3 29 V
3 0 V
3 -43 V
3 23 V
3 -29 V
3 14 V
2 0 V
3 0 V
3 -7 V
3 -4 V
3 0 V
3 3 V
3 39 V
3 -16 V
3 -6 V
3 -5 V
3 2 V
3 -54 V
2 -46 V
3 90 V
3 -26 V
3 51 V
3 -62 V
3 22 V
3 -34 V
3 18 V
3 -4 V
3 17 V
stroke 2894 1901 M
3 -33 V
3 -27 V
3 22 V
2 40 V
3 -51 V
3 -1 V
3 -34 V
3 63 V
3 -1 V
3 40 V
3 -40 V
3 -25 V
3 18 V
3 -18 V
3 50 V
2 -19 V
3 -17 V
3 39 V
3 -23 V
3 -21 V
3 -44 V
3 42 V
3 46 V
3 -64 V
3 -8 V
3 12 V
3 18 V
3 -40 V
2 31 V
3 -27 V
3 8 V
3 -16 V
3 8 V
3 23 V
3 -9 V
3 -4 V
3 -46 V
3 -12 V
3 27 V
3 15 V
2 22 V
3 -2 V
3 -46 V
3 5 V
3 23 V
3 -39 V
3 35 V
3 -52 V
3 17 V
3 -10 V
3 55 V
3 51 V
3 -87 V
2 -26 V
3 0 V
3 -21 V
3 21 V
3 -24 V
3 8 V
3 -34 V
3 104 V
3 -49 V
3 -5 V
3 -72 V
3 13 V
2 59 V
3 31 V
3 -12 V
3 -46 V
3 17 V
3 2 V
3 -5 V
3 -34 V
3 37 V
3 17 V
3 -39 V
3 -21 V
2 -12 V
3 21 V
3 51 V
3 43 V
3 -53 V
3 -5 V
3 -95 V
3 115 V
3 -28 V
3 16 V
3 -41 V
3 60 V
3 -35 V
2 23 V
3 0 V
3 -15 V
3 -5 V
3 -25 V
3 -47 V
3 35 V
3 9 V
3 74 V
3 -68 V
3 -3 V
3 59 V
2 -16 V
3 -26 V
stroke 3197 1748 M
3 -29 V
3 -57 V
3 4 V
3 -31 V
3 35 V
3 17 V
3 0 V
3 -36 V
3 -12 V
3 -54 V
3 99 V
2 20 V
3 -24 V
3 33 V
3 -82 V
3 39 V
3 27 V
3 -58 V
3 48 V
3 64 V
3 -26 V
3 -25 V
3 -6 V
2 -28 V
3 -27 V
3 48 V
3 -56 V
3 -27 V
3 54 V
3 -23 V
3 62 V
3 -58 V
3 31 V
3 55 V
3 -3 V
2 6 V
3 -41 V
3 -7 V
3 -81 V
3 36 V
3 -87 V
3 47 V
3 52 V
3 -16 V
3 4 V
3 -4 V
3 4 V
3 42 V
2 48 V
3 -3 V
3 -132 V
3 -15 V
3 72 V
3 11 V
3 -27 V
3 -67 V
3 102 V
3 -53 V
3 -33 V
3 117 V
2 0 V
3 -6 V
3 75 V
3 -72 V
3 -85 V
3 -10 V
3 10 V
3 -50 V
3 84 V
3 -160 V
3 76 V
3 10 V
3 -79 V
2 -14 V
3 54 V
3 -54 V
3 0 V
3 14 V
3 90 V
3 19 V
3 -57 V
3 -18 V
3 131 V
3 3 V
3 -59 V
2 0 V
3 0 V
3 -35 V
3 58 V
3 -58 V
3 0 V
3 40 V
3 22 V
3 5 V
3 -56 V
3 -71 V
3 154 V
3 -105 V
2 32 V
3 -37 V
3 -6 V
3 84 V
3 -31 V
3 -20 V
stroke 3501 1575 M
3 -71 V
3 131 V
3 -111 V
3 40 V
3 16 V
3 33 V
2 -65 V
3 32 V
3 29 V
3 -10 V
3 52 V
3 0 V
3 -98 V
3 -11 V
3 -98 V
3 104 V
3 -44 V
3 -52 V
2 38 V
3 114 V
3 14 V
3 -158 V
3 76 V
3 12 V
3 -18 V
3 0 V
3 -86 V
3 -36 V
3 68 V
3 0 V
3 -49 V
2 -29 V
3 46 V
3 -46 V
3 -94 V
3 148 V
3 -44 V
3 -65 V
3 109 V
3 -8 V
3 53 V
3 51 V
3 -112 V
2 -28 V
3 0 V
3 -30 V
3 -60 V
3 -14 V
3 179 V
3 -85 V
3 -43 V
3 0 V
3 -66 V
3 -31 V
3 97 V
3 -133 V
2 0 V
3 18 V
3 -60 V
3 151 V
3 -174 V
3 45 V
3 20 V
3 -65 V
3 0 V
3 -26 V
3 71 V
3 129 V
2 -42 V
3 -31 V
3 -127 V
3 127 V
3 -101 V
3 147 V
3 14 V
3 25 V
3 -54 V
3 -132 V
3 65 V
3 67 V
3 29 V
2 -96 V
3 109 V
3 -13 V
3 -29 V
3 42 V
3 0 V
3 -13 V
3 -44 V
3 44 V
3 -29 V
3 -186 V
3 240 V
2 -349 V
3 109 V
3 -68 V
3 223 V
3 -18 V
3 91 V
3 -27 V
3 0 V
3 14 V
3 80 V
3 -67 V
stroke 3805 1331 M
3 24 V
2 -133 V
3 52 V
3 0 V
3 104 V
3 -104 V
3 44 V
3 -78 V
3 34 V
3 -94 V
3 -186 V
3 41 V
3 -41 V
3 0 V
2 228 V
3 -277 V
3 90 V
3 -41 V
3 -49 V
3 49 V
3 -482 V
3 523 V
3 -150 V
3 186 V
3 -36 V
3 96 V
2 -137 V
3 163 V
3 -212 V
3 126 V
3 60 V
3 -137 V
3 -109 V
3 -187 V
3 187 V
3 60 V
3 90 V
3 -41 V
3 0 V
2 -296 V
3 337 V
3 -337 V
3 337 V
3 -90 V
3 -60 V
3 60 V
3 49 V
3 -296 V
3 109 V
3 350 V
3 -350 V
2 296 V
3 -68 V
3 -41 V
3 208 V
3 -167 V
3 0 V
3 -150 V
3 186 V
3 32 V
3 -158 V
3 49 V
3 109 V
3 -32 V
2 -77 V
3 -49 V
3 186 V
3 -137 V
3 -109 V
3 -78 V
3 264 V
3 32 V
3 -158 V
3 212 V
3 -272 V
3 218 V
2 -68 V
3 68 V
3 -32 V
3 86 V
3 -272 V
3 60 V
3 186 V
3 -186 V
3 186 V
3 109 V
3 64 V
3 -15 V
2 -49 V
3 115 V
3 81 V
3 -214 V
3 -91 V
3 0 V
3 -137 V
3 137 V
3 26 V
3 -26 V
3 71 V
3 20 V
3 -42 V
2 78 V
3 -18 V
3 127 V
stroke 4108 1367 M
3 -78 V
3 15 V
3 114 V
3 0 V
3 -178 V
3 178 V
3 -216 V
3 56 V
3 85 V
2 -25 V
3 -44 V
3 0 V
3 0 V
3 15 V
3 -218 V
3 169 V
3 -38 V
3 -99 V
3 -68 V
3 122 V
3 0 V
3 -54 V
2 28 V
3 -28 V
3 28 V
3 0 V
3 109 V
3 -169 V
3 0 V
3 131 V
3 -131 V
3 86 V
3 -86 V
3 233 V
2 -124 V
3 -23 V
3 -26 V
3 -96 V
3 68 V
3 -32 V
3 -186 V
3 60 V
3 -138 V
3 78 V
3 150 V
3 36 V
2 -264 V
3 324 V
3 -28 V
3 -109 V
3 -109 V
3 186 V
3 -186 V
3 218 V
3 -158 V
3 -138 V
3 78 V
3 -373 V
3 295 V
2 138 V
3 49 V
3 -109 V
3 218 V
3 -218 V
3 246 V
3 -96 V
3 -150 V
3 60 V
3 -247 V
3 296 V
3 -187 V
2 138 V
3 158 V
3 0 V
3 -32 V
3 0 V
3 109 V
3 0 V
3 78 V
3 46 V
3 -124 V
3 60 V
3 0 V
3 -109 V
2 71 V
3 -22 V
3 0 V
3 -186 V
3 77 V
3 109 V
3 -109 V
3 0 V
3 86 V
3 132 V
3 -67 V
3 36 V
2 -101 V
3 -163 V
3 -187 V
3 187 V
3 137 V
3 -137 V
3 -187 V
3 138 V
stroke 4412 945 M
3 -138 V
3 -109 V
3 0 V
3 187 V
3 60 V
2 49 V
3 -49 V
3 126 V
3 -126 V
3 -247 V
3 247 V
3 -60 V
3 0 V
3 150 V
3 0 V
3 -90 V
3 0 V
2 0 V
3 126 V
3 -186 V
3 0 V
3 186 V
3 86 V
3 -272 V
3 60 V
3 0 V
3 0 V
3 126 V
3 -186 V
2 -187 V
3 109 V
3 324 V
3 -246 V
3 0 V
3 -78 V
3 138 V
3 -247 V
3 0 V
3 187 V
3 -187 V
3 109 V
3 -109 V
2 0 V
3 0 V
3 187 V
3 -187 V
3 296 V
3 77 V
3 -373 V
3 337 V
3 68 V
3 -68 V
3 68 V
3 -296 V
2 -295 V
3 373 V
3 246 V
3 -186 V
3 0 V
3 -138 V
3 0 V
3 264 V
3 -186 V
3 218 V
3 -32 V
3 -36 V
3 36 V
2 -126 V
3 -60 V
3 186 V
3 -77 V
3 -187 V
3 228 V
3 -90 V
3 49 V
3 0 V
3 -49 V
3 0 V
3 90 V
2 0 V
3 -41 V
3 41 V
3 0 V
3 -90 V
3 -138 V
3 228 V
3 -228 V
3 138 V
3 126 V
3 -77 V
3 0 V
3 0 V
2 77 V
3 32 V
3 0 V
3 119 V
3 -228 V
3 208 V
3 -45 V
3 -54 V
3 28 V
3 0 V
3 127 V
3 -101 V
stroke 4716 1157 M
2 23 V
3 -109 V
3 131 V
3 20 V
3 -151 V
3 187 V
3 -18 V
3 0 V
3 -60 V
3 -23 V
3 -26 V
3 49 V
2 60 V
3 18 V
3 -78 V
3 22 V
3 0 V
3 -45 V
3 45 V
3 20 V
3 -151 V
3 60 V
3 0 V
3 0 V
3 -186 V
2 235 V
3 -23 V
3 -86 V
3 -126 V
3 49 V
3 228 V
3 0 V
3 -228 V
3 163 V
3 0 V
3 -26 V
3 0 V
2 49 V
3 78 V
3 -78 V
3 -109 V
3 0 V
3 169 V
3 -137 V
3 -32 V
3 32 V
3 28 V
3 -96 V
3 145 V
3 -145 V
2 122 V
3 -212 V
3 0 V
3 186 V
3 -28 V
3 -109 V
3 0 V
3 208 V
3 -45 V
3 -350 V
3 324 V
3 -246 V
2 60 V
3 126 V
3 32 V
3 54 V
3 -163 V
3 163 V
3 -272 V
3 295 V
3 -109 V
3 -77 V
3 264 V
3 -56 V
2 -131 V
3 187 V
3 -36 V
3 52 V
3 -16 V
3 73 V
3 0 V
3 47 V
3 -35 V
3 -163 V
3 -145 V
3 68 V
3 137 V
2 -109 V
3 -246 V
3 186 V
3 60 V
3 -246 V
3 0 V
3 -78 V
3 187 V
3 -49 V
3 -247 V
3 373 V
3 -36 V
2 36 V
3 -264 V
3 -295 V
3 591 V
3 -405 V
stroke 5019 698 M
3 247 V
3 -60 V
3 -78 V
3 0 V
3 187 V
3 -49 V
3 90 V
3 -90 V
2 -138 V
3 78 V
3 -187 V
3 247 V
3 0 V
3 -60 V
3 -187 V
3 337 V
3 -337 V
3 247 V
3 -60 V
3 186 V
2 -77 V
3 -109 V
3 218 V
3 -109 V
3 -109 V
3 -78 V
3 -109 V
3 0 V
3 187 V
3 60 V
3 -433 V
3 186 V
3 187 V
2 0 V
3 -187 V
3 0 V
3 247 V
3 -433 V
3 295 V
3 0 V
3 -109 V
3 0 V
3 0 V
3 109 V
3 0 V
2 0 V
3 -295 V
3 186 V
6 109 V
9 0 V
3 -109 V
6 247 V
3 -138 V
2 -109 V
3 0 V
3 -186 V
3 373 V
3 -187 V
3 109 V
3 -295 V
3 0 V
3 186 V
3 0 V
3 109 V
3 138 V
3 -433 V
2 0 V
3 295 V
6 -295 V
3 0 V
3 523 V
3 -228 V
3 -109 V
3 -186 V
6 373 V
3 0 V
2 -373 V
6 0 V
3 373 V
3 60 V
6 -138 V
3 -295 V
3 0 V
3 433 V
3 -247 V
3 -186 V
3 0 V
2 295 V
3 187 V
3 -187 V
3 78 V
3 -78 V
3 -109 V
3 187 V
3 -373 V
3 433 V
3 -247 V
3 187 V
3 -78 V
2 -295 V
3 433 V
3 0 V
3 90 V
3 0 V
stroke 5346 1035 M
3 -523 V
3 186 V
3 109 V
3 -295 V
3 186 V
3 0 V
3 187 V
3 0 V
2 -78 V
3 -295 V
3 0 V
3 186 V
3 -186 V
3 0 V
3 295 V
3 78 V
3 60 V
6 -433 V
5 482 V
3 -109 V
3 -187 V
3 109 V
3 -109 V
3 0 V
3 0 V
3 109 V
3 -295 V
3 186 V
3 296 V
3 -482 V
2 295 V
6 138 V
6 -433 V
6 295 V
3 -295 V
3 186 V
3 0 V
6 -186 V
3 0 V
2 0 V
3 186 V
3 109 V
3 -295 V
6 0 V
3 0 V
3 0 V
3 186 V
3 -186 V
6 295 V
2 138 V
3 -433 V
3 0 V
6 0 V
3 295 V
3 -109 V
3 -186 V
3 186 V
3 0 V
3 187 V
3 -78 V
3 -295 V
2 295 V
6 -295 V
3 186 V
3 0 V
6 -186 V
3 186 V
3 109 V
6 -295 V
3 0 V
2 295 V
3 -109 V
3 -186 V
3 186 V
6 187 V
3 -373 V
3 186 V
3 -186 V
3 0 V
3 295 V
6 -295 V
2 0 V
3 186 V
6 -186 V
3 0 V
6 186 V
3 -186 V
6 0 V
6 0 V
5 0 V
3 0 V
6 186 V
3 0 V
3 0 V
9 -186 V
3 0 V
3 0 V
2 0 V
3 0 V
3 186 V
12 0 V
6 -186 V
6 0 V
3 0 V
stroke 5729 512 M
23 186 V
3 -186 V
20 0 V
3 186 V
6 -186 V
12 186 V
6 -186 V
3 0 V
29 0 V
3 186 V
5 0 V
9 -186 V
3 0 V
12 0 V
6 0 V
3 0 V
2 0 V
6 0 V
3 0 V
18 186 V
9 -186 V
2 0 V
3 0 V
6 373 V
3 -187 V
6 -186 V
9 0 V
6 0 V
5 186 V
3 -186 V
18 0 V
9 0 V
11 0 V
21 186 V
6 -186 V
17 0 V
3 0 V
3 295 V
9 -109 V
23 -186 V
3 0 V
3 0 V
17 0 V
12 0 V
12 295 V
14 -295 V
6 0 V
3 0 V
6 0 V
3 0 V
9 0 V
3 295 V
2 -109 V
3 -186 V
3 0 V
3 186 V
6 109 V
3 -109 V
3 109 V
3 -295 V
6 373 V
3 -187 V
2 187 V
3 -373 V
3 0 V
3 186 V
6 0 V
6 -186 V
6 0 V
3 186 V
3 -186 V
8 0 V
15 186 V
3 187 V
3 -187 V
3 0 V
3 109 V
3 -295 V
8 186 V
3 -186 V
3 0 V
3 0 V
3 295 V
3 -109 V
3 109 V
3 0 V
3 -295 V
3 523 V
3 -523 V
2 0 V
6 186 V
3 -186 V
3 186 V
3 -186 V
9 0 V
9 0 V
1072 4585 CircleF
1075 4569 CircleF
1078 4532 CircleF
1081 4488 CircleF
1084 4441 CircleF
1087 4388 CircleF
1090 4334 CircleF
1092 4278 CircleF
1095 4222 CircleF
1098 4164 CircleF
1101 4108 CircleF
1104 4053 CircleF
1107 4001 CircleF
1110 3951 CircleF
1113 3901 CircleF
1116 3857 CircleF
1119 3815 CircleF
1122 3775 CircleF
1125 3737 CircleF
1127 3705 CircleF
1130 3670 CircleF
1133 3639 CircleF
1136 3612 CircleF
1139 3588 CircleF
1142 3561 CircleF
1145 3541 CircleF
1148 3517 CircleF
1151 3500 CircleF
1154 3482 CircleF
1157 3460 CircleF
1160 3446 CircleF
1163 3432 CircleF
1165 3414 CircleF
1168 3402 CircleF
1171 3388 CircleF
1174 3379 CircleF
1177 3364 CircleF
1180 3360 CircleF
1183 3349 CircleF
1186 3335 CircleF
1189 3323 CircleF
1192 3317 CircleF
1195 3304 CircleF
1198 3294 CircleF
1200 3286 CircleF
1203 3278 CircleF
1206 3269 CircleF
1209 3261 CircleF
1212 3254 CircleF
1215 3249 CircleF
1218 3239 CircleF
1221 3238 CircleF
1224 3228 CircleF
1227 3220 CircleF
1230 3216 CircleF
1233 3213 CircleF
1235 3206 CircleF
1238 3200 CircleF
1241 3195 CircleF
1244 3192 CircleF
1247 3181 CircleF
1250 3181 CircleF
1253 3176 CircleF
1256 3177 CircleF
1259 3169 CircleF
1262 3159 CircleF
1265 3160 CircleF
1268 3154 CircleF
1271 3151 CircleF
1273 3151 CircleF
1276 3146 CircleF
1279 3141 CircleF
1282 3139 CircleF
1285 3138 CircleF
1288 3135 CircleF
1291 3133 CircleF
1294 3130 CircleF
1297 3129 CircleF
1300 3129 CircleF
1303 3132 CircleF
1306 3124 CircleF
1308 3130 CircleF
1311 3126 CircleF
1314 3120 CircleF
1317 3127 CircleF
1320 3120 CircleF
1323 3124 CircleF
1326 3119 CircleF
1329 3118 CircleF
1332 3116 CircleF
1335 3121 CircleF
1338 3123 CircleF
1341 3120 CircleF
1344 3118 CircleF
1346 3124 CircleF
1349 3123 CircleF
1352 3117 CircleF
1355 3121 CircleF
1358 3124 CircleF
1361 3121 CircleF
1364 3123 CircleF
1367 3113 CircleF
1370 3121 CircleF
1373 3114 CircleF
1376 3113 CircleF
1379 3119 CircleF
1381 3123 CircleF
1384 3121 CircleF
1387 3122 CircleF
1390 3124 CircleF
1393 3123 CircleF
1396 3120 CircleF
1399 3126 CircleF
1402 3125 CircleF
1405 3129 CircleF
1408 3133 CircleF
1411 3127 CircleF
1414 3130 CircleF
1417 3131 CircleF
1419 3131 CircleF
1422 3131 CircleF
1425 3136 CircleF
1428 3132 CircleF
1431 3136 CircleF
1434 3133 CircleF
1437 3134 CircleF
1440 3134 CircleF
1443 3138 CircleF
1446 3129 CircleF
1449 3134 CircleF
1452 3131 CircleF
1454 3130 CircleF
1457 3131 CircleF
1460 3125 CircleF
1463 3123 CircleF
1466 3130 CircleF
1469 3129 CircleF
1472 3129 CircleF
1475 3131 CircleF
1478 3134 CircleF
1481 3129 CircleF
1484 3122 CircleF
1487 3119 CircleF
1489 3120 CircleF
1492 3122 CircleF
1495 3118 CircleF
1498 3119 CircleF
1501 3118 CircleF
1504 3122 CircleF
1507 3124 CircleF
1510 3118 CircleF
1513 3113 CircleF
1516 3114 CircleF
1519 3113 CircleF
1522 3115 CircleF
1525 3113 CircleF
1527 3108 CircleF
1530 3111 CircleF
1533 3102 CircleF
1536 3100 CircleF
1539 3102 CircleF
1542 3095 CircleF
1545 3096 CircleF
1548 3095 CircleF
1551 3085 CircleF
1554 3091 CircleF
1557 3083 CircleF
1560 3084 CircleF
1562 3075 CircleF
1565 3072 CircleF
1568 3074 CircleF
1571 3069 CircleF
1574 3067 CircleF
1577 3060 CircleF
1580 3053 CircleF
1583 3058 CircleF
1586 3058 CircleF
1589 3051 CircleF
1592 3048 CircleF
1595 3047 CircleF
1598 3041 CircleF
1600 3035 CircleF
1603 3025 CircleF
1606 3025 CircleF
1609 3019 CircleF
1612 3025 CircleF
1615 3018 CircleF
1618 3011 CircleF
1621 3008 CircleF
1624 3000 CircleF
1627 2994 CircleF
1630 2990 CircleF
1633 2991 CircleF
1635 2989 CircleF
1638 2979 CircleF
1641 2983 CircleF
1644 2976 CircleF
1647 2972 CircleF
1650 2963 CircleF
1653 2956 CircleF
1656 2957 CircleF
1659 2946 CircleF
1662 2947 CircleF
1665 2939 CircleF
1668 2933 CircleF
1670 2928 CircleF
1673 2918 CircleF
1676 2916 CircleF
1679 2907 CircleF
1682 2899 CircleF
1685 2897 CircleF
1688 2897 CircleF
1691 2897 CircleF
1694 2889 CircleF
1697 2886 CircleF
1700 2876 CircleF
1703 2878 CircleF
1706 2869 CircleF
1708 2856 CircleF
1711 2851 CircleF
1714 2854 CircleF
1717 2845 CircleF
1720 2838 CircleF
1723 2833 CircleF
1726 2832 CircleF
1729 2816 CircleF
1732 2818 CircleF
1735 2803 CircleF
1738 2798 CircleF
1741 2791 CircleF
1743 2793 CircleF
1746 2793 CircleF
1749 2793 CircleF
1752 2791 CircleF
1755 2789 CircleF
1758 2778 CircleF
1761 2779 CircleF
1764 2773 CircleF
1767 2762 CircleF
1770 2743 CircleF
1773 2744 CircleF
1776 2754 CircleF
1779 2738 CircleF
1781 2742 CircleF
1784 2740 CircleF
1787 2727 CircleF
1790 2725 CircleF
1793 2728 CircleF
1796 2723 CircleF
1799 2714 CircleF
1802 2704 CircleF
1805 2701 CircleF
1808 2686 CircleF
1811 2682 CircleF
1814 2676 CircleF
1816 2689 CircleF
1819 2680 CircleF
1822 2661 CircleF
1825 2668 CircleF
1828 2662 CircleF
1831 2656 CircleF
1834 2664 CircleF
1837 2660 CircleF
1840 2650 CircleF
1843 2672 CircleF
1846 2637 CircleF
1849 2631 CircleF
1852 2620 CircleF
1854 2624 CircleF
1857 2629 CircleF
1860 2631 CircleF
1863 2627 CircleF
1866 2609 CircleF
1869 2609 CircleF
1872 2603 CircleF
1875 2596 CircleF
1878 2601 CircleF
1881 2594 CircleF
1884 2582 CircleF
1887 2580 CircleF
1889 2580 CircleF
1892 2586 CircleF
1895 2586 CircleF
1898 2567 CircleF
1901 2573 CircleF
1904 2579 CircleF
1907 2563 CircleF
1910 2554 CircleF
1913 2549 CircleF
1916 2567 CircleF
1919 2536 CircleF
1922 2549 CircleF
1924 2535 CircleF
1927 2524 CircleF
1930 2522 CircleF
1933 2518 CircleF
1936 2517 CircleF
1939 2503 CircleF
1942 2511 CircleF
1945 2493 CircleF
1948 2510 CircleF
1951 2525 CircleF
1954 2520 CircleF
1957 2504 CircleF
1960 2507 CircleF
1962 2512 CircleF
1965 2495 CircleF
1968 2479 CircleF
1971 2493 CircleF
1974 2500 CircleF
1977 2489 CircleF
1980 2490 CircleF
1983 2486 CircleF
1986 2475 CircleF
1989 2472 CircleF
1992 2473 CircleF
1995 2475 CircleF
1997 2455 CircleF
2000 2450 CircleF
2003 2451 CircleF
2006 2453 CircleF
2009 2453 CircleF
2012 2454 CircleF
2015 2434 CircleF
2018 2450 CircleF
2021 2462 CircleF
2024 2441 CircleF
2027 2429 CircleF
2030 2428 CircleF
2033 2425 CircleF
2035 2421 CircleF
2038 2406 CircleF
2041 2428 CircleF
2044 2414 CircleF
2047 2417 CircleF
2050 2420 CircleF
2053 2405 CircleF
2056 2397 CircleF
2059 2403 CircleF
2062 2397 CircleF
2065 2416 CircleF
2068 2396 CircleF
2070 2381 CircleF
2073 2382 CircleF
2076 2394 CircleF
2079 2393 CircleF
2082 2395 CircleF
2085 2406 CircleF
2088 2393 CircleF
2091 2402 CircleF
2094 2410 CircleF
2097 2376 CircleF
2100 2399 CircleF
2103 2411 CircleF
2106 2390 CircleF
2108 2406 CircleF
2111 2404 CircleF
2114 2395 CircleF
2117 2415 CircleF
2120 2375 CircleF
2123 2399 CircleF
2126 2392 CircleF
2129 2389 CircleF
2132 2387 CircleF
2135 2407 CircleF
2138 2377 CircleF
2141 2392 CircleF
2143 2380 CircleF
2146 2376 CircleF
2149 2375 CircleF
2152 2371 CircleF
2155 2380 CircleF
2158 2363 CircleF
2161 2362 CircleF
2164 2361 CircleF
2167 2373 CircleF
2170 2358 CircleF
2173 2362 CircleF
2176 2357 CircleF
2178 2359 CircleF
2181 2319 CircleF
2184 2337 CircleF
2187 2320 CircleF
2190 2331 CircleF
2193 2353 CircleF
2196 2339 CircleF
2199 2326 CircleF
2202 2347 CircleF
2205 2352 CircleF
2208 2359 CircleF
2211 2322 CircleF
2214 2349 CircleF
2216 2322 CircleF
2219 2325 CircleF
2222 2326 CircleF
2225 2321 CircleF
2228 2303 CircleF
2231 2335 CircleF
2234 2303 CircleF
2237 2281 CircleF
2240 2275 CircleF
2243 2300 CircleF
2246 2295 CircleF
2249 2295 CircleF
2251 2282 CircleF
2254 2304 CircleF
2257 2292 CircleF
2260 2283 CircleF
2263 2252 CircleF
2266 2268 CircleF
2269 2263 CircleF
2272 2286 CircleF
2275 2272 CircleF
2278 2291 CircleF
2281 2261 CircleF
2284 2262 CircleF
2287 2274 CircleF
2289 2246 CircleF
2292 2267 CircleF
2295 2290 CircleF
2298 2284 CircleF
2301 2283 CircleF
2304 2277 CircleF
2307 2282 CircleF
2310 2261 CircleF
2313 2244 CircleF
2316 2277 CircleF
2319 2243 CircleF
2322 2243 CircleF
2324 2257 CircleF
2327 2238 CircleF
2330 2248 CircleF
2333 2241 CircleF
2336 2237 CircleF
2339 2232 CircleF
2342 2232 CircleF
2345 2224 CircleF
2348 2238 CircleF
2351 2233 CircleF
2354 2226 CircleF
2357 2214 CircleF
2359 2197 CircleF
2362 2214 CircleF
2365 2229 CircleF
2368 2196 CircleF
2371 2177 CircleF
2374 2224 CircleF
2377 2221 CircleF
2380 2212 CircleF
2383 2207 CircleF
2386 2226 CircleF
2389 2220 CircleF
2392 2193 CircleF
2395 2227 CircleF
2397 2221 CircleF
2400 2198 CircleF
2403 2211 CircleF
2406 2190 CircleF
2409 2226 CircleF
2412 2196 CircleF
2415 2202 CircleF
2418 2201 CircleF
2421 2198 CircleF
2424 2200 CircleF
2427 2200 CircleF
2430 2213 CircleF
2432 2216 CircleF
2435 2215 CircleF
2438 2210 CircleF
2441 2247 CircleF
2444 2221 CircleF
2447 2182 CircleF
2450 2182 CircleF
2453 2187 CircleF
2456 2173 CircleF
2459 2174 CircleF
2462 2209 CircleF
2465 2191 CircleF
2468 2171 CircleF
2470 2170 CircleF
2473 2143 CircleF
2476 2156 CircleF
2479 2130 CircleF
2482 2119 CircleF
2485 2143 CircleF
2488 2145 CircleF
2491 2173 CircleF
2494 2240 CircleF
2497 2216 CircleF
2500 2131 CircleF
2503 2105 CircleF
2505 2091 CircleF
2508 2091 CircleF
2511 2091 CircleF
2514 2085 CircleF
2517 2102 CircleF
2520 2109 CircleF
2523 2104 CircleF
2526 2089 CircleF
2529 2112 CircleF
2532 2076 CircleF
2535 2073 CircleF
2538 2077 CircleF
2541 2091 CircleF
2543 2100 CircleF
2546 2095 CircleF
2549 2074 CircleF
2552 2055 CircleF
2555 2063 CircleF
2558 2068 CircleF
2561 2045 CircleF
2564 2042 CircleF
2567 2000 CircleF
2570 2027 CircleF
2573 2017 CircleF
2576 2035 CircleF
2578 2018 CircleF
2581 2014 CircleF
2584 2017 CircleF
2587 2055 CircleF
2590 2001 CircleF
2593 2032 CircleF
2596 2012 CircleF
2599 2002 CircleF
2602 2013 CircleF
2605 2041 CircleF
2608 2029 CircleF
2611 2026 CircleF
2613 2062 CircleF
2616 2040 CircleF
2619 2047 CircleF
2622 1996 CircleF
2625 2054 CircleF
2628 2041 CircleF
2631 2038 CircleF
2634 2057 CircleF
2637 2082 CircleF
2640 2047 CircleF
2643 2031 CircleF
2646 1978 CircleF
2649 2010 CircleF
2651 1987 CircleF
2654 1998 CircleF
2657 2005 CircleF
2660 1971 CircleF
2663 1976 CircleF
2666 1960 CircleF
2669 1977 CircleF
2672 1986 CircleF
2675 2032 CircleF
2678 1984 CircleF
2681 2014 CircleF
2684 1994 CircleF
2686 1971 CircleF
2689 1937 CircleF
2692 1938 CircleF
2695 1971 CircleF
2698 1932 CircleF
2701 1940 CircleF
2704 1956 CircleF
2707 1933 CircleF
2710 1936 CircleF
2713 1942 CircleF
2716 1949 CircleF
2719 1923 CircleF
2722 1917 CircleF
2724 1907 CircleF
2727 1946 CircleF
2730 1919 CircleF
2733 1900 CircleF
2736 1953 CircleF
2739 1915 CircleF
2742 1920 CircleF
2745 1923 CircleF
2748 1933 CircleF
2751 1934 CircleF
2754 1920 CircleF
2757 1884 CircleF
2759 1932 CircleF
2762 1904 CircleF
2765 1936 CircleF
2768 1930 CircleF
2771 1971 CircleF
2774 1906 CircleF
2777 1942 CircleF
2780 1965 CircleF
2783 1958 CircleF
2786 1956 CircleF
2789 1977 CircleF
2792 1930 CircleF
2795 1960 CircleF
2797 1979 CircleF
2800 1938 CircleF
2803 1879 CircleF
2806 1929 CircleF
2809 1933 CircleF
2812 1929 CircleF
2815 1958 CircleF
2818 1958 CircleF
2821 1915 CircleF
2824 1938 CircleF
2827 1909 CircleF
2830 1923 CircleF
2832 1923 CircleF
2835 1923 CircleF
2838 1916 CircleF
2841 1912 CircleF
2844 1912 CircleF
2847 1915 CircleF
2850 1954 CircleF
2853 1938 CircleF
2856 1932 CircleF
2859 1927 CircleF
2862 1929 CircleF
2865 1875 CircleF
2867 1829 CircleF
2870 1919 CircleF
2873 1893 CircleF
2876 1944 CircleF
2879 1882 CircleF
2882 1904 CircleF
2885 1870 CircleF
2888 1888 CircleF
2891 1884 CircleF
2894 1901 CircleF
2897 1868 CircleF
2900 1841 CircleF
2903 1863 CircleF
2905 1903 CircleF
2908 1852 CircleF
2911 1851 CircleF
2914 1817 CircleF
2917 1880 CircleF
2920 1879 CircleF
2923 1919 CircleF
2926 1879 CircleF
2929 1854 CircleF
2932 1872 CircleF
2935 1854 CircleF
2938 1904 CircleF
2940 1885 CircleF
2943 1868 CircleF
2946 1907 CircleF
2949 1884 CircleF
2952 1863 CircleF
2955 1819 CircleF
2958 1861 CircleF
2961 1907 CircleF
2964 1843 CircleF
2967 1835 CircleF
2970 1847 CircleF
2973 1865 CircleF
2976 1825 CircleF
2978 1856 CircleF
2981 1829 CircleF
2984 1837 CircleF
2987 1821 CircleF
2990 1829 CircleF
2993 1852 CircleF
2996 1843 CircleF
2999 1839 CircleF
3002 1793 CircleF
3005 1781 CircleF
3008 1808 CircleF
3011 1823 CircleF
3013 1845 CircleF
3016 1843 CircleF
3019 1797 CircleF
3022 1802 CircleF
3025 1825 CircleF
3028 1786 CircleF
3031 1821 CircleF
3034 1769 CircleF
3037 1786 CircleF
3040 1776 CircleF
3043 1831 CircleF
3046 1882 CircleF
3049 1795 CircleF
3051 1769 CircleF
3054 1769 CircleF
3057 1748 CircleF
3060 1769 CircleF
3063 1745 CircleF
3066 1753 CircleF
3069 1719 CircleF
3072 1823 CircleF
3075 1774 CircleF
3078 1769 CircleF
3081 1697 CircleF
3084 1710 CircleF
3086 1769 CircleF
3089 1800 CircleF
3092 1788 CircleF
3095 1742 CircleF
3098 1759 CircleF
3101 1761 CircleF
3104 1756 CircleF
3107 1722 CircleF
3110 1759 CircleF
3113 1776 CircleF
3116 1737 CircleF
3119 1716 CircleF
3121 1704 CircleF
3124 1725 CircleF
3127 1776 CircleF
3130 1819 CircleF
3133 1766 CircleF
3136 1761 CircleF
3139 1666 CircleF
3142 1781 CircleF
3145 1753 CircleF
3148 1769 CircleF
3151 1728 CircleF
3154 1788 CircleF
3157 1753 CircleF
3159 1776 CircleF
3162 1776 CircleF
3165 1761 CircleF
3168 1756 CircleF
3171 1731 CircleF
3174 1684 CircleF
3177 1719 CircleF
3180 1728 CircleF
3183 1802 CircleF
3186 1734 CircleF
3189 1731 CircleF
3192 1790 CircleF
3194 1774 CircleF
3197 1748 CircleF
3200 1719 CircleF
3203 1662 CircleF
3206 1666 CircleF
3209 1635 CircleF
3212 1670 CircleF
3215 1687 CircleF
3218 1687 CircleF
3221 1651 CircleF
3224 1639 CircleF
3227 1585 CircleF
3230 1684 CircleF
3232 1704 CircleF
3235 1680 CircleF
3238 1713 CircleF
3241 1631 CircleF
3244 1670 CircleF
3247 1697 CircleF
3250 1639 CircleF
3253 1687 CircleF
3256 1751 CircleF
3259 1725 CircleF
3262 1700 CircleF
3265 1694 CircleF
3267 1666 CircleF
3270 1639 CircleF
3273 1687 CircleF
3276 1631 CircleF
3279 1604 CircleF
3282 1658 CircleF
3285 1635 CircleF
3288 1697 CircleF
3291 1639 CircleF
3294 1670 CircleF
3297 1725 CircleF
3300 1722 CircleF
3302 1728 CircleF
3305 1687 CircleF
3308 1680 CircleF
3311 1599 CircleF
3314 1635 CircleF
3317 1548 CircleF
3320 1595 CircleF
3323 1647 CircleF
3326 1631 CircleF
3329 1635 CircleF
3332 1631 CircleF
3335 1635 CircleF
3338 1677 CircleF
3340 1725 CircleF
3343 1722 CircleF
3346 1590 CircleF
3349 1575 CircleF
3352 1647 CircleF
3355 1658 CircleF
3358 1631 CircleF
3361 1564 CircleF
3364 1666 CircleF
3367 1613 CircleF
3370 1580 CircleF
3373 1697 CircleF
3375 1697 CircleF
3378 1691 CircleF
3381 1766 CircleF
3384 1694 CircleF
3387 1609 CircleF
3390 1599 CircleF
3393 1609 CircleF
3396 1559 CircleF
3399 1643 CircleF
3402 1483 CircleF
3405 1559 CircleF
3408 1569 CircleF
3411 1490 CircleF
3413 1476 CircleF
3416 1530 CircleF
3419 1476 CircleF
3422 1476 CircleF
3425 1490 CircleF
3428 1580 CircleF
3431 1599 CircleF
3434 1542 CircleF
3437 1524 CircleF
3440 1655 CircleF
3443 1658 CircleF
3446 1599 CircleF
3448 1599 CircleF
3451 1599 CircleF
3454 1564 CircleF
3457 1622 CircleF
3460 1564 CircleF
3463 1564 CircleF
3466 1604 CircleF
3469 1626 CircleF
3472 1631 CircleF
3475 1575 CircleF
3478 1504 CircleF
3481 1658 CircleF
3484 1553 CircleF
3486 1585 CircleF
3489 1548 CircleF
3492 1542 CircleF
3495 1626 CircleF
3498 1595 CircleF
3501 1575 CircleF
3504 1504 CircleF
3507 1635 CircleF
3510 1524 CircleF
3513 1564 CircleF
3516 1580 CircleF
3519 1613 CircleF
3521 1548 CircleF
3524 1580 CircleF
3527 1609 CircleF
3530 1599 CircleF
3533 1651 CircleF
3536 1651 CircleF
3539 1553 CircleF
3542 1542 CircleF
3545 1444 CircleF
3548 1548 CircleF
3551 1504 CircleF
3554 1452 CircleF
3556 1490 CircleF
3559 1604 CircleF
3562 1618 CircleF
3565 1460 CircleF
3568 1536 CircleF
3571 1548 CircleF
3574 1530 CircleF
3577 1530 CircleF
3580 1444 CircleF
3583 1408 CircleF
3586 1476 CircleF
3589 1476 CircleF
3592 1427 CircleF
3594 1398 CircleF
3597 1444 CircleF
3600 1398 CircleF
3603 1304 CircleF
3606 1452 CircleF
3609 1408 CircleF
3612 1343 CircleF
3615 1452 CircleF
3618 1444 CircleF
3621 1497 CircleF
3624 1548 CircleF
3627 1436 CircleF
3629 1408 CircleF
3632 1408 CircleF
3635 1378 CircleF
3638 1318 CircleF
3641 1304 CircleF
3644 1483 CircleF
3647 1398 CircleF
3650 1355 CircleF
3653 1355 CircleF
3656 1289 CircleF
3659 1258 CircleF
3662 1355 CircleF
3665 1222 CircleF
3667 1222 CircleF
3670 1240 CircleF
3673 1180 CircleF
3676 1331 CircleF
3679 1157 CircleF
3682 1202 CircleF
3685 1222 CircleF
3688 1157 CircleF
3691 1157 CircleF
3694 1131 CircleF
3697 1202 CircleF
3700 1331 CircleF
3702 1289 CircleF
3705 1258 CircleF
3708 1131 CircleF
3711 1258 CircleF
3714 1157 CircleF
3717 1304 CircleF
3720 1318 CircleF
3723 1343 CircleF
3726 1289 CircleF
3729 1157 CircleF
3732 1222 CircleF
3735 1289 CircleF
3738 1318 CircleF
3740 1222 CircleF
3743 1331 CircleF
3746 1318 CircleF
3749 1289 CircleF
3752 1331 CircleF
3755 1331 CircleF
3758 1318 CircleF
3761 1274 CircleF
3764 1318 CircleF
3767 1289 CircleF
3770 1103 CircleF
3773 1343 CircleF
3775 994 CircleF
3778 1103 CircleF
3781 1035 CircleF
3784 1258 CircleF
3787 1240 CircleF
3790 1331 CircleF
3793 1304 CircleF
3796 1304 CircleF
3799 1318 CircleF
3802 1398 CircleF
3805 1331 CircleF
3808 1355 CircleF
3810 1222 CircleF
3813 1274 CircleF
3816 1274 CircleF
3819 1378 CircleF
3822 1274 CircleF
3825 1318 CircleF
3828 1240 CircleF
3831 1274 CircleF
3834 1180 CircleF
3837 994 CircleF
3840 1035 CircleF
3843 994 CircleF
3846 994 CircleF
3848 1222 CircleF
3851 945 CircleF
3854 1035 CircleF
3857 994 CircleF
3860 945 CircleF
3863 994 CircleF
3866 512 CircleF
3869 1035 CircleF
3872 885 CircleF
3875 1071 CircleF
3878 1035 CircleF
3881 1131 CircleF
3883 994 CircleF
3886 1157 CircleF
3889 945 CircleF
3892 1071 CircleF
3895 1131 CircleF
3898 994 CircleF
3901 885 CircleF
3904 698 CircleF
3907 885 CircleF
3910 945 CircleF
3913 1035 CircleF
3916 994 CircleF
3919 994 CircleF
3921 698 CircleF
3924 1035 CircleF
3927 698 CircleF
3930 1035 CircleF
3933 945 CircleF
3936 885 CircleF
3939 945 CircleF
3942 994 CircleF
3945 698 CircleF
3948 807 CircleF
3951 1157 CircleF
3954 807 CircleF
3956 1103 CircleF
3959 1035 CircleF
3962 994 CircleF
3965 1202 CircleF
3968 1035 CircleF
3971 1035 CircleF
3974 885 CircleF
3977 1071 CircleF
3980 1103 CircleF
3983 945 CircleF
3986 994 CircleF
3989 1103 CircleF
3992 1071 CircleF
3994 994 CircleF
3997 945 CircleF
4000 1131 CircleF
4003 994 CircleF
4006 885 CircleF
4009 807 CircleF
4012 1071 CircleF
4015 1103 CircleF
4018 945 CircleF
4021 1157 CircleF
4024 885 CircleF
4027 1103 CircleF
4029 1035 CircleF
4032 1103 CircleF
4035 1071 CircleF
4038 1157 CircleF
4041 885 CircleF
4044 945 CircleF
4047 1131 CircleF
4050 945 CircleF
4053 1131 CircleF
4056 1240 CircleF
4059 1304 CircleF
4062 1289 CircleF
4064 1240 CircleF
4067 1355 CircleF
4070 1436 CircleF
4073 1222 CircleF
4076 1131 CircleF
4079 1131 CircleF
4082 994 CircleF
4085 1131 CircleF
4088 1157 CircleF
4091 1131 CircleF
4094 1202 CircleF
4097 1222 CircleF
4100 1180 CircleF
4102 1258 CircleF
4105 1240 CircleF
4108 1367 CircleF
4111 1289 CircleF
4114 1304 CircleF
4117 1418 CircleF
4120 1418 CircleF
4123 1240 CircleF
4126 1418 CircleF
4129 1202 CircleF
4132 1258 CircleF
4135 1343 CircleF
4137 1318 CircleF
4140 1274 CircleF
4143 1274 CircleF
4146 1274 CircleF
4149 1289 CircleF
4152 1071 CircleF
4155 1240 CircleF
4158 1202 CircleF
4161 1103 CircleF
4164 1035 CircleF
4167 1157 CircleF
4170 1157 CircleF
4173 1103 CircleF
4175 1131 CircleF
4178 1103 CircleF
4181 1131 CircleF
4184 1131 CircleF
4187 1240 CircleF
4190 1071 CircleF
4193 1071 CircleF
4196 1202 CircleF
4199 1071 CircleF
4202 1157 CircleF
4205 1071 CircleF
4208 1304 CircleF
4210 1180 CircleF
4213 1157 CircleF
4216 1131 CircleF
4219 1035 CircleF
4222 1103 CircleF
4225 1071 CircleF
4228 885 CircleF
4231 945 CircleF
4234 807 CircleF
4237 885 CircleF
4240 1035 CircleF
4243 1071 CircleF
4245 807 CircleF
4248 1131 CircleF
4251 1103 CircleF
4254 994 CircleF
4257 885 CircleF
4260 1071 CircleF
4263 885 CircleF
4266 1103 CircleF
4269 945 CircleF
4272 807 CircleF
4275 885 CircleF
4278 512 CircleF
4281 807 CircleF
4283 945 CircleF
4286 994 CircleF
4289 885 CircleF
4292 1103 CircleF
4295 885 CircleF
4298 1131 CircleF
4301 1035 CircleF
4304 885 CircleF
4307 945 CircleF
4310 698 CircleF
4313 994 CircleF
4316 807 CircleF
4318 945 CircleF
4321 1103 CircleF
4324 1103 CircleF
4327 1071 CircleF
4330 1071 CircleF
4333 1180 CircleF
4336 1180 CircleF
4339 1258 CircleF
4342 1304 CircleF
4345 1180 CircleF
4348 1240 CircleF
4351 1240 CircleF
4354 1131 CircleF
4356 1202 CircleF
4359 1180 CircleF
4362 1180 CircleF
4365 994 CircleF
4368 1071 CircleF
4371 1180 CircleF
4374 1071 CircleF
4377 1071 CircleF
4380 1157 CircleF
4383 1289 CircleF
4386 1222 CircleF
4389 1258 CircleF
4391 1157 CircleF
4394 994 CircleF
4397 807 CircleF
4400 994 CircleF
4403 1131 CircleF
4406 994 CircleF
4409 807 CircleF
4412 945 CircleF
4415 807 CircleF
4418 698 CircleF
4421 698 CircleF
4424 885 CircleF
4427 945 CircleF
4429 994 CircleF
4432 945 CircleF
4435 1071 CircleF
4438 945 CircleF
4441 698 CircleF
4444 945 CircleF
4447 885 CircleF
4450 885 CircleF
4453 1035 CircleF
4456 1035 CircleF
4459 945 CircleF
4462 945 CircleF
4464 945 CircleF
4467 1071 CircleF
4470 885 CircleF
4473 885 CircleF
4476 1071 CircleF
4479 1157 CircleF
4482 885 CircleF
4485 945 CircleF
4488 945 CircleF
4491 945 CircleF
4494 1071 CircleF
4497 885 CircleF
4499 698 CircleF
4502 807 CircleF
4505 1131 CircleF
4508 885 CircleF
4511 885 CircleF
4514 807 CircleF
4517 945 CircleF
4520 698 CircleF
4523 698 CircleF
4526 885 CircleF
4529 698 CircleF
4532 807 CircleF
4535 698 CircleF
4537 698 CircleF
4540 698 CircleF
4543 885 CircleF
4546 698 CircleF
4549 994 CircleF
4552 1071 CircleF
4555 698 CircleF
4558 1035 CircleF
4561 1103 CircleF
4564 1035 CircleF
4567 1103 CircleF
4570 807 CircleF
4572 512 CircleF
4575 885 CircleF
4578 1131 CircleF
4581 945 CircleF
4584 945 CircleF
4587 807 CircleF
4590 807 CircleF
4593 1071 CircleF
4596 885 CircleF
4599 1103 CircleF
4602 1071 CircleF
4605 1035 CircleF
4608 1071 CircleF
4610 945 CircleF
4613 885 CircleF
4616 1071 CircleF
4619 994 CircleF
4622 807 CircleF
4625 1035 CircleF
4628 945 CircleF
4631 994 CircleF
4634 994 CircleF
4637 945 CircleF
4640 945 CircleF
4643 1035 CircleF
4645 1035 CircleF
4648 994 CircleF
4651 1035 CircleF
4654 1035 CircleF
4657 945 CircleF
4660 807 CircleF
4663 1035 CircleF
4666 807 CircleF
4669 945 CircleF
4672 1071 CircleF
4675 994 CircleF
4678 994 CircleF
4681 994 CircleF
4683 1071 CircleF
4686 1103 CircleF
4689 1103 CircleF
4692 1222 CircleF
4695 994 CircleF
4698 1202 CircleF
4701 1157 CircleF
4704 1103 CircleF
4707 1131 CircleF
4710 1131 CircleF
4713 1258 CircleF
4716 1157 CircleF
4718 1180 CircleF
4721 1071 CircleF
4724 1202 CircleF
4727 1222 CircleF
4730 1071 CircleF
4733 1258 CircleF
4736 1240 CircleF
4739 1240 CircleF
4742 1180 CircleF
4745 1157 CircleF
4748 1131 CircleF
4751 1180 CircleF
4753 1240 CircleF
4756 1258 CircleF
4759 1180 CircleF
4762 1202 CircleF
4765 1202 CircleF
4768 1157 CircleF
4771 1202 CircleF
4774 1222 CircleF
4777 1071 CircleF
4780 1131 CircleF
4783 1131 CircleF
4786 1131 CircleF
4789 945 CircleF
4791 1180 CircleF
4794 1157 CircleF
4797 1071 CircleF
4800 945 CircleF
4803 994 CircleF
4806 1222 CircleF
4809 1222 CircleF
4812 994 CircleF
4815 1157 CircleF
4818 1157 CircleF
4821 1131 CircleF
4824 1131 CircleF
4826 1180 CircleF
4829 1258 CircleF
4832 1180 CircleF
4835 1071 CircleF
4838 1071 CircleF
4841 1240 CircleF
4844 1103 CircleF
4847 1071 CircleF
4850 1103 CircleF
4853 1131 CircleF
4856 1035 CircleF
4859 1180 CircleF
4862 1035 CircleF
4864 1157 CircleF
4867 945 CircleF
4870 945 CircleF
4873 1131 CircleF
4876 1103 CircleF
4879 994 CircleF
4882 994 CircleF
4885 1202 CircleF
4888 1157 CircleF
4891 807 CircleF
4894 1131 CircleF
4897 885 CircleF
4899 945 CircleF
4902 1071 CircleF
4905 1103 CircleF
4908 1157 CircleF
4911 994 CircleF
4914 1157 CircleF
4917 885 CircleF
4920 1180 CircleF
4923 1071 CircleF
4926 994 CircleF
4929 1258 CircleF
4932 1202 CircleF
4934 1071 CircleF
4937 1258 CircleF
4940 1222 CircleF
4943 1274 CircleF
4946 1258 CircleF
4949 1331 CircleF
4952 1331 CircleF
4955 1378 CircleF
4958 1343 CircleF
4961 1180 CircleF
4964 1035 CircleF
4967 1103 CircleF
4970 1240 CircleF
4972 1131 CircleF
4975 885 CircleF
4978 1071 CircleF
4981 1131 CircleF
4984 885 CircleF
4987 885 CircleF
4990 807 CircleF
4993 994 CircleF
4996 945 CircleF
4999 698 CircleF
5002 1071 CircleF
5005 1035 CircleF
5007 1071 CircleF
5010 807 CircleF
5013 512 CircleF
5016 1103 CircleF
5019 698 CircleF
5022 945 CircleF
5025 885 CircleF
5028 807 CircleF
5031 807 CircleF
5034 994 CircleF
5037 945 CircleF
5040 1035 CircleF
5043 945 CircleF
5045 807 CircleF
5048 885 CircleF
5051 698 CircleF
5054 945 CircleF
5057 945 CircleF
5060 885 CircleF
5063 698 CircleF
5066 1035 CircleF
5069 698 CircleF
5072 945 CircleF
5075 885 CircleF
5078 1071 CircleF
5080 994 CircleF
5083 885 CircleF
5086 1103 CircleF
5089 994 CircleF
5092 885 CircleF
5095 807 CircleF
5098 698 CircleF
5101 698 CircleF
5104 885 CircleF
5107 945 CircleF
5110 512 CircleF
5113 698 CircleF
5116 885 CircleF
5118 885 CircleF
5121 698 CircleF
5124 698 CircleF
5127 945 CircleF
5130 512 CircleF
5133 807 CircleF
5136 807 CircleF
5139 698 CircleF
5142 698 CircleF
5145 698 CircleF
5148 807 CircleF
5151 807 CircleF
5153 807 CircleF
5156 512 CircleF
5159 698 CircleF
5165 807 CircleF
5174 807 CircleF
5177 698 CircleF
5183 945 CircleF
5186 807 CircleF
5188 698 CircleF
5191 698 CircleF
5194 512 CircleF
5197 885 CircleF
5200 698 CircleF
5203 807 CircleF
5206 512 CircleF
5209 512 CircleF
5212 698 CircleF
5215 698 CircleF
5218 807 CircleF
5221 945 CircleF
5224 512 CircleF
5226 512 CircleF
5229 807 CircleF
5235 512 CircleF
5238 512 CircleF
5241 1035 CircleF
5244 807 CircleF
5247 698 CircleF
5250 512 CircleF
5256 885 CircleF
5259 885 CircleF
5261 512 CircleF
5267 512 CircleF
5270 885 CircleF
5273 945 CircleF
5279 807 CircleF
5282 512 CircleF
5285 512 CircleF
5288 945 CircleF
5291 698 CircleF
5294 512 CircleF
5297 512 CircleF
5299 807 CircleF
5302 994 CircleF
5305 807 CircleF
5308 885 CircleF
5311 807 CircleF
5314 698 CircleF
5317 885 CircleF
5320 512 CircleF
5323 945 CircleF
5326 698 CircleF
5329 885 CircleF
5332 807 CircleF
5334 512 CircleF
5337 945 CircleF
5340 945 CircleF
5343 1035 CircleF
5346 1035 CircleF
5349 512 CircleF
5352 698 CircleF
5355 807 CircleF
5358 512 CircleF
5361 698 CircleF
5364 698 CircleF
5367 885 CircleF
5370 885 CircleF
5372 807 CircleF
5375 512 CircleF
5378 512 CircleF
5381 698 CircleF
5384 512 CircleF
5387 512 CircleF
5390 807 CircleF
5393 885 CircleF
5396 945 CircleF
5402 512 CircleF
5407 994 CircleF
5410 885 CircleF
5413 698 CircleF
5416 807 CircleF
5419 698 CircleF
5422 698 CircleF
5425 698 CircleF
5428 807 CircleF
5431 512 CircleF
5434 698 CircleF
5437 994 CircleF
5440 512 CircleF
5442 807 CircleF
5448 945 CircleF
5454 512 CircleF
5460 807 CircleF
5463 512 CircleF
5466 698 CircleF
5469 698 CircleF
5475 512 CircleF
5478 512 CircleF
5480 512 CircleF
5483 698 CircleF
5486 807 CircleF
5489 512 CircleF
5495 512 CircleF
5498 512 CircleF
5501 512 CircleF
5504 698 CircleF
5507 512 CircleF
5513 807 CircleF
5515 945 CircleF
5518 512 CircleF
5521 512 CircleF
5527 512 CircleF
5530 807 CircleF
5533 698 CircleF
5536 512 CircleF
5539 698 CircleF
5542 698 CircleF
5545 885 CircleF
5548 807 CircleF
5551 512 CircleF
5553 807 CircleF
5559 512 CircleF
5562 698 CircleF
5565 698 CircleF
5571 512 CircleF
5574 698 CircleF
5577 807 CircleF
5583 512 CircleF
5586 512 CircleF
5588 807 CircleF
5591 698 CircleF
5594 512 CircleF
5597 698 CircleF
5603 885 CircleF
5606 512 CircleF
5609 698 CircleF
5612 512 CircleF
5615 512 CircleF
5618 807 CircleF
5624 512 CircleF
5626 512 CircleF
5629 698 CircleF
5635 512 CircleF
5638 512 CircleF
5644 698 CircleF
5647 512 CircleF
5653 512 CircleF
5659 512 CircleF
5664 512 CircleF
5667 512 CircleF
5673 698 CircleF
5676 698 CircleF
5679 698 CircleF
5688 512 CircleF
5691 512 CircleF
5694 512 CircleF
5696 512 CircleF
5699 512 CircleF
5702 698 CircleF
5714 698 CircleF
5720 512 CircleF
5726 512 CircleF
5729 512 CircleF
5752 698 CircleF
5755 512 CircleF
5775 512 CircleF
5778 698 CircleF
5784 512 CircleF
5796 698 CircleF
5802 512 CircleF
5805 512 CircleF
5834 512 CircleF
5837 698 CircleF
5842 698 CircleF
5851 512 CircleF
5854 512 CircleF
5866 512 CircleF
5872 512 CircleF
5875 512 CircleF
5877 512 CircleF
5883 512 CircleF
5886 512 CircleF
5904 698 CircleF
5913 512 CircleF
5915 512 CircleF
5918 512 CircleF
5924 885 CircleF
5927 698 CircleF
5933 512 CircleF
5942 512 CircleF
5948 512 CircleF
5953 698 CircleF
5956 512 CircleF
5974 512 CircleF
5983 512 CircleF
5994 512 CircleF
6015 698 CircleF
6021 512 CircleF
6038 512 CircleF
6041 512 CircleF
6044 807 CircleF
6053 698 CircleF
6076 512 CircleF
6079 512 CircleF
6082 512 CircleF
6099 512 CircleF
6111 512 CircleF
6123 807 CircleF
6137 512 CircleF
6143 512 CircleF
6146 512 CircleF
6152 512 CircleF
6155 512 CircleF
6164 512 CircleF
6167 807 CircleF
6169 698 CircleF
6172 512 CircleF
6175 512 CircleF
6178 698 CircleF
6184 807 CircleF
6187 698 CircleF
6190 807 CircleF
6193 512 CircleF
6199 885 CircleF
6202 698 CircleF
6204 885 CircleF
6207 512 CircleF
6210 512 CircleF
6213 698 CircleF
6219 698 CircleF
6225 512 CircleF
6231 512 CircleF
6234 698 CircleF
6237 512 CircleF
6245 512 CircleF
6260 698 CircleF
6263 885 CircleF
6266 698 CircleF
6269 698 CircleF
6272 807 CircleF
6275 512 CircleF
6283 698 CircleF
6286 512 CircleF
6289 512 CircleF
6292 512 CircleF
6295 807 CircleF
6298 698 CircleF
6301 807 CircleF
6304 807 CircleF
6307 512 CircleF
6310 1035 CircleF
6313 512 CircleF
6315 512 CircleF
6321 698 CircleF
6324 512 CircleF
6327 698 CircleF
6330 512 CircleF
6339 512 CircleF
6348 512 CircleF
% End plot #1
1.000 UL
LTb
LCb setrgbcolor
1072 4847 N
0 -4335 V
5839 0 V
0 4335 V
-5839 0 V
Z stroke
1.000 UP
1.000 UL
LTb
LCb setrgbcolor
stroke
grestore
end
showpage
%%Trailer
%%DocumentFonts: Helvetica
