%!PS-Adobe-2.0 EPSF-2.0
%%Title: nbrDist.eps
%%Creator: gnuplot 4.6 patchlevel 2
%%CreationDate: Thu Sep 19 11:31:17 2019
%%DocumentFonts: (atend)
%%BoundingBox: 50 50 410 302
%%EndComments
%%BeginProlog
/gnudict 256 dict def
gnudict begin
%
% The following true/false flags may be edited by hand if desired.
% The unit line width and grayscale image gamma correction may also be changed.
%
/Color true def
/Blacktext false def
/Solid false def
/Dashlength 1 def
/Landscape false def
/Level1 false def
/Rounded false def
/ClipToBoundingBox false def
/SuppressPDFMark false def
/TransparentPatterns false def
/gnulinewidth 5.000 def
/userlinewidth gnulinewidth def
/Gamma 1.0 def
/BackgroundColor {-1.000 -1.000 -1.000} def
%
/vshift -53 def
/dl1 {
  10.0 Dashlength mul mul
  Rounded { currentlinewidth 0.75 mul sub dup 0 le { pop 0.01 } if } if
} def
/dl2 {
  10.0 Dashlength mul mul
  Rounded { currentlinewidth 0.75 mul add } if
} def
/hpt_ 31.5 def
/vpt_ 31.5 def
/hpt hpt_ def
/vpt vpt_ def
/doclip {
  ClipToBoundingBox {
    newpath 50 50 moveto 410 50 lineto 410 302 lineto 50 302 lineto closepath
    clip
  } if
} def
%
% Gnuplot Prolog Version 4.6 (September 2012)
%
%/SuppressPDFMark true def
%
/M {moveto} bind def
/L {lineto} bind def
/R {rmoveto} bind def
/V {rlineto} bind def
/N {newpath moveto} bind def
/Z {closepath} bind def
/C {setrgbcolor} bind def
/f {rlineto fill} bind def
/g {setgray} bind def
/Gshow {show} def   % May be redefined later in the file to support UTF-8
/vpt2 vpt 2 mul def
/hpt2 hpt 2 mul def
/Lshow {currentpoint stroke M 0 vshift R 
	Blacktext {gsave 0 setgray show grestore} {show} ifelse} def
/Rshow {currentpoint stroke M dup stringwidth pop neg vshift R
	Blacktext {gsave 0 setgray show grestore} {show} ifelse} def
/Cshow {currentpoint stroke M dup stringwidth pop -2 div vshift R 
	Blacktext {gsave 0 setgray show grestore} {show} ifelse} def
/UP {dup vpt_ mul /vpt exch def hpt_ mul /hpt exch def
  /hpt2 hpt 2 mul def /vpt2 vpt 2 mul def} def
/DL {Color {setrgbcolor Solid {pop []} if 0 setdash}
 {pop pop pop 0 setgray Solid {pop []} if 0 setdash} ifelse} def
/BL {stroke userlinewidth 2 mul setlinewidth
	Rounded {1 setlinejoin 1 setlinecap} if} def
/AL {stroke userlinewidth 2 div setlinewidth
	Rounded {1 setlinejoin 1 setlinecap} if} def
/UL {dup gnulinewidth mul /userlinewidth exch def
	dup 1 lt {pop 1} if 10 mul /udl exch def} def
/PL {stroke userlinewidth setlinewidth
	Rounded {1 setlinejoin 1 setlinecap} if} def
3.8 setmiterlimit
% Default Line colors
/LCw {1 1 1} def
/LCb {0 0 0} def
/LCa {0 0 0} def
/LC0 {1 0 0} def
/LC1 {0 1 0} def
/LC2 {0 0 1} def
/LC3 {1 0 1} def
/LC4 {0 1 1} def
/LC5 {1 1 0} def
/LC6 {0 0 0} def
/LC7 {1 0.3 0} def
/LC8 {0.5 0.5 0.5} def
% Default Line Types
/LTw {PL [] 1 setgray} def
/LTb {BL [] LCb DL} def
/LTa {AL [1 udl mul 2 udl mul] 0 setdash LCa setrgbcolor} def
/LT0 {PL [] LC0 DL} def
/LT1 {PL [4 dl1 2 dl2] LC1 DL} def
/LT2 {PL [2 dl1 3 dl2] LC2 DL} def
/LT3 {PL [1 dl1 1.5 dl2] LC3 DL} def
/LT4 {PL [6 dl1 2 dl2 1 dl1 2 dl2] LC4 DL} def
/LT5 {PL [3 dl1 3 dl2 1 dl1 3 dl2] LC5 DL} def
/LT6 {PL [2 dl1 2 dl2 2 dl1 6 dl2] LC6 DL} def
/LT7 {PL [1 dl1 2 dl2 6 dl1 2 dl2 1 dl1 2 dl2] LC7 DL} def
/LT8 {PL [2 dl1 2 dl2 2 dl1 2 dl2 2 dl1 2 dl2 2 dl1 4 dl2] LC8 DL} def
/Pnt {stroke [] 0 setdash gsave 1 setlinecap M 0 0 V stroke grestore} def
/Dia {stroke [] 0 setdash 2 copy vpt add M
  hpt neg vpt neg V hpt vpt neg V
  hpt vpt V hpt neg vpt V closepath stroke
  Pnt} def
/Pls {stroke [] 0 setdash vpt sub M 0 vpt2 V
  currentpoint stroke M
  hpt neg vpt neg R hpt2 0 V stroke
 } def
/Box {stroke [] 0 setdash 2 copy exch hpt sub exch vpt add M
  0 vpt2 neg V hpt2 0 V 0 vpt2 V
  hpt2 neg 0 V closepath stroke
  Pnt} def
/Crs {stroke [] 0 setdash exch hpt sub exch vpt add M
  hpt2 vpt2 neg V currentpoint stroke M
  hpt2 neg 0 R hpt2 vpt2 V stroke} def
/TriU {stroke [] 0 setdash 2 copy vpt 1.12 mul add M
  hpt neg vpt -1.62 mul V
  hpt 2 mul 0 V
  hpt neg vpt 1.62 mul V closepath stroke
  Pnt} def
/Star {2 copy Pls Crs} def
/BoxF {stroke [] 0 setdash exch hpt sub exch vpt add M
  0 vpt2 neg V hpt2 0 V 0 vpt2 V
  hpt2 neg 0 V closepath fill} def
/TriUF {stroke [] 0 setdash vpt 1.12 mul add M
  hpt neg vpt -1.62 mul V
  hpt 2 mul 0 V
  hpt neg vpt 1.62 mul V closepath fill} def
/TriD {stroke [] 0 setdash 2 copy vpt 1.12 mul sub M
  hpt neg vpt 1.62 mul V
  hpt 2 mul 0 V
  hpt neg vpt -1.62 mul V closepath stroke
  Pnt} def
/TriDF {stroke [] 0 setdash vpt 1.12 mul sub M
  hpt neg vpt 1.62 mul V
  hpt 2 mul 0 V
  hpt neg vpt -1.62 mul V closepath fill} def
/DiaF {stroke [] 0 setdash vpt add M
  hpt neg vpt neg V hpt vpt neg V
  hpt vpt V hpt neg vpt V closepath fill} def
/Pent {stroke [] 0 setdash 2 copy gsave
  translate 0 hpt M 4 {72 rotate 0 hpt L} repeat
  closepath stroke grestore Pnt} def
/PentF {stroke [] 0 setdash gsave
  translate 0 hpt M 4 {72 rotate 0 hpt L} repeat
  closepath fill grestore} def
/Circle {stroke [] 0 setdash 2 copy
  hpt 0 360 arc stroke Pnt} def
/CircleF {stroke [] 0 setdash hpt 0 360 arc fill} def
/C0 {BL [] 0 setdash 2 copy moveto vpt 90 450 arc} bind def
/C1 {BL [] 0 setdash 2 copy moveto
	2 copy vpt 0 90 arc closepath fill
	vpt 0 360 arc closepath} bind def
/C2 {BL [] 0 setdash 2 copy moveto
	2 copy vpt 90 180 arc closepath fill
	vpt 0 360 arc closepath} bind def
/C3 {BL [] 0 setdash 2 copy moveto
	2 copy vpt 0 180 arc closepath fill
	vpt 0 360 arc closepath} bind def
/C4 {BL [] 0 setdash 2 copy moveto
	2 copy vpt 180 270 arc closepath fill
	vpt 0 360 arc closepath} bind def
/C5 {BL [] 0 setdash 2 copy moveto
	2 copy vpt 0 90 arc
	2 copy moveto
	2 copy vpt 180 270 arc closepath fill
	vpt 0 360 arc} bind def
/C6 {BL [] 0 setdash 2 copy moveto
	2 copy vpt 90 270 arc closepath fill
	vpt 0 360 arc closepath} bind def
/C7 {BL [] 0 setdash 2 copy moveto
	2 copy vpt 0 270 arc closepath fill
	vpt 0 360 arc closepath} bind def
/C8 {BL [] 0 setdash 2 copy moveto
	2 copy vpt 270 360 arc closepath fill
	vpt 0 360 arc closepath} bind def
/C9 {BL [] 0 setdash 2 copy moveto
	2 copy vpt 270 450 arc closepath fill
	vpt 0 360 arc closepath} bind def
/C10 {BL [] 0 setdash 2 copy 2 copy moveto vpt 270 360 arc closepath fill
	2 copy moveto
	2 copy vpt 90 180 arc closepath fill
	vpt 0 360 arc closepath} bind def
/C11 {BL [] 0 setdash 2 copy moveto
	2 copy vpt 0 180 arc closepath fill
	2 copy moveto
	2 copy vpt 270 360 arc closepath fill
	vpt 0 360 arc closepath} bind def
/C12 {BL [] 0 setdash 2 copy moveto
	2 copy vpt 180 360 arc closepath fill
	vpt 0 360 arc closepath} bind def
/C13 {BL [] 0 setdash 2 copy moveto
	2 copy vpt 0 90 arc closepath fill
	2 copy moveto
	2 copy vpt 180 360 arc closepath fill
	vpt 0 360 arc closepath} bind def
/C14 {BL [] 0 setdash 2 copy moveto
	2 copy vpt 90 360 arc closepath fill
	vpt 0 360 arc} bind def
/C15 {BL [] 0 setdash 2 copy vpt 0 360 arc closepath fill
	vpt 0 360 arc closepath} bind def
/Rec {newpath 4 2 roll moveto 1 index 0 rlineto 0 exch rlineto
	neg 0 rlineto closepath} bind def
/Square {dup Rec} bind def
/Bsquare {vpt sub exch vpt sub exch vpt2 Square} bind def
/S0 {BL [] 0 setdash 2 copy moveto 0 vpt rlineto BL Bsquare} bind def
/S1 {BL [] 0 setdash 2 copy vpt Square fill Bsquare} bind def
/S2 {BL [] 0 setdash 2 copy exch vpt sub exch vpt Square fill Bsquare} bind def
/S3 {BL [] 0 setdash 2 copy exch vpt sub exch vpt2 vpt Rec fill Bsquare} bind def
/S4 {BL [] 0 setdash 2 copy exch vpt sub exch vpt sub vpt Square fill Bsquare} bind def
/S5 {BL [] 0 setdash 2 copy 2 copy vpt Square fill
	exch vpt sub exch vpt sub vpt Square fill Bsquare} bind def
/S6 {BL [] 0 setdash 2 copy exch vpt sub exch vpt sub vpt vpt2 Rec fill Bsquare} bind def
/S7 {BL [] 0 setdash 2 copy exch vpt sub exch vpt sub vpt vpt2 Rec fill
	2 copy vpt Square fill Bsquare} bind def
/S8 {BL [] 0 setdash 2 copy vpt sub vpt Square fill Bsquare} bind def
/S9 {BL [] 0 setdash 2 copy vpt sub vpt vpt2 Rec fill Bsquare} bind def
/S10 {BL [] 0 setdash 2 copy vpt sub vpt Square fill 2 copy exch vpt sub exch vpt Square fill
	Bsquare} bind def
/S11 {BL [] 0 setdash 2 copy vpt sub vpt Square fill 2 copy exch vpt sub exch vpt2 vpt Rec fill
	Bsquare} bind def
/S12 {BL [] 0 setdash 2 copy exch vpt sub exch vpt sub vpt2 vpt Rec fill Bsquare} bind def
/S13 {BL [] 0 setdash 2 copy exch vpt sub exch vpt sub vpt2 vpt Rec fill
	2 copy vpt Square fill Bsquare} bind def
/S14 {BL [] 0 setdash 2 copy exch vpt sub exch vpt sub vpt2 vpt Rec fill
	2 copy exch vpt sub exch vpt Square fill Bsquare} bind def
/S15 {BL [] 0 setdash 2 copy Bsquare fill Bsquare} bind def
/D0 {gsave translate 45 rotate 0 0 S0 stroke grestore} bind def
/D1 {gsave translate 45 rotate 0 0 S1 stroke grestore} bind def
/D2 {gsave translate 45 rotate 0 0 S2 stroke grestore} bind def
/D3 {gsave translate 45 rotate 0 0 S3 stroke grestore} bind def
/D4 {gsave translate 45 rotate 0 0 S4 stroke grestore} bind def
/D5 {gsave translate 45 rotate 0 0 S5 stroke grestore} bind def
/D6 {gsave translate 45 rotate 0 0 S6 stroke grestore} bind def
/D7 {gsave translate 45 rotate 0 0 S7 stroke grestore} bind def
/D8 {gsave translate 45 rotate 0 0 S8 stroke grestore} bind def
/D9 {gsave translate 45 rotate 0 0 S9 stroke grestore} bind def
/D10 {gsave translate 45 rotate 0 0 S10 stroke grestore} bind def
/D11 {gsave translate 45 rotate 0 0 S11 stroke grestore} bind def
/D12 {gsave translate 45 rotate 0 0 S12 stroke grestore} bind def
/D13 {gsave translate 45 rotate 0 0 S13 stroke grestore} bind def
/D14 {gsave translate 45 rotate 0 0 S14 stroke grestore} bind def
/D15 {gsave translate 45 rotate 0 0 S15 stroke grestore} bind def
/DiaE {stroke [] 0 setdash vpt add M
  hpt neg vpt neg V hpt vpt neg V
  hpt vpt V hpt neg vpt V closepath stroke} def
/BoxE {stroke [] 0 setdash exch hpt sub exch vpt add M
  0 vpt2 neg V hpt2 0 V 0 vpt2 V
  hpt2 neg 0 V closepath stroke} def
/TriUE {stroke [] 0 setdash vpt 1.12 mul add M
  hpt neg vpt -1.62 mul V
  hpt 2 mul 0 V
  hpt neg vpt 1.62 mul V closepath stroke} def
/TriDE {stroke [] 0 setdash vpt 1.12 mul sub M
  hpt neg vpt 1.62 mul V
  hpt 2 mul 0 V
  hpt neg vpt -1.62 mul V closepath stroke} def
/PentE {stroke [] 0 setdash gsave
  translate 0 hpt M 4 {72 rotate 0 hpt L} repeat
  closepath stroke grestore} def
/CircE {stroke [] 0 setdash 
  hpt 0 360 arc stroke} def
/Opaque {gsave closepath 1 setgray fill grestore 0 setgray closepath} def
/DiaW {stroke [] 0 setdash vpt add M
  hpt neg vpt neg V hpt vpt neg V
  hpt vpt V hpt neg vpt V Opaque stroke} def
/BoxW {stroke [] 0 setdash exch hpt sub exch vpt add M
  0 vpt2 neg V hpt2 0 V 0 vpt2 V
  hpt2 neg 0 V Opaque stroke} def
/TriUW {stroke [] 0 setdash vpt 1.12 mul add M
  hpt neg vpt -1.62 mul V
  hpt 2 mul 0 V
  hpt neg vpt 1.62 mul V Opaque stroke} def
/TriDW {stroke [] 0 setdash vpt 1.12 mul sub M
  hpt neg vpt 1.62 mul V
  hpt 2 mul 0 V
  hpt neg vpt -1.62 mul V Opaque stroke} def
/PentW {stroke [] 0 setdash gsave
  translate 0 hpt M 4 {72 rotate 0 hpt L} repeat
  Opaque stroke grestore} def
/CircW {stroke [] 0 setdash 
  hpt 0 360 arc Opaque stroke} def
/BoxFill {gsave Rec 1 setgray fill grestore} def
/Density {
  /Fillden exch def
  currentrgbcolor
  /ColB exch def /ColG exch def /ColR exch def
  /ColR ColR Fillden mul Fillden sub 1 add def
  /ColG ColG Fillden mul Fillden sub 1 add def
  /ColB ColB Fillden mul Fillden sub 1 add def
  ColR ColG ColB setrgbcolor} def
/BoxColFill {gsave Rec PolyFill} def
/PolyFill {gsave Density fill grestore grestore} def
/h {rlineto rlineto rlineto gsave closepath fill grestore} bind def
%
% PostScript Level 1 Pattern Fill routine for rectangles
% Usage: x y w h s a XX PatternFill
%	x,y = lower left corner of box to be filled
%	w,h = width and height of box
%	  a = angle in degrees between lines and x-axis
%	 XX = 0/1 for no/yes cross-hatch
%
/PatternFill {gsave /PFa [ 9 2 roll ] def
  PFa 0 get PFa 2 get 2 div add PFa 1 get PFa 3 get 2 div add translate
  PFa 2 get -2 div PFa 3 get -2 div PFa 2 get PFa 3 get Rec
  TransparentPatterns {} {gsave 1 setgray fill grestore} ifelse
  clip
  currentlinewidth 0.5 mul setlinewidth
  /PFs PFa 2 get dup mul PFa 3 get dup mul add sqrt def
  0 0 M PFa 5 get rotate PFs -2 div dup translate
  0 1 PFs PFa 4 get div 1 add floor cvi
	{PFa 4 get mul 0 M 0 PFs V} for
  0 PFa 6 get ne {
	0 1 PFs PFa 4 get div 1 add floor cvi
	{PFa 4 get mul 0 2 1 roll M PFs 0 V} for
 } if
  stroke grestore} def
%
/languagelevel where
 {pop languagelevel} {1} ifelse
 2 lt
	{/InterpretLevel1 true def}
	{/InterpretLevel1 Level1 def}
 ifelse
%
% PostScript level 2 pattern fill definitions
%
/Level2PatternFill {
/Tile8x8 {/PaintType 2 /PatternType 1 /TilingType 1 /BBox [0 0 8 8] /XStep 8 /YStep 8}
	bind def
/KeepColor {currentrgbcolor [/Pattern /DeviceRGB] setcolorspace} bind def
<< Tile8x8
 /PaintProc {0.5 setlinewidth pop 0 0 M 8 8 L 0 8 M 8 0 L stroke} 
>> matrix makepattern
/Pat1 exch def
<< Tile8x8
 /PaintProc {0.5 setlinewidth pop 0 0 M 8 8 L 0 8 M 8 0 L stroke
	0 4 M 4 8 L 8 4 L 4 0 L 0 4 L stroke}
>> matrix makepattern
/Pat2 exch def
<< Tile8x8
 /PaintProc {0.5 setlinewidth pop 0 0 M 0 8 L
	8 8 L 8 0 L 0 0 L fill}
>> matrix makepattern
/Pat3 exch def
<< Tile8x8
 /PaintProc {0.5 setlinewidth pop -4 8 M 8 -4 L
	0 12 M 12 0 L stroke}
>> matrix makepattern
/Pat4 exch def
<< Tile8x8
 /PaintProc {0.5 setlinewidth pop -4 0 M 8 12 L
	0 -4 M 12 8 L stroke}
>> matrix makepattern
/Pat5 exch def
<< Tile8x8
 /PaintProc {0.5 setlinewidth pop -2 8 M 4 -4 L
	0 12 M 8 -4 L 4 12 M 10 0 L stroke}
>> matrix makepattern
/Pat6 exch def
<< Tile8x8
 /PaintProc {0.5 setlinewidth pop -2 0 M 4 12 L
	0 -4 M 8 12 L 4 -4 M 10 8 L stroke}
>> matrix makepattern
/Pat7 exch def
<< Tile8x8
 /PaintProc {0.5 setlinewidth pop 8 -2 M -4 4 L
	12 0 M -4 8 L 12 4 M 0 10 L stroke}
>> matrix makepattern
/Pat8 exch def
<< Tile8x8
 /PaintProc {0.5 setlinewidth pop 0 -2 M 12 4 L
	-4 0 M 12 8 L -4 4 M 8 10 L stroke}
>> matrix makepattern
/Pat9 exch def
/Pattern1 {PatternBgnd KeepColor Pat1 setpattern} bind def
/Pattern2 {PatternBgnd KeepColor Pat2 setpattern} bind def
/Pattern3 {PatternBgnd KeepColor Pat3 setpattern} bind def
/Pattern4 {PatternBgnd KeepColor Landscape {Pat5} {Pat4} ifelse setpattern} bind def
/Pattern5 {PatternBgnd KeepColor Landscape {Pat4} {Pat5} ifelse setpattern} bind def
/Pattern6 {PatternBgnd KeepColor Landscape {Pat9} {Pat6} ifelse setpattern} bind def
/Pattern7 {PatternBgnd KeepColor Landscape {Pat8} {Pat7} ifelse setpattern} bind def
} def
%
%
%End of PostScript Level 2 code
%
/PatternBgnd {
  TransparentPatterns {} {gsave 1 setgray fill grestore} ifelse
} def
%
% Substitute for Level 2 pattern fill codes with
% grayscale if Level 2 support is not selected.
%
/Level1PatternFill {
/Pattern1 {0.250 Density} bind def
/Pattern2 {0.500 Density} bind def
/Pattern3 {0.750 Density} bind def
/Pattern4 {0.125 Density} bind def
/Pattern5 {0.375 Density} bind def
/Pattern6 {0.625 Density} bind def
/Pattern7 {0.875 Density} bind def
} def
%
% Now test for support of Level 2 code
%
Level1 {Level1PatternFill} {Level2PatternFill} ifelse
%
/Symbol-Oblique /Symbol findfont [1 0 .167 1 0 0] makefont
dup length dict begin {1 index /FID eq {pop pop} {def} ifelse} forall
currentdict end definefont pop
/MFshow {
   { dup 5 get 3 ge
     { 5 get 3 eq {gsave} {grestore} ifelse }
     {dup dup 0 get findfont exch 1 get scalefont setfont
     [ currentpoint ] exch dup 2 get 0 exch R dup 5 get 2 ne {dup dup 6
     get exch 4 get {Gshow} {stringwidth pop 0 R} ifelse }if dup 5 get 0 eq
     {dup 3 get {2 get neg 0 exch R pop} {pop aload pop M} ifelse} {dup 5
     get 1 eq {dup 2 get exch dup 3 get exch 6 get stringwidth pop -2 div
     dup 0 R} {dup 6 get stringwidth pop -2 div 0 R 6 get
     show 2 index {aload pop M neg 3 -1 roll neg R pop pop} {pop pop pop
     pop aload pop M} ifelse }ifelse }ifelse }
     ifelse }
   forall} def
/Gswidth {dup type /stringtype eq {stringwidth} {pop (n) stringwidth} ifelse} def
/MFwidth {0 exch { dup 5 get 3 ge { 5 get 3 eq { 0 } { pop } ifelse }
 {dup 3 get{dup dup 0 get findfont exch 1 get scalefont setfont
     6 get Gswidth pop add} {pop} ifelse} ifelse} forall} def
/MLshow { currentpoint stroke M
  0 exch R
  Blacktext {gsave 0 setgray MFshow grestore} {MFshow} ifelse } bind def
/MRshow { currentpoint stroke M
  exch dup MFwidth neg 3 -1 roll R
  Blacktext {gsave 0 setgray MFshow grestore} {MFshow} ifelse } bind def
/MCshow { currentpoint stroke M
  exch dup MFwidth -2 div 3 -1 roll R
  Blacktext {gsave 0 setgray MFshow grestore} {MFshow} ifelse } bind def
/XYsave    { [( ) 1 2 true false 3 ()] } bind def
/XYrestore { [( ) 1 2 true false 4 ()] } bind def
Level1 SuppressPDFMark or 
{} {
/SDict 10 dict def
systemdict /pdfmark known not {
  userdict /pdfmark systemdict /cleartomark get put
} if
SDict begin [
  /Title (nbrDist.eps)
  /Subject (gnuplot plot)
  /Creator (gnuplot 4.6 patchlevel 2)
  /Author (anju)
%  /Producer (gnuplot)
%  /Keywords ()
  /CreationDate (Thu Sep 19 11:31:17 2019)
  /DOCINFO pdfmark
end
} ifelse
end
%%EndProlog
%%Page: 1 1
gnudict begin
gsave
doclip
50 50 translate
0.050 0.050 scale
0 setgray
newpath
(Helvetica) findfont 160 scalefont setfont
BackgroundColor 0 lt 3 1 roll 0 lt exch 0 lt or or not {BackgroundColor C 1.000 0 0 7200.00 5040.00 BoxColFill} if
1.000 UL
LTb
LCb setrgbcolor
1072 512 M
63 0 V
5776 0 R
-63 0 V
stroke
976 512 M
[ [(Helvetica) 160.0 0.0 true true 0 ( 1)]
] -53.3 MRshow
1.000 UL
LTb
LCb setrgbcolor
1072 698 M
31 0 V
5808 0 R
-31 0 V
1072 945 M
31 0 V
5808 0 R
-31 0 V
1072 1071 M
31 0 V
5808 0 R
-31 0 V
-5808 60 R
63 0 V
5776 0 R
-63 0 V
stroke
976 1131 M
[ [(Helvetica) 160.0 0.0 true true 0 ( 10)]
] -53.3 MRshow
1.000 UL
LTb
LCb setrgbcolor
1072 1318 M
31 0 V
5808 0 R
-31 0 V
1072 1564 M
31 0 V
5808 0 R
-31 0 V
1072 1691 M
31 0 V
5808 0 R
-31 0 V
-5808 60 R
63 0 V
5776 0 R
-63 0 V
stroke
976 1751 M
[ [(Helvetica) 160.0 0.0 true true 0 ( 100)]
] -53.3 MRshow
1.000 UL
LTb
LCb setrgbcolor
1072 1937 M
31 0 V
5808 0 R
-31 0 V
1072 2183 M
31 0 V
5808 0 R
-31 0 V
1072 2310 M
31 0 V
5808 0 R
-31 0 V
-5808 60 R
63 0 V
5776 0 R
-63 0 V
stroke
976 2370 M
[ [(Helvetica) 160.0 0.0 true true 0 ( 1000)]
] -53.3 MRshow
1.000 UL
LTb
LCb setrgbcolor
1072 2556 M
31 0 V
5808 0 R
-31 0 V
1072 2803 M
31 0 V
5808 0 R
-31 0 V
1072 2929 M
31 0 V
5808 0 R
-31 0 V
-5808 60 R
63 0 V
5776 0 R
-63 0 V
stroke
976 2989 M
[ [(Helvetica) 160.0 0.0 true true 0 ( 10000)]
] -53.3 MRshow
1.000 UL
LTb
LCb setrgbcolor
1072 3176 M
31 0 V
5808 0 R
-31 0 V
1072 3422 M
31 0 V
5808 0 R
-31 0 V
1072 3548 M
31 0 V
5808 0 R
-31 0 V
-5808 60 R
63 0 V
5776 0 R
-63 0 V
stroke
976 3608 M
[ [(Helvetica) 160.0 0.0 true true 0 ( 100000)]
] -53.3 MRshow
1.000 UL
LTb
LCb setrgbcolor
1072 3795 M
31 0 V
5808 0 R
-31 0 V
1072 4041 M
31 0 V
5808 0 R
-31 0 V
1072 4168 M
31 0 V
5808 0 R
-31 0 V
-5808 60 R
63 0 V
5776 0 R
-63 0 V
stroke
976 4228 M
[ [(Helvetica) 160.0 0.0 true true 0 ( 1e+06)]
] -53.3 MRshow
1.000 UL
LTb
LCb setrgbcolor
1072 4414 M
31 0 V
5808 0 R
-31 0 V
1072 4661 M
31 0 V
5808 0 R
-31 0 V
1072 4787 M
31 0 V
5808 0 R
-31 0 V
-5808 60 R
63 0 V
5776 0 R
-63 0 V
stroke
976 4847 M
[ [(Helvetica) 160.0 0.0 true true 0 ( 1e+07)]
] -53.3 MRshow
1.000 UL
LTb
LCb setrgbcolor
1072 512 M
0 63 V
0 4272 R
0 -63 V
stroke
1072 352 M
[ [(Helvetica) 160.0 0.0 true true 0 ( 0)]
] -53.3 MCshow
1.000 UL
LTb
LCb setrgbcolor
1721 512 M
0 63 V
0 4272 R
0 -63 V
stroke
1721 352 M
[ [(Helvetica) 160.0 0.0 true true 0 ( 200)]
] -53.3 MCshow
1.000 UL
LTb
LCb setrgbcolor
2370 512 M
0 63 V
0 4272 R
0 -63 V
stroke
2370 352 M
[ [(Helvetica) 160.0 0.0 true true 0 ( 400)]
] -53.3 MCshow
1.000 UL
LTb
LCb setrgbcolor
3018 512 M
0 63 V
0 4272 R
0 -63 V
stroke
3018 352 M
[ [(Helvetica) 160.0 0.0 true true 0 ( 600)]
] -53.3 MCshow
1.000 UL
LTb
LCb setrgbcolor
3667 512 M
0 63 V
0 4272 R
0 -63 V
stroke
3667 352 M
[ [(Helvetica) 160.0 0.0 true true 0 ( 800)]
] -53.3 MCshow
1.000 UL
LTb
LCb setrgbcolor
4316 512 M
0 63 V
0 4272 R
0 -63 V
stroke
4316 352 M
[ [(Helvetica) 160.0 0.0 true true 0 ( 1000)]
] -53.3 MCshow
1.000 UL
LTb
LCb setrgbcolor
4965 512 M
0 63 V
0 4272 R
0 -63 V
stroke
4965 352 M
[ [(Helvetica) 160.0 0.0 true true 0 ( 1200)]
] -53.3 MCshow
1.000 UL
LTb
LCb setrgbcolor
5613 512 M
0 63 V
0 4272 R
0 -63 V
stroke
5613 352 M
[ [(Helvetica) 160.0 0.0 true true 0 ( 1400)]
] -53.3 MCshow
1.000 UL
LTb
LCb setrgbcolor
6262 512 M
0 63 V
0 4272 R
0 -63 V
stroke
6262 352 M
[ [(Helvetica) 160.0 0.0 true true 0 ( 1600)]
] -53.3 MCshow
1.000 UL
LTb
LCb setrgbcolor
6911 512 M
0 63 V
0 4272 R
0 -63 V
stroke
6911 352 M
[ [(Helvetica) 160.0 0.0 true true 0 ( 1800)]
] -53.3 MCshow
1.000 UL
LTb
LCb setrgbcolor
1.000 UL
LTb
LCb setrgbcolor
1072 4847 N
0 -4335 V
5839 0 V
0 4335 V
-5839 0 V
Z stroke
LCb setrgbcolor
128 2679 M
currentpoint gsave translate -270 rotate 0 0 moveto
[ [(Helvetica) 160.0 0.0 true true 0 (Number of points with each degree)]
] -53.3 MCshow
grestore
LTb
LCb setrgbcolor
3991 112 M
[ [(Helvetica) 160.0 0.0 true true 0 (Degree)]
] -53.3 MCshow
LTb
1.000 UP
1.000 UL
LTb
LCb setrgbcolor
% Begin plot #1
0.200 UP
2.000 UL
LT0
0.00 0.38 0.68 C 1072 4585 M
3 -18 V
3 -39 V
4 -45 V
3 -50 V
3 -54 V
3 -56 V
4 -58 V
3 -58 V
3 -59 V
3 -57 V
4 -56 V
3 -52 V
3 -52 V
3 -49 V
4 -47 V
3 -41 V
3 -38 V
3 -39 V
4 -34 V
3 -31 V
3 -30 V
3 -31 V
4 -22 V
3 -25 V
3 -20 V
3 -17 V
4 -25 V
3 -16 V
3 -16 V
3 -18 V
4 -16 V
3 -14 V
3 -11 V
3 -13 V
4 -11 V
3 -12 V
3 -11 V
3 -11 V
4 -12 V
3 -9 V
3 -9 V
3 -11 V
3 -9 V
4 -8 V
3 -12 V
3 -5 V
3 -5 V
4 -8 V
3 -5 V
3 -8 V
3 -7 V
4 -11 V
3 1 V
3 -7 V
3 -7 V
4 -9 V
3 -1 V
3 -4 V
3 -4 V
4 -7 V
3 -1 V
3 -6 V
3 -5 V
4 -4 V
3 -4 V
3 -4 V
3 -2 V
4 -10 V
3 -3 V
3 5 V
3 -5 V
4 0 V
3 -1 V
3 -5 V
3 -1 V
4 -4 V
3 4 V
3 -6 V
3 -4 V
4 10 V
3 -4 V
3 -1 V
3 -3 V
3 1 V
4 -4 V
3 1 V
3 -2 V
3 1 V
4 3 V
3 1 V
3 4 V
3 -7 V
4 -3 V
3 5 V
3 -1 V
3 -2 V
4 3 V
3 -11 V
3 6 V
3 -1 V
4 1 V
3 1 V
3 -2 V
3 3 V
stroke 1409 3119 M
4 -1 V
3 6 V
3 0 V
3 2 V
4 0 V
3 5 V
3 -7 V
3 5 V
4 -1 V
3 -2 V
3 5 V
3 -2 V
4 3 V
3 0 V
3 1 V
3 -2 V
4 0 V
3 2 V
3 -4 V
3 -1 V
3 4 V
4 -2 V
3 5 V
3 -3 V
3 -5 V
4 7 V
3 -7 V
3 0 V
3 0 V
4 1 V
3 -4 V
3 3 V
3 -2 V
4 -5 V
3 4 V
3 1 V
3 -5 V
4 1 V
3 -3 V
3 1 V
3 2 V
4 -2 V
3 -2 V
3 -5 V
3 1 V
4 -1 V
3 -5 V
3 -3 V
3 -1 V
4 0 V
3 -5 V
3 -6 V
3 0 V
4 -1 V
3 -1 V
3 -2 V
3 -3 V
4 1 V
3 -5 V
3 -9 V
3 1 V
3 -5 V
4 0 V
3 -1 V
3 -11 V
3 -7 V
4 3 V
3 1 V
3 -12 V
3 -6 V
4 -3 V
3 -1 V
3 -3 V
3 -4 V
4 -9 V
3 2 V
3 -1 V
3 -2 V
4 -1 V
3 -18 V
3 -3 V
3 -5 V
4 -4 V
3 -4 V
3 -4 V
3 -1 V
4 -11 V
3 -8 V
3 4 V
3 -8 V
4 -6 V
3 -7 V
3 -7 V
3 1 V
4 0 V
3 -9 V
3 -2 V
3 0 V
4 -20 V
3 1 V
3 -11 V
3 -1 V
3 -4 V
4 -8 V
stroke 1747 2878 M
3 -4 V
3 -6 V
3 -5 V
4 -11 V
3 -14 V
3 7 V
3 -11 V
4 -5 V
3 3 V
3 -10 V
3 0 V
4 -6 V
3 -10 V
3 -6 V
3 2 V
4 2 V
3 -7 V
3 -4 V
3 -14 V
4 1 V
3 -1 V
3 -18 V
3 -12 V
4 3 V
3 -1 V
3 7 V
3 -17 V
4 8 V
3 -13 V
3 -3 V
3 -5 V
4 -15 V
3 7 V
3 -17 V
3 1 V
4 -2 V
3 -21 V
3 -4 V
3 6 V
3 -8 V
4 -1 V
3 2 V
3 -12 V
3 -3 V
4 -4 V
3 -15 V
3 -8 V
3 9 V
4 -10 V
3 10 V
3 -10 V
3 -7 V
4 -11 V
3 -8 V
3 34 V
3 -21 V
4 -14 V
3 -4 V
3 -2 V
3 -6 V
4 -4 V
3 9 V
3 -22 V
3 5 V
4 -2 V
3 -13 V
3 -9 V
3 -6 V
4 -15 V
3 18 V
3 -8 V
3 -16 V
4 -1 V
3 -11 V
3 16 V
3 2 V
4 -7 V
3 19 V
3 -22 V
3 13 V
3 -9 V
4 5 V
3 -29 V
3 13 V
3 -4 V
4 0 V
3 -21 V
3 -3 V
3 17 V
4 -11 V
3 -8 V
3 -25 V
3 5 V
4 -5 V
3 17 V
3 -20 V
3 -18 V
4 15 V
3 3 V
3 -13 V
3 -2 V
4 12 V
3 -32 V
3 8 V
stroke 2084 2435 M
3 -6 V
4 -3 V
3 14 V
3 5 V
3 -3 V
4 -9 V
3 1 V
3 -3 V
3 -22 V
4 13 V
3 -2 V
3 -32 V
3 13 V
4 2 V
3 14 V
3 -2 V
3 -17 V
3 -10 V
4 -2 V
3 -3 V
3 5 V
3 7 V
4 12 V
3 -5 V
3 1 V
3 -11 V
4 11 V
3 -18 V
3 9 V
3 7 V
4 14 V
3 -36 V
3 -8 V
3 22 V
4 5 V
3 -11 V
3 4 V
3 -3 V
4 23 V
3 -19 V
3 -18 V
3 2 V
4 9 V
3 6 V
3 -29 V
3 -1 V
4 28 V
3 -35 V
3 18 V
3 -10 V
4 -3 V
3 -10 V
3 22 V
3 -10 V
4 -11 V
3 3 V
3 -32 V
3 14 V
3 11 V
4 -12 V
3 21 V
3 14 V
3 -20 V
4 -23 V
3 23 V
3 6 V
3 -9 V
4 -19 V
3 18 V
3 -34 V
3 27 V
4 -11 V
3 -5 V
3 -15 V
3 4 V
4 10 V
3 -36 V
3 3 V
3 22 V
4 -21 V
3 3 V
3 -1 V
3 -17 V
4 -6 V
3 -13 V
3 17 V
3 4 V
4 7 V
3 6 V
3 -1 V
3 -21 V
4 -12 V
3 32 V
3 -40 V
3 29 V
4 1 V
3 -3 V
3 -8 V
3 -8 V
3 5 V
4 24 V
3 -51 V
3 20 V
3 -13 V
stroke 2421 2243 M
4 1 V
3 7 V
3 -25 V
3 21 V
4 -6 V
3 -1 V
3 -19 V
3 -9 V
4 17 V
3 -19 V
3 -9 V
3 7 V
4 5 V
3 -23 V
3 7 V
3 16 V
4 -4 V
3 -38 V
3 37 V
3 11 V
4 5 V
3 8 V
3 -28 V
3 7 V
4 -17 V
3 37 V
3 -16 V
3 7 V
4 -11 V
3 -3 V
3 -14 V
3 8 V
4 3 V
3 -6 V
3 -14 V
3 14 V
3 24 V
4 3 V
3 -20 V
3 -33 V
3 -3 V
4 -3 V
3 32 V
3 88 V
3 -64 V
4 -68 V
3 -32 V
3 33 V
3 7 V
4 -1 V
3 -27 V
3 0 V
3 -8 V
4 23 V
3 -8 V
3 -4 V
3 -42 V
4 27 V
3 37 V
3 -43 V
3 6 V
4 0 V
3 3 V
3 -13 V
3 -35 V
4 12 V
3 -43 V
3 -4 V
3 4 V
4 10 V
3 5 V
3 15 V
3 -15 V
4 2 V
3 12 V
3 28 V
3 -45 V
3 14 V
4 20 V
3 -44 V
3 28 V
3 -28 V
4 -17 V
3 41 V
3 -23 V
3 3 V
4 0 V
3 4 V
3 3 V
3 0 V
4 -20 V
3 -13 V
3 47 V
3 -21 V
4 -19 V
3 28 V
3 5 V
3 -5 V
4 -77 V
3 31 V
3 16 V
3 -47 V
4 16 V
3 21 V
stroke 2759 2022 M
3 -5 V
3 -8 V
4 -4 V
3 25 V
3 -50 V
3 2 V
4 20 V
3 -20 V
3 20 V
3 -10 V
4 -16 V
3 27 V
3 -30 V
3 6 V
3 -4 V
4 4 V
3 -31 V
3 -3 V
3 -4 V
4 23 V
3 -66 V
3 24 V
3 3 V
4 -6 V
3 18 V
3 -10 V
3 -5 V
4 -7 V
3 19 V
3 16 V
3 -20 V
4 -4 V
3 -47 V
3 31 V
3 20 V
4 -8 V
3 -29 V
3 11 V
3 49 V
4 -21 V
3 9 V
3 14 V
3 -10 V
4 32 V
3 -57 V
3 40 V
3 -15 V
4 24 V
3 -3 V
3 -13 V
3 -36 V
4 -10 V
3 -27 V
3 53 V
3 5 V
3 -28 V
4 -15 V
3 18 V
3 -9 V
3 22 V
4 -28 V
3 11 V
3 20 V
3 15 V
4 -25 V
3 53 V
3 -47 V
3 4 V
4 20 V
3 -19 V
3 19 V
3 10 V
4 -26 V
3 62 V
3 -83 V
3 -24 V
4 60 V
3 -10 V
3 -11 V
3 -17 V
4 -17 V
3 14 V
3 -11 V
3 30 V
4 23 V
3 -1 V
3 -47 V
3 11 V
4 -133 V
3 54 V
3 -14 V
3 46 V
4 -20 V
3 56 V
3 -26 V
3 -44 V
3 20 V
4 14 V
3 -26 V
3 73 V
3 -25 V
4 22 V
3 -49 V
3 8 V
stroke 3096 1868 M
3 -29 V
4 -33 V
3 59 V
3 -22 V
3 -14 V
4 4 V
3 -8 V
3 -28 V
3 -7 V
4 33 V
3 -30 V
3 32 V
3 -49 V
4 19 V
3 22 V
3 -58 V
3 68 V
4 8 V
3 -12 V
3 52 V
3 -62 V
4 -18 V
3 -7 V
3 14 V
3 -51 V
4 -11 V
3 16 V
3 -3 V
3 40 V
4 -37 V
3 23 V
3 -42 V
3 11 V
3 -23 V
4 49 V
3 9 V
3 34 V
3 -38 V
4 -13 V
3 8 V
3 -112 V
3 48 V
4 38 V
3 -17 V
3 -21 V
3 15 V
4 9 V
3 0 V
3 -12 V
3 -67 V
4 58 V
3 3 V
3 3 V
3 15 V
4 30 V
3 5 V
3 12 V
3 -74 V
4 79 V
3 41 V
3 -21 V
3 -27 V
4 -31 V
3 -3 V
3 29 V
3 0 V
4 -61 V
3 -22 V
3 65 V
3 32 V
4 -29 V
3 0 V
3 -17 V
3 73 V
3 -78 V
4 -18 V
3 6 V
3 26 V
3 -14 V
4 -43 V
3 -43 V
3 15 V
3 -19 V
4 66 V
3 -55 V
3 8 V
3 62 V
4 -81 V
3 30 V
3 51 V
3 51 V
4 -8 V
3 -71 V
3 40 V
3 -6 V
4 -18 V
3 -43 V
3 -30 V
3 27 V
4 -23 V
3 15 V
3 15 V
3 57 V
4 -18 V
stroke 3434 1716 M
3 -3 V
3 -19 V
3 -24 V
4 -35 V
3 52 V
3 -7 V
3 -10 V
4 -8 V
3 -31 V
3 -46 V
3 85 V
3 -8 V
4 -49 V
3 49 V
3 4 V
3 56 V
4 -60 V
3 -19 V
3 -39 V
3 83 V
4 -29 V
3 22 V
3 -71 V
3 -19 V
4 32 V
3 44 V
3 -44 V
3 25 V
4 50 V
3 -93 V
3 -35 V
3 40 V
4 4 V
3 -18 V
3 48 V
3 -21 V
4 134 V
3 -79 V
3 60 V
3 -111 V
4 -41 V
3 41 V
3 -109 V
3 36 V
4 -63 V
3 46 V
3 39 V
3 -45 V
4 18 V
3 -44 V
3 100 V
3 -40 V
3 79 V
4 -44 V
3 -75 V
3 71 V
3 44 V
4 0 V
3 -30 V
3 34 V
3 -113 V
4 60 V
3 -86 V
3 32 V
3 -6 V
4 23 V
3 6 V
3 -11 V
3 -58 V
4 34 V
3 61 V
3 -37 V
3 27 V
4 -78 V
3 88 V
3 -26 V
3 16 V
4 10 V
3 37 V
3 -74 V
3 129 V
4 -26 V
3 15 V
3 -27 V
3 -70 V
4 -16 V
3 -23 V
3 -78 V
3 143 V
4 -65 V
3 12 V
3 -6 V
3 -68 V
3 85 V
4 -17 V
3 17 V
3 98 V
3 -20 V
4 -114 V
3 138 V
3 -195 V
3 109 V
4 -21 V
3 70 V
stroke 3771 1618 M
3 40 V
3 -147 V
4 93 V
3 -51 V
3 -77 V
3 -58 V
4 72 V
3 90 V
3 -56 V
3 -88 V
4 32 V
3 29 V
3 -79 V
3 151 V
4 -93 V
3 7 V
3 -47 V
3 -18 V
4 -75 V
3 -141 V
3 196 V
3 -80 V
4 -44 V
3 57 V
3 24 V
3 23 V
4 -47 V
3 -13 V
3 -60 V
3 0 V
3 -155 V
4 119 V
3 -20 V
3 0 V
3 -22 V
4 60 V
3 -38 V
3 72 V
3 -203 V
4 109 V
3 0 V
3 42 V
3 -65 V
4 -54 V
3 28 V
3 49 V
3 198 V
4 -47 V
3 -200 V
3 0 V
3 -186 V
4 49 V
3 295 V
3 78 V
3 -127 V
4 91 V
3 -91 V
3 0 V
3 -109 V
4 0 V
3 -28 V
3 54 V
3 0 V
4 101 V
3 60 V
3 80 V
3 0 V
4 0 V
3 -67 V
3 87 V
3 -10 V
3 -53 V
4 -81 V
3 30 V
3 -82 V
3 52 V
4 -117 V
3 23 V
3 -145 V
3 36 V
4 151 V
3 -65 V
3 23 V
3 -77 V
4 99 V
3 0 V
3 38 V
3 -60 V
4 -23 V
3 -163 V
3 496 V
3 -359 V
4 -186 V
3 295 V
3 -169 V
3 -77 V
4 -49 V
3 -60 V
3 218 V
3 0 V
4 -109 V
3 41 V
3 145 V
3 -295 V
stroke 4108 885 M
4 0 V
3 60 V
3 158 V
3 0 V
3 -218 V
4 60 V
3 -138 V
3 138 V
3 -138 V
4 78 V
3 109 V
3 163 V
3 -122 V
4 -90 V
3 -433 V
3 482 V
3 41 V
4 -90 V
3 49 V
3 0 V
3 -109 V
4 0 V
3 0 V
3 109 V
3 77 V
4 -77 V
3 77 V
3 0 V
3 -77 V
4 -49 V
3 0 V
3 126 V
3 -126 V
4 90 V
3 36 V
3 -36 V
3 -90 V
4 -60 V
3 0 V
3 -78 V
3 187 V
4 -109 V
3 246 V
3 -96 V
3 0 V
3 0 V
4 36 V
3 109 V
3 -49 V
3 71 V
4 -22 V
3 0 V
3 -77 V
3 -32 V
4 151 V
3 -42 V
3 138 V
3 60 V
4 -47 V
3 121 V
3 -97 V
3 23 V
4 -104 V
3 124 V
3 -67 V
3 -151 V
4 228 V
3 -20 V
3 -70 V
3 13 V
4 -13 V
3 -14 V
3 27 V
3 12 V
4 -25 V
3 -14 V
3 74 V
3 -247 V
4 -60 V
3 60 V
3 91 V
3 -119 V
4 99 V
3 -99 V
3 171 V
3 -171 V
3 0 V
4 119 V
3 -91 V
3 -60 V
3 -77 V
4 -49 V
3 158 V
3 -32 V
3 86 V
4 -122 V
3 36 V
3 -77 V
3 77 V
4 109 V
3 -77 V
3 -218 V
3 60 V
4 126 V
stroke 4446 1071 M
3 151 V
3 -42 V
3 -186 V
4 137 V
3 -186 V
3 126 V
3 -36 V
4 -90 V
3 0 V
3 90 V
3 -41 V
4 41 V
3 36 V
3 -36 V
3 145 V
4 0 V
3 -295 V
3 218 V
3 119 V
4 -65 V
3 -163 V
3 -109 V
3 -78 V
3 -295 V
4 523 V
3 -41 V
3 -296 V
3 504 V
4 -208 V
3 -49 V
3 -138 V
3 -109 V
4 337 V
3 -90 V
3 0 V
3 126 V
4 0 V
3 -126 V
3 186 V
3 -324 V
4 373 V
3 -23 V
3 45 V
3 -131 V
4 109 V
3 -49 V
3 -96 V
3 122 V
4 117 V
3 -52 V
3 -20 V
3 87 V
4 -186 V
3 77 V
3 0 V
3 0 V
4 -145 V
3 145 V
3 0 V
3 -145 V
4 167 V
3 20 V
3 36 V
3 -155 V
3 -218 V
4 0 V
3 -78 V
3 -109 V
3 -186 V
4 373 V
3 295 V
3 -295 V
3 60 V
4 0 V
3 -138 V
3 187 V
3 0 V
4 -109 V
3 -78 V
3 78 V
3 0 V
4 186 V
3 32 V
3 0 V
3 -158 V
4 -138 V
3 0 V
3 228 V
3 0 V
4 -150 V
3 109 V
3 -109 V
3 60 V
4 -138 V
3 138 V
3 -60 V
3 60 V
4 0 V
3 -60 V
3 60 V
3 -60 V
4 109 V
3 -296 V
3 0 V
stroke 4783 698 M
3 0 V
3 109 V
4 -109 V
3 -186 V
3 186 V
3 0 V
4 296 V
3 -109 V
6 -78 V
4 187 V
3 -187 V
3 -109 V
3 296 V
4 -296 V
3 405 V
3 -296 V
3 228 V
4 -337 V
3 187 V
3 109 V
3 41 V
4 -523 V
3 186 V
3 247 V
3 0 V
4 -60 V
3 109 V
3 77 V
3 -36 V
4 36 V
3 -264 V
3 138 V
3 158 V
4 -68 V
3 -150 V
3 109 V
3 -49 V
4 -138 V
3 187 V
3 -109 V
3 0 V
3 60 V
4 126 V
3 60 V
3 -137 V
3 41 V
4 -90 V
3 49 V
3 137 V
3 -96 V
4 -150 V
3 186 V
3 -264 V
3 228 V
4 -150 V
3 0 V
3 337 V
3 -151 V
4 -77 V
3 163 V
3 23 V
3 -23 V
4 -26 V
3 49 V
3 138 V
3 -96 V
4 18 V
3 -60 V
3 -235 V
3 257 V
4 38 V
3 -109 V
3 -28 V
3 28 V
4 26 V
3 -86 V
3 233 V
3 -102 V
4 38 V
3 -109 V
3 109 V
3 -18 V
3 -42 V
4 60 V
3 -60 V
3 42 V
3 -277 V
4 126 V
3 109 V
3 -186 V
3 186 V
4 -235 V
3 277 V
3 -151 V
3 -36 V
4 122 V
3 -122 V
3 68 V
3 28 V
4 -96 V
3 205 V
3 -38 V
3 -131 V
4 86 V
stroke 5124 1157 M
3 23 V
3 -49 V
3 173 V
4 -124 V
3 -77 V
3 155 V
3 -155 V
4 0 V
3 119 V
3 -187 V
3 68 V
4 -68 V
3 0 V
3 0 V
3 0 V
4 -150 V
3 150 V
3 -90 V
3 90 V
3 -90 V
4 126 V
3 0 V
3 86 V
3 -86 V
4 -36 V
3 0 V
3 167 V
3 -257 V
4 90 V
3 223 V
3 -101 V
3 -54 V
4 -218 V
3 218 V
3 0 V
3 -68 V
4 122 V
3 -86 V
3 60 V
3 143 V
4 -34 V
3 103 V
3 -54 V
3 119 V
4 -150 V
3 31 V
3 -87 V
3 -71 V
4 -28 V
3 -109 V
3 -49 V
3 212 V
4 0 V
3 -86 V
3 -186 V
3 150 V
4 -150 V
3 150 V
3 -337 V
3 296 V
3 0 V
4 -109 V
3 -187 V
3 0 V
3 187 V
4 60 V
3 49 V
3 -187 V
3 138 V
4 49 V
3 0 V
3 -187 V
3 138 V
4 0 V
3 -60 V
3 60 V
3 0 V
4 -60 V
3 60 V
3 -60 V
3 109 V
4 0 V
3 41 V
3 36 V
3 -264 V
4 78 V
3 109 V
3 -49 V
3 0 V
4 -60 V
3 -78 V
3 -295 V
3 0 V
4 433 V
3 -247 V
3 0 V
3 187 V
4 150 V
3 -228 V
3 -109 V
3 187 V
3 -187 V
4 187 V
3 -187 V
stroke 5461 698 M
3 187 V
3 -78 V
4 0 V
3 -295 V
3 0 V
3 186 V
4 -186 V
6 295 V
3 -295 V
7 295 V
6 -109 V
4 187 V
3 -373 V
3 373 V
7 -78 V
3 -109 V
3 -186 V
3 0 V
4 186 V
3 0 V
3 -186 V
3 433 V
4 -247 V
3 0 V
3 0 V
3 0 V
4 247 V
3 -138 V
3 -109 V
3 0 V
4 373 V
3 -559 V
3 433 V
3 0 V
3 -247 V
4 -186 V
3 186 V
10 109 V
3 -295 V
3 0 V
3 186 V
4 187 V
3 -373 V
3 0 V
3 482 V
7 -482 V
3 433 V
3 -60 V
4 150 V
3 -228 V
3 -109 V
3 109 V
4 138 V
3 -138 V
3 0 V
7 187 V
3 -482 V
3 373 V
3 0 V
4 -78 V
3 -109 V
6 187 V
7 60 V
3 -247 V
3 0 V
4 -186 V
3 373 V
3 -373 V
3 0 V
3 186 V
4 0 V
3 187 V
3 -187 V
3 -186 V
4 373 V
3 -187 V
3 187 V
7 -373 V
3 373 V
3 -373 V
3 295 V
4 78 V
3 -78 V
3 187 V
3 -187 V
4 138 V
3 -138 V
3 -109 V
7 0 V
3 247 V
3 -433 V
3 0 V
4 0 V
6 186 V
3 0 V
7 109 V
6 0 V
7 -295 V
6 295 V
4 -109 V
6 187 V
10 -373 V
3 186 V
3 -186 V
stroke 5863 512 M
3 523 V
4 -523 V
3 186 V
3 0 V
3 0 V
4 0 V
3 0 V
3 0 V
3 0 V
4 -186 V
6 0 V
3 0 V
4 186 V
3 -186 V
3 0 V
3 0 V
4 295 V
3 -109 V
6 0 V
4 0 V
3 0 V
3 -186 V
3 186 V
7 -186 V
3 186 V
3 109 V
4 -109 V
3 -186 V
3 295 V
3 -295 V
4 0 V
3 186 V
3 -186 V
3 295 V
3 -295 V
7 373 V
3 -373 V
3 186 V
4 -186 V
3 0 V
10 0 V
16 0 V
3 0 V
3 186 V
7 187 V
6 -373 V
4 295 V
29 78 V
10 -187 V
6 -186 V
10 0 V
9 295 V
17 -295 V
6 186 V
10 -186 V
3 0 V
13 186 V
10 -186 V
23 0 V
3 0 V
6 0 V
4 0 V
9 0 V
10 0 V
7 0 V
6 295 V
3 -295 V
3 0 V
7 186 V
16 0 V
3 -186 V
7 186 V
13 0 V
3 0 V
7 -186 V
3 0 V
6 0 V
4 186 V
16 -186 V
13 0 V
19 0 V
10 186 V
10 -186 V
26 0 V
6 0 V
3 0 V
7 186 V
6 0 V
7 -186 V
3 0 V
26 186 V
33 -186 V
3 0 V
6 0 V
3 0 V
17 0 V
6 0 V
7 186 V
6 -186 V
7 0 V
6 295 V
10 -109 V
3 296 V
3 -296 V
stroke 6583 698 M
7 0 V
3 0 V
3 187 V
4 -373 V
3 433 V
3 -138 V
3 -295 V
4 0 V
3 295 V
3 -109 V
7 109 V
3 -109 V
6 0 V
4 -186 V
12 0 V
4 0 V
13 186 V
3 187 V
3 -187 V
3 0 V
4 109 V
3 -295 V
6 0 V
4 0 V
3 186 V
3 0 V
3 247 V
4 -247 V
6 109 V
3 -295 V
7 186 V
3 296 V
3 -296 V
13 -186 V
4 186 V
1072 4585 CircleF
1075 4567 CircleF
1078 4528 CircleF
1082 4483 CircleF
1085 4433 CircleF
1088 4379 CircleF
1091 4323 CircleF
1095 4265 CircleF
1098 4207 CircleF
1101 4148 CircleF
1104 4091 CircleF
1108 4035 CircleF
1111 3983 CircleF
1114 3931 CircleF
1117 3882 CircleF
1121 3835 CircleF
1124 3794 CircleF
1127 3756 CircleF
1130 3717 CircleF
1134 3683 CircleF
1137 3652 CircleF
1140 3622 CircleF
1143 3591 CircleF
1147 3569 CircleF
1150 3544 CircleF
1153 3524 CircleF
1156 3507 CircleF
1160 3482 CircleF
1163 3466 CircleF
1166 3450 CircleF
1169 3432 CircleF
1173 3416 CircleF
1176 3402 CircleF
1179 3391 CircleF
1182 3378 CircleF
1186 3367 CircleF
1189 3355 CircleF
1192 3344 CircleF
1195 3333 CircleF
1199 3321 CircleF
1202 3312 CircleF
1205 3303 CircleF
1208 3292 CircleF
1211 3283 CircleF
1215 3275 CircleF
1218 3263 CircleF
1221 3258 CircleF
1224 3253 CircleF
1228 3245 CircleF
1231 3240 CircleF
1234 3232 CircleF
1237 3225 CircleF
1241 3214 CircleF
1244 3215 CircleF
1247 3208 CircleF
1250 3201 CircleF
1254 3192 CircleF
1257 3191 CircleF
1260 3187 CircleF
1263 3183 CircleF
1267 3176 CircleF
1270 3175 CircleF
1273 3169 CircleF
1276 3164 CircleF
1280 3160 CircleF
1283 3156 CircleF
1286 3152 CircleF
1289 3150 CircleF
1293 3140 CircleF
1296 3137 CircleF
1299 3142 CircleF
1302 3137 CircleF
1306 3137 CircleF
1309 3136 CircleF
1312 3131 CircleF
1315 3130 CircleF
1319 3126 CircleF
1322 3130 CircleF
1325 3124 CircleF
1328 3120 CircleF
1332 3130 CircleF
1335 3126 CircleF
1338 3125 CircleF
1341 3122 CircleF
1344 3123 CircleF
1348 3119 CircleF
1351 3120 CircleF
1354 3118 CircleF
1357 3119 CircleF
1361 3122 CircleF
1364 3123 CircleF
1367 3127 CircleF
1370 3120 CircleF
1374 3117 CircleF
1377 3122 CircleF
1380 3121 CircleF
1383 3119 CircleF
1387 3122 CircleF
1390 3111 CircleF
1393 3117 CircleF
1396 3116 CircleF
1400 3117 CircleF
1403 3118 CircleF
1406 3116 CircleF
1409 3119 CircleF
1413 3118 CircleF
1416 3124 CircleF
1419 3124 CircleF
1422 3126 CircleF
1426 3126 CircleF
1429 3131 CircleF
1432 3124 CircleF
1435 3129 CircleF
1439 3128 CircleF
1442 3126 CircleF
1445 3131 CircleF
1448 3129 CircleF
1452 3132 CircleF
1455 3132 CircleF
1458 3133 CircleF
1461 3131 CircleF
1465 3131 CircleF
1468 3133 CircleF
1471 3129 CircleF
1474 3128 CircleF
1477 3132 CircleF
1481 3130 CircleF
1484 3135 CircleF
1487 3132 CircleF
1490 3127 CircleF
1494 3134 CircleF
1497 3127 CircleF
1500 3127 CircleF
1503 3127 CircleF
1507 3128 CircleF
1510 3124 CircleF
1513 3127 CircleF
1516 3125 CircleF
1520 3120 CircleF
1523 3124 CircleF
1526 3125 CircleF
1529 3120 CircleF
1533 3121 CircleF
1536 3118 CircleF
1539 3119 CircleF
1542 3121 CircleF
1546 3119 CircleF
1549 3117 CircleF
1552 3112 CircleF
1555 3113 CircleF
1559 3112 CircleF
1562 3107 CircleF
1565 3104 CircleF
1568 3103 CircleF
1572 3103 CircleF
1575 3098 CircleF
1578 3092 CircleF
1581 3092 CircleF
1585 3091 CircleF
1588 3090 CircleF
1591 3088 CircleF
1594 3085 CircleF
1598 3086 CircleF
1601 3081 CircleF
1604 3072 CircleF
1607 3073 CircleF
1610 3068 CircleF
1614 3068 CircleF
1617 3067 CircleF
1620 3056 CircleF
1623 3049 CircleF
1627 3052 CircleF
1630 3053 CircleF
1633 3041 CircleF
1636 3035 CircleF
1640 3032 CircleF
1643 3031 CircleF
1646 3028 CircleF
1649 3024 CircleF
1653 3015 CircleF
1656 3017 CircleF
1659 3016 CircleF
1662 3014 CircleF
1666 3013 CircleF
1669 2995 CircleF
1672 2992 CircleF
1675 2987 CircleF
1679 2983 CircleF
1682 2979 CircleF
1685 2975 CircleF
1688 2974 CircleF
1692 2963 CircleF
1695 2955 CircleF
1698 2959 CircleF
1701 2951 CircleF
1705 2945 CircleF
1708 2938 CircleF
1711 2931 CircleF
1714 2932 CircleF
1718 2932 CircleF
1721 2923 CircleF
1724 2921 CircleF
1727 2921 CircleF
1731 2901 CircleF
1734 2902 CircleF
1737 2891 CircleF
1740 2890 CircleF
1743 2886 CircleF
1747 2878 CircleF
1750 2874 CircleF
1753 2868 CircleF
1756 2863 CircleF
1760 2852 CircleF
1763 2838 CircleF
1766 2845 CircleF
1769 2834 CircleF
1773 2829 CircleF
1776 2832 CircleF
1779 2822 CircleF
1782 2822 CircleF
1786 2816 CircleF
1789 2806 CircleF
1792 2800 CircleF
1795 2802 CircleF
1799 2804 CircleF
1802 2797 CircleF
1805 2793 CircleF
1808 2779 CircleF
1812 2780 CircleF
1815 2779 CircleF
1818 2761 CircleF
1821 2749 CircleF
1825 2752 CircleF
1828 2751 CircleF
1831 2758 CircleF
1834 2741 CircleF
1838 2749 CircleF
1841 2736 CircleF
1844 2733 CircleF
1847 2728 CircleF
1851 2713 CircleF
1854 2720 CircleF
1857 2703 CircleF
1860 2704 CircleF
1864 2702 CircleF
1867 2681 CircleF
1870 2677 CircleF
1873 2683 CircleF
1876 2675 CircleF
1880 2674 CircleF
1883 2676 CircleF
1886 2664 CircleF
1889 2661 CircleF
1893 2657 CircleF
1896 2642 CircleF
1899 2634 CircleF
1902 2643 CircleF
1906 2633 CircleF
1909 2643 CircleF
1912 2633 CircleF
1915 2626 CircleF
1919 2615 CircleF
1922 2607 CircleF
1925 2641 CircleF
1928 2620 CircleF
1932 2606 CircleF
1935 2602 CircleF
1938 2600 CircleF
1941 2594 CircleF
1945 2590 CircleF
1948 2599 CircleF
1951 2577 CircleF
1954 2582 CircleF
1958 2580 CircleF
1961 2567 CircleF
1964 2558 CircleF
1967 2552 CircleF
1971 2537 CircleF
1974 2555 CircleF
1977 2547 CircleF
1980 2531 CircleF
1984 2530 CircleF
1987 2519 CircleF
1990 2535 CircleF
1993 2537 CircleF
1997 2530 CircleF
2000 2549 CircleF
2003 2527 CircleF
2006 2540 CircleF
2009 2531 CircleF
2013 2536 CircleF
2016 2507 CircleF
2019 2520 CircleF
2022 2516 CircleF
2026 2516 CircleF
2029 2495 CircleF
2032 2492 CircleF
2035 2509 CircleF
2039 2498 CircleF
2042 2490 CircleF
2045 2465 CircleF
2048 2470 CircleF
2052 2465 CircleF
2055 2482 CircleF
2058 2462 CircleF
2061 2444 CircleF
2065 2459 CircleF
2068 2462 CircleF
2071 2449 CircleF
2074 2447 CircleF
2078 2459 CircleF
2081 2427 CircleF
2084 2435 CircleF
2087 2429 CircleF
2091 2426 CircleF
2094 2440 CircleF
2097 2445 CircleF
2100 2442 CircleF
2104 2433 CircleF
2107 2434 CircleF
2110 2431 CircleF
2113 2409 CircleF
2117 2422 CircleF
2120 2420 CircleF
2123 2388 CircleF
2126 2401 CircleF
2130 2403 CircleF
2133 2417 CircleF
2136 2415 CircleF
2139 2398 CircleF
2142 2388 CircleF
2146 2386 CircleF
2149 2383 CircleF
2152 2388 CircleF
2155 2395 CircleF
2159 2407 CircleF
2162 2402 CircleF
2165 2403 CircleF
2168 2392 CircleF
2172 2403 CircleF
2175 2385 CircleF
2178 2394 CircleF
2181 2401 CircleF
2185 2415 CircleF
2188 2379 CircleF
2191 2371 CircleF
2194 2393 CircleF
2198 2398 CircleF
2201 2387 CircleF
2204 2391 CircleF
2207 2388 CircleF
2211 2411 CircleF
2214 2392 CircleF
2217 2374 CircleF
2220 2376 CircleF
2224 2385 CircleF
2227 2391 CircleF
2230 2362 CircleF
2233 2361 CircleF
2237 2389 CircleF
2240 2354 CircleF
2243 2372 CircleF
2246 2362 CircleF
2250 2359 CircleF
2253 2349 CircleF
2256 2371 CircleF
2259 2361 CircleF
2263 2350 CircleF
2266 2353 CircleF
2269 2321 CircleF
2272 2335 CircleF
2275 2346 CircleF
2279 2334 CircleF
2282 2355 CircleF
2285 2369 CircleF
2288 2349 CircleF
2292 2326 CircleF
2295 2349 CircleF
2298 2355 CircleF
2301 2346 CircleF
2305 2327 CircleF
2308 2345 CircleF
2311 2311 CircleF
2314 2338 CircleF
2318 2327 CircleF
2321 2322 CircleF
2324 2307 CircleF
2327 2311 CircleF
2331 2321 CircleF
2334 2285 CircleF
2337 2288 CircleF
2340 2310 CircleF
2344 2289 CircleF
2347 2292 CircleF
2350 2291 CircleF
2353 2274 CircleF
2357 2268 CircleF
2360 2255 CircleF
2363 2272 CircleF
2366 2276 CircleF
2370 2283 CircleF
2373 2289 CircleF
2376 2288 CircleF
2379 2267 CircleF
2383 2255 CircleF
2386 2287 CircleF
2389 2247 CircleF
2392 2276 CircleF
2396 2277 CircleF
2399 2274 CircleF
2402 2266 CircleF
2405 2258 CircleF
2408 2263 CircleF
2412 2287 CircleF
2415 2236 CircleF
2418 2256 CircleF
2421 2243 CircleF
2425 2244 CircleF
2428 2251 CircleF
2431 2226 CircleF
2434 2247 CircleF
2438 2241 CircleF
2441 2240 CircleF
2444 2221 CircleF
2447 2212 CircleF
2451 2229 CircleF
2454 2210 CircleF
2457 2201 CircleF
2460 2208 CircleF
2464 2213 CircleF
2467 2190 CircleF
2470 2197 CircleF
2473 2213 CircleF
2477 2209 CircleF
2480 2171 CircleF
2483 2208 CircleF
2486 2219 CircleF
2490 2224 CircleF
2493 2232 CircleF
2496 2204 CircleF
2499 2211 CircleF
2503 2194 CircleF
2506 2231 CircleF
2509 2215 CircleF
2512 2222 CircleF
2516 2211 CircleF
2519 2208 CircleF
2522 2194 CircleF
2525 2202 CircleF
2529 2205 CircleF
2532 2199 CircleF
2535 2185 CircleF
2538 2199 CircleF
2541 2223 CircleF
2545 2226 CircleF
2548 2206 CircleF
2551 2173 CircleF
2554 2170 CircleF
2558 2167 CircleF
2561 2199 CircleF
2564 2287 CircleF
2567 2223 CircleF
2571 2155 CircleF
2574 2123 CircleF
2577 2156 CircleF
2580 2163 CircleF
2584 2162 CircleF
2587 2135 CircleF
2590 2135 CircleF
2593 2127 CircleF
2597 2150 CircleF
2600 2142 CircleF
2603 2138 CircleF
2606 2096 CircleF
2610 2123 CircleF
2613 2160 CircleF
2616 2117 CircleF
2619 2123 CircleF
2623 2123 CircleF
2626 2126 CircleF
2629 2113 CircleF
2632 2078 CircleF
2636 2090 CircleF
2639 2047 CircleF
2642 2043 CircleF
2645 2047 CircleF
2649 2057 CircleF
2652 2062 CircleF
2655 2077 CircleF
2658 2062 CircleF
2662 2064 CircleF
2665 2076 CircleF
2668 2104 CircleF
2671 2059 CircleF
2674 2073 CircleF
2678 2093 CircleF
2681 2049 CircleF
2684 2077 CircleF
2687 2049 CircleF
2691 2032 CircleF
2694 2073 CircleF
2697 2050 CircleF
2700 2053 CircleF
2704 2053 CircleF
2707 2057 CircleF
2710 2060 CircleF
2713 2060 CircleF
2717 2040 CircleF
2720 2027 CircleF
2723 2074 CircleF
2726 2053 CircleF
2730 2034 CircleF
2733 2062 CircleF
2736 2067 CircleF
2739 2062 CircleF
2743 1985 CircleF
2746 2016 CircleF
2749 2032 CircleF
2752 1985 CircleF
2756 2001 CircleF
2759 2022 CircleF
2762 2017 CircleF
2765 2009 CircleF
2769 2005 CircleF
2772 2030 CircleF
2775 1980 CircleF
2778 1982 CircleF
2782 2002 CircleF
2785 1982 CircleF
2788 2002 CircleF
2791 1992 CircleF
2795 1976 CircleF
2798 2003 CircleF
2801 1973 CircleF
2804 1979 CircleF
2807 1975 CircleF
2811 1979 CircleF
2814 1948 CircleF
2817 1945 CircleF
2820 1941 CircleF
2824 1964 CircleF
2827 1898 CircleF
2830 1922 CircleF
2833 1925 CircleF
2837 1919 CircleF
2840 1937 CircleF
2843 1927 CircleF
2846 1922 CircleF
2850 1915 CircleF
2853 1934 CircleF
2856 1950 CircleF
2859 1930 CircleF
2863 1926 CircleF
2866 1879 CircleF
2869 1910 CircleF
2872 1930 CircleF
2876 1922 CircleF
2879 1893 CircleF
2882 1904 CircleF
2885 1953 CircleF
2889 1932 CircleF
2892 1941 CircleF
2895 1955 CircleF
2898 1945 CircleF
2902 1977 CircleF
2905 1920 CircleF
2908 1960 CircleF
2911 1945 CircleF
2915 1969 CircleF
2918 1966 CircleF
2921 1953 CircleF
2924 1917 CircleF
2928 1907 CircleF
2931 1880 CircleF
2934 1933 CircleF
2937 1938 CircleF
2940 1910 CircleF
2944 1895 CircleF
2947 1913 CircleF
2950 1904 CircleF
2953 1926 CircleF
2957 1898 CircleF
2960 1909 CircleF
2963 1929 CircleF
2966 1944 CircleF
2970 1919 CircleF
2973 1972 CircleF
2976 1925 CircleF
2979 1929 CircleF
2983 1949 CircleF
2986 1930 CircleF
2989 1949 CircleF
2992 1959 CircleF
2996 1933 CircleF
2999 1995 CircleF
3002 1912 CircleF
3005 1888 CircleF
3009 1948 CircleF
3012 1938 CircleF
3015 1927 CircleF
3018 1910 CircleF
3022 1893 CircleF
3025 1907 CircleF
3028 1896 CircleF
3031 1926 CircleF
3035 1949 CircleF
3038 1948 CircleF
3041 1901 CircleF
3044 1912 CircleF
3048 1779 CircleF
3051 1833 CircleF
3054 1819 CircleF
3057 1865 CircleF
3061 1845 CircleF
3064 1901 CircleF
3067 1875 CircleF
3070 1831 CircleF
3073 1851 CircleF
3077 1865 CircleF
3080 1839 CircleF
3083 1912 CircleF
3086 1887 CircleF
3090 1909 CircleF
3093 1860 CircleF
3096 1868 CircleF
3099 1839 CircleF
3103 1806 CircleF
3106 1865 CircleF
3109 1843 CircleF
3112 1829 CircleF
3116 1833 CircleF
3119 1825 CircleF
3122 1797 CircleF
3125 1790 CircleF
3129 1823 CircleF
3132 1793 CircleF
3135 1825 CircleF
3138 1776 CircleF
3142 1795 CircleF
3145 1817 CircleF
3148 1759 CircleF
3151 1827 CircleF
3155 1835 CircleF
3158 1823 CircleF
3161 1875 CircleF
3164 1813 CircleF
3168 1795 CircleF
3171 1788 CircleF
3174 1802 CircleF
3177 1751 CircleF
3181 1740 CircleF
3184 1756 CircleF
3187 1753 CircleF
3190 1793 CircleF
3194 1756 CircleF
3197 1779 CircleF
3200 1737 CircleF
3203 1748 CircleF
3206 1725 CircleF
3210 1774 CircleF
3213 1783 CircleF
3216 1817 CircleF
3219 1779 CircleF
3223 1766 CircleF
3226 1774 CircleF
3229 1662 CircleF
3232 1710 CircleF
3236 1748 CircleF
3239 1731 CircleF
3242 1710 CircleF
3245 1725 CircleF
3249 1734 CircleF
3252 1734 CircleF
3255 1722 CircleF
3258 1655 CircleF
3262 1713 CircleF
3265 1716 CircleF
3268 1719 CircleF
3271 1734 CircleF
3275 1764 CircleF
3278 1769 CircleF
3281 1781 CircleF
3284 1707 CircleF
3288 1786 CircleF
3291 1827 CircleF
3294 1806 CircleF
3297 1779 CircleF
3301 1748 CircleF
3304 1745 CircleF
3307 1774 CircleF
3310 1774 CircleF
3314 1713 CircleF
3317 1691 CircleF
3320 1756 CircleF
3323 1788 CircleF
3327 1759 CircleF
3330 1759 CircleF
3333 1742 CircleF
3336 1815 CircleF
3339 1737 CircleF
3343 1719 CircleF
3346 1725 CircleF
3349 1751 CircleF
3352 1737 CircleF
3356 1694 CircleF
3359 1651 CircleF
3362 1666 CircleF
3365 1647 CircleF
3369 1713 CircleF
3372 1658 CircleF
3375 1666 CircleF
3378 1728 CircleF
3382 1647 CircleF
3385 1677 CircleF
3388 1728 CircleF
3391 1779 CircleF
3395 1771 CircleF
3398 1700 CircleF
3401 1740 CircleF
3404 1734 CircleF
3408 1716 CircleF
3411 1673 CircleF
3414 1643 CircleF
3417 1670 CircleF
3421 1647 CircleF
3424 1662 CircleF
3427 1677 CircleF
3430 1734 CircleF
3434 1716 CircleF
3437 1713 CircleF
3440 1694 CircleF
3443 1670 CircleF
3447 1635 CircleF
3450 1687 CircleF
3453 1680 CircleF
3456 1670 CircleF
3460 1662 CircleF
3463 1631 CircleF
3466 1585 CircleF
3469 1670 CircleF
3472 1662 CircleF
3476 1613 CircleF
3479 1662 CircleF
3482 1666 CircleF
3485 1722 CircleF
3489 1662 CircleF
3492 1643 CircleF
3495 1604 CircleF
3498 1687 CircleF
3502 1658 CircleF
3505 1680 CircleF
3508 1609 CircleF
3511 1590 CircleF
3515 1622 CircleF
3518 1666 CircleF
3521 1622 CircleF
3524 1647 CircleF
3528 1697 CircleF
3531 1604 CircleF
3534 1569 CircleF
3537 1609 CircleF
3541 1613 CircleF
3544 1595 CircleF
3547 1643 CircleF
3550 1622 CircleF
3554 1756 CircleF
3557 1677 CircleF
3560 1737 CircleF
3563 1626 CircleF
3567 1585 CircleF
3570 1626 CircleF
3573 1517 CircleF
3576 1553 CircleF
3580 1490 CircleF
3583 1536 CircleF
3586 1575 CircleF
3589 1530 CircleF
3593 1548 CircleF
3596 1504 CircleF
3599 1604 CircleF
3602 1564 CircleF
3605 1643 CircleF
3609 1599 CircleF
3612 1524 CircleF
3615 1595 CircleF
3618 1639 CircleF
3622 1639 CircleF
3625 1609 CircleF
3628 1643 CircleF
3631 1530 CircleF
3635 1590 CircleF
3638 1504 CircleF
3641 1536 CircleF
3644 1530 CircleF
3648 1553 CircleF
3651 1559 CircleF
3654 1548 CircleF
3657 1490 CircleF
3661 1524 CircleF
3664 1585 CircleF
3667 1548 CircleF
3670 1575 CircleF
3674 1497 CircleF
3677 1585 CircleF
3680 1559 CircleF
3683 1575 CircleF
3687 1585 CircleF
3690 1622 CircleF
3693 1548 CircleF
3696 1677 CircleF
3700 1651 CircleF
3703 1666 CircleF
3706 1639 CircleF
3709 1569 CircleF
3713 1553 CircleF
3716 1530 CircleF
3719 1452 CircleF
3722 1595 CircleF
3726 1530 CircleF
3729 1542 CircleF
3732 1536 CircleF
3735 1468 CircleF
3738 1553 CircleF
3742 1536 CircleF
3745 1553 CircleF
3748 1651 CircleF
3751 1631 CircleF
3755 1517 CircleF
3758 1655 CircleF
3761 1460 CircleF
3764 1569 CircleF
3768 1548 CircleF
3771 1618 CircleF
3774 1658 CircleF
3777 1511 CircleF
3781 1604 CircleF
3784 1553 CircleF
3787 1476 CircleF
3790 1418 CircleF
3794 1490 CircleF
3797 1580 CircleF
3800 1524 CircleF
3803 1436 CircleF
3807 1468 CircleF
3810 1497 CircleF
3813 1418 CircleF
3816 1569 CircleF
3820 1476 CircleF
3823 1483 CircleF
3826 1436 CircleF
3829 1418 CircleF
3833 1343 CircleF
3836 1202 CircleF
3839 1398 CircleF
3842 1318 CircleF
3846 1274 CircleF
3849 1331 CircleF
3852 1355 CircleF
3855 1378 CircleF
3859 1331 CircleF
3862 1318 CircleF
3865 1258 CircleF
3868 1258 CircleF
3871 1103 CircleF
3875 1222 CircleF
3878 1202 CircleF
3881 1202 CircleF
3884 1180 CircleF
3888 1240 CircleF
3891 1202 CircleF
3894 1274 CircleF
3897 1071 CircleF
3901 1180 CircleF
3904 1180 CircleF
3907 1222 CircleF
3910 1157 CircleF
3914 1103 CircleF
3917 1131 CircleF
3920 1180 CircleF
3923 1378 CircleF
3927 1331 CircleF
3930 1131 CircleF
3933 1131 CircleF
3936 945 CircleF
3940 994 CircleF
3943 1289 CircleF
3946 1367 CircleF
3949 1240 CircleF
3953 1331 CircleF
3956 1240 CircleF
3959 1240 CircleF
3962 1131 CircleF
3966 1131 CircleF
3969 1103 CircleF
3972 1157 CircleF
3975 1157 CircleF
3979 1258 CircleF
3982 1318 CircleF
3985 1398 CircleF
3988 1398 CircleF
3992 1398 CircleF
3995 1331 CircleF
3998 1418 CircleF
4001 1408 CircleF
4004 1355 CircleF
4008 1274 CircleF
4011 1304 CircleF
4014 1222 CircleF
4017 1274 CircleF
4021 1157 CircleF
4024 1180 CircleF
4027 1035 CircleF
4030 1071 CircleF
4034 1222 CircleF
4037 1157 CircleF
4040 1180 CircleF
4043 1103 CircleF
4047 1202 CircleF
4050 1202 CircleF
4053 1240 CircleF
4056 1180 CircleF
4060 1157 CircleF
4063 994 CircleF
4066 1490 CircleF
4069 1131 CircleF
4073 945 CircleF
4076 1240 CircleF
4079 1071 CircleF
4082 994 CircleF
4086 945 CircleF
4089 885 CircleF
4092 1103 CircleF
4095 1103 CircleF
4099 994 CircleF
4102 1035 CircleF
4105 1180 CircleF
4108 885 CircleF
4112 885 CircleF
4115 945 CircleF
4118 1103 CircleF
4121 1103 CircleF
4124 885 CircleF
4128 945 CircleF
4131 807 CircleF
4134 945 CircleF
4137 807 CircleF
4141 885 CircleF
4144 994 CircleF
4147 1157 CircleF
4150 1035 CircleF
4154 945 CircleF
4157 512 CircleF
4160 994 CircleF
4163 1035 CircleF
4167 945 CircleF
4170 994 CircleF
4173 994 CircleF
4176 885 CircleF
4180 885 CircleF
4183 885 CircleF
4186 994 CircleF
4189 1071 CircleF
4193 994 CircleF
4196 1071 CircleF
4199 1071 CircleF
4202 994 CircleF
4206 945 CircleF
4209 945 CircleF
4212 1071 CircleF
4215 945 CircleF
4219 1035 CircleF
4222 1071 CircleF
4225 1035 CircleF
4228 945 CircleF
4232 885 CircleF
4235 885 CircleF
4238 807 CircleF
4241 994 CircleF
4245 885 CircleF
4248 1131 CircleF
4251 1035 CircleF
4254 1035 CircleF
4257 1035 CircleF
4261 1071 CircleF
4264 1180 CircleF
4267 1131 CircleF
4270 1202 CircleF
4274 1180 CircleF
4277 1180 CircleF
4280 1103 CircleF
4283 1071 CircleF
4287 1222 CircleF
4290 1180 CircleF
4293 1318 CircleF
4296 1378 CircleF
4300 1331 CircleF
4303 1452 CircleF
4306 1355 CircleF
4309 1378 CircleF
4313 1274 CircleF
4316 1398 CircleF
4319 1331 CircleF
4322 1180 CircleF
4326 1408 CircleF
4329 1388 CircleF
4332 1318 CircleF
4335 1331 CircleF
4339 1318 CircleF
4342 1304 CircleF
4345 1331 CircleF
4348 1343 CircleF
4352 1318 CircleF
4355 1304 CircleF
4358 1378 CircleF
4361 1131 CircleF
4365 1071 CircleF
4368 1131 CircleF
4371 1222 CircleF
4374 1103 CircleF
4378 1202 CircleF
4381 1103 CircleF
4384 1274 CircleF
4387 1103 CircleF
4390 1103 CircleF
4394 1222 CircleF
4397 1131 CircleF
4400 1071 CircleF
4403 994 CircleF
4407 945 CircleF
4410 1103 CircleF
4413 1071 CircleF
4416 1157 CircleF
4420 1035 CircleF
4423 1071 CircleF
4426 994 CircleF
4429 1071 CircleF
4433 1180 CircleF
4436 1103 CircleF
4439 885 CircleF
4442 945 CircleF
4446 1071 CircleF
4449 1222 CircleF
4452 1180 CircleF
4455 994 CircleF
4459 1131 CircleF
4462 945 CircleF
4465 1071 CircleF
4468 1035 CircleF
4472 945 CircleF
4475 945 CircleF
4478 1035 CircleF
4481 994 CircleF
4485 1035 CircleF
4488 1071 CircleF
4491 1035 CircleF
4494 1180 CircleF
4498 1180 CircleF
4501 885 CircleF
4504 1103 CircleF
4507 1222 CircleF
4511 1157 CircleF
4514 994 CircleF
4517 885 CircleF
4520 807 CircleF
4523 512 CircleF
4527 1035 CircleF
4530 994 CircleF
4533 698 CircleF
4536 1202 CircleF
4540 994 CircleF
4543 945 CircleF
4546 807 CircleF
4549 698 CircleF
4553 1035 CircleF
4556 945 CircleF
4559 945 CircleF
4562 1071 CircleF
4566 1071 CircleF
4569 945 CircleF
4572 1131 CircleF
4575 807 CircleF
4579 1180 CircleF
4582 1157 CircleF
4585 1202 CircleF
4588 1071 CircleF
4592 1180 CircleF
4595 1131 CircleF
4598 1035 CircleF
4601 1157 CircleF
4605 1274 CircleF
4608 1222 CircleF
4611 1202 CircleF
4614 1289 CircleF
4618 1103 CircleF
4621 1180 CircleF
4624 1180 CircleF
4627 1180 CircleF
4631 1035 CircleF
4634 1180 CircleF
4637 1180 CircleF
4640 1035 CircleF
4644 1202 CircleF
4647 1222 CircleF
4650 1258 CircleF
4653 1103 CircleF
4656 885 CircleF
4660 885 CircleF
4663 807 CircleF
4666 698 CircleF
4669 512 CircleF
4673 885 CircleF
4676 1180 CircleF
4679 885 CircleF
4682 945 CircleF
4686 945 CircleF
4689 807 CircleF
4692 994 CircleF
4695 994 CircleF
4699 885 CircleF
4702 807 CircleF
4705 885 CircleF
4708 885 CircleF
4712 1071 CircleF
4715 1103 CircleF
4718 1103 CircleF
4721 945 CircleF
4725 807 CircleF
4728 807 CircleF
4731 1035 CircleF
4734 1035 CircleF
4738 885 CircleF
4741 994 CircleF
4744 885 CircleF
4747 945 CircleF
4751 807 CircleF
4754 945 CircleF
4757 885 CircleF
4760 945 CircleF
4764 945 CircleF
4767 885 CircleF
4770 945 CircleF
4773 885 CircleF
4777 994 CircleF
4780 698 CircleF
4783 698 CircleF
4786 698 CircleF
4789 807 CircleF
4793 698 CircleF
4796 512 CircleF
4799 698 CircleF
4802 698 CircleF
4806 994 CircleF
4809 885 CircleF
4815 807 CircleF
4819 994 CircleF
4822 807 CircleF
4825 698 CircleF
4828 994 CircleF
4832 698 CircleF
4835 1103 CircleF
4838 807 CircleF
4841 1035 CircleF
4845 698 CircleF
4848 885 CircleF
4851 994 CircleF
4854 1035 CircleF
4858 512 CircleF
4861 698 CircleF
4864 945 CircleF
4867 945 CircleF
4871 885 CircleF
4874 994 CircleF
4877 1071 CircleF
4880 1035 CircleF
4884 1071 CircleF
4887 807 CircleF
4890 945 CircleF
4893 1103 CircleF
4897 1035 CircleF
4900 885 CircleF
4903 994 CircleF
4906 945 CircleF
4910 807 CircleF
4913 994 CircleF
4916 885 CircleF
4919 885 CircleF
4922 945 CircleF
4926 1071 CircleF
4929 1131 CircleF
4932 994 CircleF
4935 1035 CircleF
4939 945 CircleF
4942 994 CircleF
4945 1131 CircleF
4948 1035 CircleF
4952 885 CircleF
4955 1071 CircleF
4958 807 CircleF
4961 1035 CircleF
4965 885 CircleF
4968 885 CircleF
4971 1222 CircleF
4974 1071 CircleF
4978 994 CircleF
4981 1157 CircleF
4984 1180 CircleF
4987 1157 CircleF
4991 1131 CircleF
4994 1180 CircleF
4997 1318 CircleF
5000 1222 CircleF
5004 1240 CircleF
5007 1180 CircleF
5010 945 CircleF
5013 1202 CircleF
5017 1240 CircleF
5020 1131 CircleF
5023 1103 CircleF
5026 1131 CircleF
5030 1157 CircleF
5033 1071 CircleF
5036 1304 CircleF
5039 1202 CircleF
5043 1240 CircleF
5046 1131 CircleF
5049 1240 CircleF
5052 1222 CircleF
5055 1180 CircleF
5059 1240 CircleF
5062 1180 CircleF
5065 1222 CircleF
5068 945 CircleF
5072 1071 CircleF
5075 1180 CircleF
5078 994 CircleF
5081 1180 CircleF
5085 945 CircleF
5088 1222 CircleF
5091 1071 CircleF
5094 1035 CircleF
5098 1157 CircleF
5101 1035 CircleF
5104 1103 CircleF
5107 1131 CircleF
5111 1035 CircleF
5114 1240 CircleF
5117 1202 CircleF
5120 1071 CircleF
5124 1157 CircleF
5127 1180 CircleF
5130 1131 CircleF
5133 1304 CircleF
5137 1180 CircleF
5140 1103 CircleF
5143 1258 CircleF
5146 1103 CircleF
5150 1103 CircleF
5153 1222 CircleF
5156 1035 CircleF
5159 1103 CircleF
5163 1035 CircleF
5166 1035 CircleF
5169 1035 CircleF
5172 1035 CircleF
5176 885 CircleF
5179 1035 CircleF
5182 945 CircleF
5185 1035 CircleF
5188 945 CircleF
5192 1071 CircleF
5195 1071 CircleF
5198 1157 CircleF
5201 1071 CircleF
5205 1035 CircleF
5208 1035 CircleF
5211 1202 CircleF
5214 945 CircleF
5218 1035 CircleF
5221 1258 CircleF
5224 1157 CircleF
5227 1103 CircleF
5231 885 CircleF
5234 1103 CircleF
5237 1103 CircleF
5240 1035 CircleF
5244 1157 CircleF
5247 1071 CircleF
5250 1131 CircleF
5253 1274 CircleF
5257 1240 CircleF
5260 1343 CircleF
5263 1289 CircleF
5266 1408 CircleF
5270 1258 CircleF
5273 1289 CircleF
5276 1202 CircleF
5279 1131 CircleF
5283 1103 CircleF
5286 994 CircleF
5289 945 CircleF
5292 1157 CircleF
5296 1157 CircleF
5299 1071 CircleF
5302 885 CircleF
5305 1035 CircleF
5309 885 CircleF
5312 1035 CircleF
5315 698 CircleF
5318 994 CircleF
5321 994 CircleF
5325 885 CircleF
5328 698 CircleF
5331 698 CircleF
5334 885 CircleF
5338 945 CircleF
5341 994 CircleF
5344 807 CircleF
5347 945 CircleF
5351 994 CircleF
5354 994 CircleF
5357 807 CircleF
5360 945 CircleF
5364 945 CircleF
5367 885 CircleF
5370 945 CircleF
5373 945 CircleF
5377 885 CircleF
5380 945 CircleF
5383 885 CircleF
5386 994 CircleF
5390 994 CircleF
5393 1035 CircleF
5396 1071 CircleF
5399 807 CircleF
5403 885 CircleF
5406 994 CircleF
5409 945 CircleF
5412 945 CircleF
5416 885 CircleF
5419 807 CircleF
5422 512 CircleF
5425 512 CircleF
5429 945 CircleF
5432 698 CircleF
5435 698 CircleF
5438 885 CircleF
5442 1035 CircleF
5445 807 CircleF
5448 698 CircleF
5451 885 CircleF
5454 698 CircleF
5458 885 CircleF
5461 698 CircleF
5464 885 CircleF
5467 807 CircleF
5471 807 CircleF
5474 512 CircleF
5477 512 CircleF
5480 698 CircleF
5484 512 CircleF
5490 807 CircleF
5493 512 CircleF
5500 807 CircleF
5506 698 CircleF
5510 885 CircleF
5513 512 CircleF
5516 885 CircleF
5523 807 CircleF
5526 698 CircleF
5529 512 CircleF
5532 512 CircleF
5536 698 CircleF
5539 698 CircleF
5542 512 CircleF
5545 945 CircleF
5549 698 CircleF
5552 698 CircleF
5555 698 CircleF
5558 698 CircleF
5562 945 CircleF
5565 807 CircleF
5568 698 CircleF
5571 698 CircleF
5575 1071 CircleF
5578 512 CircleF
5581 945 CircleF
5584 945 CircleF
5587 698 CircleF
5591 512 CircleF
5594 698 CircleF
5604 807 CircleF
5607 512 CircleF
5610 512 CircleF
5613 698 CircleF
5617 885 CircleF
5620 512 CircleF
5623 512 CircleF
5626 994 CircleF
5633 512 CircleF
5636 945 CircleF
5639 885 CircleF
5643 1035 CircleF
5646 807 CircleF
5649 698 CircleF
5652 807 CircleF
5656 945 CircleF
5659 807 CircleF
5662 807 CircleF
5669 994 CircleF
5672 512 CircleF
5675 885 CircleF
5678 885 CircleF
5682 807 CircleF
5685 698 CircleF
5691 885 CircleF
5698 945 CircleF
5701 698 CircleF
5704 698 CircleF
5708 512 CircleF
5711 885 CircleF
5714 512 CircleF
5717 512 CircleF
5720 698 CircleF
5724 698 CircleF
5727 885 CircleF
5730 698 CircleF
5733 512 CircleF
5737 885 CircleF
5740 698 CircleF
5743 885 CircleF
5750 512 CircleF
5753 885 CircleF
5756 512 CircleF
5759 807 CircleF
5763 885 CircleF
5766 807 CircleF
5769 994 CircleF
5772 807 CircleF
5776 945 CircleF
5779 807 CircleF
5782 698 CircleF
5789 698 CircleF
5792 945 CircleF
5795 512 CircleF
5798 512 CircleF
5802 512 CircleF
5808 698 CircleF
5811 698 CircleF
5818 807 CircleF
5824 807 CircleF
5831 512 CircleF
5837 807 CircleF
5841 698 CircleF
5847 885 CircleF
5857 512 CircleF
5860 698 CircleF
5863 512 CircleF
5866 1035 CircleF
5870 512 CircleF
5873 698 CircleF
5876 698 CircleF
5879 698 CircleF
5883 698 CircleF
5886 698 CircleF
5889 698 CircleF
5892 698 CircleF
5896 512 CircleF
5902 512 CircleF
5905 512 CircleF
5909 698 CircleF
5912 512 CircleF
5915 512 CircleF
5918 512 CircleF
5922 807 CircleF
5925 698 CircleF
5931 698 CircleF
5935 698 CircleF
5938 698 CircleF
5941 512 CircleF
5944 698 CircleF
5951 512 CircleF
5954 698 CircleF
5957 807 CircleF
5961 698 CircleF
5964 512 CircleF
5967 807 CircleF
5970 512 CircleF
5974 512 CircleF
5977 698 CircleF
5980 512 CircleF
5983 807 CircleF
5986 512 CircleF
5993 885 CircleF
5996 512 CircleF
5999 698 CircleF
6003 512 CircleF
6006 512 CircleF
6016 512 CircleF
6032 512 CircleF
6035 512 CircleF
6038 698 CircleF
6045 885 CircleF
6051 512 CircleF
6055 807 CircleF
6084 885 CircleF
6094 698 CircleF
6100 512 CircleF
6110 512 CircleF
6119 807 CircleF
6136 512 CircleF
6142 698 CircleF
6152 512 CircleF
6155 512 CircleF
6168 698 CircleF
6178 512 CircleF
6201 512 CircleF
6204 512 CircleF
6210 512 CircleF
6214 512 CircleF
6223 512 CircleF
6233 512 CircleF
6240 512 CircleF
6246 807 CircleF
6249 512 CircleF
6252 512 CircleF
6259 698 CircleF
6275 698 CircleF
6278 512 CircleF
6285 698 CircleF
6298 698 CircleF
6301 698 CircleF
6308 512 CircleF
6311 512 CircleF
6317 512 CircleF
6321 698 CircleF
6337 512 CircleF
6350 512 CircleF
6369 512 CircleF
6379 698 CircleF
6389 512 CircleF
6415 512 CircleF
6421 512 CircleF
6424 512 CircleF
6431 698 CircleF
6437 698 CircleF
6444 512 CircleF
6447 512 CircleF
6473 698 CircleF
6506 512 CircleF
6509 512 CircleF
6515 512 CircleF
6518 512 CircleF
6535 512 CircleF
6541 512 CircleF
6548 698 CircleF
6554 512 CircleF
6561 512 CircleF
6567 807 CircleF
6577 698 CircleF
6580 994 CircleF
6583 698 CircleF
6590 698 CircleF
6593 698 CircleF
6596 885 CircleF
6600 512 CircleF
6603 945 CircleF
6606 807 CircleF
6609 512 CircleF
6613 512 CircleF
6616 807 CircleF
6619 698 CircleF
6626 807 CircleF
6629 698 CircleF
6635 698 CircleF
6639 512 CircleF
6651 512 CircleF
6655 512 CircleF
6668 698 CircleF
6671 885 CircleF
6674 698 CircleF
6677 698 CircleF
6681 807 CircleF
6684 512 CircleF
6690 512 CircleF
6694 512 CircleF
6697 698 CircleF
6700 698 CircleF
6703 945 CircleF
6707 698 CircleF
6713 807 CircleF
6716 512 CircleF
6723 698 CircleF
6726 994 CircleF
6729 698 CircleF
6742 512 CircleF
6746 698 CircleF
% End plot #1
1.000 UL
LTb
LCb setrgbcolor
1072 4847 N
0 -4335 V
5839 0 V
0 4335 V
-5839 0 V
Z stroke
1.000 UP
1.000 UL
LTb
LCb setrgbcolor
stroke
grestore
end
showpage
%%Trailer
%%DocumentFonts: Helvetica
