%!PS-Adobe-2.0 EPSF-2.0
%%Title: nbrDist.eps
%%Creator: gnuplot 4.6 patchlevel 2
%%CreationDate: Thu Sep 19 11:26:10 2019
%%DocumentFonts: (atend)
%%BoundingBox: 50 50 410 302
%%EndComments
%%BeginProlog
/gnudict 256 dict def
gnudict begin
%
% The following true/false flags may be edited by hand if desired.
% The unit line width and grayscale image gamma correction may also be changed.
%
/Color true def
/Blacktext false def
/Solid false def
/Dashlength 1 def
/Landscape false def
/Level1 false def
/Rounded false def
/ClipToBoundingBox false def
/SuppressPDFMark false def
/TransparentPatterns false def
/gnulinewidth 5.000 def
/userlinewidth gnulinewidth def
/Gamma 1.0 def
/BackgroundColor {-1.000 -1.000 -1.000} def
%
/vshift -53 def
/dl1 {
  10.0 Dashlength mul mul
  Rounded { currentlinewidth 0.75 mul sub dup 0 le { pop 0.01 } if } if
} def
/dl2 {
  10.0 Dashlength mul mul
  Rounded { currentlinewidth 0.75 mul add } if
} def
/hpt_ 31.5 def
/vpt_ 31.5 def
/hpt hpt_ def
/vpt vpt_ def
/doclip {
  ClipToBoundingBox {
    newpath 50 50 moveto 410 50 lineto 410 302 lineto 50 302 lineto closepath
    clip
  } if
} def
%
% Gnuplot Prolog Version 4.6 (September 2012)
%
%/SuppressPDFMark true def
%
/M {moveto} bind def
/L {lineto} bind def
/R {rmoveto} bind def
/V {rlineto} bind def
/N {newpath moveto} bind def
/Z {closepath} bind def
/C {setrgbcolor} bind def
/f {rlineto fill} bind def
/g {setgray} bind def
/Gshow {show} def   % May be redefined later in the file to support UTF-8
/vpt2 vpt 2 mul def
/hpt2 hpt 2 mul def
/Lshow {currentpoint stroke M 0 vshift R 
	Blacktext {gsave 0 setgray show grestore} {show} ifelse} def
/Rshow {currentpoint stroke M dup stringwidth pop neg vshift R
	Blacktext {gsave 0 setgray show grestore} {show} ifelse} def
/Cshow {currentpoint stroke M dup stringwidth pop -2 div vshift R 
	Blacktext {gsave 0 setgray show grestore} {show} ifelse} def
/UP {dup vpt_ mul /vpt exch def hpt_ mul /hpt exch def
  /hpt2 hpt 2 mul def /vpt2 vpt 2 mul def} def
/DL {Color {setrgbcolor Solid {pop []} if 0 setdash}
 {pop pop pop 0 setgray Solid {pop []} if 0 setdash} ifelse} def
/BL {stroke userlinewidth 2 mul setlinewidth
	Rounded {1 setlinejoin 1 setlinecap} if} def
/AL {stroke userlinewidth 2 div setlinewidth
	Rounded {1 setlinejoin 1 setlinecap} if} def
/UL {dup gnulinewidth mul /userlinewidth exch def
	dup 1 lt {pop 1} if 10 mul /udl exch def} def
/PL {stroke userlinewidth setlinewidth
	Rounded {1 setlinejoin 1 setlinecap} if} def
3.8 setmiterlimit
% Default Line colors
/LCw {1 1 1} def
/LCb {0 0 0} def
/LCa {0 0 0} def
/LC0 {1 0 0} def
/LC1 {0 1 0} def
/LC2 {0 0 1} def
/LC3 {1 0 1} def
/LC4 {0 1 1} def
/LC5 {1 1 0} def
/LC6 {0 0 0} def
/LC7 {1 0.3 0} def
/LC8 {0.5 0.5 0.5} def
% Default Line Types
/LTw {PL [] 1 setgray} def
/LTb {BL [] LCb DL} def
/LTa {AL [1 udl mul 2 udl mul] 0 setdash LCa setrgbcolor} def
/LT0 {PL [] LC0 DL} def
/LT1 {PL [4 dl1 2 dl2] LC1 DL} def
/LT2 {PL [2 dl1 3 dl2] LC2 DL} def
/LT3 {PL [1 dl1 1.5 dl2] LC3 DL} def
/LT4 {PL [6 dl1 2 dl2 1 dl1 2 dl2] LC4 DL} def
/LT5 {PL [3 dl1 3 dl2 1 dl1 3 dl2] LC5 DL} def
/LT6 {PL [2 dl1 2 dl2 2 dl1 6 dl2] LC6 DL} def
/LT7 {PL [1 dl1 2 dl2 6 dl1 2 dl2 1 dl1 2 dl2] LC7 DL} def
/LT8 {PL [2 dl1 2 dl2 2 dl1 2 dl2 2 dl1 2 dl2 2 dl1 4 dl2] LC8 DL} def
/Pnt {stroke [] 0 setdash gsave 1 setlinecap M 0 0 V stroke grestore} def
/Dia {stroke [] 0 setdash 2 copy vpt add M
  hpt neg vpt neg V hpt vpt neg V
  hpt vpt V hpt neg vpt V closepath stroke
  Pnt} def
/Pls {stroke [] 0 setdash vpt sub M 0 vpt2 V
  currentpoint stroke M
  hpt neg vpt neg R hpt2 0 V stroke
 } def
/Box {stroke [] 0 setdash 2 copy exch hpt sub exch vpt add M
  0 vpt2 neg V hpt2 0 V 0 vpt2 V
  hpt2 neg 0 V closepath stroke
  Pnt} def
/Crs {stroke [] 0 setdash exch hpt sub exch vpt add M
  hpt2 vpt2 neg V currentpoint stroke M
  hpt2 neg 0 R hpt2 vpt2 V stroke} def
/TriU {stroke [] 0 setdash 2 copy vpt 1.12 mul add M
  hpt neg vpt -1.62 mul V
  hpt 2 mul 0 V
  hpt neg vpt 1.62 mul V closepath stroke
  Pnt} def
/Star {2 copy Pls Crs} def
/BoxF {stroke [] 0 setdash exch hpt sub exch vpt add M
  0 vpt2 neg V hpt2 0 V 0 vpt2 V
  hpt2 neg 0 V closepath fill} def
/TriUF {stroke [] 0 setdash vpt 1.12 mul add M
  hpt neg vpt -1.62 mul V
  hpt 2 mul 0 V
  hpt neg vpt 1.62 mul V closepath fill} def
/TriD {stroke [] 0 setdash 2 copy vpt 1.12 mul sub M
  hpt neg vpt 1.62 mul V
  hpt 2 mul 0 V
  hpt neg vpt -1.62 mul V closepath stroke
  Pnt} def
/TriDF {stroke [] 0 setdash vpt 1.12 mul sub M
  hpt neg vpt 1.62 mul V
  hpt 2 mul 0 V
  hpt neg vpt -1.62 mul V closepath fill} def
/DiaF {stroke [] 0 setdash vpt add M
  hpt neg vpt neg V hpt vpt neg V
  hpt vpt V hpt neg vpt V closepath fill} def
/Pent {stroke [] 0 setdash 2 copy gsave
  translate 0 hpt M 4 {72 rotate 0 hpt L} repeat
  closepath stroke grestore Pnt} def
/PentF {stroke [] 0 setdash gsave
  translate 0 hpt M 4 {72 rotate 0 hpt L} repeat
  closepath fill grestore} def
/Circle {stroke [] 0 setdash 2 copy
  hpt 0 360 arc stroke Pnt} def
/CircleF {stroke [] 0 setdash hpt 0 360 arc fill} def
/C0 {BL [] 0 setdash 2 copy moveto vpt 90 450 arc} bind def
/C1 {BL [] 0 setdash 2 copy moveto
	2 copy vpt 0 90 arc closepath fill
	vpt 0 360 arc closepath} bind def
/C2 {BL [] 0 setdash 2 copy moveto
	2 copy vpt 90 180 arc closepath fill
	vpt 0 360 arc closepath} bind def
/C3 {BL [] 0 setdash 2 copy moveto
	2 copy vpt 0 180 arc closepath fill
	vpt 0 360 arc closepath} bind def
/C4 {BL [] 0 setdash 2 copy moveto
	2 copy vpt 180 270 arc closepath fill
	vpt 0 360 arc closepath} bind def
/C5 {BL [] 0 setdash 2 copy moveto
	2 copy vpt 0 90 arc
	2 copy moveto
	2 copy vpt 180 270 arc closepath fill
	vpt 0 360 arc} bind def
/C6 {BL [] 0 setdash 2 copy moveto
	2 copy vpt 90 270 arc closepath fill
	vpt 0 360 arc closepath} bind def
/C7 {BL [] 0 setdash 2 copy moveto
	2 copy vpt 0 270 arc closepath fill
	vpt 0 360 arc closepath} bind def
/C8 {BL [] 0 setdash 2 copy moveto
	2 copy vpt 270 360 arc closepath fill
	vpt 0 360 arc closepath} bind def
/C9 {BL [] 0 setdash 2 copy moveto
	2 copy vpt 270 450 arc closepath fill
	vpt 0 360 arc closepath} bind def
/C10 {BL [] 0 setdash 2 copy 2 copy moveto vpt 270 360 arc closepath fill
	2 copy moveto
	2 copy vpt 90 180 arc closepath fill
	vpt 0 360 arc closepath} bind def
/C11 {BL [] 0 setdash 2 copy moveto
	2 copy vpt 0 180 arc closepath fill
	2 copy moveto
	2 copy vpt 270 360 arc closepath fill
	vpt 0 360 arc closepath} bind def
/C12 {BL [] 0 setdash 2 copy moveto
	2 copy vpt 180 360 arc closepath fill
	vpt 0 360 arc closepath} bind def
/C13 {BL [] 0 setdash 2 copy moveto
	2 copy vpt 0 90 arc closepath fill
	2 copy moveto
	2 copy vpt 180 360 arc closepath fill
	vpt 0 360 arc closepath} bind def
/C14 {BL [] 0 setdash 2 copy moveto
	2 copy vpt 90 360 arc closepath fill
	vpt 0 360 arc} bind def
/C15 {BL [] 0 setdash 2 copy vpt 0 360 arc closepath fill
	vpt 0 360 arc closepath} bind def
/Rec {newpath 4 2 roll moveto 1 index 0 rlineto 0 exch rlineto
	neg 0 rlineto closepath} bind def
/Square {dup Rec} bind def
/Bsquare {vpt sub exch vpt sub exch vpt2 Square} bind def
/S0 {BL [] 0 setdash 2 copy moveto 0 vpt rlineto BL Bsquare} bind def
/S1 {BL [] 0 setdash 2 copy vpt Square fill Bsquare} bind def
/S2 {BL [] 0 setdash 2 copy exch vpt sub exch vpt Square fill Bsquare} bind def
/S3 {BL [] 0 setdash 2 copy exch vpt sub exch vpt2 vpt Rec fill Bsquare} bind def
/S4 {BL [] 0 setdash 2 copy exch vpt sub exch vpt sub vpt Square fill Bsquare} bind def
/S5 {BL [] 0 setdash 2 copy 2 copy vpt Square fill
	exch vpt sub exch vpt sub vpt Square fill Bsquare} bind def
/S6 {BL [] 0 setdash 2 copy exch vpt sub exch vpt sub vpt vpt2 Rec fill Bsquare} bind def
/S7 {BL [] 0 setdash 2 copy exch vpt sub exch vpt sub vpt vpt2 Rec fill
	2 copy vpt Square fill Bsquare} bind def
/S8 {BL [] 0 setdash 2 copy vpt sub vpt Square fill Bsquare} bind def
/S9 {BL [] 0 setdash 2 copy vpt sub vpt vpt2 Rec fill Bsquare} bind def
/S10 {BL [] 0 setdash 2 copy vpt sub vpt Square fill 2 copy exch vpt sub exch vpt Square fill
	Bsquare} bind def
/S11 {BL [] 0 setdash 2 copy vpt sub vpt Square fill 2 copy exch vpt sub exch vpt2 vpt Rec fill
	Bsquare} bind def
/S12 {BL [] 0 setdash 2 copy exch vpt sub exch vpt sub vpt2 vpt Rec fill Bsquare} bind def
/S13 {BL [] 0 setdash 2 copy exch vpt sub exch vpt sub vpt2 vpt Rec fill
	2 copy vpt Square fill Bsquare} bind def
/S14 {BL [] 0 setdash 2 copy exch vpt sub exch vpt sub vpt2 vpt Rec fill
	2 copy exch vpt sub exch vpt Square fill Bsquare} bind def
/S15 {BL [] 0 setdash 2 copy Bsquare fill Bsquare} bind def
/D0 {gsave translate 45 rotate 0 0 S0 stroke grestore} bind def
/D1 {gsave translate 45 rotate 0 0 S1 stroke grestore} bind def
/D2 {gsave translate 45 rotate 0 0 S2 stroke grestore} bind def
/D3 {gsave translate 45 rotate 0 0 S3 stroke grestore} bind def
/D4 {gsave translate 45 rotate 0 0 S4 stroke grestore} bind def
/D5 {gsave translate 45 rotate 0 0 S5 stroke grestore} bind def
/D6 {gsave translate 45 rotate 0 0 S6 stroke grestore} bind def
/D7 {gsave translate 45 rotate 0 0 S7 stroke grestore} bind def
/D8 {gsave translate 45 rotate 0 0 S8 stroke grestore} bind def
/D9 {gsave translate 45 rotate 0 0 S9 stroke grestore} bind def
/D10 {gsave translate 45 rotate 0 0 S10 stroke grestore} bind def
/D11 {gsave translate 45 rotate 0 0 S11 stroke grestore} bind def
/D12 {gsave translate 45 rotate 0 0 S12 stroke grestore} bind def
/D13 {gsave translate 45 rotate 0 0 S13 stroke grestore} bind def
/D14 {gsave translate 45 rotate 0 0 S14 stroke grestore} bind def
/D15 {gsave translate 45 rotate 0 0 S15 stroke grestore} bind def
/DiaE {stroke [] 0 setdash vpt add M
  hpt neg vpt neg V hpt vpt neg V
  hpt vpt V hpt neg vpt V closepath stroke} def
/BoxE {stroke [] 0 setdash exch hpt sub exch vpt add M
  0 vpt2 neg V hpt2 0 V 0 vpt2 V
  hpt2 neg 0 V closepath stroke} def
/TriUE {stroke [] 0 setdash vpt 1.12 mul add M
  hpt neg vpt -1.62 mul V
  hpt 2 mul 0 V
  hpt neg vpt 1.62 mul V closepath stroke} def
/TriDE {stroke [] 0 setdash vpt 1.12 mul sub M
  hpt neg vpt 1.62 mul V
  hpt 2 mul 0 V
  hpt neg vpt -1.62 mul V closepath stroke} def
/PentE {stroke [] 0 setdash gsave
  translate 0 hpt M 4 {72 rotate 0 hpt L} repeat
  closepath stroke grestore} def
/CircE {stroke [] 0 setdash 
  hpt 0 360 arc stroke} def
/Opaque {gsave closepath 1 setgray fill grestore 0 setgray closepath} def
/DiaW {stroke [] 0 setdash vpt add M
  hpt neg vpt neg V hpt vpt neg V
  hpt vpt V hpt neg vpt V Opaque stroke} def
/BoxW {stroke [] 0 setdash exch hpt sub exch vpt add M
  0 vpt2 neg V hpt2 0 V 0 vpt2 V
  hpt2 neg 0 V Opaque stroke} def
/TriUW {stroke [] 0 setdash vpt 1.12 mul add M
  hpt neg vpt -1.62 mul V
  hpt 2 mul 0 V
  hpt neg vpt 1.62 mul V Opaque stroke} def
/TriDW {stroke [] 0 setdash vpt 1.12 mul sub M
  hpt neg vpt 1.62 mul V
  hpt 2 mul 0 V
  hpt neg vpt -1.62 mul V Opaque stroke} def
/PentW {stroke [] 0 setdash gsave
  translate 0 hpt M 4 {72 rotate 0 hpt L} repeat
  Opaque stroke grestore} def
/CircW {stroke [] 0 setdash 
  hpt 0 360 arc Opaque stroke} def
/BoxFill {gsave Rec 1 setgray fill grestore} def
/Density {
  /Fillden exch def
  currentrgbcolor
  /ColB exch def /ColG exch def /ColR exch def
  /ColR ColR Fillden mul Fillden sub 1 add def
  /ColG ColG Fillden mul Fillden sub 1 add def
  /ColB ColB Fillden mul Fillden sub 1 add def
  ColR ColG ColB setrgbcolor} def
/BoxColFill {gsave Rec PolyFill} def
/PolyFill {gsave Density fill grestore grestore} def
/h {rlineto rlineto rlineto gsave closepath fill grestore} bind def
%
% PostScript Level 1 Pattern Fill routine for rectangles
% Usage: x y w h s a XX PatternFill
%	x,y = lower left corner of box to be filled
%	w,h = width and height of box
%	  a = angle in degrees between lines and x-axis
%	 XX = 0/1 for no/yes cross-hatch
%
/PatternFill {gsave /PFa [ 9 2 roll ] def
  PFa 0 get PFa 2 get 2 div add PFa 1 get PFa 3 get 2 div add translate
  PFa 2 get -2 div PFa 3 get -2 div PFa 2 get PFa 3 get Rec
  TransparentPatterns {} {gsave 1 setgray fill grestore} ifelse
  clip
  currentlinewidth 0.5 mul setlinewidth
  /PFs PFa 2 get dup mul PFa 3 get dup mul add sqrt def
  0 0 M PFa 5 get rotate PFs -2 div dup translate
  0 1 PFs PFa 4 get div 1 add floor cvi
	{PFa 4 get mul 0 M 0 PFs V} for
  0 PFa 6 get ne {
	0 1 PFs PFa 4 get div 1 add floor cvi
	{PFa 4 get mul 0 2 1 roll M PFs 0 V} for
 } if
  stroke grestore} def
%
/languagelevel where
 {pop languagelevel} {1} ifelse
 2 lt
	{/InterpretLevel1 true def}
	{/InterpretLevel1 Level1 def}
 ifelse
%
% PostScript level 2 pattern fill definitions
%
/Level2PatternFill {
/Tile8x8 {/PaintType 2 /PatternType 1 /TilingType 1 /BBox [0 0 8 8] /XStep 8 /YStep 8}
	bind def
/KeepColor {currentrgbcolor [/Pattern /DeviceRGB] setcolorspace} bind def
<< Tile8x8
 /PaintProc {0.5 setlinewidth pop 0 0 M 8 8 L 0 8 M 8 0 L stroke} 
>> matrix makepattern
/Pat1 exch def
<< Tile8x8
 /PaintProc {0.5 setlinewidth pop 0 0 M 8 8 L 0 8 M 8 0 L stroke
	0 4 M 4 8 L 8 4 L 4 0 L 0 4 L stroke}
>> matrix makepattern
/Pat2 exch def
<< Tile8x8
 /PaintProc {0.5 setlinewidth pop 0 0 M 0 8 L
	8 8 L 8 0 L 0 0 L fill}
>> matrix makepattern
/Pat3 exch def
<< Tile8x8
 /PaintProc {0.5 setlinewidth pop -4 8 M 8 -4 L
	0 12 M 12 0 L stroke}
>> matrix makepattern
/Pat4 exch def
<< Tile8x8
 /PaintProc {0.5 setlinewidth pop -4 0 M 8 12 L
	0 -4 M 12 8 L stroke}
>> matrix makepattern
/Pat5 exch def
<< Tile8x8
 /PaintProc {0.5 setlinewidth pop -2 8 M 4 -4 L
	0 12 M 8 -4 L 4 12 M 10 0 L stroke}
>> matrix makepattern
/Pat6 exch def
<< Tile8x8
 /PaintProc {0.5 setlinewidth pop -2 0 M 4 12 L
	0 -4 M 8 12 L 4 -4 M 10 8 L stroke}
>> matrix makepattern
/Pat7 exch def
<< Tile8x8
 /PaintProc {0.5 setlinewidth pop 8 -2 M -4 4 L
	12 0 M -4 8 L 12 4 M 0 10 L stroke}
>> matrix makepattern
/Pat8 exch def
<< Tile8x8
 /PaintProc {0.5 setlinewidth pop 0 -2 M 12 4 L
	-4 0 M 12 8 L -4 4 M 8 10 L stroke}
>> matrix makepattern
/Pat9 exch def
/Pattern1 {PatternBgnd KeepColor Pat1 setpattern} bind def
/Pattern2 {PatternBgnd KeepColor Pat2 setpattern} bind def
/Pattern3 {PatternBgnd KeepColor Pat3 setpattern} bind def
/Pattern4 {PatternBgnd KeepColor Landscape {Pat5} {Pat4} ifelse setpattern} bind def
/Pattern5 {PatternBgnd KeepColor Landscape {Pat4} {Pat5} ifelse setpattern} bind def
/Pattern6 {PatternBgnd KeepColor Landscape {Pat9} {Pat6} ifelse setpattern} bind def
/Pattern7 {PatternBgnd KeepColor Landscape {Pat8} {Pat7} ifelse setpattern} bind def
} def
%
%
%End of PostScript Level 2 code
%
/PatternBgnd {
  TransparentPatterns {} {gsave 1 setgray fill grestore} ifelse
} def
%
% Substitute for Level 2 pattern fill codes with
% grayscale if Level 2 support is not selected.
%
/Level1PatternFill {
/Pattern1 {0.250 Density} bind def
/Pattern2 {0.500 Density} bind def
/Pattern3 {0.750 Density} bind def
/Pattern4 {0.125 Density} bind def
/Pattern5 {0.375 Density} bind def
/Pattern6 {0.625 Density} bind def
/Pattern7 {0.875 Density} bind def
} def
%
% Now test for support of Level 2 code
%
Level1 {Level1PatternFill} {Level2PatternFill} ifelse
%
/Symbol-Oblique /Symbol findfont [1 0 .167 1 0 0] makefont
dup length dict begin {1 index /FID eq {pop pop} {def} ifelse} forall
currentdict end definefont pop
/MFshow {
   { dup 5 get 3 ge
     { 5 get 3 eq {gsave} {grestore} ifelse }
     {dup dup 0 get findfont exch 1 get scalefont setfont
     [ currentpoint ] exch dup 2 get 0 exch R dup 5 get 2 ne {dup dup 6
     get exch 4 get {Gshow} {stringwidth pop 0 R} ifelse }if dup 5 get 0 eq
     {dup 3 get {2 get neg 0 exch R pop} {pop aload pop M} ifelse} {dup 5
     get 1 eq {dup 2 get exch dup 3 get exch 6 get stringwidth pop -2 div
     dup 0 R} {dup 6 get stringwidth pop -2 div 0 R 6 get
     show 2 index {aload pop M neg 3 -1 roll neg R pop pop} {pop pop pop
     pop aload pop M} ifelse }ifelse }ifelse }
     ifelse }
   forall} def
/Gswidth {dup type /stringtype eq {stringwidth} {pop (n) stringwidth} ifelse} def
/MFwidth {0 exch { dup 5 get 3 ge { 5 get 3 eq { 0 } { pop } ifelse }
 {dup 3 get{dup dup 0 get findfont exch 1 get scalefont setfont
     6 get Gswidth pop add} {pop} ifelse} ifelse} forall} def
/MLshow { currentpoint stroke M
  0 exch R
  Blacktext {gsave 0 setgray MFshow grestore} {MFshow} ifelse } bind def
/MRshow { currentpoint stroke M
  exch dup MFwidth neg 3 -1 roll R
  Blacktext {gsave 0 setgray MFshow grestore} {MFshow} ifelse } bind def
/MCshow { currentpoint stroke M
  exch dup MFwidth -2 div 3 -1 roll R
  Blacktext {gsave 0 setgray MFshow grestore} {MFshow} ifelse } bind def
/XYsave    { [( ) 1 2 true false 3 ()] } bind def
/XYrestore { [( ) 1 2 true false 4 ()] } bind def
Level1 SuppressPDFMark or 
{} {
/SDict 10 dict def
systemdict /pdfmark known not {
  userdict /pdfmark systemdict /cleartomark get put
} if
SDict begin [
  /Title (nbrDist.eps)
  /Subject (gnuplot plot)
  /Creator (gnuplot 4.6 patchlevel 2)
  /Author (anju)
%  /Producer (gnuplot)
%  /Keywords ()
  /CreationDate (Thu Sep 19 11:26:10 2019)
  /DOCINFO pdfmark
end
} ifelse
end
%%EndProlog
%%Page: 1 1
gnudict begin
gsave
doclip
50 50 translate
0.050 0.050 scale
0 setgray
newpath
(Helvetica) findfont 160 scalefont setfont
BackgroundColor 0 lt 3 1 roll 0 lt exch 0 lt or or not {BackgroundColor C 1.000 0 0 7200.00 5040.00 BoxColFill} if
1.000 UL
LTb
LCb setrgbcolor
1072 512 M
63 0 V
5776 0 R
-63 0 V
stroke
976 512 M
[ [(Helvetica) 160.0 0.0 true true 0 ( 1)]
] -53.3 MRshow
1.000 UL
LTb
LCb setrgbcolor
1072 698 M
31 0 V
5808 0 R
-31 0 V
1072 945 M
31 0 V
5808 0 R
-31 0 V
1072 1071 M
31 0 V
5808 0 R
-31 0 V
-5808 60 R
63 0 V
5776 0 R
-63 0 V
stroke
976 1131 M
[ [(Helvetica) 160.0 0.0 true true 0 ( 10)]
] -53.3 MRshow
1.000 UL
LTb
LCb setrgbcolor
1072 1318 M
31 0 V
5808 0 R
-31 0 V
1072 1564 M
31 0 V
5808 0 R
-31 0 V
1072 1691 M
31 0 V
5808 0 R
-31 0 V
-5808 60 R
63 0 V
5776 0 R
-63 0 V
stroke
976 1751 M
[ [(Helvetica) 160.0 0.0 true true 0 ( 100)]
] -53.3 MRshow
1.000 UL
LTb
LCb setrgbcolor
1072 1937 M
31 0 V
5808 0 R
-31 0 V
1072 2183 M
31 0 V
5808 0 R
-31 0 V
1072 2310 M
31 0 V
5808 0 R
-31 0 V
-5808 60 R
63 0 V
5776 0 R
-63 0 V
stroke
976 2370 M
[ [(Helvetica) 160.0 0.0 true true 0 ( 1000)]
] -53.3 MRshow
1.000 UL
LTb
LCb setrgbcolor
1072 2556 M
31 0 V
5808 0 R
-31 0 V
1072 2803 M
31 0 V
5808 0 R
-31 0 V
1072 2929 M
31 0 V
5808 0 R
-31 0 V
-5808 60 R
63 0 V
5776 0 R
-63 0 V
stroke
976 2989 M
[ [(Helvetica) 160.0 0.0 true true 0 ( 10000)]
] -53.3 MRshow
1.000 UL
LTb
LCb setrgbcolor
1072 3176 M
31 0 V
5808 0 R
-31 0 V
1072 3422 M
31 0 V
5808 0 R
-31 0 V
1072 3548 M
31 0 V
5808 0 R
-31 0 V
-5808 60 R
63 0 V
5776 0 R
-63 0 V
stroke
976 3608 M
[ [(Helvetica) 160.0 0.0 true true 0 ( 100000)]
] -53.3 MRshow
1.000 UL
LTb
LCb setrgbcolor
1072 3795 M
31 0 V
5808 0 R
-31 0 V
1072 4041 M
31 0 V
5808 0 R
-31 0 V
1072 4168 M
31 0 V
5808 0 R
-31 0 V
-5808 60 R
63 0 V
5776 0 R
-63 0 V
stroke
976 4228 M
[ [(Helvetica) 160.0 0.0 true true 0 ( 1e+06)]
] -53.3 MRshow
1.000 UL
LTb
LCb setrgbcolor
1072 4414 M
31 0 V
5808 0 R
-31 0 V
1072 4661 M
31 0 V
5808 0 R
-31 0 V
1072 4787 M
31 0 V
5808 0 R
-31 0 V
-5808 60 R
63 0 V
5776 0 R
-63 0 V
stroke
976 4847 M
[ [(Helvetica) 160.0 0.0 true true 0 ( 1e+07)]
] -53.3 MRshow
1.000 UL
LTb
LCb setrgbcolor
1072 512 M
0 63 V
0 4272 R
0 -63 V
stroke
1072 352 M
[ [(Helvetica) 160.0 0.0 true true 0 ( 0)]
] -53.3 MCshow
1.000 UL
LTb
LCb setrgbcolor
1721 512 M
0 63 V
0 4272 R
0 -63 V
stroke
1721 352 M
[ [(Helvetica) 160.0 0.0 true true 0 ( 200)]
] -53.3 MCshow
1.000 UL
LTb
LCb setrgbcolor
2370 512 M
0 63 V
0 4272 R
0 -63 V
stroke
2370 352 M
[ [(Helvetica) 160.0 0.0 true true 0 ( 400)]
] -53.3 MCshow
1.000 UL
LTb
LCb setrgbcolor
3018 512 M
0 63 V
0 4272 R
0 -63 V
stroke
3018 352 M
[ [(Helvetica) 160.0 0.0 true true 0 ( 600)]
] -53.3 MCshow
1.000 UL
LTb
LCb setrgbcolor
3667 512 M
0 63 V
0 4272 R
0 -63 V
stroke
3667 352 M
[ [(Helvetica) 160.0 0.0 true true 0 ( 800)]
] -53.3 MCshow
1.000 UL
LTb
LCb setrgbcolor
4316 512 M
0 63 V
0 4272 R
0 -63 V
stroke
4316 352 M
[ [(Helvetica) 160.0 0.0 true true 0 ( 1000)]
] -53.3 MCshow
1.000 UL
LTb
LCb setrgbcolor
4965 512 M
0 63 V
0 4272 R
0 -63 V
stroke
4965 352 M
[ [(Helvetica) 160.0 0.0 true true 0 ( 1200)]
] -53.3 MCshow
1.000 UL
LTb
LCb setrgbcolor
5613 512 M
0 63 V
0 4272 R
0 -63 V
stroke
5613 352 M
[ [(Helvetica) 160.0 0.0 true true 0 ( 1400)]
] -53.3 MCshow
1.000 UL
LTb
LCb setrgbcolor
6262 512 M
0 63 V
0 4272 R
0 -63 V
stroke
6262 352 M
[ [(Helvetica) 160.0 0.0 true true 0 ( 1600)]
] -53.3 MCshow
1.000 UL
LTb
LCb setrgbcolor
6911 512 M
0 63 V
0 4272 R
0 -63 V
stroke
6911 352 M
[ [(Helvetica) 160.0 0.0 true true 0 ( 1800)]
] -53.3 MCshow
1.000 UL
LTb
LCb setrgbcolor
1.000 UL
LTb
LCb setrgbcolor
1072 4847 N
0 -4335 V
5839 0 V
0 4335 V
-5839 0 V
Z stroke
LCb setrgbcolor
128 2679 M
currentpoint gsave translate -270 rotate 0 0 moveto
[ [(Helvetica) 160.0 0.0 true true 0 (Number of points with each degree)]
] -53.3 MCshow
grestore
LTb
LCb setrgbcolor
3991 112 M
[ [(Helvetica) 160.0 0.0 true true 0 (Degree)]
] -53.3 MCshow
LTb
1.000 UP
1.000 UL
LTb
LCb setrgbcolor
% Begin plot #1
0.200 UP
2.000 UL
LT0
0.00 0.38 0.68 C 1072 4585 M
3 -16 V
3 -38 V
4 -45 V
3 -48 V
3 -53 V
3 -54 V
4 -57 V
3 -58 V
3 -57 V
3 -57 V
4 -53 V
3 -54 V
3 -51 V
3 -48 V
4 -46 V
3 -43 V
3 -40 V
3 -36 V
4 -34 V
3 -33 V
3 -30 V
3 -26 V
4 -28 V
3 -26 V
3 -24 V
3 -13 V
4 -21 V
3 -19 V
3 -17 V
3 -18 V
4 -17 V
3 -13 V
3 -14 V
3 -11 V
4 -11 V
3 -14 V
3 -11 V
3 -8 V
4 -12 V
3 -9 V
3 -12 V
3 -9 V
3 -7 V
4 -10 V
3 -12 V
3 -6 V
3 -9 V
4 -8 V
3 -6 V
3 -8 V
3 -6 V
4 -2 V
3 -8 V
3 -4 V
3 -11 V
4 1 V
3 -10 V
3 -4 V
3 -4 V
4 -5 V
3 -7 V
3 -4 V
3 -5 V
4 0 V
3 -6 V
3 0 V
3 -9 V
4 -7 V
3 2 V
3 -3 V
3 -3 V
4 0 V
3 -5 V
3 2 V
3 -6 V
4 4 V
3 -5 V
3 3 V
3 -11 V
4 7 V
3 2 V
3 -8 V
3 -5 V
3 0 V
4 0 V
3 6 V
3 -1 V
3 -3 V
4 1 V
3 -3 V
3 1 V
3 -1 V
4 -2 V
3 2 V
3 5 V
3 1 V
4 -4 V
3 0 V
3 -3 V
3 1 V
4 -1 V
3 5 V
3 -4 V
3 -2 V
stroke 1409 3116 M
4 8 V
3 0 V
3 -1 V
3 -4 V
4 6 V
3 -1 V
3 -1 V
3 1 V
4 4 V
3 -2 V
3 1 V
3 4 V
4 -3 V
3 4 V
3 2 V
3 -5 V
4 7 V
3 1 V
3 0 V
3 4 V
3 -7 V
4 3 V
3 -9 V
3 1 V
3 2 V
4 -3 V
3 4 V
3 -1 V
3 -1 V
4 0 V
3 -2 V
3 4 V
3 -5 V
4 -5 V
3 5 V
3 -8 V
3 10 V
4 -7 V
3 -1 V
3 1 V
3 -6 V
4 -1 V
3 7 V
3 -2 V
3 -2 V
4 -3 V
3 -1 V
3 2 V
3 2 V
4 -9 V
3 -5 V
3 -2 V
3 2 V
4 -2 V
3 -4 V
3 0 V
3 -7 V
4 4 V
3 -9 V
3 -4 V
3 1 V
3 -4 V
4 -7 V
3 3 V
3 -5 V
3 -4 V
4 -8 V
3 4 V
3 -5 V
3 -5 V
4 -3 V
3 4 V
3 -7 V
3 -6 V
4 -5 V
3 1 V
3 -10 V
3 0 V
4 -6 V
3 -8 V
3 0 V
3 -7 V
4 -8 V
3 2 V
3 -6 V
3 -10 V
4 9 V
3 -6 V
3 3 V
3 -14 V
4 -11 V
3 -7 V
3 3 V
3 -9 V
4 -9 V
3 3 V
3 -12 V
3 -4 V
4 -3 V
3 -5 V
3 -9 V
3 -2 V
3 -9 V
4 -5 V
stroke 1747 2896 M
3 -4 V
3 2 V
3 -16 V
4 3 V
3 -7 V
3 -5 V
3 -1 V
4 -2 V
3 -13 V
3 -12 V
3 5 V
4 -7 V
3 -4 V
3 -9 V
3 -7 V
4 -3 V
3 -14 V
3 6 V
3 0 V
4 -5 V
3 -10 V
3 -8 V
3 -5 V
4 -1 V
3 -5 V
3 -1 V
3 -10 V
4 -3 V
3 -5 V
3 -6 V
3 -8 V
4 5 V
3 -12 V
3 -8 V
3 7 V
4 -9 V
3 5 V
3 -4 V
3 -18 V
3 -6 V
4 -3 V
3 -11 V
3 -1 V
3 -1 V
4 -2 V
3 -4 V
3 4 V
3 -22 V
4 -1 V
3 1 V
3 5 V
3 -23 V
4 6 V
3 12 V
3 -33 V
3 8 V
4 -13 V
3 1 V
3 7 V
3 -1 V
4 -8 V
3 -23 V
3 6 V
3 -11 V
4 -10 V
3 12 V
3 -8 V
3 -11 V
4 12 V
3 3 V
3 -5 V
3 -10 V
4 -3 V
3 -11 V
3 -3 V
3 3 V
4 -4 V
3 3 V
3 -31 V
3 6 V
3 0 V
4 3 V
3 -24 V
3 10 V
3 -23 V
4 13 V
3 1 V
3 -12 V
3 6 V
4 -5 V
3 12 V
3 -4 V
3 -4 V
4 -7 V
3 2 V
3 -8 V
3 16 V
4 -23 V
3 3 V
3 -19 V
3 21 V
4 -14 V
3 0 V
3 -10 V
stroke 2084 2471 M
3 -18 V
4 -19 V
3 5 V
3 3 V
3 -4 V
4 3 V
3 -6 V
3 11 V
3 1 V
4 -21 V
3 -4 V
3 12 V
3 -38 V
4 16 V
3 6 V
3 18 V
3 9 V
3 -20 V
4 -3 V
3 3 V
3 -12 V
3 -9 V
4 9 V
3 3 V
3 -12 V
3 -10 V
4 17 V
3 -12 V
3 -11 V
3 22 V
4 -8 V
3 1 V
3 -7 V
3 7 V
4 -10 V
3 -11 V
3 33 V
3 -18 V
4 12 V
3 -12 V
3 -10 V
3 -1 V
4 6 V
3 -13 V
3 -2 V
3 16 V
4 5 V
3 -18 V
3 9 V
3 -18 V
4 -4 V
3 -11 V
3 19 V
3 -8 V
4 12 V
3 -16 V
3 -15 V
3 8 V
3 -18 V
4 35 V
3 -13 V
3 -5 V
3 -13 V
4 3 V
3 0 V
3 -9 V
3 -16 V
4 19 V
3 -11 V
3 4 V
3 21 V
4 -2 V
3 -14 V
3 9 V
3 -3 V
4 -6 V
3 -19 V
3 3 V
3 2 V
4 14 V
3 -24 V
3 18 V
3 -17 V
4 -20 V
3 21 V
3 -8 V
3 -15 V
4 2 V
3 -8 V
3 27 V
3 -26 V
4 -19 V
3 -8 V
3 -9 V
3 31 V
4 3 V
3 -3 V
3 -14 V
3 -13 V
3 -13 V
4 2 V
3 37 V
3 -9 V
3 -32 V
stroke 2421 2240 M
4 50 V
3 -57 V
3 37 V
3 -8 V
4 16 V
3 -8 V
3 -5 V
3 8 V
4 -6 V
3 -22 V
3 17 V
3 -18 V
4 10 V
3 -6 V
3 -47 V
3 6 V
4 5 V
3 26 V
3 -11 V
3 -18 V
4 2 V
3 33 V
3 -42 V
3 6 V
4 21 V
3 -10 V
3 2 V
3 -2 V
4 14 V
3 -6 V
3 -13 V
3 -2 V
4 9 V
3 -1 V
3 -1 V
3 8 V
3 -13 V
4 7 V
3 0 V
3 -16 V
3 20 V
4 3 V
3 2 V
3 16 V
3 -49 V
4 8 V
3 -41 V
3 -12 V
3 23 V
4 -12 V
3 19 V
3 -51 V
3 8 V
4 18 V
3 6 V
3 -6 V
3 -34 V
4 25 V
3 2 V
3 40 V
3 -7 V
4 3 V
3 -16 V
3 -16 V
3 -8 V
4 0 V
3 -3 V
3 41 V
3 108 V
4 -188 V
3 6 V
3 0 V
3 -9 V
4 6 V
3 -16 V
3 -45 V
3 17 V
3 -8 V
4 1 V
3 23 V
3 -25 V
3 -2 V
4 11 V
3 -24 V
3 4 V
3 2 V
4 12 V
3 11 V
3 0 V
3 -29 V
4 1 V
3 -17 V
3 13 V
3 0 V
4 2 V
3 10 V
3 31 V
3 -34 V
4 5 V
3 8 V
3 -26 V
3 3 V
4 -23 V
3 17 V
stroke 2759 2029 M
3 2 V
3 28 V
4 -9 V
3 -8 V
3 -6 V
3 -7 V
4 20 V
3 -59 V
3 14 V
3 16 V
4 23 V
3 -44 V
3 8 V
3 17 V
3 -34 V
4 37 V
3 -7 V
3 26 V
3 -26 V
4 -33 V
3 3 V
3 8 V
3 10 V
4 5 V
3 -41 V
3 -22 V
3 -14 V
4 19 V
3 21 V
3 -30 V
3 -10 V
4 44 V
3 -10 V
3 -50 V
3 46 V
4 7 V
3 -83 V
3 -13 V
3 60 V
4 -15 V
3 7 V
3 22 V
3 -11 V
4 -17 V
3 -8 V
3 23 V
3 -11 V
4 44 V
3 -45 V
3 15 V
3 47 V
4 -43 V
3 -12 V
3 -1 V
3 6 V
3 18 V
4 4 V
3 -41 V
3 27 V
3 -23 V
4 27 V
3 -16 V
3 -27 V
3 -4 V
4 31 V
3 -24 V
3 -7 V
3 -3 V
4 19 V
3 22 V
3 13 V
3 -38 V
4 40 V
3 -30 V
3 0 V
3 -7 V
4 39 V
3 -20 V
3 11 V
3 20 V
4 -54 V
3 29 V
3 31 V
3 10 V
4 -60 V
3 -45 V
3 8 V
3 16 V
4 -11 V
3 32 V
3 -21 V
3 -14 V
4 -25 V
3 22 V
3 -15 V
3 8 V
3 30 V
4 -3 V
3 -58 V
3 -18 V
3 -23 V
4 13 V
3 2 V
3 12 V
stroke 3096 1835 M
3 30 V
4 25 V
3 -32 V
3 21 V
3 -11 V
4 33 V
3 -93 V
3 87 V
3 -64 V
4 -10 V
3 0 V
3 26 V
3 16 V
4 -20 V
3 20 V
3 -77 V
3 74 V
4 -60 V
3 -10 V
3 -34 V
3 41 V
4 -4 V
3 -19 V
3 30 V
3 94 V
4 -18 V
3 -33 V
3 38 V
3 -24 V
4 -40 V
3 37 V
3 -77 V
3 -7 V
3 21 V
4 -24 V
3 35 V
3 -32 V
3 45 V
4 14 V
3 -16 V
3 57 V
3 -59 V
4 4 V
3 -58 V
3 34 V
3 38 V
4 -47 V
3 27 V
3 48 V
3 37 V
4 -137 V
3 -13 V
3 21 V
3 7 V
4 -34 V
3 37 V
3 27 V
3 -6 V
4 -3 V
3 0 V
3 -36 V
3 -8 V
4 -34 V
3 55 V
3 9 V
3 -55 V
4 -41 V
3 55 V
3 60 V
3 -51 V
4 -60 V
3 -11 V
3 30 V
3 -16 V
3 -39 V
4 64 V
3 -6 V
3 46 V
3 -89 V
4 3 V
3 31 V
3 21 V
3 20 V
4 -5 V
3 11 V
3 -47 V
3 21 V
4 -28 V
3 59 V
3 -5 V
3 37 V
4 -22 V
3 -26 V
3 -30 V
3 35 V
4 84 V
3 -87 V
3 -23 V
3 23 V
4 -32 V
3 15 V
3 54 V
3 -88 V
4 57 V
stroke 3434 1748 M
3 -20 V
3 -24 V
3 -4 V
4 -9 V
3 6 V
3 -20 V
3 45 V
4 -91 V
3 111 V
3 -51 V
3 31 V
3 -113 V
4 30 V
3 80 V
3 -72 V
3 78 V
4 -45 V
3 -10 V
3 0 V
3 37 V
4 30 V
3 -67 V
3 -35 V
3 -4 V
4 -36 V
3 31 V
3 51 V
3 -46 V
4 -89 V
3 97 V
3 -4 V
3 0 V
4 62 V
3 -144 V
3 65 V
3 -9 V
4 53 V
3 -114 V
3 65 V
3 49 V
4 18 V
3 84 V
3 -60 V
3 44 V
4 -117 V
3 85 V
3 -6 V
3 98 V
4 -86 V
3 -123 V
3 -40 V
3 -35 V
3 -41 V
4 34 V
3 87 V
3 -128 V
3 88 V
4 -60 V
3 20 V
3 29 V
3 -5 V
4 99 V
3 -111 V
3 63 V
3 -19 V
4 5 V
3 28 V
3 -38 V
3 72 V
4 -111 V
3 -32 V
3 20 V
3 45 V
4 -10 V
3 5 V
3 -11 V
3 -63 V
4 85 V
3 -92 V
3 70 V
3 0 V
4 42 V
3 -31 V
3 -28 V
3 6 V
4 -31 V
3 25 V
3 17 V
3 0 V
4 -49 V
3 38 V
3 84 V
3 21 V
3 -21 V
4 -4 V
3 17 V
3 -64 V
3 -22 V
4 65 V
3 -121 V
3 67 V
3 58 V
4 -53 V
3 -16 V
stroke 3771 1553 M
3 -42 V
3 111 V
4 -27 V
3 4 V
3 -82 V
3 96 V
4 5 V
3 29 V
3 -94 V
3 56 V
4 -50 V
3 21 V
3 5 V
3 -37 V
4 0 V
3 -44 V
3 -28 V
3 -24 V
4 -44 V
3 75 V
3 -65 V
3 106 V
4 -7 V
3 -213 V
3 27 V
3 113 V
4 32 V
3 -16 V
3 0 V
3 93 V
3 -145 V
4 10 V
3 -51 V
3 -63 V
3 39 V
4 24 V
3 -24 V
3 35 V
3 -89 V
4 99 V
3 -21 V
3 -109 V
3 16 V
4 57 V
3 -42 V
3 -132 V
3 117 V
4 15 V
3 89 V
3 -198 V
3 -77 V
4 201 V
3 -233 V
3 151 V
3 36 V
4 169 V
3 -84 V
3 24 V
3 -93 V
4 -16 V
3 0 V
3 -78 V
3 163 V
4 -141 V
3 196 V
3 -67 V
3 -91 V
4 -18 V
3 -20 V
3 -22 V
3 42 V
3 0 V
4 36 V
3 46 V
3 -82 V
3 52 V
4 -34 V
3 -205 V
3 68 V
3 28 V
4 305 V
3 32 V
3 56 V
3 -193 V
4 67 V
3 10 V
3 52 V
3 -72 V
4 -99 V
3 -15 V
3 0 V
3 -34 V
4 -18 V
3 67 V
3 -87 V
3 -22 V
4 22 V
3 0 V
3 -45 V
3 -86 V
4 169 V
3 -83 V
3 -122 V
3 -337 V
stroke 4108 698 M
4 337 V
3 68 V
3 -218 V
3 -78 V
3 264 V
4 0 V
3 0 V
3 109 V
3 -109 V
4 -264 V
3 228 V
3 36 V
3 -36 V
4 -90 V
3 -247 V
3 187 V
3 0 V
4 0 V
3 -187 V
3 373 V
3 -126 V
4 -60 V
3 -187 V
3 109 V
3 0 V
4 78 V
3 -187 V
3 0 V
3 187 V
4 60 V
3 49 V
3 -49 V
3 49 V
4 -187 V
3 138 V
3 49 V
3 41 V
4 36 V
3 -77 V
3 77 V
3 -77 V
4 41 V
3 36 V
3 -77 V
3 41 V
3 -41 V
4 -49 V
3 126 V
3 0 V
3 86 V
4 -212 V
3 126 V
3 -77 V
3 41 V
4 -337 V
3 373 V
3 -36 V
3 -90 V
4 186 V
3 -28 V
3 0 V
3 -218 V
4 60 V
3 90 V
3 0 V
3 -41 V
4 0 V
3 137 V
3 -246 V
3 246 V
4 49 V
3 -145 V
3 145 V
3 22 V
4 -45 V
3 83 V
3 -109 V
3 26 V
4 161 V
3 -60 V
3 140 V
3 -10 V
4 10 V
3 -267 V
3 91 V
3 18 V
3 34 V
4 -16 V
3 -56 V
3 141 V
3 0 V
4 45 V
3 116 V
3 -246 V
3 150 V
4 -104 V
3 74 V
3 66 V
3 -155 V
4 54 V
3 -212 V
3 71 V
3 -99 V
4 99 V
stroke 4446 1202 M
3 -45 V
3 -122 V
3 0 V
4 223 V
3 -56 V
3 -45 V
3 -54 V
4 -32 V
3 32 V
3 -158 V
3 212 V
4 -163 V
3 109 V
3 28 V
3 -96 V
4 223 V
3 -56 V
3 -131 V
3 -36 V
4 122 V
3 45 V
3 -71 V
3 -137 V
3 41 V
4 187 V
3 -65 V
3 -163 V
3 -296 V
4 187 V
3 -187 V
3 373 V
3 -126 V
4 -433 V
3 482 V
3 -187 V
3 187 V
4 137 V
3 -60 V
3 -36 V
3 0 V
4 -41 V
3 -49 V
3 212 V
3 -350 V
4 78 V
3 0 V
3 -78 V
3 138 V
4 -138 V
3 138 V
3 90 V
3 -41 V
4 0 V
3 109 V
3 -68 V
3 -90 V
4 235 V
3 -23 V
3 -86 V
3 -36 V
4 96 V
3 49 V
3 -49 V
3 49 V
3 94 V
4 -52 V
3 -65 V
3 65 V
3 -65 V
4 65 V
3 -65 V
3 23 V
3 42 V
4 18 V
3 -355 V
3 272 V
3 45 V
4 -208 V
3 137 V
3 -28 V
3 -32 V
4 -126 V
3 -60 V
3 218 V
3 -591 V
4 373 V
3 60 V
3 -60 V
3 60 V
4 -60 V
3 0 V
3 -78 V
3 228 V
4 -41 V
3 0 V
3 0 V
3 41 V
4 -523 V
3 482 V
3 -109 V
3 -78 V
4 187 V
3 -482 V
3 295 V
stroke 4783 807 M
3 138 V
3 -138 V
4 -109 V
3 187 V
3 -78 V
3 228 V
4 -228 V
3 138 V
3 0 V
3 0 V
4 235 V
3 -373 V
3 0 V
3 350 V
4 -86 V
3 -186 V
3 150 V
3 -41 V
4 -49 V
3 0 V
3 0 V
3 -247 V
4 -186 V
3 295 V
3 0 V
3 78 V
7 0 V
3 109 V
3 -109 V
4 -78 V
3 -109 V
3 -186 V
3 0 V
4 482 V
3 41 V
3 -523 V
3 295 V
4 187 V
3 109 V
3 -405 V
3 296 V
3 -49 V
4 90 V
3 -41 V
3 -49 V
3 158 V
4 -32 V
3 -559 V
3 433 V
3 49 V
4 41 V
3 -228 V
3 -109 V
3 187 V
4 60 V
3 -138 V
3 228 V
3 -150 V
4 109 V
3 41 V
3 -41 V
3 41 V
4 -228 V
3 138 V
3 90 V
3 36 V
4 -126 V
3 126 V
3 -264 V
3 264 V
4 -77 V
3 137 V
3 -28 V
3 -218 V
4 109 V
3 41 V
3 96 V
3 26 V
4 -122 V
3 167 V
3 -99 V
3 119 V
3 36 V
4 -101 V
3 83 V
3 -38 V
3 -22 V
4 22 V
3 72 V
3 -94 V
3 60 V
4 -169 V
3 151 V
3 -119 V
3 155 V
4 -101 V
3 23 V
3 22 V
3 -131 V
4 -36 V
3 205 V
3 -60 V
3 42 V
4 82 V
stroke 5124 1304 M
3 -46 V
3 46 V
3 0 V
4 -147 V
3 45 V
3 -167 V
3 -90 V
4 277 V
3 67 V
3 -109 V
3 -109 V
4 -36 V
3 205 V
3 -433 V
3 228 V
4 223 V
3 -56 V
3 -45 V
3 23 V
3 -49 V
4 -60 V
3 32 V
3 28 V
3 -186 V
4 295 V
3 -295 V
3 -60 V
3 60 V
4 49 V
3 -187 V
3 296 V
3 -68 V
4 96 V
3 -246 V
3 355 V
3 -295 V
4 90 V
3 68 V
3 77 V
3 -295 V
4 60 V
3 158 V
3 0 V
3 -68 V
4 187 V
3 -337 V
3 60 V
3 49 V
4 77 V
3 0 V
3 60 V
3 -60 V
4 86 V
3 0 V
3 -54 V
3 -158 V
4 212 V
3 101 V
3 46 V
3 -30 V
3 44 V
4 80 V
3 -67 V
3 24 V
3 -133 V
4 36 V
3 -78 V
3 -49 V
3 -96 V
4 68 V
3 77 V
3 -186 V
3 -49 V
4 -60 V
3 218 V
3 -405 V
3 187 V
4 -187 V
3 296 V
3 41 V
3 -150 V
4 150 V
3 -228 V
3 264 V
3 -126 V
4 -138 V
3 78 V
3 -187 V
3 247 V
4 -247 V
3 296 V
3 -296 V
3 187 V
4 186 V
3 -77 V
3 0 V
3 -109 V
4 -187 V
3 247 V
3 0 V
3 0 V
3 0 V
4 126 V
3 32 V
stroke 5461 1103 M
3 -218 V
7 186 V
3 0 V
3 -126 V
3 0 V
4 -138 V
3 78 V
3 109 V
3 -187 V
4 -109 V
3 109 V
3 -109 V
3 0 V
4 109 V
3 78 V
3 109 V
3 -109 V
4 -373 V
3 373 V
6 -187 V
4 -186 V
3 0 V
3 373 V
3 -187 V
4 -186 V
3 186 V
3 -186 V
3 186 V
4 0 V
3 0 V
3 109 V
3 0 V
7 -109 V
3 0 V
3 -186 V
7 295 V
6 78 V
3 0 V
4 -78 V
3 -295 V
3 186 V
3 296 V
10 -296 V
3 109 V
4 -295 V
3 0 V
3 295 V
3 -295 V
4 295 V
3 -109 V
3 0 V
3 0 V
4 -186 V
3 0 V
3 0 V
3 186 V
4 -186 V
3 0 V
10 0 V
3 295 V
3 187 V
3 -482 V
7 0 V
6 186 V
4 -186 V
6 186 V
6 0 V
4 0 V
3 0 V
3 187 V
3 -373 V
4 523 V
3 -523 V
3 0 V
7 373 V
3 -373 V
3 0 V
3 295 V
4 0 V
3 78 V
3 218 V
3 -405 V
4 109 V
3 78 V
3 -78 V
3 187 V
4 -49 V
3 -247 V
3 187 V
3 0 V
4 -187 V
3 296 V
3 -296 V
3 247 V
4 -247 V
3 109 V
3 78 V
10 -78 V
3 -109 V
3 -186 V
4 0 V
3 0 V
3 433 V
3 -433 V
stroke 5850 512 M
3 295 V
4 -109 V
3 0 V
3 337 V
3 -228 V
4 -295 V
3 186 V
3 187 V
3 0 V
4 -373 V
3 433 V
3 -247 V
3 -186 V
4 295 V
6 78 V
7 -187 V
3 187 V
3 -187 V
3 247 V
4 -138 V
6 -295 V
3 186 V
4 -186 V
3 373 V
6 -373 V
4 295 V
3 -295 V
6 186 V
7 -186 V
3 0 V
10 0 V
3 373 V
3 -78 V
7 -295 V
3 0 V
3 373 V
3 -187 V
4 296 V
3 -482 V
3 186 V
3 187 V
4 -187 V
3 -186 V
3 295 V
3 -295 V
7 295 V
3 -295 V
7 186 V
3 -186 V
3 0 V
3 0 V
7 295 V
6 -109 V
7 -186 V
3 186 V
7 0 V
3 187 V
3 109 V
3 -296 V
4 0 V
6 -186 V
3 0 V
4 186 V
3 -186 V
6 0 V
7 186 V
6 0 V
3 -186 V
4 0 V
6 186 V
20 -186 V
3 0 V
3 0 V
3 186 V
4 0 V
6 -186 V
3 0 V
4 0 V
3 0 V
3 0 V
16 0 V
4 0 V
3 186 V
3 -186 V
7 186 V
19 -186 V
6 0 V
7 0 V
3 0 V
7 0 V
6 0 V
3 186 V
7 -186 V
10 0 V
13 0 V
3 186 V
32 0 V
7 -186 V
3 0 V
10 0 V
13 0 V
6 186 V
3 -186 V
4 0 V
stroke 6389 512 M
3 0 V
3 0 V
3 186 V
13 0 V
7 -186 V
16 0 V
3 0 V
7 295 V
6 -295 V
4 186 V
6 0 V
16 -186 V
4 0 V
3 0 V
16 0 V
10 0 V
16 0 V
10 0 V
35 186 V
4 -186 V
6 0 V
3 186 V
17 -186 V
6 0 V
7 0 V
3 186 V
3 -186 V
49 186 V
3 -186 V
10 0 V
9 0 V
4 0 V
3 0 V
3 0 V
7 0 V
3 0 V
6 0 V
4 0 V
3 0 V
3 0 V
3 186 V
4 0 V
3 -186 V
3 373 V
3 -373 V
4 433 V
3 -60 V
3 -78 V
3 -295 V
4 433 V
3 -138 V
3 -295 V
3 0 V
4 186 V
3 -186 V
3 186 V
3 -186 V
3 186 V
4 -186 V
9 0 V
10 0 V
3 0 V
7 186 V
3 -186 V
7 0 V
3 186 V
3 -186 V
3 295 V
4 0 V
3 -109 V
3 187 V
3 -187 V
4 0 V
3 109 V
3 -295 V
3 373 V
4 -78 V
6 -109 V
3 0 V
4 -186 V
3 186 V
3 -186 V
3 0 V
10 0 V
3 0 V
1072 4585 CircleF
1075 4569 CircleF
1078 4531 CircleF
1082 4486 CircleF
1085 4438 CircleF
1088 4385 CircleF
1091 4331 CircleF
1095 4274 CircleF
1098 4216 CircleF
1101 4159 CircleF
1104 4102 CircleF
1108 4049 CircleF
1111 3995 CircleF
1114 3944 CircleF
1117 3896 CircleF
1121 3850 CircleF
1124 3807 CircleF
1127 3767 CircleF
1130 3731 CircleF
1134 3697 CircleF
1137 3664 CircleF
1140 3634 CircleF
1143 3608 CircleF
1147 3580 CircleF
1150 3554 CircleF
1153 3530 CircleF
1156 3517 CircleF
1160 3496 CircleF
1163 3477 CircleF
1166 3460 CircleF
1169 3442 CircleF
1173 3425 CircleF
1176 3412 CircleF
1179 3398 CircleF
1182 3387 CircleF
1186 3376 CircleF
1189 3362 CircleF
1192 3351 CircleF
1195 3343 CircleF
1199 3331 CircleF
1202 3322 CircleF
1205 3310 CircleF
1208 3301 CircleF
1211 3294 CircleF
1215 3284 CircleF
1218 3272 CircleF
1221 3266 CircleF
1224 3257 CircleF
1228 3249 CircleF
1231 3243 CircleF
1234 3235 CircleF
1237 3229 CircleF
1241 3227 CircleF
1244 3219 CircleF
1247 3215 CircleF
1250 3204 CircleF
1254 3205 CircleF
1257 3195 CircleF
1260 3191 CircleF
1263 3187 CircleF
1267 3182 CircleF
1270 3175 CircleF
1273 3171 CircleF
1276 3166 CircleF
1280 3166 CircleF
1283 3160 CircleF
1286 3160 CircleF
1289 3151 CircleF
1293 3144 CircleF
1296 3146 CircleF
1299 3143 CircleF
1302 3140 CircleF
1306 3140 CircleF
1309 3135 CircleF
1312 3137 CircleF
1315 3131 CircleF
1319 3135 CircleF
1322 3130 CircleF
1325 3133 CircleF
1328 3122 CircleF
1332 3129 CircleF
1335 3131 CircleF
1338 3123 CircleF
1341 3118 CircleF
1344 3118 CircleF
1348 3118 CircleF
1351 3124 CircleF
1354 3123 CircleF
1357 3120 CircleF
1361 3121 CircleF
1364 3118 CircleF
1367 3119 CircleF
1370 3118 CircleF
1374 3116 CircleF
1377 3118 CircleF
1380 3123 CircleF
1383 3124 CircleF
1387 3120 CircleF
1390 3120 CircleF
1393 3117 CircleF
1396 3118 CircleF
1400 3117 CircleF
1403 3122 CircleF
1406 3118 CircleF
1409 3116 CircleF
1413 3124 CircleF
1416 3124 CircleF
1419 3123 CircleF
1422 3119 CircleF
1426 3125 CircleF
1429 3124 CircleF
1432 3123 CircleF
1435 3124 CircleF
1439 3128 CircleF
1442 3126 CircleF
1445 3127 CircleF
1448 3131 CircleF
1452 3128 CircleF
1455 3132 CircleF
1458 3134 CircleF
1461 3129 CircleF
1465 3136 CircleF
1468 3137 CircleF
1471 3137 CircleF
1474 3141 CircleF
1477 3134 CircleF
1481 3137 CircleF
1484 3128 CircleF
1487 3129 CircleF
1490 3131 CircleF
1494 3128 CircleF
1497 3132 CircleF
1500 3131 CircleF
1503 3130 CircleF
1507 3130 CircleF
1510 3128 CircleF
1513 3132 CircleF
1516 3127 CircleF
1520 3122 CircleF
1523 3127 CircleF
1526 3119 CircleF
1529 3129 CircleF
1533 3122 CircleF
1536 3121 CircleF
1539 3122 CircleF
1542 3116 CircleF
1546 3115 CircleF
1549 3122 CircleF
1552 3120 CircleF
1555 3118 CircleF
1559 3115 CircleF
1562 3114 CircleF
1565 3116 CircleF
1568 3118 CircleF
1572 3109 CircleF
1575 3104 CircleF
1578 3102 CircleF
1581 3104 CircleF
1585 3102 CircleF
1588 3098 CircleF
1591 3098 CircleF
1594 3091 CircleF
1598 3095 CircleF
1601 3086 CircleF
1604 3082 CircleF
1607 3083 CircleF
1610 3079 CircleF
1614 3072 CircleF
1617 3075 CircleF
1620 3070 CircleF
1623 3066 CircleF
1627 3058 CircleF
1630 3062 CircleF
1633 3057 CircleF
1636 3052 CircleF
1640 3049 CircleF
1643 3053 CircleF
1646 3046 CircleF
1649 3040 CircleF
1653 3035 CircleF
1656 3036 CircleF
1659 3026 CircleF
1662 3026 CircleF
1666 3020 CircleF
1669 3012 CircleF
1672 3012 CircleF
1675 3005 CircleF
1679 2997 CircleF
1682 2999 CircleF
1685 2993 CircleF
1688 2983 CircleF
1692 2992 CircleF
1695 2986 CircleF
1698 2989 CircleF
1701 2975 CircleF
1705 2964 CircleF
1708 2957 CircleF
1711 2960 CircleF
1714 2951 CircleF
1718 2942 CircleF
1721 2945 CircleF
1724 2933 CircleF
1727 2929 CircleF
1731 2926 CircleF
1734 2921 CircleF
1737 2912 CircleF
1740 2910 CircleF
1743 2901 CircleF
1747 2896 CircleF
1750 2892 CircleF
1753 2894 CircleF
1756 2878 CircleF
1760 2881 CircleF
1763 2874 CircleF
1766 2869 CircleF
1769 2868 CircleF
1773 2866 CircleF
1776 2853 CircleF
1779 2841 CircleF
1782 2846 CircleF
1786 2839 CircleF
1789 2835 CircleF
1792 2826 CircleF
1795 2819 CircleF
1799 2816 CircleF
1802 2802 CircleF
1805 2808 CircleF
1808 2808 CircleF
1812 2803 CircleF
1815 2793 CircleF
1818 2785 CircleF
1821 2780 CircleF
1825 2779 CircleF
1828 2774 CircleF
1831 2773 CircleF
1834 2763 CircleF
1838 2760 CircleF
1841 2755 CircleF
1844 2749 CircleF
1847 2741 CircleF
1851 2746 CircleF
1854 2734 CircleF
1857 2726 CircleF
1860 2733 CircleF
1864 2724 CircleF
1867 2729 CircleF
1870 2725 CircleF
1873 2707 CircleF
1876 2701 CircleF
1880 2698 CircleF
1883 2687 CircleF
1886 2686 CircleF
1889 2685 CircleF
1893 2683 CircleF
1896 2679 CircleF
1899 2683 CircleF
1902 2661 CircleF
1906 2660 CircleF
1909 2661 CircleF
1912 2666 CircleF
1915 2643 CircleF
1919 2649 CircleF
1922 2661 CircleF
1925 2628 CircleF
1928 2636 CircleF
1932 2623 CircleF
1935 2624 CircleF
1938 2631 CircleF
1941 2630 CircleF
1945 2622 CircleF
1948 2599 CircleF
1951 2605 CircleF
1954 2594 CircleF
1958 2584 CircleF
1961 2596 CircleF
1964 2588 CircleF
1967 2577 CircleF
1971 2589 CircleF
1974 2592 CircleF
1977 2587 CircleF
1980 2577 CircleF
1984 2574 CircleF
1987 2563 CircleF
1990 2560 CircleF
1993 2563 CircleF
1997 2559 CircleF
2000 2562 CircleF
2003 2531 CircleF
2006 2537 CircleF
2009 2537 CircleF
2013 2540 CircleF
2016 2516 CircleF
2019 2526 CircleF
2022 2503 CircleF
2026 2516 CircleF
2029 2517 CircleF
2032 2505 CircleF
2035 2511 CircleF
2039 2506 CircleF
2042 2518 CircleF
2045 2514 CircleF
2048 2510 CircleF
2052 2503 CircleF
2055 2505 CircleF
2058 2497 CircleF
2061 2513 CircleF
2065 2490 CircleF
2068 2493 CircleF
2071 2474 CircleF
2074 2495 CircleF
2078 2481 CircleF
2081 2481 CircleF
2084 2471 CircleF
2087 2453 CircleF
2091 2434 CircleF
2094 2439 CircleF
2097 2442 CircleF
2100 2438 CircleF
2104 2441 CircleF
2107 2435 CircleF
2110 2446 CircleF
2113 2447 CircleF
2117 2426 CircleF
2120 2422 CircleF
2123 2434 CircleF
2126 2396 CircleF
2130 2412 CircleF
2133 2418 CircleF
2136 2436 CircleF
2139 2445 CircleF
2142 2425 CircleF
2146 2422 CircleF
2149 2425 CircleF
2152 2413 CircleF
2155 2404 CircleF
2159 2413 CircleF
2162 2416 CircleF
2165 2404 CircleF
2168 2394 CircleF
2172 2411 CircleF
2175 2399 CircleF
2178 2388 CircleF
2181 2410 CircleF
2185 2402 CircleF
2188 2403 CircleF
2191 2396 CircleF
2194 2403 CircleF
2198 2393 CircleF
2201 2382 CircleF
2204 2415 CircleF
2207 2397 CircleF
2211 2409 CircleF
2214 2397 CircleF
2217 2387 CircleF
2220 2386 CircleF
2224 2392 CircleF
2227 2379 CircleF
2230 2377 CircleF
2233 2393 CircleF
2237 2398 CircleF
2240 2380 CircleF
2243 2389 CircleF
2246 2371 CircleF
2250 2367 CircleF
2253 2356 CircleF
2256 2375 CircleF
2259 2367 CircleF
2263 2379 CircleF
2266 2363 CircleF
2269 2348 CircleF
2272 2356 CircleF
2275 2338 CircleF
2279 2373 CircleF
2282 2360 CircleF
2285 2355 CircleF
2288 2342 CircleF
2292 2345 CircleF
2295 2345 CircleF
2298 2336 CircleF
2301 2320 CircleF
2305 2339 CircleF
2308 2328 CircleF
2311 2332 CircleF
2314 2353 CircleF
2318 2351 CircleF
2321 2337 CircleF
2324 2346 CircleF
2327 2343 CircleF
2331 2337 CircleF
2334 2318 CircleF
2337 2321 CircleF
2340 2323 CircleF
2344 2337 CircleF
2347 2313 CircleF
2350 2331 CircleF
2353 2314 CircleF
2357 2294 CircleF
2360 2315 CircleF
2363 2307 CircleF
2366 2292 CircleF
2370 2294 CircleF
2373 2286 CircleF
2376 2313 CircleF
2379 2287 CircleF
2383 2268 CircleF
2386 2260 CircleF
2389 2251 CircleF
2392 2282 CircleF
2396 2285 CircleF
2399 2282 CircleF
2402 2268 CircleF
2405 2255 CircleF
2408 2242 CircleF
2412 2244 CircleF
2415 2281 CircleF
2418 2272 CircleF
2421 2240 CircleF
2425 2290 CircleF
2428 2233 CircleF
2431 2270 CircleF
2434 2262 CircleF
2438 2278 CircleF
2441 2270 CircleF
2444 2265 CircleF
2447 2273 CircleF
2451 2267 CircleF
2454 2245 CircleF
2457 2262 CircleF
2460 2244 CircleF
2464 2254 CircleF
2467 2248 CircleF
2470 2201 CircleF
2473 2207 CircleF
2477 2212 CircleF
2480 2238 CircleF
2483 2227 CircleF
2486 2209 CircleF
2490 2211 CircleF
2493 2244 CircleF
2496 2202 CircleF
2499 2208 CircleF
2503 2229 CircleF
2506 2219 CircleF
2509 2221 CircleF
2512 2219 CircleF
2516 2233 CircleF
2519 2227 CircleF
2522 2214 CircleF
2525 2212 CircleF
2529 2221 CircleF
2532 2220 CircleF
2535 2219 CircleF
2538 2227 CircleF
2541 2214 CircleF
2545 2221 CircleF
2548 2221 CircleF
2551 2205 CircleF
2554 2225 CircleF
2558 2228 CircleF
2561 2230 CircleF
2564 2246 CircleF
2567 2197 CircleF
2571 2205 CircleF
2574 2164 CircleF
2577 2152 CircleF
2580 2175 CircleF
2584 2163 CircleF
2587 2182 CircleF
2590 2131 CircleF
2593 2139 CircleF
2597 2157 CircleF
2600 2163 CircleF
2603 2157 CircleF
2606 2123 CircleF
2610 2148 CircleF
2613 2150 CircleF
2616 2190 CircleF
2619 2183 CircleF
2623 2186 CircleF
2626 2170 CircleF
2629 2154 CircleF
2632 2146 CircleF
2636 2146 CircleF
2639 2143 CircleF
2642 2184 CircleF
2645 2292 CircleF
2649 2104 CircleF
2652 2110 CircleF
2655 2110 CircleF
2658 2101 CircleF
2662 2107 CircleF
2665 2091 CircleF
2668 2046 CircleF
2671 2063 CircleF
2674 2055 CircleF
2678 2056 CircleF
2681 2079 CircleF
2684 2054 CircleF
2687 2052 CircleF
2691 2063 CircleF
2694 2039 CircleF
2697 2043 CircleF
2700 2045 CircleF
2704 2057 CircleF
2707 2068 CircleF
2710 2068 CircleF
2713 2039 CircleF
2717 2040 CircleF
2720 2023 CircleF
2723 2036 CircleF
2726 2036 CircleF
2730 2038 CircleF
2733 2048 CircleF
2736 2079 CircleF
2739 2045 CircleF
2743 2050 CircleF
2746 2058 CircleF
2749 2032 CircleF
2752 2035 CircleF
2756 2012 CircleF
2759 2029 CircleF
2762 2031 CircleF
2765 2059 CircleF
2769 2050 CircleF
2772 2042 CircleF
2775 2036 CircleF
2778 2029 CircleF
2782 2049 CircleF
2785 1990 CircleF
2788 2004 CircleF
2791 2020 CircleF
2795 2043 CircleF
2798 1999 CircleF
2801 2007 CircleF
2804 2024 CircleF
2807 1990 CircleF
2811 2027 CircleF
2814 2020 CircleF
2817 2046 CircleF
2820 2020 CircleF
2824 1987 CircleF
2827 1990 CircleF
2830 1998 CircleF
2833 2008 CircleF
2837 2013 CircleF
2840 1972 CircleF
2843 1950 CircleF
2846 1936 CircleF
2850 1955 CircleF
2853 1976 CircleF
2856 1946 CircleF
2859 1936 CircleF
2863 1980 CircleF
2866 1970 CircleF
2869 1920 CircleF
2872 1966 CircleF
2876 1973 CircleF
2879 1890 CircleF
2882 1877 CircleF
2885 1937 CircleF
2889 1922 CircleF
2892 1929 CircleF
2895 1951 CircleF
2898 1940 CircleF
2902 1923 CircleF
2905 1915 CircleF
2908 1938 CircleF
2911 1927 CircleF
2915 1971 CircleF
2918 1926 CircleF
2921 1941 CircleF
2924 1988 CircleF
2928 1945 CircleF
2931 1933 CircleF
2934 1932 CircleF
2937 1938 CircleF
2940 1956 CircleF
2944 1960 CircleF
2947 1919 CircleF
2950 1946 CircleF
2953 1923 CircleF
2957 1950 CircleF
2960 1934 CircleF
2963 1907 CircleF
2966 1903 CircleF
2970 1934 CircleF
2973 1910 CircleF
2976 1903 CircleF
2979 1900 CircleF
2983 1919 CircleF
2986 1941 CircleF
2989 1954 CircleF
2992 1916 CircleF
2996 1956 CircleF
2999 1926 CircleF
3002 1926 CircleF
3005 1919 CircleF
3009 1958 CircleF
3012 1938 CircleF
3015 1949 CircleF
3018 1969 CircleF
3022 1915 CircleF
3025 1944 CircleF
3028 1975 CircleF
3031 1985 CircleF
3035 1925 CircleF
3038 1880 CircleF
3041 1888 CircleF
3044 1904 CircleF
3048 1893 CircleF
3051 1925 CircleF
3054 1904 CircleF
3057 1890 CircleF
3061 1865 CircleF
3064 1887 CircleF
3067 1872 CircleF
3070 1880 CircleF
3073 1910 CircleF
3077 1907 CircleF
3080 1849 CircleF
3083 1831 CircleF
3086 1808 CircleF
3090 1821 CircleF
3093 1823 CircleF
3096 1835 CircleF
3099 1865 CircleF
3103 1890 CircleF
3106 1858 CircleF
3109 1879 CircleF
3112 1868 CircleF
3116 1901 CircleF
3119 1808 CircleF
3122 1895 CircleF
3125 1831 CircleF
3129 1821 CircleF
3132 1821 CircleF
3135 1847 CircleF
3138 1863 CircleF
3142 1843 CircleF
3145 1863 CircleF
3148 1786 CircleF
3151 1860 CircleF
3155 1800 CircleF
3158 1790 CircleF
3161 1756 CircleF
3164 1797 CircleF
3168 1793 CircleF
3171 1774 CircleF
3174 1804 CircleF
3177 1898 CircleF
3181 1880 CircleF
3184 1847 CircleF
3187 1885 CircleF
3190 1861 CircleF
3194 1821 CircleF
3197 1858 CircleF
3200 1781 CircleF
3203 1774 CircleF
3206 1795 CircleF
3210 1771 CircleF
3213 1806 CircleF
3216 1774 CircleF
3219 1819 CircleF
3223 1833 CircleF
3226 1817 CircleF
3229 1874 CircleF
3232 1815 CircleF
3236 1819 CircleF
3239 1761 CircleF
3242 1795 CircleF
3245 1833 CircleF
3249 1786 CircleF
3252 1813 CircleF
3255 1861 CircleF
3258 1898 CircleF
3262 1761 CircleF
3265 1748 CircleF
3268 1769 CircleF
3271 1776 CircleF
3275 1742 CircleF
3278 1779 CircleF
3281 1806 CircleF
3284 1800 CircleF
3288 1797 CircleF
3291 1797 CircleF
3294 1761 CircleF
3297 1753 CircleF
3301 1719 CircleF
3304 1774 CircleF
3307 1783 CircleF
3310 1728 CircleF
3314 1687 CircleF
3317 1742 CircleF
3320 1802 CircleF
3323 1751 CircleF
3327 1691 CircleF
3330 1680 CircleF
3333 1710 CircleF
3336 1694 CircleF
3339 1655 CircleF
3343 1719 CircleF
3346 1713 CircleF
3349 1759 CircleF
3352 1670 CircleF
3356 1673 CircleF
3359 1704 CircleF
3362 1725 CircleF
3365 1745 CircleF
3369 1740 CircleF
3372 1751 CircleF
3375 1704 CircleF
3378 1725 CircleF
3382 1697 CircleF
3385 1756 CircleF
3388 1751 CircleF
3391 1788 CircleF
3395 1766 CircleF
3398 1740 CircleF
3401 1710 CircleF
3404 1745 CircleF
3408 1829 CircleF
3411 1742 CircleF
3414 1719 CircleF
3417 1742 CircleF
3421 1710 CircleF
3424 1725 CircleF
3427 1779 CircleF
3430 1691 CircleF
3434 1748 CircleF
3437 1728 CircleF
3440 1704 CircleF
3443 1700 CircleF
3447 1691 CircleF
3450 1697 CircleF
3453 1677 CircleF
3456 1722 CircleF
3460 1631 CircleF
3463 1742 CircleF
3466 1691 CircleF
3469 1722 CircleF
3472 1609 CircleF
3476 1639 CircleF
3479 1719 CircleF
3482 1647 CircleF
3485 1725 CircleF
3489 1680 CircleF
3492 1670 CircleF
3495 1670 CircleF
3498 1707 CircleF
3502 1737 CircleF
3505 1670 CircleF
3508 1635 CircleF
3511 1631 CircleF
3515 1595 CircleF
3518 1626 CircleF
3521 1677 CircleF
3524 1631 CircleF
3528 1542 CircleF
3531 1639 CircleF
3534 1635 CircleF
3537 1635 CircleF
3541 1697 CircleF
3544 1553 CircleF
3547 1618 CircleF
3550 1609 CircleF
3554 1662 CircleF
3557 1548 CircleF
3560 1613 CircleF
3563 1662 CircleF
3567 1680 CircleF
3570 1764 CircleF
3573 1704 CircleF
3576 1748 CircleF
3580 1631 CircleF
3583 1716 CircleF
3586 1710 CircleF
3589 1808 CircleF
3593 1722 CircleF
3596 1599 CircleF
3599 1559 CircleF
3602 1524 CircleF
3605 1483 CircleF
3609 1517 CircleF
3612 1604 CircleF
3615 1476 CircleF
3618 1564 CircleF
3622 1504 CircleF
3625 1524 CircleF
3628 1553 CircleF
3631 1548 CircleF
3635 1647 CircleF
3638 1536 CircleF
3641 1599 CircleF
3644 1580 CircleF
3648 1585 CircleF
3651 1613 CircleF
3654 1575 CircleF
3657 1647 CircleF
3661 1536 CircleF
3664 1504 CircleF
3667 1524 CircleF
3670 1569 CircleF
3674 1559 CircleF
3677 1564 CircleF
3680 1553 CircleF
3683 1490 CircleF
3687 1575 CircleF
3690 1483 CircleF
3693 1553 CircleF
3696 1553 CircleF
3700 1595 CircleF
3703 1564 CircleF
3706 1536 CircleF
3709 1542 CircleF
3713 1511 CircleF
3716 1536 CircleF
3719 1553 CircleF
3722 1553 CircleF
3726 1504 CircleF
3729 1542 CircleF
3732 1626 CircleF
3735 1647 CircleF
3738 1626 CircleF
3742 1622 CircleF
3745 1639 CircleF
3748 1575 CircleF
3751 1553 CircleF
3755 1618 CircleF
3758 1497 CircleF
3761 1564 CircleF
3764 1622 CircleF
3768 1569 CircleF
3771 1553 CircleF
3774 1511 CircleF
3777 1622 CircleF
3781 1595 CircleF
3784 1599 CircleF
3787 1517 CircleF
3790 1613 CircleF
3794 1618 CircleF
3797 1647 CircleF
3800 1553 CircleF
3803 1609 CircleF
3807 1559 CircleF
3810 1580 CircleF
3813 1585 CircleF
3816 1548 CircleF
3820 1548 CircleF
3823 1504 CircleF
3826 1476 CircleF
3829 1452 CircleF
3833 1408 CircleF
3836 1483 CircleF
3839 1418 CircleF
3842 1524 CircleF
3846 1517 CircleF
3849 1304 CircleF
3852 1331 CircleF
3855 1444 CircleF
3859 1476 CircleF
3862 1460 CircleF
3865 1460 CircleF
3868 1553 CircleF
3871 1408 CircleF
3875 1418 CircleF
3878 1367 CircleF
3881 1304 CircleF
3884 1343 CircleF
3888 1367 CircleF
3891 1343 CircleF
3894 1378 CircleF
3897 1289 CircleF
3901 1388 CircleF
3904 1367 CircleF
3907 1258 CircleF
3910 1274 CircleF
3914 1331 CircleF
3917 1289 CircleF
3920 1157 CircleF
3923 1274 CircleF
3927 1289 CircleF
3930 1378 CircleF
3933 1180 CircleF
3936 1103 CircleF
3940 1304 CircleF
3943 1071 CircleF
3946 1222 CircleF
3949 1258 CircleF
3953 1427 CircleF
3956 1343 CircleF
3959 1367 CircleF
3962 1274 CircleF
3966 1258 CircleF
3969 1258 CircleF
3972 1180 CircleF
3975 1343 CircleF
3979 1202 CircleF
3982 1398 CircleF
3985 1331 CircleF
3988 1240 CircleF
3992 1222 CircleF
3995 1202 CircleF
3998 1180 CircleF
4001 1222 CircleF
4004 1222 CircleF
4008 1258 CircleF
4011 1304 CircleF
4014 1222 CircleF
4017 1274 CircleF
4021 1240 CircleF
4024 1035 CircleF
4027 1103 CircleF
4030 1131 CircleF
4034 1436 CircleF
4037 1468 CircleF
4040 1524 CircleF
4043 1331 CircleF
4047 1398 CircleF
4050 1408 CircleF
4053 1460 CircleF
4056 1388 CircleF
4060 1289 CircleF
4063 1274 CircleF
4066 1274 CircleF
4069 1240 CircleF
4073 1222 CircleF
4076 1289 CircleF
4079 1202 CircleF
4082 1180 CircleF
4086 1202 CircleF
4089 1202 CircleF
4092 1157 CircleF
4095 1071 CircleF
4099 1240 CircleF
4102 1157 CircleF
4105 1035 CircleF
4108 698 CircleF
4112 1035 CircleF
4115 1103 CircleF
4118 885 CircleF
4121 807 CircleF
4124 1071 CircleF
4128 1071 CircleF
4131 1071 CircleF
4134 1180 CircleF
4137 1071 CircleF
4141 807 CircleF
4144 1035 CircleF
4147 1071 CircleF
4150 1035 CircleF
4154 945 CircleF
4157 698 CircleF
4160 885 CircleF
4163 885 CircleF
4167 885 CircleF
4170 698 CircleF
4173 1071 CircleF
4176 945 CircleF
4180 885 CircleF
4183 698 CircleF
4186 807 CircleF
4189 807 CircleF
4193 885 CircleF
4196 698 CircleF
4199 698 CircleF
4202 885 CircleF
4206 945 CircleF
4209 994 CircleF
4212 945 CircleF
4215 994 CircleF
4219 807 CircleF
4222 945 CircleF
4225 994 CircleF
4228 1035 CircleF
4232 1071 CircleF
4235 994 CircleF
4238 1071 CircleF
4241 994 CircleF
4245 1035 CircleF
4248 1071 CircleF
4251 994 CircleF
4254 1035 CircleF
4257 994 CircleF
4261 945 CircleF
4264 1071 CircleF
4267 1071 CircleF
4270 1157 CircleF
4274 945 CircleF
4277 1071 CircleF
4280 994 CircleF
4283 1035 CircleF
4287 698 CircleF
4290 1071 CircleF
4293 1035 CircleF
4296 945 CircleF
4300 1131 CircleF
4303 1103 CircleF
4306 1103 CircleF
4309 885 CircleF
4313 945 CircleF
4316 1035 CircleF
4319 1035 CircleF
4322 994 CircleF
4326 994 CircleF
4329 1131 CircleF
4332 885 CircleF
4335 1131 CircleF
4339 1180 CircleF
4342 1035 CircleF
4345 1180 CircleF
4348 1202 CircleF
4352 1157 CircleF
4355 1240 CircleF
4358 1131 CircleF
4361 1157 CircleF
4365 1318 CircleF
4368 1258 CircleF
4371 1398 CircleF
4374 1388 CircleF
4378 1398 CircleF
4381 1131 CircleF
4384 1222 CircleF
4387 1240 CircleF
4390 1274 CircleF
4394 1258 CircleF
4397 1202 CircleF
4400 1343 CircleF
4403 1343 CircleF
4407 1388 CircleF
4410 1504 CircleF
4413 1258 CircleF
4416 1408 CircleF
4420 1304 CircleF
4423 1378 CircleF
4426 1444 CircleF
4429 1289 CircleF
4433 1343 CircleF
4436 1131 CircleF
4439 1202 CircleF
4442 1103 CircleF
4446 1202 CircleF
4449 1157 CircleF
4452 1035 CircleF
4455 1035 CircleF
4459 1258 CircleF
4462 1202 CircleF
4465 1157 CircleF
4468 1103 CircleF
4472 1071 CircleF
4475 1103 CircleF
4478 945 CircleF
4481 1157 CircleF
4485 994 CircleF
4488 1103 CircleF
4491 1131 CircleF
4494 1035 CircleF
4498 1258 CircleF
4501 1202 CircleF
4504 1071 CircleF
4507 1035 CircleF
4511 1157 CircleF
4514 1202 CircleF
4517 1131 CircleF
4520 994 CircleF
4523 1035 CircleF
4527 1222 CircleF
4530 1157 CircleF
4533 994 CircleF
4536 698 CircleF
4540 885 CircleF
4543 698 CircleF
4546 1071 CircleF
4549 945 CircleF
4553 512 CircleF
4556 994 CircleF
4559 807 CircleF
4562 994 CircleF
4566 1131 CircleF
4569 1071 CircleF
4572 1035 CircleF
4575 1035 CircleF
4579 994 CircleF
4582 945 CircleF
4585 1157 CircleF
4588 807 CircleF
4592 885 CircleF
4595 885 CircleF
4598 807 CircleF
4601 945 CircleF
4605 807 CircleF
4608 945 CircleF
4611 1035 CircleF
4614 994 CircleF
4618 994 CircleF
4621 1103 CircleF
4624 1035 CircleF
4627 945 CircleF
4631 1180 CircleF
4634 1157 CircleF
4637 1071 CircleF
4640 1035 CircleF
4644 1131 CircleF
4647 1180 CircleF
4650 1131 CircleF
4653 1180 CircleF
4656 1274 CircleF
4660 1222 CircleF
4663 1157 CircleF
4666 1222 CircleF
4669 1157 CircleF
4673 1222 CircleF
4676 1157 CircleF
4679 1180 CircleF
4682 1222 CircleF
4686 1240 CircleF
4689 885 CircleF
4692 1157 CircleF
4695 1202 CircleF
4699 994 CircleF
4702 1131 CircleF
4705 1103 CircleF
4708 1071 CircleF
4712 945 CircleF
4715 885 CircleF
4718 1103 CircleF
4721 512 CircleF
4725 885 CircleF
4728 945 CircleF
4731 885 CircleF
4734 945 CircleF
4738 885 CircleF
4741 885 CircleF
4744 807 CircleF
4747 1035 CircleF
4751 994 CircleF
4754 994 CircleF
4757 994 CircleF
4760 1035 CircleF
4764 512 CircleF
4767 994 CircleF
4770 885 CircleF
4773 807 CircleF
4777 994 CircleF
4780 512 CircleF
4783 807 CircleF
4786 945 CircleF
4789 807 CircleF
4793 698 CircleF
4796 885 CircleF
4799 807 CircleF
4802 1035 CircleF
4806 807 CircleF
4809 945 CircleF
4812 945 CircleF
4815 945 CircleF
4819 1180 CircleF
4822 807 CircleF
4825 807 CircleF
4828 1157 CircleF
4832 1071 CircleF
4835 885 CircleF
4838 1035 CircleF
4841 994 CircleF
4845 945 CircleF
4848 945 CircleF
4851 945 CircleF
4854 698 CircleF
4858 512 CircleF
4861 807 CircleF
4864 807 CircleF
4867 885 CircleF
4874 885 CircleF
4877 994 CircleF
4880 885 CircleF
4884 807 CircleF
4887 698 CircleF
4890 512 CircleF
4893 512 CircleF
4897 994 CircleF
4900 1035 CircleF
4903 512 CircleF
4906 807 CircleF
4910 994 CircleF
4913 1103 CircleF
4916 698 CircleF
4919 994 CircleF
4922 945 CircleF
4926 1035 CircleF
4929 994 CircleF
4932 945 CircleF
4935 1103 CircleF
4939 1071 CircleF
4942 512 CircleF
4945 945 CircleF
4948 994 CircleF
4952 1035 CircleF
4955 807 CircleF
4958 698 CircleF
4961 885 CircleF
4965 945 CircleF
4968 807 CircleF
4971 1035 CircleF
4974 885 CircleF
4978 994 CircleF
4981 1035 CircleF
4984 994 CircleF
4987 1035 CircleF
4991 807 CircleF
4994 945 CircleF
4997 1035 CircleF
5000 1071 CircleF
5004 945 CircleF
5007 1071 CircleF
5010 807 CircleF
5013 1071 CircleF
5017 994 CircleF
5020 1131 CircleF
5023 1103 CircleF
5026 885 CircleF
5030 994 CircleF
5033 1035 CircleF
5036 1131 CircleF
5039 1157 CircleF
5043 1035 CircleF
5046 1202 CircleF
5049 1103 CircleF
5052 1222 CircleF
5055 1258 CircleF
5059 1157 CircleF
5062 1240 CircleF
5065 1202 CircleF
5068 1180 CircleF
5072 1202 CircleF
5075 1274 CircleF
5078 1180 CircleF
5081 1240 CircleF
5085 1071 CircleF
5088 1222 CircleF
5091 1103 CircleF
5094 1258 CircleF
5098 1157 CircleF
5101 1180 CircleF
5104 1202 CircleF
5107 1071 CircleF
5111 1035 CircleF
5114 1240 CircleF
5117 1180 CircleF
5120 1222 CircleF
5124 1304 CircleF
5127 1258 CircleF
5130 1304 CircleF
5133 1304 CircleF
5137 1157 CircleF
5140 1202 CircleF
5143 1035 CircleF
5146 945 CircleF
5150 1222 CircleF
5153 1289 CircleF
5156 1180 CircleF
5159 1071 CircleF
5163 1035 CircleF
5166 1240 CircleF
5169 807 CircleF
5172 1035 CircleF
5176 1258 CircleF
5179 1202 CircleF
5182 1157 CircleF
5185 1180 CircleF
5188 1131 CircleF
5192 1071 CircleF
5195 1103 CircleF
5198 1131 CircleF
5201 945 CircleF
5205 1240 CircleF
5208 945 CircleF
5211 885 CircleF
5214 945 CircleF
5218 994 CircleF
5221 807 CircleF
5224 1103 CircleF
5227 1035 CircleF
5231 1131 CircleF
5234 885 CircleF
5237 1240 CircleF
5240 945 CircleF
5244 1035 CircleF
5247 1103 CircleF
5250 1180 CircleF
5253 885 CircleF
5257 945 CircleF
5260 1103 CircleF
5263 1103 CircleF
5266 1035 CircleF
5270 1222 CircleF
5273 885 CircleF
5276 945 CircleF
5279 994 CircleF
5283 1071 CircleF
5286 1071 CircleF
5289 1131 CircleF
5292 1071 CircleF
5296 1157 CircleF
5299 1157 CircleF
5302 1103 CircleF
5305 945 CircleF
5309 1157 CircleF
5312 1258 CircleF
5315 1304 CircleF
5318 1274 CircleF
5321 1318 CircleF
5325 1398 CircleF
5328 1331 CircleF
5331 1355 CircleF
5334 1222 CircleF
5338 1258 CircleF
5341 1180 CircleF
5344 1131 CircleF
5347 1035 CircleF
5351 1103 CircleF
5354 1180 CircleF
5357 994 CircleF
5360 945 CircleF
5364 885 CircleF
5367 1103 CircleF
5370 698 CircleF
5373 885 CircleF
5377 698 CircleF
5380 994 CircleF
5383 1035 CircleF
5386 885 CircleF
5390 1035 CircleF
5393 807 CircleF
5396 1071 CircleF
5399 945 CircleF
5403 807 CircleF
5406 885 CircleF
5409 698 CircleF
5412 945 CircleF
5416 698 CircleF
5419 994 CircleF
5422 698 CircleF
5425 885 CircleF
5429 1071 CircleF
5432 994 CircleF
5435 994 CircleF
5438 885 CircleF
5442 698 CircleF
5445 945 CircleF
5448 945 CircleF
5451 945 CircleF
5454 945 CircleF
5458 1071 CircleF
5461 1103 CircleF
5464 885 CircleF
5471 1071 CircleF
5474 1071 CircleF
5477 945 CircleF
5480 945 CircleF
5484 807 CircleF
5487 885 CircleF
5490 994 CircleF
5493 807 CircleF
5497 698 CircleF
5500 807 CircleF
5503 698 CircleF
5506 698 CircleF
5510 807 CircleF
5513 885 CircleF
5516 994 CircleF
5519 885 CircleF
5523 512 CircleF
5526 885 CircleF
5532 698 CircleF
5536 512 CircleF
5539 512 CircleF
5542 885 CircleF
5545 698 CircleF
5549 512 CircleF
5552 698 CircleF
5555 512 CircleF
5558 698 CircleF
5562 698 CircleF
5565 698 CircleF
5568 807 CircleF
5571 807 CircleF
5578 698 CircleF
5581 698 CircleF
5584 512 CircleF
5591 807 CircleF
5597 885 CircleF
5600 885 CircleF
5604 807 CircleF
5607 512 CircleF
5610 698 CircleF
5613 994 CircleF
5623 698 CircleF
5626 807 CircleF
5630 512 CircleF
5633 512 CircleF
5636 807 CircleF
5639 512 CircleF
5643 807 CircleF
5646 698 CircleF
5649 698 CircleF
5652 698 CircleF
5656 512 CircleF
5659 512 CircleF
5662 512 CircleF
5665 698 CircleF
5669 512 CircleF
5672 512 CircleF
5682 512 CircleF
5685 807 CircleF
5688 994 CircleF
5691 512 CircleF
5698 512 CircleF
5704 698 CircleF
5708 512 CircleF
5714 698 CircleF
5720 698 CircleF
5724 698 CircleF
5727 698 CircleF
5730 885 CircleF
5733 512 CircleF
5737 1035 CircleF
5740 512 CircleF
5743 512 CircleF
5750 885 CircleF
5753 512 CircleF
5756 512 CircleF
5759 807 CircleF
5763 807 CircleF
5766 885 CircleF
5769 1103 CircleF
5772 698 CircleF
5776 807 CircleF
5779 885 CircleF
5782 807 CircleF
5785 994 CircleF
5789 945 CircleF
5792 698 CircleF
5795 885 CircleF
5798 885 CircleF
5802 698 CircleF
5805 994 CircleF
5808 698 CircleF
5811 945 CircleF
5815 698 CircleF
5818 807 CircleF
5821 885 CircleF
5831 807 CircleF
5834 698 CircleF
5837 512 CircleF
5841 512 CircleF
5844 512 CircleF
5847 945 CircleF
5850 512 CircleF
5853 807 CircleF
5857 698 CircleF
5860 698 CircleF
5863 1035 CircleF
5866 807 CircleF
5870 512 CircleF
5873 698 CircleF
5876 885 CircleF
5879 885 CircleF
5883 512 CircleF
5886 945 CircleF
5889 698 CircleF
5892 512 CircleF
5896 807 CircleF
5902 885 CircleF
5909 698 CircleF
5912 885 CircleF
5915 698 CircleF
5918 945 CircleF
5922 807 CircleF
5928 512 CircleF
5931 698 CircleF
5935 512 CircleF
5938 885 CircleF
5944 512 CircleF
5948 807 CircleF
5951 512 CircleF
5957 698 CircleF
5964 512 CircleF
5967 512 CircleF
5977 512 CircleF
5980 885 CircleF
5983 807 CircleF
5990 512 CircleF
5993 512 CircleF
5996 885 CircleF
5999 698 CircleF
6003 994 CircleF
6006 512 CircleF
6009 698 CircleF
6012 885 CircleF
6016 698 CircleF
6019 512 CircleF
6022 807 CircleF
6025 512 CircleF
6032 807 CircleF
6035 512 CircleF
6042 698 CircleF
6045 512 CircleF
6048 512 CircleF
6051 512 CircleF
6058 807 CircleF
6064 698 CircleF
6071 512 CircleF
6074 698 CircleF
6081 698 CircleF
6084 885 CircleF
6087 994 CircleF
6090 698 CircleF
6094 698 CircleF
6100 512 CircleF
6103 512 CircleF
6107 698 CircleF
6110 512 CircleF
6116 512 CircleF
6123 698 CircleF
6129 698 CircleF
6132 512 CircleF
6136 512 CircleF
6142 698 CircleF
6162 512 CircleF
6165 512 CircleF
6168 512 CircleF
6171 698 CircleF
6175 698 CircleF
6181 512 CircleF
6184 512 CircleF
6188 512 CircleF
6191 512 CircleF
6194 512 CircleF
6210 512 CircleF
6214 512 CircleF
6217 698 CircleF
6220 512 CircleF
6227 698 CircleF
6246 512 CircleF
6252 512 CircleF
6259 512 CircleF
6262 512 CircleF
6269 512 CircleF
6275 512 CircleF
6278 698 CircleF
6285 512 CircleF
6295 512 CircleF
6308 512 CircleF
6311 698 CircleF
6343 698 CircleF
6350 512 CircleF
6353 512 CircleF
6363 512 CircleF
6376 512 CircleF
6382 698 CircleF
6385 512 CircleF
6389 512 CircleF
6392 512 CircleF
6395 512 CircleF
6398 698 CircleF
6411 698 CircleF
6418 512 CircleF
6434 512 CircleF
6437 512 CircleF
6444 807 CircleF
6450 512 CircleF
6454 698 CircleF
6460 698 CircleF
6476 512 CircleF
6480 512 CircleF
6483 512 CircleF
6499 512 CircleF
6509 512 CircleF
6525 512 CircleF
6535 512 CircleF
6570 698 CircleF
6574 512 CircleF
6580 512 CircleF
6583 698 CircleF
6600 512 CircleF
6606 512 CircleF
6613 512 CircleF
6616 698 CircleF
6619 512 CircleF
6668 698 CircleF
6671 512 CircleF
6681 512 CircleF
6690 512 CircleF
6694 512 CircleF
6697 512 CircleF
6700 512 CircleF
6707 512 CircleF
6710 512 CircleF
6716 512 CircleF
6720 512 CircleF
6723 512 CircleF
6726 512 CircleF
6729 698 CircleF
6733 698 CircleF
6736 512 CircleF
6739 885 CircleF
6742 512 CircleF
6746 945 CircleF
6749 885 CircleF
6752 807 CircleF
6755 512 CircleF
6759 945 CircleF
6762 807 CircleF
6765 512 CircleF
6768 512 CircleF
6772 698 CircleF
6775 512 CircleF
6778 698 CircleF
6781 512 CircleF
6784 698 CircleF
6788 512 CircleF
6797 512 CircleF
6807 512 CircleF
6810 512 CircleF
6817 698 CircleF
6820 512 CircleF
6827 512 CircleF
6830 698 CircleF
6833 512 CircleF
6836 807 CircleF
6840 807 CircleF
6843 698 CircleF
6846 885 CircleF
6849 698 CircleF
6853 698 CircleF
6856 807 CircleF
6859 512 CircleF
6862 885 CircleF
6866 807 CircleF
6872 698 CircleF
6875 698 CircleF
6879 512 CircleF
6882 698 CircleF
6885 512 CircleF
6888 512 CircleF
6898 512 CircleF
6901 512 CircleF
% End plot #1
1.000 UL
LTb
LCb setrgbcolor
1072 4847 N
0 -4335 V
5839 0 V
0 4335 V
-5839 0 V
Z stroke
1.000 UP
1.000 UL
LTb
LCb setrgbcolor
stroke
grestore
end
showpage
%%Trailer
%%DocumentFonts: Helvetica
