%!PS-Adobe-2.0 EPSF-2.0
%%Title: nbrDist.eps
%%Creator: gnuplot 4.6 patchlevel 2
%%CreationDate: Thu Sep 19 11:18:09 2019
%%DocumentFonts: (atend)
%%BoundingBox: 50 50 410 302
%%EndComments
%%BeginProlog
/gnudict 256 dict def
gnudict begin
%
% The following true/false flags may be edited by hand if desired.
% The unit line width and grayscale image gamma correction may also be changed.
%
/Color true def
/Blacktext false def
/Solid false def
/Dashlength 1 def
/Landscape false def
/Level1 false def
/Rounded false def
/ClipToBoundingBox false def
/SuppressPDFMark false def
/TransparentPatterns false def
/gnulinewidth 5.000 def
/userlinewidth gnulinewidth def
/Gamma 1.0 def
/BackgroundColor {-1.000 -1.000 -1.000} def
%
/vshift -53 def
/dl1 {
  10.0 Dashlength mul mul
  Rounded { currentlinewidth 0.75 mul sub dup 0 le { pop 0.01 } if } if
} def
/dl2 {
  10.0 Dashlength mul mul
  Rounded { currentlinewidth 0.75 mul add } if
} def
/hpt_ 31.5 def
/vpt_ 31.5 def
/hpt hpt_ def
/vpt vpt_ def
/doclip {
  ClipToBoundingBox {
    newpath 50 50 moveto 410 50 lineto 410 302 lineto 50 302 lineto closepath
    clip
  } if
} def
%
% Gnuplot Prolog Version 4.6 (September 2012)
%
%/SuppressPDFMark true def
%
/M {moveto} bind def
/L {lineto} bind def
/R {rmoveto} bind def
/V {rlineto} bind def
/N {newpath moveto} bind def
/Z {closepath} bind def
/C {setrgbcolor} bind def
/f {rlineto fill} bind def
/g {setgray} bind def
/Gshow {show} def   % May be redefined later in the file to support UTF-8
/vpt2 vpt 2 mul def
/hpt2 hpt 2 mul def
/Lshow {currentpoint stroke M 0 vshift R 
	Blacktext {gsave 0 setgray show grestore} {show} ifelse} def
/Rshow {currentpoint stroke M dup stringwidth pop neg vshift R
	Blacktext {gsave 0 setgray show grestore} {show} ifelse} def
/Cshow {currentpoint stroke M dup stringwidth pop -2 div vshift R 
	Blacktext {gsave 0 setgray show grestore} {show} ifelse} def
/UP {dup vpt_ mul /vpt exch def hpt_ mul /hpt exch def
  /hpt2 hpt 2 mul def /vpt2 vpt 2 mul def} def
/DL {Color {setrgbcolor Solid {pop []} if 0 setdash}
 {pop pop pop 0 setgray Solid {pop []} if 0 setdash} ifelse} def
/BL {stroke userlinewidth 2 mul setlinewidth
	Rounded {1 setlinejoin 1 setlinecap} if} def
/AL {stroke userlinewidth 2 div setlinewidth
	Rounded {1 setlinejoin 1 setlinecap} if} def
/UL {dup gnulinewidth mul /userlinewidth exch def
	dup 1 lt {pop 1} if 10 mul /udl exch def} def
/PL {stroke userlinewidth setlinewidth
	Rounded {1 setlinejoin 1 setlinecap} if} def
3.8 setmiterlimit
% Default Line colors
/LCw {1 1 1} def
/LCb {0 0 0} def
/LCa {0 0 0} def
/LC0 {1 0 0} def
/LC1 {0 1 0} def
/LC2 {0 0 1} def
/LC3 {1 0 1} def
/LC4 {0 1 1} def
/LC5 {1 1 0} def
/LC6 {0 0 0} def
/LC7 {1 0.3 0} def
/LC8 {0.5 0.5 0.5} def
% Default Line Types
/LTw {PL [] 1 setgray} def
/LTb {BL [] LCb DL} def
/LTa {AL [1 udl mul 2 udl mul] 0 setdash LCa setrgbcolor} def
/LT0 {PL [] LC0 DL} def
/LT1 {PL [4 dl1 2 dl2] LC1 DL} def
/LT2 {PL [2 dl1 3 dl2] LC2 DL} def
/LT3 {PL [1 dl1 1.5 dl2] LC3 DL} def
/LT4 {PL [6 dl1 2 dl2 1 dl1 2 dl2] LC4 DL} def
/LT5 {PL [3 dl1 3 dl2 1 dl1 3 dl2] LC5 DL} def
/LT6 {PL [2 dl1 2 dl2 2 dl1 6 dl2] LC6 DL} def
/LT7 {PL [1 dl1 2 dl2 6 dl1 2 dl2 1 dl1 2 dl2] LC7 DL} def
/LT8 {PL [2 dl1 2 dl2 2 dl1 2 dl2 2 dl1 2 dl2 2 dl1 4 dl2] LC8 DL} def
/Pnt {stroke [] 0 setdash gsave 1 setlinecap M 0 0 V stroke grestore} def
/Dia {stroke [] 0 setdash 2 copy vpt add M
  hpt neg vpt neg V hpt vpt neg V
  hpt vpt V hpt neg vpt V closepath stroke
  Pnt} def
/Pls {stroke [] 0 setdash vpt sub M 0 vpt2 V
  currentpoint stroke M
  hpt neg vpt neg R hpt2 0 V stroke
 } def
/Box {stroke [] 0 setdash 2 copy exch hpt sub exch vpt add M
  0 vpt2 neg V hpt2 0 V 0 vpt2 V
  hpt2 neg 0 V closepath stroke
  Pnt} def
/Crs {stroke [] 0 setdash exch hpt sub exch vpt add M
  hpt2 vpt2 neg V currentpoint stroke M
  hpt2 neg 0 R hpt2 vpt2 V stroke} def
/TriU {stroke [] 0 setdash 2 copy vpt 1.12 mul add M
  hpt neg vpt -1.62 mul V
  hpt 2 mul 0 V
  hpt neg vpt 1.62 mul V closepath stroke
  Pnt} def
/Star {2 copy Pls Crs} def
/BoxF {stroke [] 0 setdash exch hpt sub exch vpt add M
  0 vpt2 neg V hpt2 0 V 0 vpt2 V
  hpt2 neg 0 V closepath fill} def
/TriUF {stroke [] 0 setdash vpt 1.12 mul add M
  hpt neg vpt -1.62 mul V
  hpt 2 mul 0 V
  hpt neg vpt 1.62 mul V closepath fill} def
/TriD {stroke [] 0 setdash 2 copy vpt 1.12 mul sub M
  hpt neg vpt 1.62 mul V
  hpt 2 mul 0 V
  hpt neg vpt -1.62 mul V closepath stroke
  Pnt} def
/TriDF {stroke [] 0 setdash vpt 1.12 mul sub M
  hpt neg vpt 1.62 mul V
  hpt 2 mul 0 V
  hpt neg vpt -1.62 mul V closepath fill} def
/DiaF {stroke [] 0 setdash vpt add M
  hpt neg vpt neg V hpt vpt neg V
  hpt vpt V hpt neg vpt V closepath fill} def
/Pent {stroke [] 0 setdash 2 copy gsave
  translate 0 hpt M 4 {72 rotate 0 hpt L} repeat
  closepath stroke grestore Pnt} def
/PentF {stroke [] 0 setdash gsave
  translate 0 hpt M 4 {72 rotate 0 hpt L} repeat
  closepath fill grestore} def
/Circle {stroke [] 0 setdash 2 copy
  hpt 0 360 arc stroke Pnt} def
/CircleF {stroke [] 0 setdash hpt 0 360 arc fill} def
/C0 {BL [] 0 setdash 2 copy moveto vpt 90 450 arc} bind def
/C1 {BL [] 0 setdash 2 copy moveto
	2 copy vpt 0 90 arc closepath fill
	vpt 0 360 arc closepath} bind def
/C2 {BL [] 0 setdash 2 copy moveto
	2 copy vpt 90 180 arc closepath fill
	vpt 0 360 arc closepath} bind def
/C3 {BL [] 0 setdash 2 copy moveto
	2 copy vpt 0 180 arc closepath fill
	vpt 0 360 arc closepath} bind def
/C4 {BL [] 0 setdash 2 copy moveto
	2 copy vpt 180 270 arc closepath fill
	vpt 0 360 arc closepath} bind def
/C5 {BL [] 0 setdash 2 copy moveto
	2 copy vpt 0 90 arc
	2 copy moveto
	2 copy vpt 180 270 arc closepath fill
	vpt 0 360 arc} bind def
/C6 {BL [] 0 setdash 2 copy moveto
	2 copy vpt 90 270 arc closepath fill
	vpt 0 360 arc closepath} bind def
/C7 {BL [] 0 setdash 2 copy moveto
	2 copy vpt 0 270 arc closepath fill
	vpt 0 360 arc closepath} bind def
/C8 {BL [] 0 setdash 2 copy moveto
	2 copy vpt 270 360 arc closepath fill
	vpt 0 360 arc closepath} bind def
/C9 {BL [] 0 setdash 2 copy moveto
	2 copy vpt 270 450 arc closepath fill
	vpt 0 360 arc closepath} bind def
/C10 {BL [] 0 setdash 2 copy 2 copy moveto vpt 270 360 arc closepath fill
	2 copy moveto
	2 copy vpt 90 180 arc closepath fill
	vpt 0 360 arc closepath} bind def
/C11 {BL [] 0 setdash 2 copy moveto
	2 copy vpt 0 180 arc closepath fill
	2 copy moveto
	2 copy vpt 270 360 arc closepath fill
	vpt 0 360 arc closepath} bind def
/C12 {BL [] 0 setdash 2 copy moveto
	2 copy vpt 180 360 arc closepath fill
	vpt 0 360 arc closepath} bind def
/C13 {BL [] 0 setdash 2 copy moveto
	2 copy vpt 0 90 arc closepath fill
	2 copy moveto
	2 copy vpt 180 360 arc closepath fill
	vpt 0 360 arc closepath} bind def
/C14 {BL [] 0 setdash 2 copy moveto
	2 copy vpt 90 360 arc closepath fill
	vpt 0 360 arc} bind def
/C15 {BL [] 0 setdash 2 copy vpt 0 360 arc closepath fill
	vpt 0 360 arc closepath} bind def
/Rec {newpath 4 2 roll moveto 1 index 0 rlineto 0 exch rlineto
	neg 0 rlineto closepath} bind def
/Square {dup Rec} bind def
/Bsquare {vpt sub exch vpt sub exch vpt2 Square} bind def
/S0 {BL [] 0 setdash 2 copy moveto 0 vpt rlineto BL Bsquare} bind def
/S1 {BL [] 0 setdash 2 copy vpt Square fill Bsquare} bind def
/S2 {BL [] 0 setdash 2 copy exch vpt sub exch vpt Square fill Bsquare} bind def
/S3 {BL [] 0 setdash 2 copy exch vpt sub exch vpt2 vpt Rec fill Bsquare} bind def
/S4 {BL [] 0 setdash 2 copy exch vpt sub exch vpt sub vpt Square fill Bsquare} bind def
/S5 {BL [] 0 setdash 2 copy 2 copy vpt Square fill
	exch vpt sub exch vpt sub vpt Square fill Bsquare} bind def
/S6 {BL [] 0 setdash 2 copy exch vpt sub exch vpt sub vpt vpt2 Rec fill Bsquare} bind def
/S7 {BL [] 0 setdash 2 copy exch vpt sub exch vpt sub vpt vpt2 Rec fill
	2 copy vpt Square fill Bsquare} bind def
/S8 {BL [] 0 setdash 2 copy vpt sub vpt Square fill Bsquare} bind def
/S9 {BL [] 0 setdash 2 copy vpt sub vpt vpt2 Rec fill Bsquare} bind def
/S10 {BL [] 0 setdash 2 copy vpt sub vpt Square fill 2 copy exch vpt sub exch vpt Square fill
	Bsquare} bind def
/S11 {BL [] 0 setdash 2 copy vpt sub vpt Square fill 2 copy exch vpt sub exch vpt2 vpt Rec fill
	Bsquare} bind def
/S12 {BL [] 0 setdash 2 copy exch vpt sub exch vpt sub vpt2 vpt Rec fill Bsquare} bind def
/S13 {BL [] 0 setdash 2 copy exch vpt sub exch vpt sub vpt2 vpt Rec fill
	2 copy vpt Square fill Bsquare} bind def
/S14 {BL [] 0 setdash 2 copy exch vpt sub exch vpt sub vpt2 vpt Rec fill
	2 copy exch vpt sub exch vpt Square fill Bsquare} bind def
/S15 {BL [] 0 setdash 2 copy Bsquare fill Bsquare} bind def
/D0 {gsave translate 45 rotate 0 0 S0 stroke grestore} bind def
/D1 {gsave translate 45 rotate 0 0 S1 stroke grestore} bind def
/D2 {gsave translate 45 rotate 0 0 S2 stroke grestore} bind def
/D3 {gsave translate 45 rotate 0 0 S3 stroke grestore} bind def
/D4 {gsave translate 45 rotate 0 0 S4 stroke grestore} bind def
/D5 {gsave translate 45 rotate 0 0 S5 stroke grestore} bind def
/D6 {gsave translate 45 rotate 0 0 S6 stroke grestore} bind def
/D7 {gsave translate 45 rotate 0 0 S7 stroke grestore} bind def
/D8 {gsave translate 45 rotate 0 0 S8 stroke grestore} bind def
/D9 {gsave translate 45 rotate 0 0 S9 stroke grestore} bind def
/D10 {gsave translate 45 rotate 0 0 S10 stroke grestore} bind def
/D11 {gsave translate 45 rotate 0 0 S11 stroke grestore} bind def
/D12 {gsave translate 45 rotate 0 0 S12 stroke grestore} bind def
/D13 {gsave translate 45 rotate 0 0 S13 stroke grestore} bind def
/D14 {gsave translate 45 rotate 0 0 S14 stroke grestore} bind def
/D15 {gsave translate 45 rotate 0 0 S15 stroke grestore} bind def
/DiaE {stroke [] 0 setdash vpt add M
  hpt neg vpt neg V hpt vpt neg V
  hpt vpt V hpt neg vpt V closepath stroke} def
/BoxE {stroke [] 0 setdash exch hpt sub exch vpt add M
  0 vpt2 neg V hpt2 0 V 0 vpt2 V
  hpt2 neg 0 V closepath stroke} def
/TriUE {stroke [] 0 setdash vpt 1.12 mul add M
  hpt neg vpt -1.62 mul V
  hpt 2 mul 0 V
  hpt neg vpt 1.62 mul V closepath stroke} def
/TriDE {stroke [] 0 setdash vpt 1.12 mul sub M
  hpt neg vpt 1.62 mul V
  hpt 2 mul 0 V
  hpt neg vpt -1.62 mul V closepath stroke} def
/PentE {stroke [] 0 setdash gsave
  translate 0 hpt M 4 {72 rotate 0 hpt L} repeat
  closepath stroke grestore} def
/CircE {stroke [] 0 setdash 
  hpt 0 360 arc stroke} def
/Opaque {gsave closepath 1 setgray fill grestore 0 setgray closepath} def
/DiaW {stroke [] 0 setdash vpt add M
  hpt neg vpt neg V hpt vpt neg V
  hpt vpt V hpt neg vpt V Opaque stroke} def
/BoxW {stroke [] 0 setdash exch hpt sub exch vpt add M
  0 vpt2 neg V hpt2 0 V 0 vpt2 V
  hpt2 neg 0 V Opaque stroke} def
/TriUW {stroke [] 0 setdash vpt 1.12 mul add M
  hpt neg vpt -1.62 mul V
  hpt 2 mul 0 V
  hpt neg vpt 1.62 mul V Opaque stroke} def
/TriDW {stroke [] 0 setdash vpt 1.12 mul sub M
  hpt neg vpt 1.62 mul V
  hpt 2 mul 0 V
  hpt neg vpt -1.62 mul V Opaque stroke} def
/PentW {stroke [] 0 setdash gsave
  translate 0 hpt M 4 {72 rotate 0 hpt L} repeat
  Opaque stroke grestore} def
/CircW {stroke [] 0 setdash 
  hpt 0 360 arc Opaque stroke} def
/BoxFill {gsave Rec 1 setgray fill grestore} def
/Density {
  /Fillden exch def
  currentrgbcolor
  /ColB exch def /ColG exch def /ColR exch def
  /ColR ColR Fillden mul Fillden sub 1 add def
  /ColG ColG Fillden mul Fillden sub 1 add def
  /ColB ColB Fillden mul Fillden sub 1 add def
  ColR ColG ColB setrgbcolor} def
/BoxColFill {gsave Rec PolyFill} def
/PolyFill {gsave Density fill grestore grestore} def
/h {rlineto rlineto rlineto gsave closepath fill grestore} bind def
%
% PostScript Level 1 Pattern Fill routine for rectangles
% Usage: x y w h s a XX PatternFill
%	x,y = lower left corner of box to be filled
%	w,h = width and height of box
%	  a = angle in degrees between lines and x-axis
%	 XX = 0/1 for no/yes cross-hatch
%
/PatternFill {gsave /PFa [ 9 2 roll ] def
  PFa 0 get PFa 2 get 2 div add PFa 1 get PFa 3 get 2 div add translate
  PFa 2 get -2 div PFa 3 get -2 div PFa 2 get PFa 3 get Rec
  TransparentPatterns {} {gsave 1 setgray fill grestore} ifelse
  clip
  currentlinewidth 0.5 mul setlinewidth
  /PFs PFa 2 get dup mul PFa 3 get dup mul add sqrt def
  0 0 M PFa 5 get rotate PFs -2 div dup translate
  0 1 PFs PFa 4 get div 1 add floor cvi
	{PFa 4 get mul 0 M 0 PFs V} for
  0 PFa 6 get ne {
	0 1 PFs PFa 4 get div 1 add floor cvi
	{PFa 4 get mul 0 2 1 roll M PFs 0 V} for
 } if
  stroke grestore} def
%
/languagelevel where
 {pop languagelevel} {1} ifelse
 2 lt
	{/InterpretLevel1 true def}
	{/InterpretLevel1 Level1 def}
 ifelse
%
% PostScript level 2 pattern fill definitions
%
/Level2PatternFill {
/Tile8x8 {/PaintType 2 /PatternType 1 /TilingType 1 /BBox [0 0 8 8] /XStep 8 /YStep 8}
	bind def
/KeepColor {currentrgbcolor [/Pattern /DeviceRGB] setcolorspace} bind def
<< Tile8x8
 /PaintProc {0.5 setlinewidth pop 0 0 M 8 8 L 0 8 M 8 0 L stroke} 
>> matrix makepattern
/Pat1 exch def
<< Tile8x8
 /PaintProc {0.5 setlinewidth pop 0 0 M 8 8 L 0 8 M 8 0 L stroke
	0 4 M 4 8 L 8 4 L 4 0 L 0 4 L stroke}
>> matrix makepattern
/Pat2 exch def
<< Tile8x8
 /PaintProc {0.5 setlinewidth pop 0 0 M 0 8 L
	8 8 L 8 0 L 0 0 L fill}
>> matrix makepattern
/Pat3 exch def
<< Tile8x8
 /PaintProc {0.5 setlinewidth pop -4 8 M 8 -4 L
	0 12 M 12 0 L stroke}
>> matrix makepattern
/Pat4 exch def
<< Tile8x8
 /PaintProc {0.5 setlinewidth pop -4 0 M 8 12 L
	0 -4 M 12 8 L stroke}
>> matrix makepattern
/Pat5 exch def
<< Tile8x8
 /PaintProc {0.5 setlinewidth pop -2 8 M 4 -4 L
	0 12 M 8 -4 L 4 12 M 10 0 L stroke}
>> matrix makepattern
/Pat6 exch def
<< Tile8x8
 /PaintProc {0.5 setlinewidth pop -2 0 M 4 12 L
	0 -4 M 8 12 L 4 -4 M 10 8 L stroke}
>> matrix makepattern
/Pat7 exch def
<< Tile8x8
 /PaintProc {0.5 setlinewidth pop 8 -2 M -4 4 L
	12 0 M -4 8 L 12 4 M 0 10 L stroke}
>> matrix makepattern
/Pat8 exch def
<< Tile8x8
 /PaintProc {0.5 setlinewidth pop 0 -2 M 12 4 L
	-4 0 M 12 8 L -4 4 M 8 10 L stroke}
>> matrix makepattern
/Pat9 exch def
/Pattern1 {PatternBgnd KeepColor Pat1 setpattern} bind def
/Pattern2 {PatternBgnd KeepColor Pat2 setpattern} bind def
/Pattern3 {PatternBgnd KeepColor Pat3 setpattern} bind def
/Pattern4 {PatternBgnd KeepColor Landscape {Pat5} {Pat4} ifelse setpattern} bind def
/Pattern5 {PatternBgnd KeepColor Landscape {Pat4} {Pat5} ifelse setpattern} bind def
/Pattern6 {PatternBgnd KeepColor Landscape {Pat9} {Pat6} ifelse setpattern} bind def
/Pattern7 {PatternBgnd KeepColor Landscape {Pat8} {Pat7} ifelse setpattern} bind def
} def
%
%
%End of PostScript Level 2 code
%
/PatternBgnd {
  TransparentPatterns {} {gsave 1 setgray fill grestore} ifelse
} def
%
% Substitute for Level 2 pattern fill codes with
% grayscale if Level 2 support is not selected.
%
/Level1PatternFill {
/Pattern1 {0.250 Density} bind def
/Pattern2 {0.500 Density} bind def
/Pattern3 {0.750 Density} bind def
/Pattern4 {0.125 Density} bind def
/Pattern5 {0.375 Density} bind def
/Pattern6 {0.625 Density} bind def
/Pattern7 {0.875 Density} bind def
} def
%
% Now test for support of Level 2 code
%
Level1 {Level1PatternFill} {Level2PatternFill} ifelse
%
/Symbol-Oblique /Symbol findfont [1 0 .167 1 0 0] makefont
dup length dict begin {1 index /FID eq {pop pop} {def} ifelse} forall
currentdict end definefont pop
/MFshow {
   { dup 5 get 3 ge
     { 5 get 3 eq {gsave} {grestore} ifelse }
     {dup dup 0 get findfont exch 1 get scalefont setfont
     [ currentpoint ] exch dup 2 get 0 exch R dup 5 get 2 ne {dup dup 6
     get exch 4 get {Gshow} {stringwidth pop 0 R} ifelse }if dup 5 get 0 eq
     {dup 3 get {2 get neg 0 exch R pop} {pop aload pop M} ifelse} {dup 5
     get 1 eq {dup 2 get exch dup 3 get exch 6 get stringwidth pop -2 div
     dup 0 R} {dup 6 get stringwidth pop -2 div 0 R 6 get
     show 2 index {aload pop M neg 3 -1 roll neg R pop pop} {pop pop pop
     pop aload pop M} ifelse }ifelse }ifelse }
     ifelse }
   forall} def
/Gswidth {dup type /stringtype eq {stringwidth} {pop (n) stringwidth} ifelse} def
/MFwidth {0 exch { dup 5 get 3 ge { 5 get 3 eq { 0 } { pop } ifelse }
 {dup 3 get{dup dup 0 get findfont exch 1 get scalefont setfont
     6 get Gswidth pop add} {pop} ifelse} ifelse} forall} def
/MLshow { currentpoint stroke M
  0 exch R
  Blacktext {gsave 0 setgray MFshow grestore} {MFshow} ifelse } bind def
/MRshow { currentpoint stroke M
  exch dup MFwidth neg 3 -1 roll R
  Blacktext {gsave 0 setgray MFshow grestore} {MFshow} ifelse } bind def
/MCshow { currentpoint stroke M
  exch dup MFwidth -2 div 3 -1 roll R
  Blacktext {gsave 0 setgray MFshow grestore} {MFshow} ifelse } bind def
/XYsave    { [( ) 1 2 true false 3 ()] } bind def
/XYrestore { [( ) 1 2 true false 4 ()] } bind def
Level1 SuppressPDFMark or 
{} {
/SDict 10 dict def
systemdict /pdfmark known not {
  userdict /pdfmark systemdict /cleartomark get put
} if
SDict begin [
  /Title (nbrDist.eps)
  /Subject (gnuplot plot)
  /Creator (gnuplot 4.6 patchlevel 2)
  /Author (anju)
%  /Producer (gnuplot)
%  /Keywords ()
  /CreationDate (Thu Sep 19 11:18:09 2019)
  /DOCINFO pdfmark
end
} ifelse
end
%%EndProlog
%%Page: 1 1
gnudict begin
gsave
doclip
50 50 translate
0.050 0.050 scale
0 setgray
newpath
(Helvetica) findfont 160 scalefont setfont
BackgroundColor 0 lt 3 1 roll 0 lt exch 0 lt or or not {BackgroundColor C 1.000 0 0 7200.00 5040.00 BoxColFill} if
1.000 UL
LTb
LCb setrgbcolor
1072 512 M
63 0 V
5776 0 R
-63 0 V
stroke
976 512 M
[ [(Helvetica) 160.0 0.0 true true 0 ( 1)]
] -53.3 MRshow
1.000 UL
LTb
LCb setrgbcolor
1072 698 M
31 0 V
5808 0 R
-31 0 V
1072 945 M
31 0 V
5808 0 R
-31 0 V
1072 1071 M
31 0 V
5808 0 R
-31 0 V
-5808 60 R
63 0 V
5776 0 R
-63 0 V
stroke
976 1131 M
[ [(Helvetica) 160.0 0.0 true true 0 ( 10)]
] -53.3 MRshow
1.000 UL
LTb
LCb setrgbcolor
1072 1318 M
31 0 V
5808 0 R
-31 0 V
1072 1564 M
31 0 V
5808 0 R
-31 0 V
1072 1691 M
31 0 V
5808 0 R
-31 0 V
-5808 60 R
63 0 V
5776 0 R
-63 0 V
stroke
976 1751 M
[ [(Helvetica) 160.0 0.0 true true 0 ( 100)]
] -53.3 MRshow
1.000 UL
LTb
LCb setrgbcolor
1072 1937 M
31 0 V
5808 0 R
-31 0 V
1072 2183 M
31 0 V
5808 0 R
-31 0 V
1072 2310 M
31 0 V
5808 0 R
-31 0 V
-5808 60 R
63 0 V
5776 0 R
-63 0 V
stroke
976 2370 M
[ [(Helvetica) 160.0 0.0 true true 0 ( 1000)]
] -53.3 MRshow
1.000 UL
LTb
LCb setrgbcolor
1072 2556 M
31 0 V
5808 0 R
-31 0 V
1072 2803 M
31 0 V
5808 0 R
-31 0 V
1072 2929 M
31 0 V
5808 0 R
-31 0 V
-5808 60 R
63 0 V
5776 0 R
-63 0 V
stroke
976 2989 M
[ [(Helvetica) 160.0 0.0 true true 0 ( 10000)]
] -53.3 MRshow
1.000 UL
LTb
LCb setrgbcolor
1072 3176 M
31 0 V
5808 0 R
-31 0 V
1072 3422 M
31 0 V
5808 0 R
-31 0 V
1072 3548 M
31 0 V
5808 0 R
-31 0 V
-5808 60 R
63 0 V
5776 0 R
-63 0 V
stroke
976 3608 M
[ [(Helvetica) 160.0 0.0 true true 0 ( 100000)]
] -53.3 MRshow
1.000 UL
LTb
LCb setrgbcolor
1072 3795 M
31 0 V
5808 0 R
-31 0 V
1072 4041 M
31 0 V
5808 0 R
-31 0 V
1072 4168 M
31 0 V
5808 0 R
-31 0 V
-5808 60 R
63 0 V
5776 0 R
-63 0 V
stroke
976 4228 M
[ [(Helvetica) 160.0 0.0 true true 0 ( 1e+06)]
] -53.3 MRshow
1.000 UL
LTb
LCb setrgbcolor
1072 4414 M
31 0 V
5808 0 R
-31 0 V
1072 4661 M
31 0 V
5808 0 R
-31 0 V
1072 4787 M
31 0 V
5808 0 R
-31 0 V
-5808 60 R
63 0 V
5776 0 R
-63 0 V
stroke
976 4847 M
[ [(Helvetica) 160.0 0.0 true true 0 ( 1e+07)]
] -53.3 MRshow
1.000 UL
LTb
LCb setrgbcolor
1072 512 M
0 63 V
0 4272 R
0 -63 V
stroke
1072 352 M
[ [(Helvetica) 160.0 0.0 true true 0 ( 0)]
] -53.3 MCshow
1.000 UL
LTb
LCb setrgbcolor
1656 512 M
0 63 V
0 4272 R
0 -63 V
stroke
1656 352 M
[ [(Helvetica) 160.0 0.0 true true 0 ( 200)]
] -53.3 MCshow
1.000 UL
LTb
LCb setrgbcolor
2240 512 M
0 63 V
0 4272 R
0 -63 V
stroke
2240 352 M
[ [(Helvetica) 160.0 0.0 true true 0 ( 400)]
] -53.3 MCshow
1.000 UL
LTb
LCb setrgbcolor
2824 512 M
0 63 V
0 4272 R
0 -63 V
stroke
2824 352 M
[ [(Helvetica) 160.0 0.0 true true 0 ( 600)]
] -53.3 MCshow
1.000 UL
LTb
LCb setrgbcolor
3408 512 M
0 63 V
0 4272 R
0 -63 V
stroke
3408 352 M
[ [(Helvetica) 160.0 0.0 true true 0 ( 800)]
] -53.3 MCshow
1.000 UL
LTb
LCb setrgbcolor
3992 512 M
0 63 V
0 4272 R
0 -63 V
stroke
3992 352 M
[ [(Helvetica) 160.0 0.0 true true 0 ( 1000)]
] -53.3 MCshow
1.000 UL
LTb
LCb setrgbcolor
4575 512 M
0 63 V
0 4272 R
0 -63 V
stroke
4575 352 M
[ [(Helvetica) 160.0 0.0 true true 0 ( 1200)]
] -53.3 MCshow
1.000 UL
LTb
LCb setrgbcolor
5159 512 M
0 63 V
0 4272 R
0 -63 V
stroke
5159 352 M
[ [(Helvetica) 160.0 0.0 true true 0 ( 1400)]
] -53.3 MCshow
1.000 UL
LTb
LCb setrgbcolor
5743 512 M
0 63 V
0 4272 R
0 -63 V
stroke
5743 352 M
[ [(Helvetica) 160.0 0.0 true true 0 ( 1600)]
] -53.3 MCshow
1.000 UL
LTb
LCb setrgbcolor
6327 512 M
0 63 V
0 4272 R
0 -63 V
stroke
6327 352 M
[ [(Helvetica) 160.0 0.0 true true 0 ( 1800)]
] -53.3 MCshow
1.000 UL
LTb
LCb setrgbcolor
6911 512 M
0 63 V
0 4272 R
0 -63 V
stroke
6911 352 M
[ [(Helvetica) 160.0 0.0 true true 0 ( 2000)]
] -53.3 MCshow
1.000 UL
LTb
LCb setrgbcolor
1.000 UL
LTb
LCb setrgbcolor
1072 4847 N
0 -4335 V
5839 0 V
0 4335 V
-5839 0 V
Z stroke
LCb setrgbcolor
128 2679 M
currentpoint gsave translate -270 rotate 0 0 moveto
[ [(Helvetica) 160.0 0.0 true true 0 (Number of points with each degree)]
] -53.3 MCshow
grestore
LTb
LCb setrgbcolor
3991 112 M
[ [(Helvetica) 160.0 0.0 true true 0 (Degree)]
] -53.3 MCshow
LTb
1.000 UP
1.000 UL
LTb
LCb setrgbcolor
% Begin plot #1
0.200 UP
2.000 UL
LT0
0.00 0.38 0.68 C 1072 4586 M
3 -15 V
3 -37 V
3 -42 V
3 -47 V
3 -51 V
3 -53 V
2 -54 V
3 -56 V
3 -56 V
3 -56 V
3 -53 V
3 -52 V
3 -51 V
3 -48 V
3 -45 V
3 -43 V
3 -40 V
3 -36 V
2 -35 V
3 -32 V
3 -31 V
3 -29 V
3 -28 V
3 -23 V
3 -21 V
3 -22 V
3 -20 V
3 -16 V
3 -22 V
3 -16 V
3 -17 V
2 -14 V
3 -14 V
3 -13 V
3 -13 V
3 -9 V
3 -13 V
3 -8 V
3 -11 V
3 -9 V
3 -8 V
3 -13 V
3 -12 V
2 -6 V
3 -7 V
3 -12 V
3 -7 V
3 -11 V
3 -3 V
3 -8 V
3 -7 V
3 -9 V
3 -7 V
3 -6 V
3 0 V
2 -11 V
3 -2 V
3 -6 V
3 -4 V
3 -1 V
3 -5 V
3 -10 V
3 -6 V
3 -1 V
3 -7 V
3 -2 V
3 1 V
3 -5 V
2 -4 V
3 -10 V
3 1 V
3 -8 V
3 2 V
3 2 V
3 -5 V
3 -4 V
3 0 V
3 -4 V
3 -2 V
3 -5 V
2 9 V
3 -4 V
3 -4 V
3 3 V
3 -7 V
3 5 V
3 -6 V
3 1 V
3 -1 V
3 -3 V
3 10 V
3 0 V
3 -5 V
2 -3 V
3 2 V
3 1 V
3 1 V
3 3 V
3 -6 V
3 -1 V
3 4 V
3 -2 V
3 3 V
3 -3 V
stroke 1376 3120 M
3 -4 V
2 0 V
3 5 V
3 -6 V
3 5 V
3 1 V
3 3 V
3 1 V
3 1 V
3 1 V
3 -2 V
3 -2 V
3 4 V
3 3 V
2 -3 V
3 2 V
3 2 V
3 0 V
3 -2 V
3 5 V
3 -2 V
3 2 V
3 0 V
3 1 V
3 0 V
3 -3 V
2 -6 V
3 6 V
3 0 V
3 -1 V
3 1 V
3 0 V
3 -3 V
3 -4 V
3 5 V
3 -8 V
3 9 V
3 -2 V
2 -4 V
3 2 V
3 -1 V
3 -4 V
3 -4 V
3 0 V
3 -7 V
3 9 V
3 6 V
3 -5 V
3 -1 V
3 -2 V
3 -3 V
2 -1 V
3 4 V
3 -5 V
3 -2 V
3 -8 V
3 2 V
3 -5 V
3 -6 V
3 5 V
3 -7 V
3 3 V
3 -1 V
2 -2 V
3 -8 V
3 -4 V
3 2 V
3 -6 V
3 3 V
3 -12 V
3 -2 V
3 -2 V
3 -1 V
3 -2 V
3 -3 V
3 -2 V
2 -8 V
3 0 V
3 -4 V
3 -9 V
3 -1 V
3 2 V
3 -4 V
3 -12 V
3 2 V
3 -4 V
3 -3 V
3 1 V
2 -8 V
3 0 V
3 -11 V
3 -5 V
3 -10 V
3 -6 V
3 3 V
3 -8 V
3 -2 V
3 -3 V
3 -7 V
3 -6 V
2 1 V
3 -10 V
3 -3 V
3 -6 V
stroke 1679 2934 M
3 -9 V
3 -4 V
3 -6 V
3 -1 V
3 -6 V
3 -4 V
3 -12 V
3 3 V
3 2 V
2 -22 V
3 1 V
3 0 V
3 -8 V
3 2 V
3 -6 V
3 -7 V
3 -13 V
3 -8 V
3 2 V
3 -3 V
3 1 V
2 -16 V
3 -2 V
3 -7 V
3 -13 V
3 -9 V
3 1 V
3 -2 V
3 -5 V
3 -8 V
3 8 V
3 -5 V
3 -7 V
3 -1 V
2 -8 V
3 0 V
3 -10 V
3 -4 V
3 5 V
3 -6 V
3 -10 V
3 -4 V
3 -12 V
3 -7 V
3 9 V
3 -12 V
2 -6 V
3 7 V
3 -16 V
3 -4 V
3 -7 V
3 -5 V
3 4 V
3 1 V
3 -12 V
3 -16 V
3 9 V
3 -5 V
3 0 V
2 -8 V
3 0 V
3 -14 V
3 2 V
3 -3 V
3 -8 V
3 10 V
3 -27 V
3 10 V
3 1 V
3 -13 V
3 -8 V
2 -4 V
3 5 V
3 -10 V
3 -9 V
3 1 V
3 4 V
3 -6 V
3 1 V
3 -20 V
3 8 V
3 -18 V
3 -3 V
2 13 V
3 6 V
3 -26 V
3 6 V
3 -9 V
3 -10 V
3 3 V
3 17 V
3 -8 V
3 -13 V
3 -5 V
3 0 V
3 -4 V
2 1 V
3 -14 V
3 21 V
3 -19 V
3 -7 V
3 4 V
3 -21 V
3 10 V
stroke 1983 2497 M
3 2 V
3 -6 V
3 -9 V
3 6 V
2 -22 V
3 13 V
3 -6 V
3 4 V
3 -7 V
3 -21 V
3 -1 V
3 -1 V
3 8 V
3 4 V
3 0 V
3 1 V
3 -14 V
2 -28 V
3 18 V
3 -6 V
3 -5 V
3 17 V
3 -13 V
3 -9 V
3 0 V
3 9 V
3 -4 V
3 -9 V
3 2 V
2 -6 V
3 -19 V
3 5 V
3 -2 V
3 9 V
3 -24 V
3 4 V
3 10 V
3 -17 V
3 -3 V
3 11 V
3 15 V
3 10 V
2 -12 V
3 16 V
3 -11 V
3 14 V
3 -12 V
3 -8 V
3 -25 V
3 8 V
3 21 V
3 3 V
3 -7 V
3 -7 V
2 6 V
3 -17 V
3 12 V
3 16 V
3 -41 V
3 29 V
3 -22 V
3 2 V
3 -16 V
3 -2 V
3 10 V
3 -1 V
2 2 V
3 -10 V
3 11 V
3 -15 V
3 8 V
3 -21 V
3 -7 V
3 -2 V
3 14 V
3 -5 V
3 1 V
3 4 V
3 -24 V
2 14 V
3 9 V
3 -7 V
3 21 V
3 -6 V
3 -25 V
3 -24 V
3 23 V
3 1 V
3 -19 V
3 -13 V
3 23 V
2 1 V
3 -1 V
3 -9 V
3 16 V
3 -19 V
3 1 V
3 -14 V
3 -10 V
3 0 V
3 -8 V
3 7 V
3 -9 V
3 -12 V
stroke 2287 2265 M
2 2 V
3 -18 V
3 10 V
3 16 V
3 -1 V
3 -13 V
3 -4 V
3 6 V
3 26 V
3 -17 V
3 22 V
3 -27 V
2 -8 V
3 13 V
3 5 V
3 -2 V
3 -14 V
3 -5 V
3 -3 V
3 -4 V
3 2 V
3 10 V
3 4 V
3 1 V
2 -11 V
3 5 V
3 -25 V
3 -26 V
3 7 V
3 2 V
3 7 V
3 -35 V
3 20 V
3 -7 V
3 -7 V
3 12 V
3 0 V
2 -14 V
3 17 V
3 3 V
3 -1 V
3 6 V
3 10 V
3 -21 V
3 13 V
3 32 V
3 -2 V
3 -34 V
3 8 V
2 -20 V
3 19 V
3 -10 V
3 -18 V
3 0 V
3 20 V
3 -48 V
3 55 V
3 30 V
3 -60 V
3 37 V
3 -4 V
3 -19 V
2 -15 V
3 -10 V
3 -1 V
3 -8 V
3 34 V
3 -22 V
3 -12 V
3 -19 V
3 -7 V
3 -9 V
3 38 V
3 -42 V
2 24 V
3 13 V
3 6 V
3 80 V
3 -35 V
3 -85 V
3 -17 V
3 -15 V
3 -5 V
3 -3 V
3 8 V
3 1 V
3 7 V
2 -19 V
3 0 V
3 4 V
3 -19 V
3 -4 V
3 -7 V
3 32 V
3 -6 V
3 -31 V
3 7 V
3 -9 V
3 -4 V
2 -26 V
3 47 V
3 -2 V
3 -53 V
3 3 V
stroke 2590 2026 M
3 19 V
3 -10 V
3 44 V
3 -43 V
3 9 V
3 -65 V
3 71 V
2 -6 V
3 -51 V
3 36 V
3 10 V
3 -19 V
3 6 V
3 10 V
3 15 V
3 20 V
3 -27 V
3 -18 V
3 7 V
3 12 V
2 -11 V
3 -8 V
3 17 V
3 -20 V
3 3 V
3 -10 V
3 -40 V
3 55 V
3 12 V
3 -33 V
3 25 V
3 43 V
2 -39 V
3 -12 V
3 2 V
3 -35 V
3 -5 V
3 -10 V
3 -19 V
3 6 V
3 -13 V
3 16 V
3 6 V
3 -15 V
3 4 V
2 48 V
3 -72 V
3 19 V
3 -26 V
3 -19 V
3 43 V
3 -17 V
3 35 V
3 -17 V
3 -17 V
3 13 V
3 -13 V
2 4 V
3 -13 V
3 0 V
3 -17 V
3 32 V
3 2 V
3 -13 V
3 -41 V
3 19 V
3 -28 V
3 23 V
3 30 V
3 18 V
2 6 V
3 -20 V
3 -19 V
3 25 V
3 -6 V
3 -21 V
3 49 V
3 -36 V
3 -9 V
3 -4 V
3 26 V
3 -29 V
2 0 V
3 -20 V
3 19 V
3 17 V
3 -35 V
3 33 V
3 7 V
3 -19 V
3 3 V
3 23 V
3 -50 V
3 22 V
2 20 V
3 -17 V
3 19 V
3 19 V
3 -25 V
3 4 V
3 -4 V
3 30 V
3 4 V
3 19 V
stroke 2894 1989 M
3 -28 V
3 33 V
3 -44 V
2 3 V
3 -88 V
3 19 V
3 -32 V
3 23 V
3 15 V
3 -2 V
3 16 V
3 -24 V
3 40 V
3 9 V
3 -49 V
2 -5 V
3 -48 V
3 -27 V
3 49 V
3 -12 V
3 10 V
3 -47 V
3 19 V
3 30 V
3 -45 V
3 86 V
3 3 V
3 -21 V
2 58 V
3 -43 V
3 -29 V
3 24 V
3 38 V
3 -35 V
3 -33 V
3 30 V
3 -39 V
3 -2 V
3 27 V
3 -49 V
2 6 V
3 -30 V
3 -5 V
3 -16 V
3 47 V
3 -19 V
3 49 V
3 -40 V
3 -40 V
3 35 V
3 -64 V
3 53 V
3 -24 V
2 26 V
3 30 V
3 -34 V
3 28 V
3 22 V
3 -64 V
3 27 V
3 -47 V
3 106 V
3 -75 V
3 23 V
3 -39 V
2 49 V
3 -26 V
3 -63 V
3 -9 V
3 28 V
3 94 V
3 -39 V
3 -47 V
3 39 V
3 -78 V
3 71 V
3 -22 V
2 -2 V
3 101 V
3 -91 V
3 0 V
3 -13 V
3 -69 V
3 51 V
3 56 V
3 -85 V
3 32 V
3 25 V
3 -42 V
3 22 V
2 8 V
3 -57 V
3 52 V
3 -11 V
3 3 V
3 5 V
3 25 V
3 -65 V
3 -65 V
3 65 V
3 35 V
3 -57 V
2 16 V
3 54 V
stroke 3197 1764 M
3 -51 V
3 48 V
3 111 V
3 -144 V
3 124 V
3 -110 V
3 55 V
3 -97 V
3 0 V
3 -23 V
3 36 V
2 -82 V
3 49 V
3 42 V
3 3 V
3 56 V
3 -15 V
3 -53 V
3 -66 V
3 50 V
3 7 V
3 -38 V
3 21 V
2 26 V
3 -40 V
3 7 V
3 39 V
3 -15 V
3 49 V
3 -28 V
3 -31 V
3 -24 V
3 -4 V
3 53 V
3 -53 V
2 7 V
3 11 V
3 0 V
3 95 V
3 -5 V
3 -49 V
3 -21 V
3 -27 V
3 -11 V
3 -107 V
3 118 V
3 -11 V
3 -48 V
2 21 V
3 61 V
3 -120 V
3 51 V
3 -95 V
3 111 V
3 -16 V
3 -13 V
3 33 V
3 -47 V
3 51 V
3 -20 V
2 69 V
3 18 V
3 -87 V
3 49 V
3 -37 V
3 -34 V
3 45 V
3 -68 V
3 -42 V
3 132 V
3 -14 V
3 65 V
3 -84 V
2 0 V
3 -62 V
3 14 V
3 141 V
3 -114 V
3 -4 V
3 -98 V
3 0 V
3 12 V
3 -53 V
3 28 V
3 -21 V
2 63 V
3 -93 V
3 23 V
3 21 V
3 38 V
3 43 V
3 -74 V
3 93 V
3 -24 V
3 59 V
3 4 V
3 -126 V
3 145 V
2 -98 V
3 58 V
3 -47 V
3 34 V
3 -24 V
3 -55 V
stroke 3501 1530 M
3 60 V
3 -48 V
3 -6 V
3 0 V
3 23 V
3 0 V
2 -42 V
3 42 V
3 -6 V
3 42 V
3 -53 V
3 -45 V
3 39 V
3 -19 V
3 -49 V
3 96 V
3 71 V
3 -31 V
2 -62 V
3 11 V
3 -5 V
3 5 V
3 -17 V
3 33 V
3 78 V
3 -105 V
3 27 V
3 -5 V
3 79 V
3 -17 V
3 -67 V
2 10 V
3 30 V
3 -30 V
3 -10 V
3 5 V
3 49 V
3 -18 V
3 -71 V
3 -13 V
3 115 V
3 -90 V
3 73 V
2 -67 V
3 11 V
3 0 V
3 0 V
3 -42 V
3 -43 V
3 0 V
3 15 V
3 -75 V
3 0 V
3 167 V
3 -39 V
3 -84 V
2 38 V
3 -38 V
3 -34 V
3 18 V
3 16 V
3 90 V
3 -90 V
3 16 V
3 -80 V
3 10 V
3 0 V
3 10 V
2 -90 V
3 25 V
3 -54 V
3 42 V
3 -91 V
3 127 V
3 -36 V
3 -27 V
3 -15 V
3 -67 V
3 18 V
3 -83 V
3 147 V
2 -30 V
3 -117 V
3 83 V
3 103 V
3 -141 V
3 72 V
3 -16 V
3 -78 V
3 78 V
3 -101 V
3 0 V
3 83 V
2 148 V
3 10 V
3 -80 V
3 -78 V
3 18 V
3 160 V
3 -144 V
3 15 V
3 66 V
3 -66 V
3 -158 V
stroke 3805 1131 M
3 127 V
2 -18 V
3 -109 V
3 173 V
3 -30 V
3 57 V
3 -228 V
3 54 V
3 101 V
3 -78 V
3 60 V
3 148 V
3 -10 V
3 -156 V
2 246 V
3 -150 V
3 13 V
3 -27 V
3 -102 V
3 165 V
3 -109 V
3 16 V
3 -34 V
3 18 V
3 0 V
3 -78 V
2 -49 V
3 109 V
3 -169 V
3 0 V
3 60 V
3 49 V
3 -295 V
3 218 V
3 -32 V
3 -36 V
3 -41 V
3 0 V
3 -482 V
2 433 V
3 90 V
3 36 V
3 -36 V
3 96 V
3 -60 V
3 -36 V
3 96 V
3 -186 V
3 -138 V
3 138 V
3 186 V
2 -433 V
3 247 V
3 158 V
3 -109 V
3 0 V
6 -296 V
6 187 V
3 60 V
3 -60 V
3 60 V
3 126 V
2 -126 V
3 -247 V
3 109 V
3 78 V
3 186 V
3 -77 V
3 77 V
3 -126 V
3 126 V
3 0 V
3 32 V
3 28 V
2 26 V
3 -212 V
3 -60 V
3 60 V
3 126 V
3 -264 V
3 296 V
3 -32 V
3 -186 V
3 150 V
3 0 V
3 -150 V
2 0 V
3 246 V
3 -137 V
3 -109 V
3 109 V
3 109 V
3 54 V
3 -54 V
3 -109 V
3 109 V
3 77 V
3 -109 V
3 109 V
2 -77 V
3 -68 V
3 145 V
3 109 V
3 -186 V
stroke 4114 1103 M
3 99 V
3 38 V
3 -83 V
3 45 V
3 72 V
3 -72 V
3 72 V
2 153 V
3 0 V
3 17 V
3 -26 V
3 -10 V
3 140 V
3 -193 V
3 -51 V
3 -64 V
3 34 V
3 0 V
3 57 V
3 -27 V
2 27 V
3 -13 V
3 -60 V
3 -78 V
3 60 V
3 49 V
3 54 V
3 -121 V
3 145 V
3 -210 V
3 23 V
3 -49 V
2 -96 V
3 0 V
3 36 V
3 -186 V
3 0 V
3 272 V
3 65 V
3 -277 V
3 0 V
3 90 V
3 -228 V
3 228 V
2 122 V
3 -122 V
3 -90 V
3 49 V
3 109 V
3 28 V
3 26 V
3 -26 V
3 -137 V
3 186 V
3 0 V
3 0 V
3 -373 V
2 324 V
3 26 V
3 83 V
3 -169 V
3 109 V
3 -49 V
3 -137 V
3 -109 V
3 109 V
3 109 V
3 -296 V
3 78 V
2 -373 V
3 482 V
3 -109 V
3 109 V
3 41 V
3 -90 V
3 90 V
3 -41 V
3 -109 V
3 150 V
3 -337 V
3 187 V
3 60 V
2 0 V
3 90 V
3 68 V
3 0 V
3 -68 V
3 68 V
3 0 V
3 99 V
3 -71 V
3 -96 V
3 187 V
3 18 V
2 -18 V
3 18 V
3 0 V
3 -18 V
3 0 V
3 -91 V
3 -28 V
3 99 V
3 -99 V
3 137 V
stroke 4418 1240 M
3 -295 V
3 257 V
3 56 V
2 -187 V
3 -186 V
3 246 V
3 -60 V
3 -186 V
3 295 V
3 -235 V
6 -247 V
3 187 V
3 -78 V
3 138 V
2 0 V
3 -247 V
3 296 V
3 0 V
3 -49 V
3 126 V
3 -186 V
3 -187 V
3 247 V
3 -433 V
3 373 V
3 0 V
2 0 V
3 -78 V
3 78 V
3 -373 V
3 295 V
3 0 V
3 -109 V
3 109 V
3 78 V
3 -187 V
3 0 V
3 0 V
3 187 V
2 60 V
3 -138 V
3 187 V
3 41 V
3 -523 V
3 373 V
3 186 V
3 -264 V
3 264 V
3 -186 V
3 218 V
3 -296 V
2 78 V
3 -78 V
3 187 V
3 163 V
3 -122 V
3 -90 V
3 90 V
3 68 V
3 -591 V
3 373 V
3 109 V
3 -109 V
3 0 V
2 186 V
3 -373 V
3 187 V
3 60 V
3 49 V
3 -49 V
3 49 V
3 -296 V
3 337 V
3 -150 V
3 0 V
3 109 V
2 0 V
3 -187 V
3 138 V
3 -60 V
3 186 V
3 -186 V
3 60 V
3 0 V
3 -138 V
3 228 V
3 -41 V
3 -49 V
3 -138 V
2 0 V
3 -295 V
3 433 V
3 49 V
3 -187 V
3 228 V
3 -150 V
3 -78 V
3 78 V
3 -78 V
3 264 V
3 60 V
2 -60 V
3 -186 V
3 218 V
stroke 4724 1103 M
3 54 V
3 0 V
3 0 V
3 0 V
3 117 V
3 -16 V
3 -78 V
3 -77 V
3 54 V
2 0 V
3 -26 V
3 109 V
3 34 V
3 -143 V
3 26 V
3 117 V
3 -52 V
3 -42 V
3 -23 V
3 23 V
3 -77 V
3 77 V
2 124 V
3 -201 V
3 99 V
3 0 V
3 0 V
3 -99 V
3 201 V
3 -124 V
3 -23 V
3 23 V
3 -23 V
3 0 V
2 -122 V
3 145 V
3 -145 V
3 96 V
3 -28 V
3 99 V
3 20 V
3 -65 V
3 101 V
3 -155 V
3 99 V
3 -317 V
3 337 V
2 0 V
3 0 V
3 52 V
3 -52 V
3 -65 V
3 45 V
3 -131 V
3 -77 V
3 137 V
3 -186 V
3 212 V
3 -350 V
2 187 V
3 41 V
3 -41 V
3 41 V
3 36 V
3 60 V
3 -137 V
3 41 V
3 -90 V
3 0 V
3 212 V
3 -163 V
2 137 V
3 -186 V
3 90 V
3 -150 V
3 150 V
3 36 V
3 -36 V
3 -228 V
3 187 V
3 163 V
3 65 V
3 0 V
3 -42 V
2 42 V
3 -91 V
3 49 V
3 138 V
3 -14 V
3 114 V
3 -114 V
3 51 V
3 81 V
3 -105 V
3 -151 V
3 -145 V
2 122 V
3 -54 V
3 -68 V
3 167 V
3 -131 V
3 -36 V
3 -150 V
3 60 V
stroke 5028 945 M
3 186 V
3 -186 V
3 49 V
3 77 V
3 -186 V
2 -78 V
3 187 V
3 0 V
3 77 V
3 -264 V
3 -295 V
3 559 V
3 -264 V
3 138 V
3 49 V
3 0 V
3 0 V
2 -49 V
3 49 V
3 -109 V
3 60 V
3 -138 V
3 78 V
3 -187 V
3 0 V
3 247 V
3 0 V
3 49 V
3 -49 V
3 -60 V
2 218 V
3 -68 V
3 36 V
3 -77 V
3 -296 V
3 187 V
6 60 V
3 0 V
3 0 V
3 0 V
3 49 V
2 0 V
3 -109 V
3 186 V
3 -186 V
3 -187 V
3 0 V
3 247 V
3 -60 V
6 -78 V
3 -295 V
3 373 V
2 -373 V
3 186 V
3 109 V
3 -109 V
3 187 V
3 -187 V
3 187 V
3 -187 V
3 109 V
3 296 V
3 -591 V
3 295 V
3 -109 V
2 109 V
6 0 V
3 -295 V
3 186 V
3 -186 V
3 186 V
6 109 V
3 -295 V
3 373 V
3 -373 V
2 295 V
3 -109 V
3 109 V
3 -109 V
3 -186 V
3 295 V
3 78 V
3 -373 V
3 0 V
6 186 V
8 0 V
3 0 V
6 0 V
3 187 V
3 -187 V
6 -186 V
6 186 V
3 0 V
5 0 V
3 -186 V
3 0 V
3 186 V
3 -186 V
3 0 V
6 186 V
6 0 V
3 0 V
3 0 V
3 0 V
stroke 5370 698 M
2 109 V
3 -109 V
3 109 V
3 78 V
3 -78 V
3 -109 V
3 -186 V
3 186 V
3 0 V
3 0 V
3 0 V
3 109 V
2 -109 V
3 109 V
3 -109 V
3 109 V
6 78 V
3 -373 V
3 186 V
3 109 V
3 0 V
3 78 V
3 -373 V
2 373 V
3 -78 V
3 -109 V
3 247 V
3 49 V
3 -109 V
3 -373 V
3 373 V
3 -187 V
3 296 V
3 -109 V
3 -78 V
3 138 V
2 -247 V
3 0 V
3 -186 V
3 186 V
3 109 V
3 -295 V
3 0 V
3 523 V
3 -228 V
3 -109 V
3 0 V
3 0 V
2 -186 V
3 186 V
3 0 V
3 247 V
3 -60 V
3 -373 V
3 0 V
3 186 V
3 0 V
3 187 V
3 -373 V
3 373 V
3 -187 V
5 -186 V
3 295 V
3 78 V
3 -373 V
3 373 V
3 -187 V
3 109 V
3 -109 V
3 -186 V
3 186 V
3 -186 V
2 295 V
3 -295 V
3 0 V
3 0 V
6 295 V
3 -109 V
6 0 V
6 109 V
8 -295 V
3 0 V
3 0 V
6 186 V
3 109 V
3 -109 V
3 0 V
3 0 V
3 0 V
6 109 V
2 0 V
6 -109 V
3 0 V
3 187 V
3 0 V
3 -187 V
3 0 V
6 -186 V
3 186 V
3 -186 V
2 0 V
3 186 V
3 187 V
6 -373 V
stroke 5708 512 M
3 0 V
3 295 V
9 78 V
3 -187 V
6 0 V
2 -186 V
3 373 V
3 -78 V
3 -295 V
6 186 V
6 0 V
3 -186 V
9 295 V
8 -295 V
3 0 V
3 373 V
3 -373 V
3 0 V
6 0 V
6 186 V
3 -186 V
8 0 V
6 295 V
3 -295 V
6 186 V
9 -186 V
3 186 V
14 0 V
6 0 V
3 -186 V
3 0 V
6 0 V
17 0 V
3 0 V
6 0 V
20 0 V
3 186 V
3 -186 V
21 0 V
3 0 V
3 0 V
26 0 V
6 0 V
3 295 V
5 -295 V
3 0 V
3 0 V
12 0 V
3 186 V
6 -186 V
6 0 V
2 0 V
9 0 V
9 0 V
3 0 V
6 0 V
6 0 V
3 0 V
2 373 V
3 -187 V
3 -186 V
9 0 V
9 0 V
6 186 V
5 -186 V
18 0 V
6 0 V
14 0 V
12 0 V
12 0 V
9 0 V
8 186 V
6 -186 V
3 0 V
3 0 V
6 186 V
20 -186 V
3 0 V
3 0 V
29 0 V
9 0 V
3 0 V
6 0 V
3 0 V
11 0 V
3 0 V
3 0 V
3 186 V
3 0 V
3 -186 V
3 295 V
3 -109 V
6 109 V
3 -295 V
3 0 V
2 295 V
3 -295 V
9 482 V
3 -187 V
6 78 V
3 -78 V
3 -109 V
6 0 V
5 -186 V
stroke 6353 512 M
3 295 V
9 -109 V
3 -186 V
3 0 V
3 0 V
11 0 V
9 0 V
3 0 V
3 295 V
3 0 V
3 -109 V
3 187 V
9 -373 V
3 0 V
2 0 V
3 0 V
3 373 V
3 -373 V
3 295 V
3 0 V
3 0 V
3 -109 V
3 0 V
3 -186 V
3 373 V
5 -373 V
3 295 V
3 -295 V
6 0 V
3 0 V
9 0 V
1072 4586 CircleF
1075 4571 CircleF
1078 4534 CircleF
1081 4492 CircleF
1084 4445 CircleF
1087 4394 CircleF
1090 4341 CircleF
1092 4287 CircleF
1095 4231 CircleF
1098 4175 CircleF
1101 4119 CircleF
1104 4066 CircleF
1107 4014 CircleF
1110 3963 CircleF
1113 3915 CircleF
1116 3870 CircleF
1119 3827 CircleF
1122 3787 CircleF
1125 3751 CircleF
1127 3716 CircleF
1130 3684 CircleF
1133 3653 CircleF
1136 3624 CircleF
1139 3596 CircleF
1142 3573 CircleF
1145 3552 CircleF
1148 3530 CircleF
1151 3510 CircleF
1154 3494 CircleF
1157 3472 CircleF
1160 3456 CircleF
1163 3439 CircleF
1165 3425 CircleF
1168 3411 CircleF
1171 3398 CircleF
1174 3385 CircleF
1177 3376 CircleF
1180 3363 CircleF
1183 3355 CircleF
1186 3344 CircleF
1189 3335 CircleF
1192 3327 CircleF
1195 3314 CircleF
1198 3302 CircleF
1200 3296 CircleF
1203 3289 CircleF
1206 3277 CircleF
1209 3270 CircleF
1212 3259 CircleF
1215 3256 CircleF
1218 3248 CircleF
1221 3241 CircleF
1224 3232 CircleF
1227 3225 CircleF
1230 3219 CircleF
1233 3219 CircleF
1235 3208 CircleF
1238 3206 CircleF
1241 3200 CircleF
1244 3196 CircleF
1247 3195 CircleF
1250 3190 CircleF
1253 3180 CircleF
1256 3174 CircleF
1259 3173 CircleF
1262 3166 CircleF
1265 3164 CircleF
1268 3165 CircleF
1271 3160 CircleF
1273 3156 CircleF
1276 3146 CircleF
1279 3147 CircleF
1282 3139 CircleF
1285 3141 CircleF
1288 3143 CircleF
1291 3138 CircleF
1294 3134 CircleF
1297 3134 CircleF
1300 3130 CircleF
1303 3128 CircleF
1306 3123 CircleF
1308 3132 CircleF
1311 3128 CircleF
1314 3124 CircleF
1317 3127 CircleF
1320 3120 CircleF
1323 3125 CircleF
1326 3119 CircleF
1329 3120 CircleF
1332 3119 CircleF
1335 3116 CircleF
1338 3126 CircleF
1341 3126 CircleF
1344 3121 CircleF
1346 3118 CircleF
1349 3120 CircleF
1352 3121 CircleF
1355 3122 CircleF
1358 3125 CircleF
1361 3119 CircleF
1364 3118 CircleF
1367 3122 CircleF
1370 3120 CircleF
1373 3123 CircleF
1376 3120 CircleF
1379 3116 CircleF
1381 3116 CircleF
1384 3121 CircleF
1387 3115 CircleF
1390 3120 CircleF
1393 3121 CircleF
1396 3124 CircleF
1399 3125 CircleF
1402 3126 CircleF
1405 3127 CircleF
1408 3125 CircleF
1411 3123 CircleF
1414 3127 CircleF
1417 3130 CircleF
1419 3127 CircleF
1422 3129 CircleF
1425 3131 CircleF
1428 3131 CircleF
1431 3129 CircleF
1434 3134 CircleF
1437 3132 CircleF
1440 3134 CircleF
1443 3134 CircleF
1446 3135 CircleF
1449 3135 CircleF
1452 3132 CircleF
1454 3126 CircleF
1457 3132 CircleF
1460 3132 CircleF
1463 3131 CircleF
1466 3132 CircleF
1469 3132 CircleF
1472 3129 CircleF
1475 3125 CircleF
1478 3130 CircleF
1481 3122 CircleF
1484 3131 CircleF
1487 3129 CircleF
1489 3125 CircleF
1492 3127 CircleF
1495 3126 CircleF
1498 3122 CircleF
1501 3118 CircleF
1504 3118 CircleF
1507 3111 CircleF
1510 3120 CircleF
1513 3126 CircleF
1516 3121 CircleF
1519 3120 CircleF
1522 3118 CircleF
1525 3115 CircleF
1527 3114 CircleF
1530 3118 CircleF
1533 3113 CircleF
1536 3111 CircleF
1539 3103 CircleF
1542 3105 CircleF
1545 3100 CircleF
1548 3094 CircleF
1551 3099 CircleF
1554 3092 CircleF
1557 3095 CircleF
1560 3094 CircleF
1562 3092 CircleF
1565 3084 CircleF
1568 3080 CircleF
1571 3082 CircleF
1574 3076 CircleF
1577 3079 CircleF
1580 3067 CircleF
1583 3065 CircleF
1586 3063 CircleF
1589 3062 CircleF
1592 3060 CircleF
1595 3057 CircleF
1598 3055 CircleF
1600 3047 CircleF
1603 3047 CircleF
1606 3043 CircleF
1609 3034 CircleF
1612 3033 CircleF
1615 3035 CircleF
1618 3031 CircleF
1621 3019 CircleF
1624 3021 CircleF
1627 3017 CircleF
1630 3014 CircleF
1633 3015 CircleF
1635 3007 CircleF
1638 3007 CircleF
1641 2996 CircleF
1644 2991 CircleF
1647 2981 CircleF
1650 2975 CircleF
1653 2978 CircleF
1656 2970 CircleF
1659 2968 CircleF
1662 2965 CircleF
1665 2958 CircleF
1668 2952 CircleF
1670 2953 CircleF
1673 2943 CircleF
1676 2940 CircleF
1679 2934 CircleF
1682 2925 CircleF
1685 2921 CircleF
1688 2915 CircleF
1691 2914 CircleF
1694 2908 CircleF
1697 2904 CircleF
1700 2892 CircleF
1703 2895 CircleF
1706 2897 CircleF
1708 2875 CircleF
1711 2876 CircleF
1714 2876 CircleF
1717 2868 CircleF
1720 2870 CircleF
1723 2864 CircleF
1726 2857 CircleF
1729 2844 CircleF
1732 2836 CircleF
1735 2838 CircleF
1738 2835 CircleF
1741 2836 CircleF
1743 2820 CircleF
1746 2818 CircleF
1749 2811 CircleF
1752 2798 CircleF
1755 2789 CircleF
1758 2790 CircleF
1761 2788 CircleF
1764 2783 CircleF
1767 2775 CircleF
1770 2783 CircleF
1773 2778 CircleF
1776 2771 CircleF
1779 2770 CircleF
1781 2762 CircleF
1784 2762 CircleF
1787 2752 CircleF
1790 2748 CircleF
1793 2753 CircleF
1796 2747 CircleF
1799 2737 CircleF
1802 2733 CircleF
1805 2721 CircleF
1808 2714 CircleF
1811 2723 CircleF
1814 2711 CircleF
1816 2705 CircleF
1819 2712 CircleF
1822 2696 CircleF
1825 2692 CircleF
1828 2685 CircleF
1831 2680 CircleF
1834 2684 CircleF
1837 2685 CircleF
1840 2673 CircleF
1843 2657 CircleF
1846 2666 CircleF
1849 2661 CircleF
1852 2661 CircleF
1854 2653 CircleF
1857 2653 CircleF
1860 2639 CircleF
1863 2641 CircleF
1866 2638 CircleF
1869 2630 CircleF
1872 2640 CircleF
1875 2613 CircleF
1878 2623 CircleF
1881 2624 CircleF
1884 2611 CircleF
1887 2603 CircleF
1889 2599 CircleF
1892 2604 CircleF
1895 2594 CircleF
1898 2585 CircleF
1901 2586 CircleF
1904 2590 CircleF
1907 2584 CircleF
1910 2585 CircleF
1913 2565 CircleF
1916 2573 CircleF
1919 2555 CircleF
1922 2552 CircleF
1924 2565 CircleF
1927 2571 CircleF
1930 2545 CircleF
1933 2551 CircleF
1936 2542 CircleF
1939 2532 CircleF
1942 2535 CircleF
1945 2552 CircleF
1948 2544 CircleF
1951 2531 CircleF
1954 2526 CircleF
1957 2526 CircleF
1960 2522 CircleF
1962 2523 CircleF
1965 2509 CircleF
1968 2530 CircleF
1971 2511 CircleF
1974 2504 CircleF
1977 2508 CircleF
1980 2487 CircleF
1983 2497 CircleF
1986 2499 CircleF
1989 2493 CircleF
1992 2484 CircleF
1995 2490 CircleF
1997 2468 CircleF
2000 2481 CircleF
2003 2475 CircleF
2006 2479 CircleF
2009 2472 CircleF
2012 2451 CircleF
2015 2450 CircleF
2018 2449 CircleF
2021 2457 CircleF
2024 2461 CircleF
2027 2461 CircleF
2030 2462 CircleF
2033 2448 CircleF
2035 2420 CircleF
2038 2438 CircleF
2041 2432 CircleF
2044 2427 CircleF
2047 2444 CircleF
2050 2431 CircleF
2053 2422 CircleF
2056 2422 CircleF
2059 2431 CircleF
2062 2427 CircleF
2065 2418 CircleF
2068 2420 CircleF
2070 2414 CircleF
2073 2395 CircleF
2076 2400 CircleF
2079 2398 CircleF
2082 2407 CircleF
2085 2383 CircleF
2088 2387 CircleF
2091 2397 CircleF
2094 2380 CircleF
2097 2377 CircleF
2100 2388 CircleF
2103 2403 CircleF
2106 2413 CircleF
2108 2401 CircleF
2111 2417 CircleF
2114 2406 CircleF
2117 2420 CircleF
2120 2408 CircleF
2123 2400 CircleF
2126 2375 CircleF
2129 2383 CircleF
2132 2404 CircleF
2135 2407 CircleF
2138 2400 CircleF
2141 2393 CircleF
2143 2399 CircleF
2146 2382 CircleF
2149 2394 CircleF
2152 2410 CircleF
2155 2369 CircleF
2158 2398 CircleF
2161 2376 CircleF
2164 2378 CircleF
2167 2362 CircleF
2170 2360 CircleF
2173 2370 CircleF
2176 2369 CircleF
2178 2371 CircleF
2181 2361 CircleF
2184 2372 CircleF
2187 2357 CircleF
2190 2365 CircleF
2193 2344 CircleF
2196 2337 CircleF
2199 2335 CircleF
2202 2349 CircleF
2205 2344 CircleF
2208 2345 CircleF
2211 2349 CircleF
2214 2325 CircleF
2216 2339 CircleF
2219 2348 CircleF
2222 2341 CircleF
2225 2362 CircleF
2228 2356 CircleF
2231 2331 CircleF
2234 2307 CircleF
2237 2330 CircleF
2240 2331 CircleF
2243 2312 CircleF
2246 2299 CircleF
2249 2322 CircleF
2251 2323 CircleF
2254 2322 CircleF
2257 2313 CircleF
2260 2329 CircleF
2263 2310 CircleF
2266 2311 CircleF
2269 2297 CircleF
2272 2287 CircleF
2275 2287 CircleF
2278 2279 CircleF
2281 2286 CircleF
2284 2277 CircleF
2287 2265 CircleF
2289 2267 CircleF
2292 2249 CircleF
2295 2259 CircleF
2298 2275 CircleF
2301 2274 CircleF
2304 2261 CircleF
2307 2257 CircleF
2310 2263 CircleF
2313 2289 CircleF
2316 2272 CircleF
2319 2294 CircleF
2322 2267 CircleF
2324 2259 CircleF
2327 2272 CircleF
2330 2277 CircleF
2333 2275 CircleF
2336 2261 CircleF
2339 2256 CircleF
2342 2253 CircleF
2345 2249 CircleF
2348 2251 CircleF
2351 2261 CircleF
2354 2265 CircleF
2357 2266 CircleF
2359 2255 CircleF
2362 2260 CircleF
2365 2235 CircleF
2368 2209 CircleF
2371 2216 CircleF
2374 2218 CircleF
2377 2225 CircleF
2380 2190 CircleF
2383 2210 CircleF
2386 2203 CircleF
2389 2196 CircleF
2392 2208 CircleF
2395 2208 CircleF
2397 2194 CircleF
2400 2211 CircleF
2403 2214 CircleF
2406 2213 CircleF
2409 2219 CircleF
2412 2229 CircleF
2415 2208 CircleF
2418 2221 CircleF
2421 2253 CircleF
2424 2251 CircleF
2427 2217 CircleF
2430 2225 CircleF
2432 2205 CircleF
2435 2224 CircleF
2438 2214 CircleF
2441 2196 CircleF
2444 2196 CircleF
2447 2216 CircleF
2450 2168 CircleF
2453 2223 CircleF
2456 2253 CircleF
2459 2193 CircleF
2462 2230 CircleF
2465 2226 CircleF
2468 2207 CircleF
2470 2192 CircleF
2473 2182 CircleF
2476 2181 CircleF
2479 2173 CircleF
2482 2207 CircleF
2485 2185 CircleF
2488 2173 CircleF
2491 2154 CircleF
2494 2147 CircleF
2497 2138 CircleF
2500 2176 CircleF
2503 2134 CircleF
2505 2158 CircleF
2508 2171 CircleF
2511 2177 CircleF
2514 2257 CircleF
2517 2222 CircleF
2520 2137 CircleF
2523 2120 CircleF
2526 2105 CircleF
2529 2100 CircleF
2532 2097 CircleF
2535 2105 CircleF
2538 2106 CircleF
2541 2113 CircleF
2543 2094 CircleF
2546 2094 CircleF
2549 2098 CircleF
2552 2079 CircleF
2555 2075 CircleF
2558 2068 CircleF
2561 2100 CircleF
2564 2094 CircleF
2567 2063 CircleF
2570 2070 CircleF
2573 2061 CircleF
2576 2057 CircleF
2578 2031 CircleF
2581 2078 CircleF
2584 2076 CircleF
2587 2023 CircleF
2590 2026 CircleF
2593 2045 CircleF
2596 2035 CircleF
2599 2079 CircleF
2602 2036 CircleF
2605 2045 CircleF
2608 1980 CircleF
2611 2051 CircleF
2613 2045 CircleF
2616 1994 CircleF
2619 2030 CircleF
2622 2040 CircleF
2625 2021 CircleF
2628 2027 CircleF
2631 2037 CircleF
2634 2052 CircleF
2637 2072 CircleF
2640 2045 CircleF
2643 2027 CircleF
2646 2034 CircleF
2649 2046 CircleF
2651 2035 CircleF
2654 2027 CircleF
2657 2044 CircleF
2660 2024 CircleF
2663 2027 CircleF
2666 2017 CircleF
2669 1977 CircleF
2672 2032 CircleF
2675 2044 CircleF
2678 2011 CircleF
2681 2036 CircleF
2684 2079 CircleF
2686 2040 CircleF
2689 2028 CircleF
2692 2030 CircleF
2695 1995 CircleF
2698 1990 CircleF
2701 1980 CircleF
2704 1961 CircleF
2707 1967 CircleF
2710 1954 CircleF
2713 1970 CircleF
2716 1976 CircleF
2719 1961 CircleF
2722 1965 CircleF
2724 2013 CircleF
2727 1941 CircleF
2730 1960 CircleF
2733 1934 CircleF
2736 1915 CircleF
2739 1958 CircleF
2742 1941 CircleF
2745 1976 CircleF
2748 1959 CircleF
2751 1942 CircleF
2754 1955 CircleF
2757 1942 CircleF
2759 1946 CircleF
2762 1933 CircleF
2765 1933 CircleF
2768 1916 CircleF
2771 1948 CircleF
2774 1950 CircleF
2777 1937 CircleF
2780 1896 CircleF
2783 1915 CircleF
2786 1887 CircleF
2789 1910 CircleF
2792 1940 CircleF
2795 1958 CircleF
2797 1964 CircleF
2800 1944 CircleF
2803 1925 CircleF
2806 1950 CircleF
2809 1944 CircleF
2812 1923 CircleF
2815 1972 CircleF
2818 1936 CircleF
2821 1927 CircleF
2824 1923 CircleF
2827 1949 CircleF
2830 1920 CircleF
2832 1920 CircleF
2835 1900 CircleF
2838 1919 CircleF
2841 1936 CircleF
2844 1901 CircleF
2847 1934 CircleF
2850 1941 CircleF
2853 1922 CircleF
2856 1925 CircleF
2859 1948 CircleF
2862 1898 CircleF
2865 1920 CircleF
2867 1940 CircleF
2870 1923 CircleF
2873 1942 CircleF
2876 1961 CircleF
2879 1936 CircleF
2882 1940 CircleF
2885 1936 CircleF
2888 1966 CircleF
2891 1970 CircleF
2894 1989 CircleF
2897 1961 CircleF
2900 1994 CircleF
2903 1950 CircleF
2905 1953 CircleF
2908 1865 CircleF
2911 1884 CircleF
2914 1852 CircleF
2917 1875 CircleF
2920 1890 CircleF
2923 1888 CircleF
2926 1904 CircleF
2929 1880 CircleF
2932 1920 CircleF
2935 1929 CircleF
2938 1880 CircleF
2940 1875 CircleF
2943 1827 CircleF
2946 1800 CircleF
2949 1849 CircleF
2952 1837 CircleF
2955 1847 CircleF
2958 1800 CircleF
2961 1819 CircleF
2964 1849 CircleF
2967 1804 CircleF
2970 1890 CircleF
2973 1893 CircleF
2976 1872 CircleF
2978 1930 CircleF
2981 1887 CircleF
2984 1858 CircleF
2987 1882 CircleF
2990 1920 CircleF
2993 1885 CircleF
2996 1852 CircleF
2999 1882 CircleF
3002 1843 CircleF
3005 1841 CircleF
3008 1868 CircleF
3011 1819 CircleF
3013 1825 CircleF
3016 1795 CircleF
3019 1790 CircleF
3022 1774 CircleF
3025 1821 CircleF
3028 1802 CircleF
3031 1851 CircleF
3034 1811 CircleF
3037 1771 CircleF
3040 1806 CircleF
3043 1742 CircleF
3046 1795 CircleF
3049 1771 CircleF
3051 1797 CircleF
3054 1827 CircleF
3057 1793 CircleF
3060 1821 CircleF
3063 1843 CircleF
3066 1779 CircleF
3069 1806 CircleF
3072 1759 CircleF
3075 1865 CircleF
3078 1790 CircleF
3081 1813 CircleF
3084 1774 CircleF
3086 1823 CircleF
3089 1797 CircleF
3092 1734 CircleF
3095 1725 CircleF
3098 1753 CircleF
3101 1847 CircleF
3104 1808 CircleF
3107 1761 CircleF
3110 1800 CircleF
3113 1722 CircleF
3116 1793 CircleF
3119 1771 CircleF
3121 1769 CircleF
3124 1870 CircleF
3127 1779 CircleF
3130 1779 CircleF
3133 1766 CircleF
3136 1697 CircleF
3139 1748 CircleF
3142 1804 CircleF
3145 1719 CircleF
3148 1751 CircleF
3151 1776 CircleF
3154 1734 CircleF
3157 1756 CircleF
3159 1764 CircleF
3162 1707 CircleF
3165 1759 CircleF
3168 1748 CircleF
3171 1751 CircleF
3174 1756 CircleF
3177 1781 CircleF
3180 1716 CircleF
3183 1651 CircleF
3186 1716 CircleF
3189 1751 CircleF
3192 1694 CircleF
3194 1710 CircleF
3197 1764 CircleF
3200 1713 CircleF
3203 1761 CircleF
3206 1872 CircleF
3209 1728 CircleF
3212 1852 CircleF
3215 1742 CircleF
3218 1797 CircleF
3221 1700 CircleF
3224 1700 CircleF
3227 1677 CircleF
3230 1713 CircleF
3232 1631 CircleF
3235 1680 CircleF
3238 1722 CircleF
3241 1725 CircleF
3244 1781 CircleF
3247 1766 CircleF
3250 1713 CircleF
3253 1647 CircleF
3256 1697 CircleF
3259 1704 CircleF
3262 1666 CircleF
3265 1687 CircleF
3267 1713 CircleF
3270 1673 CircleF
3273 1680 CircleF
3276 1719 CircleF
3279 1704 CircleF
3282 1753 CircleF
3285 1725 CircleF
3288 1694 CircleF
3291 1670 CircleF
3294 1666 CircleF
3297 1719 CircleF
3300 1666 CircleF
3302 1673 CircleF
3305 1684 CircleF
3308 1684 CircleF
3311 1779 CircleF
3314 1774 CircleF
3317 1725 CircleF
3320 1704 CircleF
3323 1677 CircleF
3326 1666 CircleF
3329 1559 CircleF
3332 1677 CircleF
3335 1666 CircleF
3338 1618 CircleF
3340 1639 CircleF
3343 1700 CircleF
3346 1580 CircleF
3349 1631 CircleF
3352 1536 CircleF
3355 1647 CircleF
3358 1631 CircleF
3361 1618 CircleF
3364 1651 CircleF
3367 1604 CircleF
3370 1655 CircleF
3373 1635 CircleF
3375 1704 CircleF
3378 1722 CircleF
3381 1635 CircleF
3384 1684 CircleF
3387 1647 CircleF
3390 1613 CircleF
3393 1658 CircleF
3396 1590 CircleF
3399 1548 CircleF
3402 1680 CircleF
3405 1666 CircleF
3408 1731 CircleF
3411 1647 CircleF
3413 1647 CircleF
3416 1585 CircleF
3419 1599 CircleF
3422 1740 CircleF
3425 1626 CircleF
3428 1622 CircleF
3431 1524 CircleF
3434 1524 CircleF
3437 1536 CircleF
3440 1483 CircleF
3443 1511 CircleF
3446 1490 CircleF
3448 1553 CircleF
3451 1460 CircleF
3454 1483 CircleF
3457 1504 CircleF
3460 1542 CircleF
3463 1585 CircleF
3466 1511 CircleF
3469 1604 CircleF
3472 1580 CircleF
3475 1639 CircleF
3478 1643 CircleF
3481 1517 CircleF
3484 1662 CircleF
3486 1564 CircleF
3489 1622 CircleF
3492 1575 CircleF
3495 1609 CircleF
3498 1585 CircleF
3501 1530 CircleF
3504 1590 CircleF
3507 1542 CircleF
3510 1536 CircleF
3513 1536 CircleF
3516 1559 CircleF
3519 1559 CircleF
3521 1517 CircleF
3524 1559 CircleF
3527 1553 CircleF
3530 1595 CircleF
3533 1542 CircleF
3536 1497 CircleF
3539 1536 CircleF
3542 1517 CircleF
3545 1468 CircleF
3548 1564 CircleF
3551 1635 CircleF
3554 1604 CircleF
3556 1542 CircleF
3559 1553 CircleF
3562 1548 CircleF
3565 1553 CircleF
3568 1536 CircleF
3571 1569 CircleF
3574 1647 CircleF
3577 1542 CircleF
3580 1569 CircleF
3583 1564 CircleF
3586 1643 CircleF
3589 1626 CircleF
3592 1559 CircleF
3594 1569 CircleF
3597 1599 CircleF
3600 1569 CircleF
3603 1559 CircleF
3606 1564 CircleF
3609 1613 CircleF
3612 1595 CircleF
3615 1524 CircleF
3618 1511 CircleF
3621 1626 CircleF
3624 1536 CircleF
3627 1609 CircleF
3629 1542 CircleF
3632 1553 CircleF
3635 1553 CircleF
3638 1553 CircleF
3641 1511 CircleF
3644 1468 CircleF
3647 1468 CircleF
3650 1483 CircleF
3653 1408 CircleF
3656 1408 CircleF
3659 1575 CircleF
3662 1536 CircleF
3665 1452 CircleF
3667 1490 CircleF
3670 1452 CircleF
3673 1418 CircleF
3676 1436 CircleF
3679 1452 CircleF
3682 1542 CircleF
3685 1452 CircleF
3688 1468 CircleF
3691 1388 CircleF
3694 1398 CircleF
3697 1398 CircleF
3700 1408 CircleF
3702 1318 CircleF
3705 1343 CircleF
3708 1289 CircleF
3711 1331 CircleF
3714 1240 CircleF
3717 1367 CircleF
3720 1331 CircleF
3723 1304 CircleF
3726 1289 CircleF
3729 1222 CircleF
3732 1240 CircleF
3735 1157 CircleF
3738 1304 CircleF
3740 1274 CircleF
3743 1157 CircleF
3746 1240 CircleF
3749 1343 CircleF
3752 1202 CircleF
3755 1274 CircleF
3758 1258 CircleF
3761 1180 CircleF
3764 1258 CircleF
3767 1157 CircleF
3770 1157 CircleF
3773 1240 CircleF
3775 1388 CircleF
3778 1398 CircleF
3781 1318 CircleF
3784 1240 CircleF
3787 1258 CircleF
3790 1418 CircleF
3793 1274 CircleF
3796 1289 CircleF
3799 1355 CircleF
3802 1289 CircleF
3805 1131 CircleF
3808 1258 CircleF
3810 1240 CircleF
3813 1131 CircleF
3816 1304 CircleF
3819 1274 CircleF
3822 1331 CircleF
3825 1103 CircleF
3828 1157 CircleF
3831 1258 CircleF
3834 1180 CircleF
3837 1240 CircleF
3840 1388 CircleF
3843 1378 CircleF
3846 1222 CircleF
3848 1468 CircleF
3851 1318 CircleF
3854 1331 CircleF
3857 1304 CircleF
3860 1202 CircleF
3863 1367 CircleF
3866 1258 CircleF
3869 1274 CircleF
3872 1240 CircleF
3875 1258 CircleF
3878 1258 CircleF
3881 1180 CircleF
3883 1131 CircleF
3886 1240 CircleF
3889 1071 CircleF
3892 1071 CircleF
3895 1131 CircleF
3898 1180 CircleF
3901 885 CircleF
3904 1103 CircleF
3907 1071 CircleF
3910 1035 CircleF
3913 994 CircleF
3916 994 CircleF
3919 512 CircleF
3921 945 CircleF
3924 1035 CircleF
3927 1071 CircleF
3930 1035 CircleF
3933 1131 CircleF
3936 1071 CircleF
3939 1035 CircleF
3942 1131 CircleF
3945 945 CircleF
3948 807 CircleF
3951 945 CircleF
3954 1131 CircleF
3956 698 CircleF
3959 945 CircleF
3962 1103 CircleF
3965 994 CircleF
3968 994 CircleF
3974 698 CircleF
3980 885 CircleF
3983 945 CircleF
3986 885 CircleF
3989 945 CircleF
3992 1071 CircleF
3994 945 CircleF
3997 698 CircleF
4000 807 CircleF
4003 885 CircleF
4006 1071 CircleF
4009 994 CircleF
4012 1071 CircleF
4015 945 CircleF
4018 1071 CircleF
4021 1071 CircleF
4024 1103 CircleF
4027 1131 CircleF
4029 1157 CircleF
4032 945 CircleF
4035 885 CircleF
4038 945 CircleF
4041 1071 CircleF
4044 807 CircleF
4047 1103 CircleF
4050 1071 CircleF
4053 885 CircleF
4056 1035 CircleF
4059 1035 CircleF
4062 885 CircleF
4064 885 CircleF
4067 1131 CircleF
4070 994 CircleF
4073 885 CircleF
4076 994 CircleF
4079 1103 CircleF
4082 1157 CircleF
4085 1103 CircleF
4088 994 CircleF
4091 1103 CircleF
4094 1180 CircleF
4097 1071 CircleF
4100 1180 CircleF
4102 1103 CircleF
4105 1035 CircleF
4108 1180 CircleF
4111 1289 CircleF
4114 1103 CircleF
4117 1202 CircleF
4120 1240 CircleF
4123 1157 CircleF
4126 1202 CircleF
4129 1274 CircleF
4132 1202 CircleF
4135 1274 CircleF
4137 1427 CircleF
4140 1427 CircleF
4143 1444 CircleF
4146 1418 CircleF
4149 1408 CircleF
4152 1548 CircleF
4155 1355 CircleF
4158 1304 CircleF
4161 1240 CircleF
4164 1274 CircleF
4167 1274 CircleF
4170 1331 CircleF
4173 1304 CircleF
4175 1331 CircleF
4178 1318 CircleF
4181 1258 CircleF
4184 1180 CircleF
4187 1240 CircleF
4190 1289 CircleF
4193 1343 CircleF
4196 1222 CircleF
4199 1367 CircleF
4202 1157 CircleF
4205 1180 CircleF
4208 1131 CircleF
4210 1035 CircleF
4213 1035 CircleF
4216 1071 CircleF
4219 885 CircleF
4222 885 CircleF
4225 1157 CircleF
4228 1222 CircleF
4231 945 CircleF
4234 945 CircleF
4237 1035 CircleF
4240 807 CircleF
4243 1035 CircleF
4245 1157 CircleF
4248 1035 CircleF
4251 945 CircleF
4254 994 CircleF
4257 1103 CircleF
4260 1131 CircleF
4263 1157 CircleF
4266 1131 CircleF
4269 994 CircleF
4272 1180 CircleF
4275 1180 CircleF
4278 1180 CircleF
4281 807 CircleF
4283 1131 CircleF
4286 1157 CircleF
4289 1240 CircleF
4292 1071 CircleF
4295 1180 CircleF
4298 1131 CircleF
4301 994 CircleF
4304 885 CircleF
4307 994 CircleF
4310 1103 CircleF
4313 807 CircleF
4316 885 CircleF
4318 512 CircleF
4321 994 CircleF
4324 885 CircleF
4327 994 CircleF
4330 1035 CircleF
4333 945 CircleF
4336 1035 CircleF
4339 994 CircleF
4342 885 CircleF
4345 1035 CircleF
4348 698 CircleF
4351 885 CircleF
4354 945 CircleF
4356 945 CircleF
4359 1035 CircleF
4362 1103 CircleF
4365 1103 CircleF
4368 1035 CircleF
4371 1103 CircleF
4374 1103 CircleF
4377 1202 CircleF
4380 1131 CircleF
4383 1035 CircleF
4386 1222 CircleF
4389 1240 CircleF
4391 1222 CircleF
4394 1240 CircleF
4397 1240 CircleF
4400 1222 CircleF
4403 1222 CircleF
4406 1131 CircleF
4409 1103 CircleF
4412 1202 CircleF
4415 1103 CircleF
4418 1240 CircleF
4421 945 CircleF
4424 1202 CircleF
4427 1258 CircleF
4429 1071 CircleF
4432 885 CircleF
4435 1131 CircleF
4438 1071 CircleF
4441 885 CircleF
4444 1180 CircleF
4447 945 CircleF
4453 698 CircleF
4456 885 CircleF
4459 807 CircleF
4462 945 CircleF
4464 945 CircleF
4467 698 CircleF
4470 994 CircleF
4473 994 CircleF
4476 945 CircleF
4479 1071 CircleF
4482 885 CircleF
4485 698 CircleF
4488 945 CircleF
4491 512 CircleF
4494 885 CircleF
4497 885 CircleF
4499 885 CircleF
4502 807 CircleF
4505 885 CircleF
4508 512 CircleF
4511 807 CircleF
4514 807 CircleF
4517 698 CircleF
4520 807 CircleF
4523 885 CircleF
4526 698 CircleF
4529 698 CircleF
4532 698 CircleF
4535 885 CircleF
4537 945 CircleF
4540 807 CircleF
4543 994 CircleF
4546 1035 CircleF
4549 512 CircleF
4552 885 CircleF
4555 1071 CircleF
4558 807 CircleF
4561 1071 CircleF
4564 885 CircleF
4567 1103 CircleF
4570 807 CircleF
4572 885 CircleF
4575 807 CircleF
4578 994 CircleF
4581 1157 CircleF
4584 1035 CircleF
4587 945 CircleF
4590 1035 CircleF
4593 1103 CircleF
4596 512 CircleF
4599 885 CircleF
4602 994 CircleF
4605 885 CircleF
4608 885 CircleF
4610 1071 CircleF
4613 698 CircleF
4616 885 CircleF
4619 945 CircleF
4622 994 CircleF
4625 945 CircleF
4628 994 CircleF
4631 698 CircleF
4634 1035 CircleF
4637 885 CircleF
4640 885 CircleF
4643 994 CircleF
4645 994 CircleF
4648 807 CircleF
4651 945 CircleF
4654 885 CircleF
4657 1071 CircleF
4660 885 CircleF
4663 945 CircleF
4666 945 CircleF
4669 807 CircleF
4672 1035 CircleF
4675 994 CircleF
4678 945 CircleF
4681 807 CircleF
4683 807 CircleF
4686 512 CircleF
4689 945 CircleF
4692 994 CircleF
4695 807 CircleF
4698 1035 CircleF
4701 885 CircleF
4704 807 CircleF
4707 885 CircleF
4710 807 CircleF
4713 1071 CircleF
4716 1131 CircleF
4718 1071 CircleF
4721 885 CircleF
4724 1103 CircleF
4727 1157 CircleF
4730 1157 CircleF
4733 1157 CircleF
4736 1157 CircleF
4739 1274 CircleF
4742 1258 CircleF
4745 1180 CircleF
4748 1103 CircleF
4751 1157 CircleF
4753 1157 CircleF
4756 1131 CircleF
4759 1240 CircleF
4762 1274 CircleF
4765 1131 CircleF
4768 1157 CircleF
4771 1274 CircleF
4774 1222 CircleF
4777 1180 CircleF
4780 1157 CircleF
4783 1180 CircleF
4786 1103 CircleF
4789 1180 CircleF
4791 1304 CircleF
4794 1103 CircleF
4797 1202 CircleF
4800 1202 CircleF
4803 1202 CircleF
4806 1103 CircleF
4809 1304 CircleF
4812 1180 CircleF
4815 1157 CircleF
4818 1180 CircleF
4821 1157 CircleF
4824 1157 CircleF
4826 1035 CircleF
4829 1180 CircleF
4832 1035 CircleF
4835 1131 CircleF
4838 1103 CircleF
4841 1202 CircleF
4844 1222 CircleF
4847 1157 CircleF
4850 1258 CircleF
4853 1103 CircleF
4856 1202 CircleF
4859 885 CircleF
4862 1222 CircleF
4864 1222 CircleF
4867 1222 CircleF
4870 1274 CircleF
4873 1222 CircleF
4876 1157 CircleF
4879 1202 CircleF
4882 1071 CircleF
4885 994 CircleF
4888 1131 CircleF
4891 945 CircleF
4894 1157 CircleF
4897 807 CircleF
4899 994 CircleF
4902 1035 CircleF
4905 994 CircleF
4908 1035 CircleF
4911 1071 CircleF
4914 1131 CircleF
4917 994 CircleF
4920 1035 CircleF
4923 945 CircleF
4926 945 CircleF
4929 1157 CircleF
4932 994 CircleF
4934 1131 CircleF
4937 945 CircleF
4940 1035 CircleF
4943 885 CircleF
4946 1035 CircleF
4949 1071 CircleF
4952 1035 CircleF
4955 807 CircleF
4958 994 CircleF
4961 1157 CircleF
4964 1222 CircleF
4967 1222 CircleF
4970 1180 CircleF
4972 1222 CircleF
4975 1131 CircleF
4978 1180 CircleF
4981 1318 CircleF
4984 1304 CircleF
4987 1418 CircleF
4990 1304 CircleF
4993 1355 CircleF
4996 1436 CircleF
4999 1331 CircleF
5002 1180 CircleF
5005 1035 CircleF
5007 1157 CircleF
5010 1103 CircleF
5013 1035 CircleF
5016 1202 CircleF
5019 1071 CircleF
5022 1035 CircleF
5025 885 CircleF
5028 945 CircleF
5031 1131 CircleF
5034 945 CircleF
5037 994 CircleF
5040 1071 CircleF
5043 885 CircleF
5045 807 CircleF
5048 994 CircleF
5051 994 CircleF
5054 1071 CircleF
5057 807 CircleF
5060 512 CircleF
5063 1071 CircleF
5066 807 CircleF
5069 945 CircleF
5072 994 CircleF
5075 994 CircleF
5078 994 CircleF
5080 945 CircleF
5083 994 CircleF
5086 885 CircleF
5089 945 CircleF
5092 807 CircleF
5095 885 CircleF
5098 698 CircleF
5101 698 CircleF
5104 945 CircleF
5107 945 CircleF
5110 994 CircleF
5113 945 CircleF
5116 885 CircleF
5118 1103 CircleF
5121 1035 CircleF
5124 1071 CircleF
5127 994 CircleF
5130 698 CircleF
5133 885 CircleF
5139 945 CircleF
5142 945 CircleF
5145 945 CircleF
5148 945 CircleF
5151 994 CircleF
5153 994 CircleF
5156 885 CircleF
5159 1071 CircleF
5162 885 CircleF
5165 698 CircleF
5168 698 CircleF
5171 945 CircleF
5174 885 CircleF
5180 807 CircleF
5183 512 CircleF
5186 885 CircleF
5188 512 CircleF
5191 698 CircleF
5194 807 CircleF
5197 698 CircleF
5200 885 CircleF
5203 698 CircleF
5206 885 CircleF
5209 698 CircleF
5212 807 CircleF
5215 1103 CircleF
5218 512 CircleF
5221 807 CircleF
5224 698 CircleF
5226 807 CircleF
5232 807 CircleF
5235 512 CircleF
5238 698 CircleF
5241 512 CircleF
5244 698 CircleF
5250 807 CircleF
5253 512 CircleF
5256 885 CircleF
5259 512 CircleF
5261 807 CircleF
5264 698 CircleF
5267 807 CircleF
5270 698 CircleF
5273 512 CircleF
5276 807 CircleF
5279 885 CircleF
5282 512 CircleF
5285 512 CircleF
5291 698 CircleF
5299 698 CircleF
5302 698 CircleF
5308 698 CircleF
5311 885 CircleF
5314 698 CircleF
5320 512 CircleF
5326 698 CircleF
5329 698 CircleF
5334 698 CircleF
5337 512 CircleF
5340 512 CircleF
5343 698 CircleF
5346 512 CircleF
5349 512 CircleF
5355 698 CircleF
5361 698 CircleF
5364 698 CircleF
5367 698 CircleF
5370 698 CircleF
5372 807 CircleF
5375 698 CircleF
5378 807 CircleF
5381 885 CircleF
5384 807 CircleF
5387 698 CircleF
5390 512 CircleF
5393 698 CircleF
5396 698 CircleF
5399 698 CircleF
5402 698 CircleF
5405 807 CircleF
5407 698 CircleF
5410 807 CircleF
5413 698 CircleF
5416 807 CircleF
5422 885 CircleF
5425 512 CircleF
5428 698 CircleF
5431 807 CircleF
5434 807 CircleF
5437 885 CircleF
5440 512 CircleF
5442 885 CircleF
5445 807 CircleF
5448 698 CircleF
5451 945 CircleF
5454 994 CircleF
5457 885 CircleF
5460 512 CircleF
5463 885 CircleF
5466 698 CircleF
5469 994 CircleF
5472 885 CircleF
5475 807 CircleF
5478 945 CircleF
5480 698 CircleF
5483 698 CircleF
5486 512 CircleF
5489 698 CircleF
5492 807 CircleF
5495 512 CircleF
5498 512 CircleF
5501 1035 CircleF
5504 807 CircleF
5507 698 CircleF
5510 698 CircleF
5513 698 CircleF
5515 512 CircleF
5518 698 CircleF
5521 698 CircleF
5524 945 CircleF
5527 885 CircleF
5530 512 CircleF
5533 512 CircleF
5536 698 CircleF
5539 698 CircleF
5542 885 CircleF
5545 512 CircleF
5548 885 CircleF
5551 698 CircleF
5556 512 CircleF
5559 807 CircleF
5562 885 CircleF
5565 512 CircleF
5568 885 CircleF
5571 698 CircleF
5574 807 CircleF
5577 698 CircleF
5580 512 CircleF
5583 698 CircleF
5586 512 CircleF
5588 807 CircleF
5591 512 CircleF
5594 512 CircleF
5597 512 CircleF
5603 807 CircleF
5606 698 CircleF
5612 698 CircleF
5618 807 CircleF
5626 512 CircleF
5629 512 CircleF
5632 512 CircleF
5638 698 CircleF
5641 807 CircleF
5644 698 CircleF
5647 698 CircleF
5650 698 CircleF
5653 698 CircleF
5659 807 CircleF
5661 807 CircleF
5667 698 CircleF
5670 698 CircleF
5673 885 CircleF
5676 885 CircleF
5679 698 CircleF
5682 698 CircleF
5688 512 CircleF
5691 698 CircleF
5694 512 CircleF
5696 512 CircleF
5699 698 CircleF
5702 885 CircleF
5708 512 CircleF
5711 512 CircleF
5714 807 CircleF
5723 885 CircleF
5726 698 CircleF
5732 698 CircleF
5734 512 CircleF
5737 885 CircleF
5740 807 CircleF
5743 512 CircleF
5749 698 CircleF
5755 698 CircleF
5758 512 CircleF
5767 807 CircleF
5775 512 CircleF
5778 512 CircleF
5781 885 CircleF
5784 512 CircleF
5787 512 CircleF
5793 512 CircleF
5799 698 CircleF
5802 512 CircleF
5810 512 CircleF
5816 807 CircleF
5819 512 CircleF
5825 698 CircleF
5834 512 CircleF
5837 698 CircleF
5851 698 CircleF
5857 698 CircleF
5860 512 CircleF
5863 512 CircleF
5869 512 CircleF
5886 512 CircleF
5889 512 CircleF
5895 512 CircleF
5915 512 CircleF
5918 698 CircleF
5921 512 CircleF
5942 512 CircleF
5945 512 CircleF
5948 512 CircleF
5974 512 CircleF
5980 512 CircleF
5983 807 CircleF
5988 512 CircleF
5991 512 CircleF
5994 512 CircleF
6006 512 CircleF
6009 698 CircleF
6015 512 CircleF
6021 512 CircleF
6023 512 CircleF
6032 512 CircleF
6041 512 CircleF
6044 512 CircleF
6050 512 CircleF
6056 512 CircleF
6059 512 CircleF
6061 885 CircleF
6064 698 CircleF
6067 512 CircleF
6076 512 CircleF
6085 512 CircleF
6091 698 CircleF
6096 512 CircleF
6114 512 CircleF
6120 512 CircleF
6134 512 CircleF
6146 512 CircleF
6158 512 CircleF
6167 512 CircleF
6175 698 CircleF
6181 512 CircleF
6184 512 CircleF
6187 512 CircleF
6193 698 CircleF
6213 512 CircleF
6216 512 CircleF
6219 512 CircleF
6248 512 CircleF
6257 512 CircleF
6260 512 CircleF
6266 512 CircleF
6269 512 CircleF
6280 512 CircleF
6283 512 CircleF
6286 512 CircleF
6289 698 CircleF
6292 698 CircleF
6295 512 CircleF
6298 807 CircleF
6301 698 CircleF
6307 807 CircleF
6310 512 CircleF
6313 512 CircleF
6315 807 CircleF
6318 512 CircleF
6327 994 CircleF
6330 807 CircleF
6336 885 CircleF
6339 807 CircleF
6342 698 CircleF
6348 698 CircleF
6353 512 CircleF
6356 807 CircleF
6365 698 CircleF
6368 512 CircleF
6371 512 CircleF
6374 512 CircleF
6385 512 CircleF
6394 512 CircleF
6397 512 CircleF
6400 807 CircleF
6403 807 CircleF
6406 698 CircleF
6409 885 CircleF
6418 512 CircleF
6421 512 CircleF
6423 512 CircleF
6426 512 CircleF
6429 885 CircleF
6432 512 CircleF
6435 807 CircleF
6438 807 CircleF
6441 807 CircleF
6444 698 CircleF
6447 698 CircleF
6450 512 CircleF
6453 885 CircleF
6458 512 CircleF
6461 807 CircleF
6464 512 CircleF
6470 512 CircleF
6473 512 CircleF
6482 512 CircleF
% End plot #1
1.000 UL
LTb
LCb setrgbcolor
1072 4847 N
0 -4335 V
5839 0 V
0 4335 V
-5839 0 V
Z stroke
1.000 UP
1.000 UL
LTb
LCb setrgbcolor
stroke
grestore
end
showpage
%%Trailer
%%DocumentFonts: Helvetica
