%!PS-Adobe-2.0 EPSF-2.0
%%Title: nbrDist.eps
%%Creator: gnuplot 4.6 patchlevel 2
%%CreationDate: Thu Sep 19 11:20:53 2019
%%DocumentFonts: (atend)
%%BoundingBox: 50 50 410 302
%%EndComments
%%BeginProlog
/gnudict 256 dict def
gnudict begin
%
% The following true/false flags may be edited by hand if desired.
% The unit line width and grayscale image gamma correction may also be changed.
%
/Color true def
/Blacktext false def
/Solid false def
/Dashlength 1 def
/Landscape false def
/Level1 false def
/Rounded false def
/ClipToBoundingBox false def
/SuppressPDFMark false def
/TransparentPatterns false def
/gnulinewidth 5.000 def
/userlinewidth gnulinewidth def
/Gamma 1.0 def
/BackgroundColor {-1.000 -1.000 -1.000} def
%
/vshift -53 def
/dl1 {
  10.0 Dashlength mul mul
  Rounded { currentlinewidth 0.75 mul sub dup 0 le { pop 0.01 } if } if
} def
/dl2 {
  10.0 Dashlength mul mul
  Rounded { currentlinewidth 0.75 mul add } if
} def
/hpt_ 31.5 def
/vpt_ 31.5 def
/hpt hpt_ def
/vpt vpt_ def
/doclip {
  ClipToBoundingBox {
    newpath 50 50 moveto 410 50 lineto 410 302 lineto 50 302 lineto closepath
    clip
  } if
} def
%
% Gnuplot Prolog Version 4.6 (September 2012)
%
%/SuppressPDFMark true def
%
/M {moveto} bind def
/L {lineto} bind def
/R {rmoveto} bind def
/V {rlineto} bind def
/N {newpath moveto} bind def
/Z {closepath} bind def
/C {setrgbcolor} bind def
/f {rlineto fill} bind def
/g {setgray} bind def
/Gshow {show} def   % May be redefined later in the file to support UTF-8
/vpt2 vpt 2 mul def
/hpt2 hpt 2 mul def
/Lshow {currentpoint stroke M 0 vshift R 
	Blacktext {gsave 0 setgray show grestore} {show} ifelse} def
/Rshow {currentpoint stroke M dup stringwidth pop neg vshift R
	Blacktext {gsave 0 setgray show grestore} {show} ifelse} def
/Cshow {currentpoint stroke M dup stringwidth pop -2 div vshift R 
	Blacktext {gsave 0 setgray show grestore} {show} ifelse} def
/UP {dup vpt_ mul /vpt exch def hpt_ mul /hpt exch def
  /hpt2 hpt 2 mul def /vpt2 vpt 2 mul def} def
/DL {Color {setrgbcolor Solid {pop []} if 0 setdash}
 {pop pop pop 0 setgray Solid {pop []} if 0 setdash} ifelse} def
/BL {stroke userlinewidth 2 mul setlinewidth
	Rounded {1 setlinejoin 1 setlinecap} if} def
/AL {stroke userlinewidth 2 div setlinewidth
	Rounded {1 setlinejoin 1 setlinecap} if} def
/UL {dup gnulinewidth mul /userlinewidth exch def
	dup 1 lt {pop 1} if 10 mul /udl exch def} def
/PL {stroke userlinewidth setlinewidth
	Rounded {1 setlinejoin 1 setlinecap} if} def
3.8 setmiterlimit
% Default Line colors
/LCw {1 1 1} def
/LCb {0 0 0} def
/LCa {0 0 0} def
/LC0 {1 0 0} def
/LC1 {0 1 0} def
/LC2 {0 0 1} def
/LC3 {1 0 1} def
/LC4 {0 1 1} def
/LC5 {1 1 0} def
/LC6 {0 0 0} def
/LC7 {1 0.3 0} def
/LC8 {0.5 0.5 0.5} def
% Default Line Types
/LTw {PL [] 1 setgray} def
/LTb {BL [] LCb DL} def
/LTa {AL [1 udl mul 2 udl mul] 0 setdash LCa setrgbcolor} def
/LT0 {PL [] LC0 DL} def
/LT1 {PL [4 dl1 2 dl2] LC1 DL} def
/LT2 {PL [2 dl1 3 dl2] LC2 DL} def
/LT3 {PL [1 dl1 1.5 dl2] LC3 DL} def
/LT4 {PL [6 dl1 2 dl2 1 dl1 2 dl2] LC4 DL} def
/LT5 {PL [3 dl1 3 dl2 1 dl1 3 dl2] LC5 DL} def
/LT6 {PL [2 dl1 2 dl2 2 dl1 6 dl2] LC6 DL} def
/LT7 {PL [1 dl1 2 dl2 6 dl1 2 dl2 1 dl1 2 dl2] LC7 DL} def
/LT8 {PL [2 dl1 2 dl2 2 dl1 2 dl2 2 dl1 2 dl2 2 dl1 4 dl2] LC8 DL} def
/Pnt {stroke [] 0 setdash gsave 1 setlinecap M 0 0 V stroke grestore} def
/Dia {stroke [] 0 setdash 2 copy vpt add M
  hpt neg vpt neg V hpt vpt neg V
  hpt vpt V hpt neg vpt V closepath stroke
  Pnt} def
/Pls {stroke [] 0 setdash vpt sub M 0 vpt2 V
  currentpoint stroke M
  hpt neg vpt neg R hpt2 0 V stroke
 } def
/Box {stroke [] 0 setdash 2 copy exch hpt sub exch vpt add M
  0 vpt2 neg V hpt2 0 V 0 vpt2 V
  hpt2 neg 0 V closepath stroke
  Pnt} def
/Crs {stroke [] 0 setdash exch hpt sub exch vpt add M
  hpt2 vpt2 neg V currentpoint stroke M
  hpt2 neg 0 R hpt2 vpt2 V stroke} def
/TriU {stroke [] 0 setdash 2 copy vpt 1.12 mul add M
  hpt neg vpt -1.62 mul V
  hpt 2 mul 0 V
  hpt neg vpt 1.62 mul V closepath stroke
  Pnt} def
/Star {2 copy Pls Crs} def
/BoxF {stroke [] 0 setdash exch hpt sub exch vpt add M
  0 vpt2 neg V hpt2 0 V 0 vpt2 V
  hpt2 neg 0 V closepath fill} def
/TriUF {stroke [] 0 setdash vpt 1.12 mul add M
  hpt neg vpt -1.62 mul V
  hpt 2 mul 0 V
  hpt neg vpt 1.62 mul V closepath fill} def
/TriD {stroke [] 0 setdash 2 copy vpt 1.12 mul sub M
  hpt neg vpt 1.62 mul V
  hpt 2 mul 0 V
  hpt neg vpt -1.62 mul V closepath stroke
  Pnt} def
/TriDF {stroke [] 0 setdash vpt 1.12 mul sub M
  hpt neg vpt 1.62 mul V
  hpt 2 mul 0 V
  hpt neg vpt -1.62 mul V closepath fill} def
/DiaF {stroke [] 0 setdash vpt add M
  hpt neg vpt neg V hpt vpt neg V
  hpt vpt V hpt neg vpt V closepath fill} def
/Pent {stroke [] 0 setdash 2 copy gsave
  translate 0 hpt M 4 {72 rotate 0 hpt L} repeat
  closepath stroke grestore Pnt} def
/PentF {stroke [] 0 setdash gsave
  translate 0 hpt M 4 {72 rotate 0 hpt L} repeat
  closepath fill grestore} def
/Circle {stroke [] 0 setdash 2 copy
  hpt 0 360 arc stroke Pnt} def
/CircleF {stroke [] 0 setdash hpt 0 360 arc fill} def
/C0 {BL [] 0 setdash 2 copy moveto vpt 90 450 arc} bind def
/C1 {BL [] 0 setdash 2 copy moveto
	2 copy vpt 0 90 arc closepath fill
	vpt 0 360 arc closepath} bind def
/C2 {BL [] 0 setdash 2 copy moveto
	2 copy vpt 90 180 arc closepath fill
	vpt 0 360 arc closepath} bind def
/C3 {BL [] 0 setdash 2 copy moveto
	2 copy vpt 0 180 arc closepath fill
	vpt 0 360 arc closepath} bind def
/C4 {BL [] 0 setdash 2 copy moveto
	2 copy vpt 180 270 arc closepath fill
	vpt 0 360 arc closepath} bind def
/C5 {BL [] 0 setdash 2 copy moveto
	2 copy vpt 0 90 arc
	2 copy moveto
	2 copy vpt 180 270 arc closepath fill
	vpt 0 360 arc} bind def
/C6 {BL [] 0 setdash 2 copy moveto
	2 copy vpt 90 270 arc closepath fill
	vpt 0 360 arc closepath} bind def
/C7 {BL [] 0 setdash 2 copy moveto
	2 copy vpt 0 270 arc closepath fill
	vpt 0 360 arc closepath} bind def
/C8 {BL [] 0 setdash 2 copy moveto
	2 copy vpt 270 360 arc closepath fill
	vpt 0 360 arc closepath} bind def
/C9 {BL [] 0 setdash 2 copy moveto
	2 copy vpt 270 450 arc closepath fill
	vpt 0 360 arc closepath} bind def
/C10 {BL [] 0 setdash 2 copy 2 copy moveto vpt 270 360 arc closepath fill
	2 copy moveto
	2 copy vpt 90 180 arc closepath fill
	vpt 0 360 arc closepath} bind def
/C11 {BL [] 0 setdash 2 copy moveto
	2 copy vpt 0 180 arc closepath fill
	2 copy moveto
	2 copy vpt 270 360 arc closepath fill
	vpt 0 360 arc closepath} bind def
/C12 {BL [] 0 setdash 2 copy moveto
	2 copy vpt 180 360 arc closepath fill
	vpt 0 360 arc closepath} bind def
/C13 {BL [] 0 setdash 2 copy moveto
	2 copy vpt 0 90 arc closepath fill
	2 copy moveto
	2 copy vpt 180 360 arc closepath fill
	vpt 0 360 arc closepath} bind def
/C14 {BL [] 0 setdash 2 copy moveto
	2 copy vpt 90 360 arc closepath fill
	vpt 0 360 arc} bind def
/C15 {BL [] 0 setdash 2 copy vpt 0 360 arc closepath fill
	vpt 0 360 arc closepath} bind def
/Rec {newpath 4 2 roll moveto 1 index 0 rlineto 0 exch rlineto
	neg 0 rlineto closepath} bind def
/Square {dup Rec} bind def
/Bsquare {vpt sub exch vpt sub exch vpt2 Square} bind def
/S0 {BL [] 0 setdash 2 copy moveto 0 vpt rlineto BL Bsquare} bind def
/S1 {BL [] 0 setdash 2 copy vpt Square fill Bsquare} bind def
/S2 {BL [] 0 setdash 2 copy exch vpt sub exch vpt Square fill Bsquare} bind def
/S3 {BL [] 0 setdash 2 copy exch vpt sub exch vpt2 vpt Rec fill Bsquare} bind def
/S4 {BL [] 0 setdash 2 copy exch vpt sub exch vpt sub vpt Square fill Bsquare} bind def
/S5 {BL [] 0 setdash 2 copy 2 copy vpt Square fill
	exch vpt sub exch vpt sub vpt Square fill Bsquare} bind def
/S6 {BL [] 0 setdash 2 copy exch vpt sub exch vpt sub vpt vpt2 Rec fill Bsquare} bind def
/S7 {BL [] 0 setdash 2 copy exch vpt sub exch vpt sub vpt vpt2 Rec fill
	2 copy vpt Square fill Bsquare} bind def
/S8 {BL [] 0 setdash 2 copy vpt sub vpt Square fill Bsquare} bind def
/S9 {BL [] 0 setdash 2 copy vpt sub vpt vpt2 Rec fill Bsquare} bind def
/S10 {BL [] 0 setdash 2 copy vpt sub vpt Square fill 2 copy exch vpt sub exch vpt Square fill
	Bsquare} bind def
/S11 {BL [] 0 setdash 2 copy vpt sub vpt Square fill 2 copy exch vpt sub exch vpt2 vpt Rec fill
	Bsquare} bind def
/S12 {BL [] 0 setdash 2 copy exch vpt sub exch vpt sub vpt2 vpt Rec fill Bsquare} bind def
/S13 {BL [] 0 setdash 2 copy exch vpt sub exch vpt sub vpt2 vpt Rec fill
	2 copy vpt Square fill Bsquare} bind def
/S14 {BL [] 0 setdash 2 copy exch vpt sub exch vpt sub vpt2 vpt Rec fill
	2 copy exch vpt sub exch vpt Square fill Bsquare} bind def
/S15 {BL [] 0 setdash 2 copy Bsquare fill Bsquare} bind def
/D0 {gsave translate 45 rotate 0 0 S0 stroke grestore} bind def
/D1 {gsave translate 45 rotate 0 0 S1 stroke grestore} bind def
/D2 {gsave translate 45 rotate 0 0 S2 stroke grestore} bind def
/D3 {gsave translate 45 rotate 0 0 S3 stroke grestore} bind def
/D4 {gsave translate 45 rotate 0 0 S4 stroke grestore} bind def
/D5 {gsave translate 45 rotate 0 0 S5 stroke grestore} bind def
/D6 {gsave translate 45 rotate 0 0 S6 stroke grestore} bind def
/D7 {gsave translate 45 rotate 0 0 S7 stroke grestore} bind def
/D8 {gsave translate 45 rotate 0 0 S8 stroke grestore} bind def
/D9 {gsave translate 45 rotate 0 0 S9 stroke grestore} bind def
/D10 {gsave translate 45 rotate 0 0 S10 stroke grestore} bind def
/D11 {gsave translate 45 rotate 0 0 S11 stroke grestore} bind def
/D12 {gsave translate 45 rotate 0 0 S12 stroke grestore} bind def
/D13 {gsave translate 45 rotate 0 0 S13 stroke grestore} bind def
/D14 {gsave translate 45 rotate 0 0 S14 stroke grestore} bind def
/D15 {gsave translate 45 rotate 0 0 S15 stroke grestore} bind def
/DiaE {stroke [] 0 setdash vpt add M
  hpt neg vpt neg V hpt vpt neg V
  hpt vpt V hpt neg vpt V closepath stroke} def
/BoxE {stroke [] 0 setdash exch hpt sub exch vpt add M
  0 vpt2 neg V hpt2 0 V 0 vpt2 V
  hpt2 neg 0 V closepath stroke} def
/TriUE {stroke [] 0 setdash vpt 1.12 mul add M
  hpt neg vpt -1.62 mul V
  hpt 2 mul 0 V
  hpt neg vpt 1.62 mul V closepath stroke} def
/TriDE {stroke [] 0 setdash vpt 1.12 mul sub M
  hpt neg vpt 1.62 mul V
  hpt 2 mul 0 V
  hpt neg vpt -1.62 mul V closepath stroke} def
/PentE {stroke [] 0 setdash gsave
  translate 0 hpt M 4 {72 rotate 0 hpt L} repeat
  closepath stroke grestore} def
/CircE {stroke [] 0 setdash 
  hpt 0 360 arc stroke} def
/Opaque {gsave closepath 1 setgray fill grestore 0 setgray closepath} def
/DiaW {stroke [] 0 setdash vpt add M
  hpt neg vpt neg V hpt vpt neg V
  hpt vpt V hpt neg vpt V Opaque stroke} def
/BoxW {stroke [] 0 setdash exch hpt sub exch vpt add M
  0 vpt2 neg V hpt2 0 V 0 vpt2 V
  hpt2 neg 0 V Opaque stroke} def
/TriUW {stroke [] 0 setdash vpt 1.12 mul add M
  hpt neg vpt -1.62 mul V
  hpt 2 mul 0 V
  hpt neg vpt 1.62 mul V Opaque stroke} def
/TriDW {stroke [] 0 setdash vpt 1.12 mul sub M
  hpt neg vpt 1.62 mul V
  hpt 2 mul 0 V
  hpt neg vpt -1.62 mul V Opaque stroke} def
/PentW {stroke [] 0 setdash gsave
  translate 0 hpt M 4 {72 rotate 0 hpt L} repeat
  Opaque stroke grestore} def
/CircW {stroke [] 0 setdash 
  hpt 0 360 arc Opaque stroke} def
/BoxFill {gsave Rec 1 setgray fill grestore} def
/Density {
  /Fillden exch def
  currentrgbcolor
  /ColB exch def /ColG exch def /ColR exch def
  /ColR ColR Fillden mul Fillden sub 1 add def
  /ColG ColG Fillden mul Fillden sub 1 add def
  /ColB ColB Fillden mul Fillden sub 1 add def
  ColR ColG ColB setrgbcolor} def
/BoxColFill {gsave Rec PolyFill} def
/PolyFill {gsave Density fill grestore grestore} def
/h {rlineto rlineto rlineto gsave closepath fill grestore} bind def
%
% PostScript Level 1 Pattern Fill routine for rectangles
% Usage: x y w h s a XX PatternFill
%	x,y = lower left corner of box to be filled
%	w,h = width and height of box
%	  a = angle in degrees between lines and x-axis
%	 XX = 0/1 for no/yes cross-hatch
%
/PatternFill {gsave /PFa [ 9 2 roll ] def
  PFa 0 get PFa 2 get 2 div add PFa 1 get PFa 3 get 2 div add translate
  PFa 2 get -2 div PFa 3 get -2 div PFa 2 get PFa 3 get Rec
  TransparentPatterns {} {gsave 1 setgray fill grestore} ifelse
  clip
  currentlinewidth 0.5 mul setlinewidth
  /PFs PFa 2 get dup mul PFa 3 get dup mul add sqrt def
  0 0 M PFa 5 get rotate PFs -2 div dup translate
  0 1 PFs PFa 4 get div 1 add floor cvi
	{PFa 4 get mul 0 M 0 PFs V} for
  0 PFa 6 get ne {
	0 1 PFs PFa 4 get div 1 add floor cvi
	{PFa 4 get mul 0 2 1 roll M PFs 0 V} for
 } if
  stroke grestore} def
%
/languagelevel where
 {pop languagelevel} {1} ifelse
 2 lt
	{/InterpretLevel1 true def}
	{/InterpretLevel1 Level1 def}
 ifelse
%
% PostScript level 2 pattern fill definitions
%
/Level2PatternFill {
/Tile8x8 {/PaintType 2 /PatternType 1 /TilingType 1 /BBox [0 0 8 8] /XStep 8 /YStep 8}
	bind def
/KeepColor {currentrgbcolor [/Pattern /DeviceRGB] setcolorspace} bind def
<< Tile8x8
 /PaintProc {0.5 setlinewidth pop 0 0 M 8 8 L 0 8 M 8 0 L stroke} 
>> matrix makepattern
/Pat1 exch def
<< Tile8x8
 /PaintProc {0.5 setlinewidth pop 0 0 M 8 8 L 0 8 M 8 0 L stroke
	0 4 M 4 8 L 8 4 L 4 0 L 0 4 L stroke}
>> matrix makepattern
/Pat2 exch def
<< Tile8x8
 /PaintProc {0.5 setlinewidth pop 0 0 M 0 8 L
	8 8 L 8 0 L 0 0 L fill}
>> matrix makepattern
/Pat3 exch def
<< Tile8x8
 /PaintProc {0.5 setlinewidth pop -4 8 M 8 -4 L
	0 12 M 12 0 L stroke}
>> matrix makepattern
/Pat4 exch def
<< Tile8x8
 /PaintProc {0.5 setlinewidth pop -4 0 M 8 12 L
	0 -4 M 12 8 L stroke}
>> matrix makepattern
/Pat5 exch def
<< Tile8x8
 /PaintProc {0.5 setlinewidth pop -2 8 M 4 -4 L
	0 12 M 8 -4 L 4 12 M 10 0 L stroke}
>> matrix makepattern
/Pat6 exch def
<< Tile8x8
 /PaintProc {0.5 setlinewidth pop -2 0 M 4 12 L
	0 -4 M 8 12 L 4 -4 M 10 8 L stroke}
>> matrix makepattern
/Pat7 exch def
<< Tile8x8
 /PaintProc {0.5 setlinewidth pop 8 -2 M -4 4 L
	12 0 M -4 8 L 12 4 M 0 10 L stroke}
>> matrix makepattern
/Pat8 exch def
<< Tile8x8
 /PaintProc {0.5 setlinewidth pop 0 -2 M 12 4 L
	-4 0 M 12 8 L -4 4 M 8 10 L stroke}
>> matrix makepattern
/Pat9 exch def
/Pattern1 {PatternBgnd KeepColor Pat1 setpattern} bind def
/Pattern2 {PatternBgnd KeepColor Pat2 setpattern} bind def
/Pattern3 {PatternBgnd KeepColor Pat3 setpattern} bind def
/Pattern4 {PatternBgnd KeepColor Landscape {Pat5} {Pat4} ifelse setpattern} bind def
/Pattern5 {PatternBgnd KeepColor Landscape {Pat4} {Pat5} ifelse setpattern} bind def
/Pattern6 {PatternBgnd KeepColor Landscape {Pat9} {Pat6} ifelse setpattern} bind def
/Pattern7 {PatternBgnd KeepColor Landscape {Pat8} {Pat7} ifelse setpattern} bind def
} def
%
%
%End of PostScript Level 2 code
%
/PatternBgnd {
  TransparentPatterns {} {gsave 1 setgray fill grestore} ifelse
} def
%
% Substitute for Level 2 pattern fill codes with
% grayscale if Level 2 support is not selected.
%
/Level1PatternFill {
/Pattern1 {0.250 Density} bind def
/Pattern2 {0.500 Density} bind def
/Pattern3 {0.750 Density} bind def
/Pattern4 {0.125 Density} bind def
/Pattern5 {0.375 Density} bind def
/Pattern6 {0.625 Density} bind def
/Pattern7 {0.875 Density} bind def
} def
%
% Now test for support of Level 2 code
%
Level1 {Level1PatternFill} {Level2PatternFill} ifelse
%
/Symbol-Oblique /Symbol findfont [1 0 .167 1 0 0] makefont
dup length dict begin {1 index /FID eq {pop pop} {def} ifelse} forall
currentdict end definefont pop
/MFshow {
   { dup 5 get 3 ge
     { 5 get 3 eq {gsave} {grestore} ifelse }
     {dup dup 0 get findfont exch 1 get scalefont setfont
     [ currentpoint ] exch dup 2 get 0 exch R dup 5 get 2 ne {dup dup 6
     get exch 4 get {Gshow} {stringwidth pop 0 R} ifelse }if dup 5 get 0 eq
     {dup 3 get {2 get neg 0 exch R pop} {pop aload pop M} ifelse} {dup 5
     get 1 eq {dup 2 get exch dup 3 get exch 6 get stringwidth pop -2 div
     dup 0 R} {dup 6 get stringwidth pop -2 div 0 R 6 get
     show 2 index {aload pop M neg 3 -1 roll neg R pop pop} {pop pop pop
     pop aload pop M} ifelse }ifelse }ifelse }
     ifelse }
   forall} def
/Gswidth {dup type /stringtype eq {stringwidth} {pop (n) stringwidth} ifelse} def
/MFwidth {0 exch { dup 5 get 3 ge { 5 get 3 eq { 0 } { pop } ifelse }
 {dup 3 get{dup dup 0 get findfont exch 1 get scalefont setfont
     6 get Gswidth pop add} {pop} ifelse} ifelse} forall} def
/MLshow { currentpoint stroke M
  0 exch R
  Blacktext {gsave 0 setgray MFshow grestore} {MFshow} ifelse } bind def
/MRshow { currentpoint stroke M
  exch dup MFwidth neg 3 -1 roll R
  Blacktext {gsave 0 setgray MFshow grestore} {MFshow} ifelse } bind def
/MCshow { currentpoint stroke M
  exch dup MFwidth -2 div 3 -1 roll R
  Blacktext {gsave 0 setgray MFshow grestore} {MFshow} ifelse } bind def
/XYsave    { [( ) 1 2 true false 3 ()] } bind def
/XYrestore { [( ) 1 2 true false 4 ()] } bind def
Level1 SuppressPDFMark or 
{} {
/SDict 10 dict def
systemdict /pdfmark known not {
  userdict /pdfmark systemdict /cleartomark get put
} if
SDict begin [
  /Title (nbrDist.eps)
  /Subject (gnuplot plot)
  /Creator (gnuplot 4.6 patchlevel 2)
  /Author (anju)
%  /Producer (gnuplot)
%  /Keywords ()
  /CreationDate (Thu Sep 19 11:20:53 2019)
  /DOCINFO pdfmark
end
} ifelse
end
%%EndProlog
%%Page: 1 1
gnudict begin
gsave
doclip
50 50 translate
0.050 0.050 scale
0 setgray
newpath
(Helvetica) findfont 160 scalefont setfont
BackgroundColor 0 lt 3 1 roll 0 lt exch 0 lt or or not {BackgroundColor C 1.000 0 0 7200.00 5040.00 BoxColFill} if
1.000 UL
LTb
LCb setrgbcolor
1072 512 M
63 0 V
5776 0 R
-63 0 V
stroke
976 512 M
[ [(Helvetica) 160.0 0.0 true true 0 ( 1)]
] -53.3 MRshow
1.000 UL
LTb
LCb setrgbcolor
1072 698 M
31 0 V
5808 0 R
-31 0 V
1072 945 M
31 0 V
5808 0 R
-31 0 V
1072 1071 M
31 0 V
5808 0 R
-31 0 V
-5808 60 R
63 0 V
5776 0 R
-63 0 V
stroke
976 1131 M
[ [(Helvetica) 160.0 0.0 true true 0 ( 10)]
] -53.3 MRshow
1.000 UL
LTb
LCb setrgbcolor
1072 1318 M
31 0 V
5808 0 R
-31 0 V
1072 1564 M
31 0 V
5808 0 R
-31 0 V
1072 1691 M
31 0 V
5808 0 R
-31 0 V
-5808 60 R
63 0 V
5776 0 R
-63 0 V
stroke
976 1751 M
[ [(Helvetica) 160.0 0.0 true true 0 ( 100)]
] -53.3 MRshow
1.000 UL
LTb
LCb setrgbcolor
1072 1937 M
31 0 V
5808 0 R
-31 0 V
1072 2183 M
31 0 V
5808 0 R
-31 0 V
1072 2310 M
31 0 V
5808 0 R
-31 0 V
-5808 60 R
63 0 V
5776 0 R
-63 0 V
stroke
976 2370 M
[ [(Helvetica) 160.0 0.0 true true 0 ( 1000)]
] -53.3 MRshow
1.000 UL
LTb
LCb setrgbcolor
1072 2556 M
31 0 V
5808 0 R
-31 0 V
1072 2803 M
31 0 V
5808 0 R
-31 0 V
1072 2929 M
31 0 V
5808 0 R
-31 0 V
-5808 60 R
63 0 V
5776 0 R
-63 0 V
stroke
976 2989 M
[ [(Helvetica) 160.0 0.0 true true 0 ( 10000)]
] -53.3 MRshow
1.000 UL
LTb
LCb setrgbcolor
1072 3176 M
31 0 V
5808 0 R
-31 0 V
1072 3422 M
31 0 V
5808 0 R
-31 0 V
1072 3548 M
31 0 V
5808 0 R
-31 0 V
-5808 60 R
63 0 V
5776 0 R
-63 0 V
stroke
976 3608 M
[ [(Helvetica) 160.0 0.0 true true 0 ( 100000)]
] -53.3 MRshow
1.000 UL
LTb
LCb setrgbcolor
1072 3795 M
31 0 V
5808 0 R
-31 0 V
1072 4041 M
31 0 V
5808 0 R
-31 0 V
1072 4168 M
31 0 V
5808 0 R
-31 0 V
-5808 60 R
63 0 V
5776 0 R
-63 0 V
stroke
976 4228 M
[ [(Helvetica) 160.0 0.0 true true 0 ( 1e+06)]
] -53.3 MRshow
1.000 UL
LTb
LCb setrgbcolor
1072 4414 M
31 0 V
5808 0 R
-31 0 V
1072 4661 M
31 0 V
5808 0 R
-31 0 V
1072 4787 M
31 0 V
5808 0 R
-31 0 V
-5808 60 R
63 0 V
5776 0 R
-63 0 V
stroke
976 4847 M
[ [(Helvetica) 160.0 0.0 true true 0 ( 1e+07)]
] -53.3 MRshow
1.000 UL
LTb
LCb setrgbcolor
1072 512 M
0 63 V
0 4272 R
0 -63 V
stroke
1072 352 M
[ [(Helvetica) 160.0 0.0 true true 0 ( 0)]
] -53.3 MCshow
1.000 UL
LTb
LCb setrgbcolor
1656 512 M
0 63 V
0 4272 R
0 -63 V
stroke
1656 352 M
[ [(Helvetica) 160.0 0.0 true true 0 ( 200)]
] -53.3 MCshow
1.000 UL
LTb
LCb setrgbcolor
2240 512 M
0 63 V
0 4272 R
0 -63 V
stroke
2240 352 M
[ [(Helvetica) 160.0 0.0 true true 0 ( 400)]
] -53.3 MCshow
1.000 UL
LTb
LCb setrgbcolor
2824 512 M
0 63 V
0 4272 R
0 -63 V
stroke
2824 352 M
[ [(Helvetica) 160.0 0.0 true true 0 ( 600)]
] -53.3 MCshow
1.000 UL
LTb
LCb setrgbcolor
3408 512 M
0 63 V
0 4272 R
0 -63 V
stroke
3408 352 M
[ [(Helvetica) 160.0 0.0 true true 0 ( 800)]
] -53.3 MCshow
1.000 UL
LTb
LCb setrgbcolor
3992 512 M
0 63 V
0 4272 R
0 -63 V
stroke
3992 352 M
[ [(Helvetica) 160.0 0.0 true true 0 ( 1000)]
] -53.3 MCshow
1.000 UL
LTb
LCb setrgbcolor
4575 512 M
0 63 V
0 4272 R
0 -63 V
stroke
4575 352 M
[ [(Helvetica) 160.0 0.0 true true 0 ( 1200)]
] -53.3 MCshow
1.000 UL
LTb
LCb setrgbcolor
5159 512 M
0 63 V
0 4272 R
0 -63 V
stroke
5159 352 M
[ [(Helvetica) 160.0 0.0 true true 0 ( 1400)]
] -53.3 MCshow
1.000 UL
LTb
LCb setrgbcolor
5743 512 M
0 63 V
0 4272 R
0 -63 V
stroke
5743 352 M
[ [(Helvetica) 160.0 0.0 true true 0 ( 1600)]
] -53.3 MCshow
1.000 UL
LTb
LCb setrgbcolor
6327 512 M
0 63 V
0 4272 R
0 -63 V
stroke
6327 352 M
[ [(Helvetica) 160.0 0.0 true true 0 ( 1800)]
] -53.3 MCshow
1.000 UL
LTb
LCb setrgbcolor
6911 512 M
0 63 V
0 4272 R
0 -63 V
stroke
6911 352 M
[ [(Helvetica) 160.0 0.0 true true 0 ( 2000)]
] -53.3 MCshow
1.000 UL
LTb
LCb setrgbcolor
1.000 UL
LTb
LCb setrgbcolor
1072 4847 N
0 -4335 V
5839 0 V
0 4335 V
-5839 0 V
Z stroke
LCb setrgbcolor
128 2679 M
currentpoint gsave translate -270 rotate 0 0 moveto
[ [(Helvetica) 160.0 0.0 true true 0 (Number of points with each degree)]
] -53.3 MCshow
grestore
LTb
LCb setrgbcolor
3991 112 M
[ [(Helvetica) 160.0 0.0 true true 0 (Degree)]
] -53.3 MCshow
LTb
1.000 UP
1.000 UL
LTb
LCb setrgbcolor
% Begin plot #1
0.200 UP
2.000 UL
LT0
0.00 0.38 0.68 C 1072 4586 M
3 -16 V
3 -37 V
3 -43 V
3 -47 V
3 -52 V
3 -53 V
2 -55 V
3 -56 V
3 -57 V
3 -56 V
3 -54 V
3 -53 V
3 -50 V
3 -49 V
3 -45 V
3 -43 V
3 -39 V
3 -37 V
2 -34 V
3 -31 V
3 -32 V
3 -29 V
3 -28 V
3 -22 V
3 -23 V
3 -22 V
3 -16 V
3 -19 V
3 -20 V
3 -16 V
3 -18 V
2 -13 V
3 -13 V
3 -15 V
3 -7 V
3 -19 V
3 -6 V
3 -9 V
3 -11 V
3 -10 V
3 -13 V
3 -8 V
3 -11 V
2 -6 V
3 -14 V
3 -4 V
3 -11 V
3 -9 V
3 -6 V
3 -3 V
3 -9 V
3 -8 V
3 -3 V
3 -8 V
3 1 V
2 -9 V
3 -7 V
3 -6 V
3 -4 V
3 -4 V
3 -8 V
3 0 V
3 -8 V
3 -4 V
3 -2 V
3 -8 V
3 2 V
3 -4 V
2 -7 V
3 -5 V
3 2 V
3 -8 V
3 2 V
3 4 V
3 -14 V
3 1 V
3 5 V
3 -9 V
3 4 V
3 -6 V
2 1 V
3 -1 V
3 -5 V
3 1 V
3 -3 V
3 4 V
3 4 V
3 -6 V
3 -1 V
3 -1 V
3 0 V
3 2 V
3 -1 V
2 -2 V
3 1 V
3 2 V
3 -1 V
3 3 V
3 1 V
3 -4 V
3 -7 V
3 6 V
3 4 V
3 -7 V
stroke 1376 3116 M
3 1 V
2 1 V
3 -1 V
3 5 V
3 2 V
3 -4 V
3 1 V
3 6 V
3 3 V
3 -4 V
3 5 V
3 -6 V
3 -1 V
3 5 V
2 -7 V
3 9 V
3 -4 V
3 6 V
3 -2 V
3 2 V
3 1 V
3 0 V
3 3 V
3 -4 V
3 0 V
3 1 V
2 -3 V
3 -3 V
3 1 V
3 0 V
3 -2 V
3 6 V
3 -5 V
3 -2 V
3 -1 V
3 7 V
3 -6 V
3 0 V
2 1 V
3 -5 V
3 -2 V
3 -2 V
3 0 V
3 4 V
3 -4 V
3 2 V
3 -4 V
3 0 V
3 -4 V
3 9 V
3 -6 V
2 -2 V
3 -8 V
3 3 V
3 -2 V
3 -2 V
3 -3 V
3 -5 V
3 0 V
3 0 V
3 -1 V
3 2 V
3 -8 V
2 -8 V
3 -5 V
3 2 V
3 -10 V
3 1 V
3 -1 V
3 -1 V
3 -2 V
3 -5 V
3 -5 V
3 -2 V
3 -4 V
3 1 V
2 -7 V
3 -4 V
3 -5 V
3 -3 V
3 -4 V
3 -2 V
3 -8 V
3 0 V
3 0 V
3 -4 V
3 -5 V
3 -11 V
2 -1 V
3 -15 V
3 4 V
3 -6 V
3 -1 V
3 -11 V
3 0 V
3 -8 V
3 3 V
3 -2 V
3 -17 V
3 6 V
2 -18 V
3 6 V
3 -8 V
3 -9 V
stroke 1679 2920 M
3 -1 V
3 -2 V
3 -14 V
3 -7 V
3 -4 V
3 0 V
3 -2 V
3 2 V
3 -19 V
2 7 V
3 -5 V
3 -16 V
3 -1 V
3 -6 V
3 -7 V
3 -3 V
3 -1 V
3 -12 V
3 5 V
3 -11 V
3 -17 V
2 -3 V
3 -5 V
3 -3 V
3 1 V
3 -2 V
3 -5 V
3 -3 V
3 -7 V
3 -6 V
3 0 V
3 -1 V
3 -2 V
3 -17 V
2 -3 V
3 -10 V
3 -3 V
3 12 V
3 -3 V
3 -14 V
3 -10 V
3 -10 V
3 -1 V
3 5 V
3 -18 V
3 9 V
2 -8 V
3 -4 V
3 -24 V
3 8 V
3 13 V
3 -10 V
3 -2 V
3 -21 V
3 -4 V
3 -7 V
3 -1 V
3 -1 V
3 1 V
2 -15 V
3 0 V
3 2 V
3 7 V
3 -10 V
3 -7 V
3 -16 V
3 -9 V
3 11 V
3 -6 V
3 -14 V
3 -3 V
2 10 V
3 9 V
3 -18 V
3 8 V
3 -11 V
3 -9 V
3 -11 V
3 13 V
3 -30 V
3 16 V
3 -3 V
3 -19 V
2 15 V
3 -22 V
3 11 V
3 -3 V
3 -10 V
3 -1 V
3 -6 V
3 6 V
3 13 V
3 -23 V
3 -2 V
3 -11 V
3 15 V
2 -13 V
3 2 V
3 -15 V
3 6 V
3 -10 V
3 -2 V
3 -28 V
3 23 V
stroke 1983 2487 M
3 -7 V
3 -10 V
3 0 V
3 6 V
2 -7 V
3 5 V
3 -4 V
3 -5 V
3 0 V
3 -20 V
3 -5 V
3 3 V
3 -23 V
3 12 V
3 2 V
3 16 V
3 -10 V
2 -12 V
3 13 V
3 -19 V
3 9 V
3 15 V
3 -26 V
3 -9 V
3 7 V
3 -4 V
3 -22 V
3 16 V
3 -4 V
2 9 V
3 2 V
3 -5 V
3 -21 V
3 15 V
3 -13 V
3 8 V
3 19 V
3 -2 V
3 3 V
3 -17 V
3 -1 V
3 6 V
2 -24 V
3 4 V
3 -1 V
3 0 V
3 13 V
3 4 V
3 -16 V
3 -14 V
3 28 V
3 -31 V
3 5 V
3 -5 V
2 -6 V
3 7 V
3 6 V
3 -4 V
3 -3 V
3 -2 V
3 0 V
3 -19 V
3 34 V
3 -16 V
3 0 V
3 -13 V
2 -12 V
3 33 V
3 -24 V
3 -2 V
3 9 V
3 -18 V
3 13 V
3 -8 V
3 -11 V
3 10 V
3 7 V
3 -8 V
3 -19 V
2 21 V
3 2 V
3 -13 V
3 14 V
3 2 V
3 -26 V
3 9 V
3 -3 V
3 -2 V
3 -6 V
3 -3 V
3 -9 V
2 -8 V
3 4 V
3 9 V
3 -14 V
3 5 V
3 -31 V
3 27 V
3 -34 V
3 22 V
3 -35 V
3 15 V
3 26 V
3 -28 V
stroke 2287 2268 M
2 11 V
3 3 V
3 13 V
3 -18 V
3 -5 V
3 12 V
3 -6 V
3 -24 V
3 9 V
3 3 V
3 -23 V
3 17 V
2 12 V
3 -33 V
3 -14 V
3 15 V
3 -5 V
3 -8 V
3 25 V
3 14 V
3 -10 V
3 -24 V
3 -15 V
3 12 V
2 -4 V
3 -19 V
3 20 V
3 -7 V
3 -10 V
3 3 V
3 20 V
3 3 V
3 -23 V
3 17 V
3 -20 V
3 8 V
3 -16 V
2 -1 V
3 26 V
3 -4 V
3 -1 V
3 17 V
3 -19 V
3 11 V
3 -28 V
3 30 V
3 -51 V
3 14 V
3 11 V
2 -1 V
3 21 V
3 -25 V
3 -3 V
3 17 V
3 -7 V
3 2 V
3 -9 V
3 -27 V
3 24 V
3 -26 V
3 16 V
3 -11 V
2 21 V
3 -26 V
3 9 V
3 -13 V
3 -33 V
3 -1 V
3 -2 V
3 7 V
3 6 V
3 25 V
3 -26 V
3 -23 V
2 17 V
3 17 V
3 38 V
3 60 V
3 -47 V
3 -123 V
3 8 V
3 17 V
3 -26 V
3 21 V
3 -59 V
3 6 V
3 48 V
2 -35 V
3 -5 V
3 22 V
3 1 V
3 -21 V
3 2 V
3 5 V
3 4 V
3 -14 V
3 40 V
3 -42 V
3 -22 V
2 11 V
3 7 V
3 -9 V
3 -32 V
3 -10 V
stroke 2590 2000 M
3 0 V
3 45 V
3 -14 V
3 -29 V
3 -6 V
3 3 V
3 16 V
2 15 V
3 13 V
3 5 V
3 -17 V
3 24 V
3 -10 V
3 28 V
3 -41 V
3 33 V
3 -26 V
3 -42 V
3 63 V
3 0 V
2 -45 V
3 23 V
3 2 V
3 -12 V
3 -5 V
3 28 V
3 -50 V
3 -6 V
3 9 V
3 32 V
3 -39 V
3 45 V
2 -53 V
3 3 V
3 -21 V
3 0 V
3 5 V
3 -40 V
3 5 V
3 -51 V
3 19 V
3 17 V
3 11 V
3 -12 V
3 -32 V
2 57 V
3 -1 V
3 1 V
3 5 V
3 -10 V
3 24 V
3 16 V
3 -62 V
3 40 V
3 12 V
3 -45 V
3 -1 V
2 3 V
3 0 V
3 -3 V
3 24 V
3 -31 V
3 -75 V
3 45 V
3 21 V
3 -41 V
3 65 V
3 -30 V
3 44 V
3 -39 V
2 28 V
3 -6 V
3 -15 V
3 36 V
3 -28 V
3 55 V
3 -42 V
3 0 V
3 6 V
3 31 V
3 9 V
3 -36 V
2 0 V
3 -52 V
3 15 V
3 45 V
3 -25 V
3 17 V
3 -49 V
3 -8 V
3 48 V
3 -4 V
3 13 V
3 -12 V
2 -6 V
3 -19 V
3 24 V
3 -39 V
3 22 V
3 -7 V
3 19 V
3 -52 V
3 50 V
3 -30 V
stroke 2894 1900 M
3 37 V
3 -7 V
3 -7 V
2 -60 V
3 50 V
3 -28 V
3 -10 V
3 -5 V
3 -31 V
3 29 V
3 49 V
3 -8 V
3 -2 V
3 -37 V
3 -9 V
2 52 V
3 -50 V
3 9 V
3 -33 V
3 33 V
3 0 V
3 -23 V
3 28 V
3 -7 V
3 12 V
3 -69 V
3 -7 V
3 45 V
2 -22 V
3 -10 V
3 -6 V
3 -5 V
3 33 V
3 -2 V
3 -4 V
3 12 V
3 5 V
3 -17 V
3 8 V
3 25 V
2 2 V
3 -51 V
3 0 V
3 8 V
3 -14 V
3 -54 V
3 22 V
3 2 V
3 52 V
3 -59 V
3 37 V
3 16 V
3 -50 V
2 -5 V
3 34 V
3 3 V
3 -50 V
3 50 V
3 22 V
3 37 V
3 -43 V
3 -58 V
3 -92 V
3 116 V
3 -45 V
2 -41 V
3 64 V
3 -40 V
3 28 V
3 -8 V
3 42 V
3 30 V
3 -67 V
3 13 V
3 -13 V
3 55 V
3 -28 V
2 3 V
3 -70 V
3 55 V
3 -94 V
3 51 V
3 3 V
3 50 V
3 -28 V
3 -16 V
3 34 V
3 -12 V
3 -75 V
3 32 V
2 12 V
3 17 V
3 11 V
3 23 V
3 23 V
3 -46 V
3 -22 V
3 19 V
3 62 V
3 -36 V
3 -26 V
3 11 V
2 -45 V
3 50 V
stroke 3197 1769 M
3 12 V
3 -77 V
3 107 V
3 -104 V
3 52 V
3 -68 V
3 -4 V
3 -3 V
3 16 V
3 -23 V
3 10 V
2 53 V
3 -127 V
3 30 V
3 -44 V
3 67 V
3 -48 V
3 86 V
3 6 V
3 9 V
3 12 V
3 0 V
3 -24 V
2 -45 V
3 54 V
3 21 V
3 -24 V
3 -47 V
3 -11 V
3 93 V
3 -6 V
3 -8 V
3 -21 V
3 -13 V
3 25 V
2 9 V
3 -108 V
3 -17 V
3 13 V
3 109 V
3 -69 V
3 -109 V
3 37 V
3 -37 V
3 -5 V
3 37 V
3 -5 V
3 75 V
2 -70 V
3 77 V
3 -4 V
3 -83 V
3 72 V
3 -29 V
3 -65 V
3 16 V
3 -65 V
3 55 V
3 -29 V
3 117 V
2 0 V
3 4 V
3 22 V
3 -26 V
3 -38 V
3 68 V
3 -108 V
3 101 V
3 -117 V
3 -36 V
3 47 V
3 11 V
3 5 V
2 86 V
3 -19 V
3 19 V
3 -48 V
3 -14 V
3 121 V
3 -74 V
3 -103 V
3 -6 V
3 27 V
3 -21 V
3 -37 V
2 -28 V
3 14 V
3 51 V
3 -44 V
3 -7 V
3 93 V
3 -146 V
3 8 V
3 133 V
3 -37 V
3 27 V
3 10 V
3 0 V
2 0 V
3 5 V
3 -26 V
3 16 V
3 -5 V
3 -6 V
stroke 3501 1569 M
3 -5 V
3 5 V
3 16 V
3 -21 V
3 -67 V
3 62 V
2 -42 V
3 31 V
3 70 V
3 -9 V
3 -61 V
3 74 V
3 4 V
3 -13 V
3 -33 V
3 38 V
3 -88 V
3 29 V
2 36 V
3 31 V
3 -90 V
3 28 V
3 5 V
3 35 V
3 76 V
3 -76 V
3 -14 V
3 -79 V
3 6 V
3 -13 V
3 -14 V
2 21 V
3 107 V
3 -101 V
3 13 V
3 -26 V
3 20 V
3 18 V
3 43 V
3 19 V
3 -29 V
3 -33 V
3 -31 V
2 0 V
3 -35 V
3 -78 V
3 -31 V
3 21 V
3 148 V
3 -46 V
3 -14 V
3 -16 V
3 -42 V
3 26 V
3 8 V
3 45 V
2 27 V
3 -56 V
3 -125 V
3 75 V
3 -51 V
3 0 V
3 11 V
3 58 V
3 0 V
3 -118 V
3 -44 V
3 -280 V
2 163 V
3 0 V
3 161 V
3 -78 V
3 -38 V
3 129 V
3 -109 V
3 -42 V
3 0 V
3 -23 V
3 210 V
3 -210 V
3 186 V
2 12 V
3 -153 V
3 72 V
3 -117 V
3 23 V
3 -109 V
3 131 V
3 116 V
3 60 V
3 -47 V
3 -57 V
3 30 V
2 -173 V
3 109 V
3 -18 V
3 -20 V
3 -45 V
3 161 V
3 0 V
3 126 V
3 -26 V
3 -75 V
3 -85 V
stroke 3805 1258 M
3 -36 V
2 166 V
3 -99 V
3 -49 V
3 -38 V
3 0 V
3 116 V
3 -44 V
3 44 V
3 109 V
3 -9 V
3 -100 V
3 -60 V
3 73 V
2 -151 V
3 42 V
3 -119 V
3 -158 V
3 0 V
3 257 V
3 38 V
3 -246 V
3 77 V
3 32 V
3 0 V
3 0 V
2 -158 V
3 -60 V
3 0 V
3 109 V
3 137 V
3 -137 V
3 77 V
3 -77 V
3 -187 V
3 395 V
3 -45 V
3 -163 V
3 0 V
2 -109 V
3 60 V
3 49 V
3 77 V
3 60 V
3 49 V
3 -77 V
3 -32 V
3 0 V
3 -126 V
3 49 V
3 41 V
2 0 V
3 -150 V
3 60 V
3 -60 V
3 0 V
3 109 V
3 -109 V
3 218 V
3 -296 V
3 187 V
3 41 V
3 -150 V
3 60 V
2 0 V
3 0 V
3 -138 V
3 228 V
3 -228 V
3 373 V
3 -145 V
3 -41 V
3 41 V
3 -150 V
3 186 V
3 -36 V
2 -90 V
3 90 V
3 96 V
3 -186 V
3 126 V
3 0 V
3 -186 V
3 0 V
3 150 V
3 122 V
3 -86 V
3 32 V
2 99 V
3 -131 V
3 0 V
3 86 V
3 -163 V
3 41 V
3 223 V
3 -101 V
3 -212 V
3 186 V
3 109 V
3 0 V
3 148 V
2 -57 V
3 12 V
3 -69 V
stroke 4108 1274 M
3 124 V
3 -196 V
3 20 V
3 -228 V
3 163 V
3 147 V
3 -102 V
3 102 V
3 -46 V
2 85 V
3 -85 V
3 -18 V
3 196 V
3 -105 V
3 12 V
3 -69 V
3 134 V
3 -150 V
3 109 V
3 -36 V
3 -73 V
3 16 V
2 57 V
3 -174 V
3 101 V
3 -155 V
3 -32 V
3 -186 V
3 246 V
3 143 V
3 -239 V
3 96 V
3 91 V
3 -91 V
2 26 V
3 -26 V
3 0 V
3 -324 V
3 228 V
3 223 V
3 -127 V
3 71 V
3 -22 V
3 -23 V
3 -86 V
3 86 V
2 -163 V
3 208 V
3 -131 V
3 109 V
3 -295 V
3 186 V
3 -373 V
3 247 V
3 90 V
3 -150 V
3 0 V
3 150 V
3 0 V
2 0 V
3 0 V
3 -41 V
3 77 V
3 60 V
3 91 V
3 -277 V
3 -60 V
3 109 V
3 208 V
3 -167 V
3 -150 V
2 60 V
3 -138 V
3 78 V
3 -78 V
3 187 V
3 -187 V
3 324 V
3 -28 V
3 137 V
3 18 V
3 -101 V
3 -163 V
3 246 V
2 0 V
3 0 V
3 -83 V
3 45 V
3 -99 V
3 54 V
3 -86 V
3 32 V
3 54 V
3 45 V
3 -99 V
3 28 V
2 143 V
3 -203 V
3 86 V
3 -122 V
3 -41 V
3 109 V
3 -68 V
3 -41 V
stroke 4412 994 M
3 -49 V
3 -247 V
3 405 V
3 -158 V
3 90 V
2 -150 V
3 218 V
3 -158 V
3 49 V
3 0 V
3 -49 V
3 158 V
3 77 V
3 -186 V
3 77 V
3 -264 V
3 0 V
2 0 V
3 296 V
3 -109 V
3 -187 V
3 -295 V
3 373 V
3 109 V
3 0 V
3 -187 V
3 78 V
3 -187 V
3 109 V
2 138 V
3 -247 V
3 337 V
3 -41 V
3 77 V
3 -77 V
3 41 V
3 -228 V
3 187 V
3 41 V
3 36 V
3 -77 V
3 41 V
2 -150 V
3 218 V
3 -218 V
3 0 V
3 0 V
3 -78 V
3 0 V
3 138 V
3 0 V
3 0 V
3 -247 V
3 109 V
2 78 V
3 -373 V
3 373 V
3 -373 V
6 186 V
3 109 V
3 264 V
3 -373 V
3 109 V
3 296 V
3 -68 V
3 -150 V
2 0 V
3 109 V
3 41 V
3 205 V
3 -355 V
3 -78 V
3 0 V
3 78 V
3 150 V
3 -90 V
3 158 V
3 -296 V
2 78 V
3 0 V
3 0 V
3 218 V
3 -296 V
3 264 V
3 131 V
6 -208 V
3 41 V
3 -41 V
3 -49 V
3 90 V
2 -228 V
3 78 V
3 60 V
3 126 V
3 -36 V
3 -41 V
3 77 V
3 86 V
3 -86 V
3 32 V
3 54 V
3 -26 V
2 173 V
3 -46 V
stroke 4721 1258 M
3 -155 V
3 54 V
3 0 V
3 23 V
3 22 V
3 -45 V
3 65 V
3 -42 V
3 -23 V
3 83 V
2 18 V
3 -78 V
3 0 V
3 -109 V
3 187 V
3 60 V
3 -283 V
3 122 V
3 -122 V
3 187 V
3 18 V
3 0 V
3 -18 V
2 -119 V
3 0 V
3 28 V
3 49 V
3 78 V
3 -127 V
3 0 V
3 0 V
3 91 V
3 -119 V
3 171 V
3 -143 V
2 -96 V
3 0 V
3 96 V
3 26 V
3 -86 V
3 60 V
3 49 V
3 -77 V
3 99 V
3 -99 V
3 77 V
3 -145 V
3 -150 V
2 109 V
3 208 V
3 -208 V
3 0 V
3 186 V
3 -235 V
3 158 V
3 -32 V
3 32 V
3 -109 V
3 137 V
3 -60 V
2 -77 V
3 109 V
3 -68 V
3 36 V
3 169 V
3 -169 V
3 0 V
3 -264 V
3 350 V
3 -54 V
3 -32 V
3 -77 V
2 280 V
3 -239 V
3 -41 V
3 228 V
3 -119 V
3 -32 V
3 -77 V
3 137 V
3 -246 V
3 295 V
3 124 V
3 27 V
3 77 V
2 -119 V
3 29 V
3 -96 V
3 36 V
3 16 V
3 -203 V
3 60 V
3 71 V
3 -22 V
3 -49 V
3 -28 V
3 -158 V
2 0 V
3 126 V
3 -264 V
3 350 V
3 -212 V
3 -60 V
3 150 V
stroke 5025 1035 M
3 0 V
3 -150 V
3 60 V
3 0 V
3 0 V
3 -247 V
2 0 V
3 247 V
3 49 V
3 41 V
3 0 V
3 -228 V
3 0 V
3 78 V
3 60 V
3 90 V
3 -523 V
3 295 V
2 -295 V
3 523 V
3 -90 V
3 -60 V
3 0 V
3 109 V
3 41 V
3 0 V
3 -150 V
3 0 V
3 -78 V
3 -109 V
3 433 V
2 -246 V
3 -187 V
3 187 V
3 109 V
3 41 V
3 -228 V
3 78 V
3 0 V
3 150 V
3 -523 V
3 523 V
3 -90 V
2 -138 V
3 -109 V
3 296 V
3 -296 V
3 -186 V
3 0 V
3 373 V
6 -373 V
3 0 V
3 186 V
3 187 V
2 -78 V
6 -295 V
3 373 V
3 -78 V
9 -109 V
3 0 V
3 109 V
3 -295 V
3 433 V
8 -138 V
3 -295 V
3 0 V
3 186 V
3 0 V
3 187 V
3 -187 V
3 0 V
3 0 V
3 0 V
3 -186 V
2 0 V
3 295 V
9 -109 V
3 109 V
6 -295 V
3 186 V
3 0 V
3 0 V
3 0 V
3 -186 V
2 0 V
6 186 V
6 187 V
3 -187 V
3 0 V
3 0 V
6 109 V
3 -109 V
3 0 V
2 0 V
3 187 V
3 -187 V
3 -186 V
3 0 V
3 186 V
3 0 V
3 109 V
3 -295 V
3 186 V
3 109 V
stroke 5364 807 M
3 -295 V
3 433 V
2 -138 V
3 -109 V
3 247 V
3 -60 V
3 -78 V
3 138 V
3 -138 V
3 78 V
3 -78 V
6 -109 V
3 187 V
2 60 V
3 -138 V
3 187 V
3 -187 V
3 -109 V
3 -186 V
3 295 V
3 -109 V
3 247 V
3 -60 V
3 -373 V
3 186 V
2 109 V
3 -109 V
3 -186 V
3 0 V
3 186 V
3 -186 V
3 373 V
3 -78 V
3 -295 V
3 186 V
3 -186 V
3 559 V
3 -264 V
2 -295 V
3 295 V
3 -109 V
3 187 V
3 -78 V
3 -109 V
3 -186 V
3 433 V
3 0 V
3 -433 V
3 295 V
3 78 V
2 -187 V
6 -186 V
3 0 V
3 186 V
3 0 V
3 0 V
6 0 V
3 -186 V
3 0 V
3 186 V
3 -186 V
5 186 V
3 0 V
6 -186 V
3 186 V
3 109 V
3 -295 V
6 373 V
3 -78 V
3 -109 V
5 -186 V
3 0 V
3 433 V
6 -138 V
6 78 V
3 0 V
6 -373 V
6 0 V
2 0 V
3 373 V
3 -187 V
3 -186 V
9 0 V
6 0 V
3 295 V
3 0 V
5 -295 V
3 0 V
3 295 V
3 -109 V
3 109 V
3 0 V
3 78 V
3 -373 V
3 0 V
3 0 V
6 186 V
5 0 V
3 -186 V
3 0 V
3 0 V
3 0 V
3 373 V
12 -373 V
stroke 5726 512 M
14 0 V
6 186 V
3 -186 V
3 186 V
6 109 V
3 -109 V
6 109 V
14 -295 V
6 0 V
3 0 V
3 186 V
6 -186 V
14 0 V
6 0 V
3 295 V
12 -295 V
14 186 V
21 -186 V
3 186 V
5 -186 V
3 0 V
3 0 V
18 0 V
9 186 V
5 -186 V
9 0 V
9 0 V
6 0 V
3 295 V
3 -295 V
5 0 V
3 0 V
3 0 V
18 186 V
12 -186 V
5 0 V
3 373 V
3 -78 V
3 -295 V
12 0 V
9 0 V
2 0 V
3 0 V
9 0 V
9 0 V
9 0 V
17 0 V
3 0 V
15 0 V
20 0 V
3 0 V
3 0 V
6 295 V
3 -295 V
8 0 V
12 0 V
3 186 V
3 -186 V
44 0 V
6 186 V
17 -186 V
3 0 V
3 0 V
6 186 V
3 -186 V
6 295 V
3 -295 V
2 0 V
3 0 V
3 295 V
3 -295 V
6 373 V
3 -187 V
3 109 V
3 0 V
3 -109 V
3 -186 V
3 186 V
2 247 V
3 -433 V
3 0 V
3 373 V
3 -373 V
3 186 V
6 -186 V
3 186 V
6 -186 V
3 0 V
11 0 V
3 0 V
6 0 V
3 295 V
3 -109 V
3 0 V
3 109 V
3 -295 V
3 0 V
2 0 V
3 0 V
3 0 V
3 0 V
3 0 V
3 186 V
3 187 V
stroke 6368 885 M
3 -187 V
3 187 V
3 -187 V
3 109 V
3 -109 V
2 0 V
6 -186 V
3 186 V
3 0 V
6 0 V
9 -186 V
1072 4586 CircleF
1075 4570 CircleF
1078 4533 CircleF
1081 4490 CircleF
1084 4443 CircleF
1087 4391 CircleF
1090 4338 CircleF
1092 4283 CircleF
1095 4227 CircleF
1098 4170 CircleF
1101 4114 CircleF
1104 4060 CircleF
1107 4007 CircleF
1110 3957 CircleF
1113 3908 CircleF
1116 3863 CircleF
1119 3820 CircleF
1122 3781 CircleF
1125 3744 CircleF
1127 3710 CircleF
1130 3679 CircleF
1133 3647 CircleF
1136 3618 CircleF
1139 3590 CircleF
1142 3568 CircleF
1145 3545 CircleF
1148 3523 CircleF
1151 3507 CircleF
1154 3488 CircleF
1157 3468 CircleF
1160 3452 CircleF
1163 3434 CircleF
1165 3421 CircleF
1168 3408 CircleF
1171 3393 CircleF
1174 3386 CircleF
1177 3367 CircleF
1180 3361 CircleF
1183 3352 CircleF
1186 3341 CircleF
1189 3331 CircleF
1192 3318 CircleF
1195 3310 CircleF
1198 3299 CircleF
1200 3293 CircleF
1203 3279 CircleF
1206 3275 CircleF
1209 3264 CircleF
1212 3255 CircleF
1215 3249 CircleF
1218 3246 CircleF
1221 3237 CircleF
1224 3229 CircleF
1227 3226 CircleF
1230 3218 CircleF
1233 3219 CircleF
1235 3210 CircleF
1238 3203 CircleF
1241 3197 CircleF
1244 3193 CircleF
1247 3189 CircleF
1250 3181 CircleF
1253 3181 CircleF
1256 3173 CircleF
1259 3169 CircleF
1262 3167 CircleF
1265 3159 CircleF
1268 3161 CircleF
1271 3157 CircleF
1273 3150 CircleF
1276 3145 CircleF
1279 3147 CircleF
1282 3139 CircleF
1285 3141 CircleF
1288 3145 CircleF
1291 3131 CircleF
1294 3132 CircleF
1297 3137 CircleF
1300 3128 CircleF
1303 3132 CircleF
1306 3126 CircleF
1308 3127 CircleF
1311 3126 CircleF
1314 3121 CircleF
1317 3122 CircleF
1320 3119 CircleF
1323 3123 CircleF
1326 3127 CircleF
1329 3121 CircleF
1332 3120 CircleF
1335 3119 CircleF
1338 3119 CircleF
1341 3121 CircleF
1344 3120 CircleF
1346 3118 CircleF
1349 3119 CircleF
1352 3121 CircleF
1355 3120 CircleF
1358 3123 CircleF
1361 3124 CircleF
1364 3120 CircleF
1367 3113 CircleF
1370 3119 CircleF
1373 3123 CircleF
1376 3116 CircleF
1379 3117 CircleF
1381 3118 CircleF
1384 3117 CircleF
1387 3122 CircleF
1390 3124 CircleF
1393 3120 CircleF
1396 3121 CircleF
1399 3127 CircleF
1402 3130 CircleF
1405 3126 CircleF
1408 3131 CircleF
1411 3125 CircleF
1414 3124 CircleF
1417 3129 CircleF
1419 3122 CircleF
1422 3131 CircleF
1425 3127 CircleF
1428 3133 CircleF
1431 3131 CircleF
1434 3133 CircleF
1437 3134 CircleF
1440 3134 CircleF
1443 3137 CircleF
1446 3133 CircleF
1449 3133 CircleF
1452 3134 CircleF
1454 3131 CircleF
1457 3128 CircleF
1460 3129 CircleF
1463 3129 CircleF
1466 3127 CircleF
1469 3133 CircleF
1472 3128 CircleF
1475 3126 CircleF
1478 3125 CircleF
1481 3132 CircleF
1484 3126 CircleF
1487 3126 CircleF
1489 3127 CircleF
1492 3122 CircleF
1495 3120 CircleF
1498 3118 CircleF
1501 3118 CircleF
1504 3122 CircleF
1507 3118 CircleF
1510 3120 CircleF
1513 3116 CircleF
1516 3116 CircleF
1519 3112 CircleF
1522 3121 CircleF
1525 3115 CircleF
1527 3113 CircleF
1530 3105 CircleF
1533 3108 CircleF
1536 3106 CircleF
1539 3104 CircleF
1542 3101 CircleF
1545 3096 CircleF
1548 3096 CircleF
1551 3096 CircleF
1554 3095 CircleF
1557 3097 CircleF
1560 3089 CircleF
1562 3081 CircleF
1565 3076 CircleF
1568 3078 CircleF
1571 3068 CircleF
1574 3069 CircleF
1577 3068 CircleF
1580 3067 CircleF
1583 3065 CircleF
1586 3060 CircleF
1589 3055 CircleF
1592 3053 CircleF
1595 3049 CircleF
1598 3050 CircleF
1600 3043 CircleF
1603 3039 CircleF
1606 3034 CircleF
1609 3031 CircleF
1612 3027 CircleF
1615 3025 CircleF
1618 3017 CircleF
1621 3017 CircleF
1624 3017 CircleF
1627 3013 CircleF
1630 3008 CircleF
1633 2997 CircleF
1635 2996 CircleF
1638 2981 CircleF
1641 2985 CircleF
1644 2979 CircleF
1647 2978 CircleF
1650 2967 CircleF
1653 2967 CircleF
1656 2959 CircleF
1659 2962 CircleF
1662 2960 CircleF
1665 2943 CircleF
1668 2949 CircleF
1670 2931 CircleF
1673 2937 CircleF
1676 2929 CircleF
1679 2920 CircleF
1682 2919 CircleF
1685 2917 CircleF
1688 2903 CircleF
1691 2896 CircleF
1694 2892 CircleF
1697 2892 CircleF
1700 2890 CircleF
1703 2892 CircleF
1706 2873 CircleF
1708 2880 CircleF
1711 2875 CircleF
1714 2859 CircleF
1717 2858 CircleF
1720 2852 CircleF
1723 2845 CircleF
1726 2842 CircleF
1729 2841 CircleF
1732 2829 CircleF
1735 2834 CircleF
1738 2823 CircleF
1741 2806 CircleF
1743 2803 CircleF
1746 2798 CircleF
1749 2795 CircleF
1752 2796 CircleF
1755 2794 CircleF
1758 2789 CircleF
1761 2786 CircleF
1764 2779 CircleF
1767 2773 CircleF
1770 2773 CircleF
1773 2772 CircleF
1776 2770 CircleF
1779 2753 CircleF
1781 2750 CircleF
1784 2740 CircleF
1787 2737 CircleF
1790 2749 CircleF
1793 2746 CircleF
1796 2732 CircleF
1799 2722 CircleF
1802 2712 CircleF
1805 2711 CircleF
1808 2716 CircleF
1811 2698 CircleF
1814 2707 CircleF
1816 2699 CircleF
1819 2695 CircleF
1822 2671 CircleF
1825 2679 CircleF
1828 2692 CircleF
1831 2682 CircleF
1834 2680 CircleF
1837 2659 CircleF
1840 2655 CircleF
1843 2648 CircleF
1846 2647 CircleF
1849 2646 CircleF
1852 2647 CircleF
1854 2632 CircleF
1857 2632 CircleF
1860 2634 CircleF
1863 2641 CircleF
1866 2631 CircleF
1869 2624 CircleF
1872 2608 CircleF
1875 2599 CircleF
1878 2610 CircleF
1881 2604 CircleF
1884 2590 CircleF
1887 2587 CircleF
1889 2597 CircleF
1892 2606 CircleF
1895 2588 CircleF
1898 2596 CircleF
1901 2585 CircleF
1904 2576 CircleF
1907 2565 CircleF
1910 2578 CircleF
1913 2548 CircleF
1916 2564 CircleF
1919 2561 CircleF
1922 2542 CircleF
1924 2557 CircleF
1927 2535 CircleF
1930 2546 CircleF
1933 2543 CircleF
1936 2533 CircleF
1939 2532 CircleF
1942 2526 CircleF
1945 2532 CircleF
1948 2545 CircleF
1951 2522 CircleF
1954 2520 CircleF
1957 2509 CircleF
1960 2524 CircleF
1962 2511 CircleF
1965 2513 CircleF
1968 2498 CircleF
1971 2504 CircleF
1974 2494 CircleF
1977 2492 CircleF
1980 2464 CircleF
1983 2487 CircleF
1986 2480 CircleF
1989 2470 CircleF
1992 2470 CircleF
1995 2476 CircleF
1997 2469 CircleF
2000 2474 CircleF
2003 2470 CircleF
2006 2465 CircleF
2009 2465 CircleF
2012 2445 CircleF
2015 2440 CircleF
2018 2443 CircleF
2021 2420 CircleF
2024 2432 CircleF
2027 2434 CircleF
2030 2450 CircleF
2033 2440 CircleF
2035 2428 CircleF
2038 2441 CircleF
2041 2422 CircleF
2044 2431 CircleF
2047 2446 CircleF
2050 2420 CircleF
2053 2411 CircleF
2056 2418 CircleF
2059 2414 CircleF
2062 2392 CircleF
2065 2408 CircleF
2068 2404 CircleF
2070 2413 CircleF
2073 2415 CircleF
2076 2410 CircleF
2079 2389 CircleF
2082 2404 CircleF
2085 2391 CircleF
2088 2399 CircleF
2091 2418 CircleF
2094 2416 CircleF
2097 2419 CircleF
2100 2402 CircleF
2103 2401 CircleF
2106 2407 CircleF
2108 2383 CircleF
2111 2387 CircleF
2114 2386 CircleF
2117 2386 CircleF
2120 2399 CircleF
2123 2403 CircleF
2126 2387 CircleF
2129 2373 CircleF
2132 2401 CircleF
2135 2370 CircleF
2138 2375 CircleF
2141 2370 CircleF
2143 2364 CircleF
2146 2371 CircleF
2149 2377 CircleF
2152 2373 CircleF
2155 2370 CircleF
2158 2368 CircleF
2161 2368 CircleF
2164 2349 CircleF
2167 2383 CircleF
2170 2367 CircleF
2173 2367 CircleF
2176 2354 CircleF
2178 2342 CircleF
2181 2375 CircleF
2184 2351 CircleF
2187 2349 CircleF
2190 2358 CircleF
2193 2340 CircleF
2196 2353 CircleF
2199 2345 CircleF
2202 2334 CircleF
2205 2344 CircleF
2208 2351 CircleF
2211 2343 CircleF
2214 2324 CircleF
2216 2345 CircleF
2219 2347 CircleF
2222 2334 CircleF
2225 2348 CircleF
2228 2350 CircleF
2231 2324 CircleF
2234 2333 CircleF
2237 2330 CircleF
2240 2328 CircleF
2243 2322 CircleF
2246 2319 CircleF
2249 2310 CircleF
2251 2302 CircleF
2254 2306 CircleF
2257 2315 CircleF
2260 2301 CircleF
2263 2306 CircleF
2266 2275 CircleF
2269 2302 CircleF
2272 2268 CircleF
2275 2290 CircleF
2278 2255 CircleF
2281 2270 CircleF
2284 2296 CircleF
2287 2268 CircleF
2289 2279 CircleF
2292 2282 CircleF
2295 2295 CircleF
2298 2277 CircleF
2301 2272 CircleF
2304 2284 CircleF
2307 2278 CircleF
2310 2254 CircleF
2313 2263 CircleF
2316 2266 CircleF
2319 2243 CircleF
2322 2260 CircleF
2324 2272 CircleF
2327 2239 CircleF
2330 2225 CircleF
2333 2240 CircleF
2336 2235 CircleF
2339 2227 CircleF
2342 2252 CircleF
2345 2266 CircleF
2348 2256 CircleF
2351 2232 CircleF
2354 2217 CircleF
2357 2229 CircleF
2359 2225 CircleF
2362 2206 CircleF
2365 2226 CircleF
2368 2219 CircleF
2371 2209 CircleF
2374 2212 CircleF
2377 2232 CircleF
2380 2235 CircleF
2383 2212 CircleF
2386 2229 CircleF
2389 2209 CircleF
2392 2217 CircleF
2395 2201 CircleF
2397 2200 CircleF
2400 2226 CircleF
2403 2222 CircleF
2406 2221 CircleF
2409 2238 CircleF
2412 2219 CircleF
2415 2230 CircleF
2418 2202 CircleF
2421 2232 CircleF
2424 2181 CircleF
2427 2195 CircleF
2430 2206 CircleF
2432 2205 CircleF
2435 2226 CircleF
2438 2201 CircleF
2441 2198 CircleF
2444 2215 CircleF
2447 2208 CircleF
2450 2210 CircleF
2453 2201 CircleF
2456 2174 CircleF
2459 2198 CircleF
2462 2172 CircleF
2465 2188 CircleF
2468 2177 CircleF
2470 2198 CircleF
2473 2172 CircleF
2476 2181 CircleF
2479 2168 CircleF
2482 2135 CircleF
2485 2134 CircleF
2488 2132 CircleF
2491 2139 CircleF
2494 2145 CircleF
2497 2170 CircleF
2500 2144 CircleF
2503 2121 CircleF
2505 2138 CircleF
2508 2155 CircleF
2511 2193 CircleF
2514 2253 CircleF
2517 2206 CircleF
2520 2083 CircleF
2523 2091 CircleF
2526 2108 CircleF
2529 2082 CircleF
2532 2103 CircleF
2535 2044 CircleF
2538 2050 CircleF
2541 2098 CircleF
2543 2063 CircleF
2546 2058 CircleF
2549 2080 CircleF
2552 2081 CircleF
2555 2060 CircleF
2558 2062 CircleF
2561 2067 CircleF
2564 2071 CircleF
2567 2057 CircleF
2570 2097 CircleF
2573 2055 CircleF
2576 2033 CircleF
2578 2044 CircleF
2581 2051 CircleF
2584 2042 CircleF
2587 2010 CircleF
2590 2000 CircleF
2593 2000 CircleF
2596 2045 CircleF
2599 2031 CircleF
2602 2002 CircleF
2605 1996 CircleF
2608 1999 CircleF
2611 2015 CircleF
2613 2030 CircleF
2616 2043 CircleF
2619 2048 CircleF
2622 2031 CircleF
2625 2055 CircleF
2628 2045 CircleF
2631 2073 CircleF
2634 2032 CircleF
2637 2065 CircleF
2640 2039 CircleF
2643 1997 CircleF
2646 2060 CircleF
2649 2060 CircleF
2651 2015 CircleF
2654 2038 CircleF
2657 2040 CircleF
2660 2028 CircleF
2663 2023 CircleF
2666 2051 CircleF
2669 2001 CircleF
2672 1995 CircleF
2675 2004 CircleF
2678 2036 CircleF
2681 1997 CircleF
2684 2042 CircleF
2686 1989 CircleF
2689 1992 CircleF
2692 1971 CircleF
2695 1971 CircleF
2698 1976 CircleF
2701 1936 CircleF
2704 1941 CircleF
2707 1890 CircleF
2710 1909 CircleF
2713 1926 CircleF
2716 1937 CircleF
2719 1925 CircleF
2722 1893 CircleF
2724 1950 CircleF
2727 1949 CircleF
2730 1950 CircleF
2733 1955 CircleF
2736 1945 CircleF
2739 1969 CircleF
2742 1985 CircleF
2745 1923 CircleF
2748 1963 CircleF
2751 1975 CircleF
2754 1930 CircleF
2757 1929 CircleF
2759 1932 CircleF
2762 1932 CircleF
2765 1929 CircleF
2768 1953 CircleF
2771 1922 CircleF
2774 1847 CircleF
2777 1892 CircleF
2780 1913 CircleF
2783 1872 CircleF
2786 1937 CircleF
2789 1907 CircleF
2792 1951 CircleF
2795 1912 CircleF
2797 1940 CircleF
2800 1934 CircleF
2803 1919 CircleF
2806 1955 CircleF
2809 1927 CircleF
2812 1982 CircleF
2815 1940 CircleF
2818 1940 CircleF
2821 1946 CircleF
2824 1977 CircleF
2827 1986 CircleF
2830 1950 CircleF
2832 1950 CircleF
2835 1898 CircleF
2838 1913 CircleF
2841 1958 CircleF
2844 1933 CircleF
2847 1950 CircleF
2850 1901 CircleF
2853 1893 CircleF
2856 1941 CircleF
2859 1937 CircleF
2862 1950 CircleF
2865 1938 CircleF
2867 1932 CircleF
2870 1913 CircleF
2873 1937 CircleF
2876 1898 CircleF
2879 1920 CircleF
2882 1913 CircleF
2885 1932 CircleF
2888 1880 CircleF
2891 1930 CircleF
2894 1900 CircleF
2897 1937 CircleF
2900 1930 CircleF
2903 1923 CircleF
2905 1863 CircleF
2908 1913 CircleF
2911 1885 CircleF
2914 1875 CircleF
2917 1870 CircleF
2920 1839 CircleF
2923 1868 CircleF
2926 1917 CircleF
2929 1909 CircleF
2932 1907 CircleF
2935 1870 CircleF
2938 1861 CircleF
2940 1913 CircleF
2943 1863 CircleF
2946 1872 CircleF
2949 1839 CircleF
2952 1872 CircleF
2955 1872 CircleF
2958 1849 CircleF
2961 1877 CircleF
2964 1870 CircleF
2967 1882 CircleF
2970 1813 CircleF
2973 1806 CircleF
2976 1851 CircleF
2978 1829 CircleF
2981 1819 CircleF
2984 1813 CircleF
2987 1808 CircleF
2990 1841 CircleF
2993 1839 CircleF
2996 1835 CircleF
2999 1847 CircleF
3002 1852 CircleF
3005 1835 CircleF
3008 1843 CircleF
3011 1868 CircleF
3013 1870 CircleF
3016 1819 CircleF
3019 1819 CircleF
3022 1827 CircleF
3025 1813 CircleF
3028 1759 CircleF
3031 1781 CircleF
3034 1783 CircleF
3037 1835 CircleF
3040 1776 CircleF
3043 1813 CircleF
3046 1829 CircleF
3049 1779 CircleF
3051 1774 CircleF
3054 1808 CircleF
3057 1811 CircleF
3060 1761 CircleF
3063 1811 CircleF
3066 1833 CircleF
3069 1870 CircleF
3072 1827 CircleF
3075 1769 CircleF
3078 1677 CircleF
3081 1793 CircleF
3084 1748 CircleF
3086 1707 CircleF
3089 1771 CircleF
3092 1731 CircleF
3095 1759 CircleF
3098 1751 CircleF
3101 1793 CircleF
3104 1823 CircleF
3107 1756 CircleF
3110 1769 CircleF
3113 1756 CircleF
3116 1811 CircleF
3119 1783 CircleF
3121 1786 CircleF
3124 1716 CircleF
3127 1771 CircleF
3130 1677 CircleF
3133 1728 CircleF
3136 1731 CircleF
3139 1781 CircleF
3142 1753 CircleF
3145 1737 CircleF
3148 1771 CircleF
3151 1759 CircleF
3154 1684 CircleF
3157 1716 CircleF
3159 1728 CircleF
3162 1745 CircleF
3165 1756 CircleF
3168 1779 CircleF
3171 1802 CircleF
3174 1756 CircleF
3177 1734 CircleF
3180 1753 CircleF
3183 1815 CircleF
3186 1779 CircleF
3189 1753 CircleF
3192 1764 CircleF
3194 1719 CircleF
3197 1769 CircleF
3200 1781 CircleF
3203 1704 CircleF
3206 1811 CircleF
3209 1707 CircleF
3212 1759 CircleF
3215 1691 CircleF
3218 1687 CircleF
3221 1684 CircleF
3224 1700 CircleF
3227 1677 CircleF
3230 1687 CircleF
3232 1740 CircleF
3235 1613 CircleF
3238 1643 CircleF
3241 1599 CircleF
3244 1666 CircleF
3247 1618 CircleF
3250 1704 CircleF
3253 1710 CircleF
3256 1719 CircleF
3259 1731 CircleF
3262 1731 CircleF
3265 1707 CircleF
3267 1662 CircleF
3270 1716 CircleF
3273 1737 CircleF
3276 1713 CircleF
3279 1666 CircleF
3282 1655 CircleF
3285 1748 CircleF
3288 1742 CircleF
3291 1734 CircleF
3294 1713 CircleF
3297 1700 CircleF
3300 1725 CircleF
3302 1734 CircleF
3305 1626 CircleF
3308 1609 CircleF
3311 1622 CircleF
3314 1731 CircleF
3317 1662 CircleF
3320 1553 CircleF
3323 1590 CircleF
3326 1553 CircleF
3329 1548 CircleF
3332 1585 CircleF
3335 1580 CircleF
3338 1655 CircleF
3340 1585 CircleF
3343 1662 CircleF
3346 1658 CircleF
3349 1575 CircleF
3352 1647 CircleF
3355 1618 CircleF
3358 1553 CircleF
3361 1569 CircleF
3364 1504 CircleF
3367 1559 CircleF
3370 1530 CircleF
3373 1647 CircleF
3375 1647 CircleF
3378 1651 CircleF
3381 1673 CircleF
3384 1647 CircleF
3387 1609 CircleF
3390 1677 CircleF
3393 1569 CircleF
3396 1670 CircleF
3399 1553 CircleF
3402 1517 CircleF
3405 1564 CircleF
3408 1575 CircleF
3411 1580 CircleF
3413 1666 CircleF
3416 1647 CircleF
3419 1666 CircleF
3422 1618 CircleF
3425 1604 CircleF
3428 1725 CircleF
3431 1651 CircleF
3434 1548 CircleF
3437 1542 CircleF
3440 1569 CircleF
3443 1548 CircleF
3446 1511 CircleF
3448 1483 CircleF
3451 1497 CircleF
3454 1548 CircleF
3457 1504 CircleF
3460 1497 CircleF
3463 1590 CircleF
3466 1444 CircleF
3469 1452 CircleF
3472 1585 CircleF
3475 1548 CircleF
3478 1575 CircleF
3481 1585 CircleF
3484 1585 CircleF
3486 1585 CircleF
3489 1590 CircleF
3492 1564 CircleF
3495 1580 CircleF
3498 1575 CircleF
3501 1569 CircleF
3504 1564 CircleF
3507 1569 CircleF
3510 1585 CircleF
3513 1564 CircleF
3516 1497 CircleF
3519 1559 CircleF
3521 1517 CircleF
3524 1548 CircleF
3527 1618 CircleF
3530 1609 CircleF
3533 1548 CircleF
3536 1622 CircleF
3539 1626 CircleF
3542 1613 CircleF
3545 1580 CircleF
3548 1618 CircleF
3551 1530 CircleF
3554 1559 CircleF
3556 1595 CircleF
3559 1626 CircleF
3562 1536 CircleF
3565 1564 CircleF
3568 1569 CircleF
3571 1604 CircleF
3574 1680 CircleF
3577 1604 CircleF
3580 1590 CircleF
3583 1511 CircleF
3586 1517 CircleF
3589 1504 CircleF
3592 1490 CircleF
3594 1511 CircleF
3597 1618 CircleF
3600 1517 CircleF
3603 1530 CircleF
3606 1504 CircleF
3609 1524 CircleF
3612 1542 CircleF
3615 1585 CircleF
3618 1604 CircleF
3621 1575 CircleF
3624 1542 CircleF
3627 1511 CircleF
3629 1511 CircleF
3632 1476 CircleF
3635 1398 CircleF
3638 1367 CircleF
3641 1388 CircleF
3644 1536 CircleF
3647 1490 CircleF
3650 1476 CircleF
3653 1460 CircleF
3656 1418 CircleF
3659 1444 CircleF
3662 1452 CircleF
3665 1497 CircleF
3667 1524 CircleF
3670 1468 CircleF
3673 1343 CircleF
3676 1418 CircleF
3679 1367 CircleF
3682 1367 CircleF
3685 1378 CircleF
3688 1436 CircleF
3691 1436 CircleF
3694 1318 CircleF
3697 1274 CircleF
3700 994 CircleF
3702 1157 CircleF
3705 1157 CircleF
3708 1318 CircleF
3711 1240 CircleF
3714 1202 CircleF
3717 1331 CircleF
3720 1222 CircleF
3723 1180 CircleF
3726 1180 CircleF
3729 1157 CircleF
3732 1367 CircleF
3735 1157 CircleF
3738 1343 CircleF
3740 1355 CircleF
3743 1202 CircleF
3746 1274 CircleF
3749 1157 CircleF
3752 1180 CircleF
3755 1071 CircleF
3758 1202 CircleF
3761 1318 CircleF
3764 1378 CircleF
3767 1331 CircleF
3770 1274 CircleF
3773 1304 CircleF
3775 1131 CircleF
3778 1240 CircleF
3781 1222 CircleF
3784 1202 CircleF
3787 1157 CircleF
3790 1318 CircleF
3793 1318 CircleF
3796 1444 CircleF
3799 1418 CircleF
3802 1343 CircleF
3805 1258 CircleF
3808 1222 CircleF
3810 1388 CircleF
3813 1289 CircleF
3816 1240 CircleF
3819 1202 CircleF
3822 1202 CircleF
3825 1318 CircleF
3828 1274 CircleF
3831 1318 CircleF
3834 1427 CircleF
3837 1418 CircleF
3840 1318 CircleF
3843 1258 CircleF
3846 1331 CircleF
3848 1180 CircleF
3851 1222 CircleF
3854 1103 CircleF
3857 945 CircleF
3860 945 CircleF
3863 1202 CircleF
3866 1240 CircleF
3869 994 CircleF
3872 1071 CircleF
3875 1103 CircleF
3878 1103 CircleF
3881 1103 CircleF
3883 945 CircleF
3886 885 CircleF
3889 885 CircleF
3892 994 CircleF
3895 1131 CircleF
3898 994 CircleF
3901 1071 CircleF
3904 994 CircleF
3907 807 CircleF
3910 1202 CircleF
3913 1157 CircleF
3916 994 CircleF
3919 994 CircleF
3921 885 CircleF
3924 945 CircleF
3927 994 CircleF
3930 1071 CircleF
3933 1131 CircleF
3936 1180 CircleF
3939 1103 CircleF
3942 1071 CircleF
3945 1071 CircleF
3948 945 CircleF
3951 994 CircleF
3954 1035 CircleF
3956 1035 CircleF
3959 885 CircleF
3962 945 CircleF
3965 885 CircleF
3968 885 CircleF
3971 994 CircleF
3974 885 CircleF
3977 1103 CircleF
3980 807 CircleF
3983 994 CircleF
3986 1035 CircleF
3989 885 CircleF
3992 945 CircleF
3994 945 CircleF
3997 945 CircleF
4000 807 CircleF
4003 1035 CircleF
4006 807 CircleF
4009 1180 CircleF
4012 1035 CircleF
4015 994 CircleF
4018 1035 CircleF
4021 885 CircleF
4024 1071 CircleF
4027 1035 CircleF
4029 945 CircleF
4032 1035 CircleF
4035 1131 CircleF
4038 945 CircleF
4041 1071 CircleF
4044 1071 CircleF
4047 885 CircleF
4050 885 CircleF
4053 1035 CircleF
4056 1157 CircleF
4059 1071 CircleF
4062 1103 CircleF
4064 1202 CircleF
4067 1071 CircleF
4070 1071 CircleF
4073 1157 CircleF
4076 994 CircleF
4079 1035 CircleF
4082 1258 CircleF
4085 1157 CircleF
4088 945 CircleF
4091 1131 CircleF
4094 1240 CircleF
4097 1240 CircleF
4100 1388 CircleF
4102 1331 CircleF
4105 1343 CircleF
4108 1274 CircleF
4111 1398 CircleF
4114 1202 CircleF
4117 1222 CircleF
4120 994 CircleF
4123 1157 CircleF
4126 1304 CircleF
4129 1202 CircleF
4132 1304 CircleF
4135 1258 CircleF
4137 1343 CircleF
4140 1258 CircleF
4143 1240 CircleF
4146 1436 CircleF
4149 1331 CircleF
4152 1343 CircleF
4155 1274 CircleF
4158 1408 CircleF
4161 1258 CircleF
4164 1367 CircleF
4167 1331 CircleF
4170 1258 CircleF
4173 1274 CircleF
4175 1331 CircleF
4178 1157 CircleF
4181 1258 CircleF
4184 1103 CircleF
4187 1071 CircleF
4190 885 CircleF
4193 1131 CircleF
4196 1274 CircleF
4199 1035 CircleF
4202 1131 CircleF
4205 1222 CircleF
4208 1131 CircleF
4210 1157 CircleF
4213 1131 CircleF
4216 1131 CircleF
4219 807 CircleF
4222 1035 CircleF
4225 1258 CircleF
4228 1131 CircleF
4231 1202 CircleF
4234 1180 CircleF
4237 1157 CircleF
4240 1071 CircleF
4243 1157 CircleF
4245 994 CircleF
4248 1202 CircleF
4251 1071 CircleF
4254 1180 CircleF
4257 885 CircleF
4260 1071 CircleF
4263 698 CircleF
4266 945 CircleF
4269 1035 CircleF
4272 885 CircleF
4275 885 CircleF
4278 1035 CircleF
4281 1035 CircleF
4283 1035 CircleF
4286 1035 CircleF
4289 994 CircleF
4292 1071 CircleF
4295 1131 CircleF
4298 1222 CircleF
4301 945 CircleF
4304 885 CircleF
4307 994 CircleF
4310 1202 CircleF
4313 1035 CircleF
4316 885 CircleF
4318 945 CircleF
4321 807 CircleF
4324 885 CircleF
4327 807 CircleF
4330 994 CircleF
4333 807 CircleF
4336 1131 CircleF
4339 1103 CircleF
4342 1240 CircleF
4345 1258 CircleF
4348 1157 CircleF
4351 994 CircleF
4354 1240 CircleF
4356 1240 CircleF
4359 1240 CircleF
4362 1157 CircleF
4365 1202 CircleF
4368 1103 CircleF
4371 1157 CircleF
4374 1071 CircleF
4377 1103 CircleF
4380 1157 CircleF
4383 1202 CircleF
4386 1103 CircleF
4389 1131 CircleF
4391 1274 CircleF
4394 1071 CircleF
4397 1157 CircleF
4400 1035 CircleF
4403 994 CircleF
4406 1103 CircleF
4409 1035 CircleF
4412 994 CircleF
4415 945 CircleF
4418 698 CircleF
4421 1103 CircleF
4424 945 CircleF
4427 1035 CircleF
4429 885 CircleF
4432 1103 CircleF
4435 945 CircleF
4438 994 CircleF
4441 994 CircleF
4444 945 CircleF
4447 1103 CircleF
4450 1180 CircleF
4453 994 CircleF
4456 1071 CircleF
4459 807 CircleF
4462 807 CircleF
4464 807 CircleF
4467 1103 CircleF
4470 994 CircleF
4473 807 CircleF
4476 512 CircleF
4479 885 CircleF
4482 994 CircleF
4485 994 CircleF
4488 807 CircleF
4491 885 CircleF
4494 698 CircleF
4497 807 CircleF
4499 945 CircleF
4502 698 CircleF
4505 1035 CircleF
4508 994 CircleF
4511 1071 CircleF
4514 994 CircleF
4517 1035 CircleF
4520 807 CircleF
4523 994 CircleF
4526 1035 CircleF
4529 1071 CircleF
4532 994 CircleF
4535 1035 CircleF
4537 885 CircleF
4540 1103 CircleF
4543 885 CircleF
4546 885 CircleF
4549 885 CircleF
4552 807 CircleF
4555 807 CircleF
4558 945 CircleF
4561 945 CircleF
4564 945 CircleF
4567 698 CircleF
4570 807 CircleF
4572 885 CircleF
4575 512 CircleF
4578 885 CircleF
4581 512 CircleF
4587 698 CircleF
4590 807 CircleF
4593 1071 CircleF
4596 698 CircleF
4599 807 CircleF
4602 1103 CircleF
4605 1035 CircleF
4608 885 CircleF
4610 885 CircleF
4613 994 CircleF
4616 1035 CircleF
4619 1240 CircleF
4622 885 CircleF
4625 807 CircleF
4628 807 CircleF
4631 885 CircleF
4634 1035 CircleF
4637 945 CircleF
4640 1103 CircleF
4643 807 CircleF
4645 885 CircleF
4648 885 CircleF
4651 885 CircleF
4654 1103 CircleF
4657 807 CircleF
4660 1071 CircleF
4663 1202 CircleF
4669 994 CircleF
4672 1035 CircleF
4675 994 CircleF
4678 945 CircleF
4681 1035 CircleF
4683 807 CircleF
4686 885 CircleF
4689 945 CircleF
4692 1071 CircleF
4695 1035 CircleF
4698 994 CircleF
4701 1071 CircleF
4704 1157 CircleF
4707 1071 CircleF
4710 1103 CircleF
4713 1157 CircleF
4716 1131 CircleF
4718 1304 CircleF
4721 1258 CircleF
4724 1103 CircleF
4727 1157 CircleF
4730 1157 CircleF
4733 1180 CircleF
4736 1202 CircleF
4739 1157 CircleF
4742 1222 CircleF
4745 1180 CircleF
4748 1157 CircleF
4751 1240 CircleF
4753 1258 CircleF
4756 1180 CircleF
4759 1180 CircleF
4762 1071 CircleF
4765 1258 CircleF
4768 1318 CircleF
4771 1035 CircleF
4774 1157 CircleF
4777 1035 CircleF
4780 1222 CircleF
4783 1240 CircleF
4786 1240 CircleF
4789 1222 CircleF
4791 1103 CircleF
4794 1103 CircleF
4797 1131 CircleF
4800 1180 CircleF
4803 1258 CircleF
4806 1131 CircleF
4809 1131 CircleF
4812 1131 CircleF
4815 1222 CircleF
4818 1103 CircleF
4821 1274 CircleF
4824 1131 CircleF
4826 1035 CircleF
4829 1035 CircleF
4832 1131 CircleF
4835 1157 CircleF
4838 1071 CircleF
4841 1131 CircleF
4844 1180 CircleF
4847 1103 CircleF
4850 1202 CircleF
4853 1103 CircleF
4856 1180 CircleF
4859 1035 CircleF
4862 885 CircleF
4864 994 CircleF
4867 1202 CircleF
4870 994 CircleF
4873 994 CircleF
4876 1180 CircleF
4879 945 CircleF
4882 1103 CircleF
4885 1071 CircleF
4888 1103 CircleF
4891 994 CircleF
4894 1131 CircleF
4897 1071 CircleF
4899 994 CircleF
4902 1103 CircleF
4905 1035 CircleF
4908 1071 CircleF
4911 1240 CircleF
4914 1071 CircleF
4917 1071 CircleF
4920 807 CircleF
4923 1157 CircleF
4926 1103 CircleF
4929 1071 CircleF
4932 994 CircleF
4934 1274 CircleF
4937 1035 CircleF
4940 994 CircleF
4943 1222 CircleF
4946 1103 CircleF
4949 1071 CircleF
4952 994 CircleF
4955 1131 CircleF
4958 885 CircleF
4961 1180 CircleF
4964 1304 CircleF
4967 1331 CircleF
4970 1408 CircleF
4972 1289 CircleF
4975 1318 CircleF
4978 1222 CircleF
4981 1258 CircleF
4984 1274 CircleF
4987 1071 CircleF
4990 1131 CircleF
4993 1202 CircleF
4996 1180 CircleF
4999 1131 CircleF
5002 1103 CircleF
5005 945 CircleF
5007 945 CircleF
5010 1071 CircleF
5013 807 CircleF
5016 1157 CircleF
5019 945 CircleF
5022 885 CircleF
5025 1035 CircleF
5028 1035 CircleF
5031 885 CircleF
5034 945 CircleF
5037 945 CircleF
5040 945 CircleF
5043 698 CircleF
5045 698 CircleF
5048 945 CircleF
5051 994 CircleF
5054 1035 CircleF
5057 1035 CircleF
5060 807 CircleF
5063 807 CircleF
5066 885 CircleF
5069 945 CircleF
5072 1035 CircleF
5075 512 CircleF
5078 807 CircleF
5080 512 CircleF
5083 1035 CircleF
5086 945 CircleF
5089 885 CircleF
5092 885 CircleF
5095 994 CircleF
5098 1035 CircleF
5101 1035 CircleF
5104 885 CircleF
5107 885 CircleF
5110 807 CircleF
5113 698 CircleF
5116 1131 CircleF
5118 885 CircleF
5121 698 CircleF
5124 885 CircleF
5127 994 CircleF
5130 1035 CircleF
5133 807 CircleF
5136 885 CircleF
5139 885 CircleF
5142 1035 CircleF
5145 512 CircleF
5148 1035 CircleF
5151 945 CircleF
5153 807 CircleF
5156 698 CircleF
5159 994 CircleF
5162 698 CircleF
5165 512 CircleF
5168 512 CircleF
5171 885 CircleF
5177 512 CircleF
5180 512 CircleF
5183 698 CircleF
5186 885 CircleF
5188 807 CircleF
5194 512 CircleF
5197 885 CircleF
5200 807 CircleF
5209 698 CircleF
5212 698 CircleF
5215 807 CircleF
5218 512 CircleF
5221 945 CircleF
5229 807 CircleF
5232 512 CircleF
5235 512 CircleF
5238 698 CircleF
5241 698 CircleF
5244 885 CircleF
5247 698 CircleF
5250 698 CircleF
5253 698 CircleF
5256 698 CircleF
5259 512 CircleF
5261 512 CircleF
5264 807 CircleF
5273 698 CircleF
5276 807 CircleF
5282 512 CircleF
5285 698 CircleF
5288 698 CircleF
5291 698 CircleF
5294 698 CircleF
5297 512 CircleF
5299 512 CircleF
5305 698 CircleF
5311 885 CircleF
5314 698 CircleF
5317 698 CircleF
5320 698 CircleF
5326 807 CircleF
5329 698 CircleF
5332 698 CircleF
5334 698 CircleF
5337 885 CircleF
5340 698 CircleF
5343 512 CircleF
5346 512 CircleF
5349 698 CircleF
5352 698 CircleF
5355 807 CircleF
5358 512 CircleF
5361 698 CircleF
5364 807 CircleF
5367 512 CircleF
5370 945 CircleF
5372 807 CircleF
5375 698 CircleF
5378 945 CircleF
5381 885 CircleF
5384 807 CircleF
5387 945 CircleF
5390 807 CircleF
5393 885 CircleF
5396 807 CircleF
5402 698 CircleF
5405 885 CircleF
5407 945 CircleF
5410 807 CircleF
5413 994 CircleF
5416 807 CircleF
5419 698 CircleF
5422 512 CircleF
5425 807 CircleF
5428 698 CircleF
5431 945 CircleF
5434 885 CircleF
5437 512 CircleF
5440 698 CircleF
5442 807 CircleF
5445 698 CircleF
5448 512 CircleF
5451 512 CircleF
5454 698 CircleF
5457 512 CircleF
5460 885 CircleF
5463 807 CircleF
5466 512 CircleF
5469 698 CircleF
5472 512 CircleF
5475 1071 CircleF
5478 807 CircleF
5480 512 CircleF
5483 807 CircleF
5486 698 CircleF
5489 885 CircleF
5492 807 CircleF
5495 698 CircleF
5498 512 CircleF
5501 945 CircleF
5504 945 CircleF
5507 512 CircleF
5510 807 CircleF
5513 885 CircleF
5515 698 CircleF
5521 512 CircleF
5524 512 CircleF
5527 698 CircleF
5530 698 CircleF
5533 698 CircleF
5539 698 CircleF
5542 512 CircleF
5545 512 CircleF
5548 698 CircleF
5551 512 CircleF
5556 698 CircleF
5559 698 CircleF
5565 512 CircleF
5568 698 CircleF
5571 807 CircleF
5574 512 CircleF
5580 885 CircleF
5583 807 CircleF
5586 698 CircleF
5591 512 CircleF
5594 512 CircleF
5597 945 CircleF
5603 807 CircleF
5609 885 CircleF
5612 885 CircleF
5618 512 CircleF
5624 512 CircleF
5626 512 CircleF
5629 885 CircleF
5632 698 CircleF
5635 512 CircleF
5644 512 CircleF
5650 512 CircleF
5653 807 CircleF
5656 807 CircleF
5661 512 CircleF
5664 512 CircleF
5667 807 CircleF
5670 698 CircleF
5673 807 CircleF
5676 807 CircleF
5679 885 CircleF
5682 512 CircleF
5685 512 CircleF
5688 512 CircleF
5694 698 CircleF
5699 698 CircleF
5702 512 CircleF
5705 512 CircleF
5708 512 CircleF
5711 512 CircleF
5714 885 CircleF
5726 512 CircleF
5740 512 CircleF
5746 698 CircleF
5749 512 CircleF
5752 698 CircleF
5758 807 CircleF
5761 698 CircleF
5767 807 CircleF
5781 512 CircleF
5787 512 CircleF
5790 512 CircleF
5793 698 CircleF
5799 512 CircleF
5813 512 CircleF
5819 512 CircleF
5822 807 CircleF
5834 512 CircleF
5848 698 CircleF
5869 512 CircleF
5872 698 CircleF
5877 512 CircleF
5880 512 CircleF
5883 512 CircleF
5901 512 CircleF
5910 698 CircleF
5915 512 CircleF
5924 512 CircleF
5933 512 CircleF
5939 512 CircleF
5942 807 CircleF
5945 512 CircleF
5950 512 CircleF
5953 512 CircleF
5956 512 CircleF
5974 698 CircleF
5986 512 CircleF
5991 512 CircleF
5994 885 CircleF
5997 807 CircleF
6000 512 CircleF
6012 512 CircleF
6021 512 CircleF
6023 512 CircleF
6026 512 CircleF
6035 512 CircleF
6044 512 CircleF
6053 512 CircleF
6070 512 CircleF
6073 512 CircleF
6088 512 CircleF
6108 512 CircleF
6111 512 CircleF
6114 512 CircleF
6120 807 CircleF
6123 512 CircleF
6131 512 CircleF
6143 512 CircleF
6146 698 CircleF
6149 512 CircleF
6193 512 CircleF
6199 698 CircleF
6216 512 CircleF
6219 512 CircleF
6222 512 CircleF
6228 698 CircleF
6231 512 CircleF
6237 807 CircleF
6240 512 CircleF
6242 512 CircleF
6245 512 CircleF
6248 807 CircleF
6251 512 CircleF
6257 885 CircleF
6260 698 CircleF
6263 807 CircleF
6266 807 CircleF
6269 698 CircleF
6272 512 CircleF
6275 698 CircleF
6277 945 CircleF
6280 512 CircleF
6283 512 CircleF
6286 885 CircleF
6289 512 CircleF
6292 698 CircleF
6298 512 CircleF
6301 698 CircleF
6307 512 CircleF
6310 512 CircleF
6321 512 CircleF
6324 512 CircleF
6330 512 CircleF
6333 807 CircleF
6336 698 CircleF
6339 698 CircleF
6342 807 CircleF
6345 512 CircleF
6348 512 CircleF
6350 512 CircleF
6353 512 CircleF
6356 512 CircleF
6359 512 CircleF
6362 512 CircleF
6365 698 CircleF
6368 885 CircleF
6371 698 CircleF
6374 885 CircleF
6377 698 CircleF
6380 807 CircleF
6383 698 CircleF
6385 698 CircleF
6391 512 CircleF
6394 698 CircleF
6397 698 CircleF
6403 698 CircleF
6412 512 CircleF
% End plot #1
1.000 UL
LTb
LCb setrgbcolor
1072 4847 N
0 -4335 V
5839 0 V
0 4335 V
-5839 0 V
Z stroke
1.000 UP
1.000 UL
LTb
LCb setrgbcolor
stroke
grestore
end
showpage
%%Trailer
%%DocumentFonts: Helvetica
