%!PS-Adobe-2.0 EPSF-2.0
%%Title: nbrDist.eps
%%Creator: gnuplot 4.6 patchlevel 2
%%CreationDate: Thu Sep 19 11:33:47 2019
%%DocumentFonts: (atend)
%%BoundingBox: 50 50 410 302
%%EndComments
%%BeginProlog
/gnudict 256 dict def
gnudict begin
%
% The following true/false flags may be edited by hand if desired.
% The unit line width and grayscale image gamma correction may also be changed.
%
/Color true def
/Blacktext false def
/Solid false def
/Dashlength 1 def
/Landscape false def
/Level1 false def
/Rounded false def
/ClipToBoundingBox false def
/SuppressPDFMark false def
/TransparentPatterns false def
/gnulinewidth 5.000 def
/userlinewidth gnulinewidth def
/Gamma 1.0 def
/BackgroundColor {-1.000 -1.000 -1.000} def
%
/vshift -53 def
/dl1 {
  10.0 Dashlength mul mul
  Rounded { currentlinewidth 0.75 mul sub dup 0 le { pop 0.01 } if } if
} def
/dl2 {
  10.0 Dashlength mul mul
  Rounded { currentlinewidth 0.75 mul add } if
} def
/hpt_ 31.5 def
/vpt_ 31.5 def
/hpt hpt_ def
/vpt vpt_ def
/doclip {
  ClipToBoundingBox {
    newpath 50 50 moveto 410 50 lineto 410 302 lineto 50 302 lineto closepath
    clip
  } if
} def
%
% Gnuplot Prolog Version 4.6 (September 2012)
%
%/SuppressPDFMark true def
%
/M {moveto} bind def
/L {lineto} bind def
/R {rmoveto} bind def
/V {rlineto} bind def
/N {newpath moveto} bind def
/Z {closepath} bind def
/C {setrgbcolor} bind def
/f {rlineto fill} bind def
/g {setgray} bind def
/Gshow {show} def   % May be redefined later in the file to support UTF-8
/vpt2 vpt 2 mul def
/hpt2 hpt 2 mul def
/Lshow {currentpoint stroke M 0 vshift R 
	Blacktext {gsave 0 setgray show grestore} {show} ifelse} def
/Rshow {currentpoint stroke M dup stringwidth pop neg vshift R
	Blacktext {gsave 0 setgray show grestore} {show} ifelse} def
/Cshow {currentpoint stroke M dup stringwidth pop -2 div vshift R 
	Blacktext {gsave 0 setgray show grestore} {show} ifelse} def
/UP {dup vpt_ mul /vpt exch def hpt_ mul /hpt exch def
  /hpt2 hpt 2 mul def /vpt2 vpt 2 mul def} def
/DL {Color {setrgbcolor Solid {pop []} if 0 setdash}
 {pop pop pop 0 setgray Solid {pop []} if 0 setdash} ifelse} def
/BL {stroke userlinewidth 2 mul setlinewidth
	Rounded {1 setlinejoin 1 setlinecap} if} def
/AL {stroke userlinewidth 2 div setlinewidth
	Rounded {1 setlinejoin 1 setlinecap} if} def
/UL {dup gnulinewidth mul /userlinewidth exch def
	dup 1 lt {pop 1} if 10 mul /udl exch def} def
/PL {stroke userlinewidth setlinewidth
	Rounded {1 setlinejoin 1 setlinecap} if} def
3.8 setmiterlimit
% Default Line colors
/LCw {1 1 1} def
/LCb {0 0 0} def
/LCa {0 0 0} def
/LC0 {1 0 0} def
/LC1 {0 1 0} def
/LC2 {0 0 1} def
/LC3 {1 0 1} def
/LC4 {0 1 1} def
/LC5 {1 1 0} def
/LC6 {0 0 0} def
/LC7 {1 0.3 0} def
/LC8 {0.5 0.5 0.5} def
% Default Line Types
/LTw {PL [] 1 setgray} def
/LTb {BL [] LCb DL} def
/LTa {AL [1 udl mul 2 udl mul] 0 setdash LCa setrgbcolor} def
/LT0 {PL [] LC0 DL} def
/LT1 {PL [4 dl1 2 dl2] LC1 DL} def
/LT2 {PL [2 dl1 3 dl2] LC2 DL} def
/LT3 {PL [1 dl1 1.5 dl2] LC3 DL} def
/LT4 {PL [6 dl1 2 dl2 1 dl1 2 dl2] LC4 DL} def
/LT5 {PL [3 dl1 3 dl2 1 dl1 3 dl2] LC5 DL} def
/LT6 {PL [2 dl1 2 dl2 2 dl1 6 dl2] LC6 DL} def
/LT7 {PL [1 dl1 2 dl2 6 dl1 2 dl2 1 dl1 2 dl2] LC7 DL} def
/LT8 {PL [2 dl1 2 dl2 2 dl1 2 dl2 2 dl1 2 dl2 2 dl1 4 dl2] LC8 DL} def
/Pnt {stroke [] 0 setdash gsave 1 setlinecap M 0 0 V stroke grestore} def
/Dia {stroke [] 0 setdash 2 copy vpt add M
  hpt neg vpt neg V hpt vpt neg V
  hpt vpt V hpt neg vpt V closepath stroke
  Pnt} def
/Pls {stroke [] 0 setdash vpt sub M 0 vpt2 V
  currentpoint stroke M
  hpt neg vpt neg R hpt2 0 V stroke
 } def
/Box {stroke [] 0 setdash 2 copy exch hpt sub exch vpt add M
  0 vpt2 neg V hpt2 0 V 0 vpt2 V
  hpt2 neg 0 V closepath stroke
  Pnt} def
/Crs {stroke [] 0 setdash exch hpt sub exch vpt add M
  hpt2 vpt2 neg V currentpoint stroke M
  hpt2 neg 0 R hpt2 vpt2 V stroke} def
/TriU {stroke [] 0 setdash 2 copy vpt 1.12 mul add M
  hpt neg vpt -1.62 mul V
  hpt 2 mul 0 V
  hpt neg vpt 1.62 mul V closepath stroke
  Pnt} def
/Star {2 copy Pls Crs} def
/BoxF {stroke [] 0 setdash exch hpt sub exch vpt add M
  0 vpt2 neg V hpt2 0 V 0 vpt2 V
  hpt2 neg 0 V closepath fill} def
/TriUF {stroke [] 0 setdash vpt 1.12 mul add M
  hpt neg vpt -1.62 mul V
  hpt 2 mul 0 V
  hpt neg vpt 1.62 mul V closepath fill} def
/TriD {stroke [] 0 setdash 2 copy vpt 1.12 mul sub M
  hpt neg vpt 1.62 mul V
  hpt 2 mul 0 V
  hpt neg vpt -1.62 mul V closepath stroke
  Pnt} def
/TriDF {stroke [] 0 setdash vpt 1.12 mul sub M
  hpt neg vpt 1.62 mul V
  hpt 2 mul 0 V
  hpt neg vpt -1.62 mul V closepath fill} def
/DiaF {stroke [] 0 setdash vpt add M
  hpt neg vpt neg V hpt vpt neg V
  hpt vpt V hpt neg vpt V closepath fill} def
/Pent {stroke [] 0 setdash 2 copy gsave
  translate 0 hpt M 4 {72 rotate 0 hpt L} repeat
  closepath stroke grestore Pnt} def
/PentF {stroke [] 0 setdash gsave
  translate 0 hpt M 4 {72 rotate 0 hpt L} repeat
  closepath fill grestore} def
/Circle {stroke [] 0 setdash 2 copy
  hpt 0 360 arc stroke Pnt} def
/CircleF {stroke [] 0 setdash hpt 0 360 arc fill} def
/C0 {BL [] 0 setdash 2 copy moveto vpt 90 450 arc} bind def
/C1 {BL [] 0 setdash 2 copy moveto
	2 copy vpt 0 90 arc closepath fill
	vpt 0 360 arc closepath} bind def
/C2 {BL [] 0 setdash 2 copy moveto
	2 copy vpt 90 180 arc closepath fill
	vpt 0 360 arc closepath} bind def
/C3 {BL [] 0 setdash 2 copy moveto
	2 copy vpt 0 180 arc closepath fill
	vpt 0 360 arc closepath} bind def
/C4 {BL [] 0 setdash 2 copy moveto
	2 copy vpt 180 270 arc closepath fill
	vpt 0 360 arc closepath} bind def
/C5 {BL [] 0 setdash 2 copy moveto
	2 copy vpt 0 90 arc
	2 copy moveto
	2 copy vpt 180 270 arc closepath fill
	vpt 0 360 arc} bind def
/C6 {BL [] 0 setdash 2 copy moveto
	2 copy vpt 90 270 arc closepath fill
	vpt 0 360 arc closepath} bind def
/C7 {BL [] 0 setdash 2 copy moveto
	2 copy vpt 0 270 arc closepath fill
	vpt 0 360 arc closepath} bind def
/C8 {BL [] 0 setdash 2 copy moveto
	2 copy vpt 270 360 arc closepath fill
	vpt 0 360 arc closepath} bind def
/C9 {BL [] 0 setdash 2 copy moveto
	2 copy vpt 270 450 arc closepath fill
	vpt 0 360 arc closepath} bind def
/C10 {BL [] 0 setdash 2 copy 2 copy moveto vpt 270 360 arc closepath fill
	2 copy moveto
	2 copy vpt 90 180 arc closepath fill
	vpt 0 360 arc closepath} bind def
/C11 {BL [] 0 setdash 2 copy moveto
	2 copy vpt 0 180 arc closepath fill
	2 copy moveto
	2 copy vpt 270 360 arc closepath fill
	vpt 0 360 arc closepath} bind def
/C12 {BL [] 0 setdash 2 copy moveto
	2 copy vpt 180 360 arc closepath fill
	vpt 0 360 arc closepath} bind def
/C13 {BL [] 0 setdash 2 copy moveto
	2 copy vpt 0 90 arc closepath fill
	2 copy moveto
	2 copy vpt 180 360 arc closepath fill
	vpt 0 360 arc closepath} bind def
/C14 {BL [] 0 setdash 2 copy moveto
	2 copy vpt 90 360 arc closepath fill
	vpt 0 360 arc} bind def
/C15 {BL [] 0 setdash 2 copy vpt 0 360 arc closepath fill
	vpt 0 360 arc closepath} bind def
/Rec {newpath 4 2 roll moveto 1 index 0 rlineto 0 exch rlineto
	neg 0 rlineto closepath} bind def
/Square {dup Rec} bind def
/Bsquare {vpt sub exch vpt sub exch vpt2 Square} bind def
/S0 {BL [] 0 setdash 2 copy moveto 0 vpt rlineto BL Bsquare} bind def
/S1 {BL [] 0 setdash 2 copy vpt Square fill Bsquare} bind def
/S2 {BL [] 0 setdash 2 copy exch vpt sub exch vpt Square fill Bsquare} bind def
/S3 {BL [] 0 setdash 2 copy exch vpt sub exch vpt2 vpt Rec fill Bsquare} bind def
/S4 {BL [] 0 setdash 2 copy exch vpt sub exch vpt sub vpt Square fill Bsquare} bind def
/S5 {BL [] 0 setdash 2 copy 2 copy vpt Square fill
	exch vpt sub exch vpt sub vpt Square fill Bsquare} bind def
/S6 {BL [] 0 setdash 2 copy exch vpt sub exch vpt sub vpt vpt2 Rec fill Bsquare} bind def
/S7 {BL [] 0 setdash 2 copy exch vpt sub exch vpt sub vpt vpt2 Rec fill
	2 copy vpt Square fill Bsquare} bind def
/S8 {BL [] 0 setdash 2 copy vpt sub vpt Square fill Bsquare} bind def
/S9 {BL [] 0 setdash 2 copy vpt sub vpt vpt2 Rec fill Bsquare} bind def
/S10 {BL [] 0 setdash 2 copy vpt sub vpt Square fill 2 copy exch vpt sub exch vpt Square fill
	Bsquare} bind def
/S11 {BL [] 0 setdash 2 copy vpt sub vpt Square fill 2 copy exch vpt sub exch vpt2 vpt Rec fill
	Bsquare} bind def
/S12 {BL [] 0 setdash 2 copy exch vpt sub exch vpt sub vpt2 vpt Rec fill Bsquare} bind def
/S13 {BL [] 0 setdash 2 copy exch vpt sub exch vpt sub vpt2 vpt Rec fill
	2 copy vpt Square fill Bsquare} bind def
/S14 {BL [] 0 setdash 2 copy exch vpt sub exch vpt sub vpt2 vpt Rec fill
	2 copy exch vpt sub exch vpt Square fill Bsquare} bind def
/S15 {BL [] 0 setdash 2 copy Bsquare fill Bsquare} bind def
/D0 {gsave translate 45 rotate 0 0 S0 stroke grestore} bind def
/D1 {gsave translate 45 rotate 0 0 S1 stroke grestore} bind def
/D2 {gsave translate 45 rotate 0 0 S2 stroke grestore} bind def
/D3 {gsave translate 45 rotate 0 0 S3 stroke grestore} bind def
/D4 {gsave translate 45 rotate 0 0 S4 stroke grestore} bind def
/D5 {gsave translate 45 rotate 0 0 S5 stroke grestore} bind def
/D6 {gsave translate 45 rotate 0 0 S6 stroke grestore} bind def
/D7 {gsave translate 45 rotate 0 0 S7 stroke grestore} bind def
/D8 {gsave translate 45 rotate 0 0 S8 stroke grestore} bind def
/D9 {gsave translate 45 rotate 0 0 S9 stroke grestore} bind def
/D10 {gsave translate 45 rotate 0 0 S10 stroke grestore} bind def
/D11 {gsave translate 45 rotate 0 0 S11 stroke grestore} bind def
/D12 {gsave translate 45 rotate 0 0 S12 stroke grestore} bind def
/D13 {gsave translate 45 rotate 0 0 S13 stroke grestore} bind def
/D14 {gsave translate 45 rotate 0 0 S14 stroke grestore} bind def
/D15 {gsave translate 45 rotate 0 0 S15 stroke grestore} bind def
/DiaE {stroke [] 0 setdash vpt add M
  hpt neg vpt neg V hpt vpt neg V
  hpt vpt V hpt neg vpt V closepath stroke} def
/BoxE {stroke [] 0 setdash exch hpt sub exch vpt add M
  0 vpt2 neg V hpt2 0 V 0 vpt2 V
  hpt2 neg 0 V closepath stroke} def
/TriUE {stroke [] 0 setdash vpt 1.12 mul add M
  hpt neg vpt -1.62 mul V
  hpt 2 mul 0 V
  hpt neg vpt 1.62 mul V closepath stroke} def
/TriDE {stroke [] 0 setdash vpt 1.12 mul sub M
  hpt neg vpt 1.62 mul V
  hpt 2 mul 0 V
  hpt neg vpt -1.62 mul V closepath stroke} def
/PentE {stroke [] 0 setdash gsave
  translate 0 hpt M 4 {72 rotate 0 hpt L} repeat
  closepath stroke grestore} def
/CircE {stroke [] 0 setdash 
  hpt 0 360 arc stroke} def
/Opaque {gsave closepath 1 setgray fill grestore 0 setgray closepath} def
/DiaW {stroke [] 0 setdash vpt add M
  hpt neg vpt neg V hpt vpt neg V
  hpt vpt V hpt neg vpt V Opaque stroke} def
/BoxW {stroke [] 0 setdash exch hpt sub exch vpt add M
  0 vpt2 neg V hpt2 0 V 0 vpt2 V
  hpt2 neg 0 V Opaque stroke} def
/TriUW {stroke [] 0 setdash vpt 1.12 mul add M
  hpt neg vpt -1.62 mul V
  hpt 2 mul 0 V
  hpt neg vpt 1.62 mul V Opaque stroke} def
/TriDW {stroke [] 0 setdash vpt 1.12 mul sub M
  hpt neg vpt 1.62 mul V
  hpt 2 mul 0 V
  hpt neg vpt -1.62 mul V Opaque stroke} def
/PentW {stroke [] 0 setdash gsave
  translate 0 hpt M 4 {72 rotate 0 hpt L} repeat
  Opaque stroke grestore} def
/CircW {stroke [] 0 setdash 
  hpt 0 360 arc Opaque stroke} def
/BoxFill {gsave Rec 1 setgray fill grestore} def
/Density {
  /Fillden exch def
  currentrgbcolor
  /ColB exch def /ColG exch def /ColR exch def
  /ColR ColR Fillden mul Fillden sub 1 add def
  /ColG ColG Fillden mul Fillden sub 1 add def
  /ColB ColB Fillden mul Fillden sub 1 add def
  ColR ColG ColB setrgbcolor} def
/BoxColFill {gsave Rec PolyFill} def
/PolyFill {gsave Density fill grestore grestore} def
/h {rlineto rlineto rlineto gsave closepath fill grestore} bind def
%
% PostScript Level 1 Pattern Fill routine for rectangles
% Usage: x y w h s a XX PatternFill
%	x,y = lower left corner of box to be filled
%	w,h = width and height of box
%	  a = angle in degrees between lines and x-axis
%	 XX = 0/1 for no/yes cross-hatch
%
/PatternFill {gsave /PFa [ 9 2 roll ] def
  PFa 0 get PFa 2 get 2 div add PFa 1 get PFa 3 get 2 div add translate
  PFa 2 get -2 div PFa 3 get -2 div PFa 2 get PFa 3 get Rec
  TransparentPatterns {} {gsave 1 setgray fill grestore} ifelse
  clip
  currentlinewidth 0.5 mul setlinewidth
  /PFs PFa 2 get dup mul PFa 3 get dup mul add sqrt def
  0 0 M PFa 5 get rotate PFs -2 div dup translate
  0 1 PFs PFa 4 get div 1 add floor cvi
	{PFa 4 get mul 0 M 0 PFs V} for
  0 PFa 6 get ne {
	0 1 PFs PFa 4 get div 1 add floor cvi
	{PFa 4 get mul 0 2 1 roll M PFs 0 V} for
 } if
  stroke grestore} def
%
/languagelevel where
 {pop languagelevel} {1} ifelse
 2 lt
	{/InterpretLevel1 true def}
	{/InterpretLevel1 Level1 def}
 ifelse
%
% PostScript level 2 pattern fill definitions
%
/Level2PatternFill {
/Tile8x8 {/PaintType 2 /PatternType 1 /TilingType 1 /BBox [0 0 8 8] /XStep 8 /YStep 8}
	bind def
/KeepColor {currentrgbcolor [/Pattern /DeviceRGB] setcolorspace} bind def
<< Tile8x8
 /PaintProc {0.5 setlinewidth pop 0 0 M 8 8 L 0 8 M 8 0 L stroke} 
>> matrix makepattern
/Pat1 exch def
<< Tile8x8
 /PaintProc {0.5 setlinewidth pop 0 0 M 8 8 L 0 8 M 8 0 L stroke
	0 4 M 4 8 L 8 4 L 4 0 L 0 4 L stroke}
>> matrix makepattern
/Pat2 exch def
<< Tile8x8
 /PaintProc {0.5 setlinewidth pop 0 0 M 0 8 L
	8 8 L 8 0 L 0 0 L fill}
>> matrix makepattern
/Pat3 exch def
<< Tile8x8
 /PaintProc {0.5 setlinewidth pop -4 8 M 8 -4 L
	0 12 M 12 0 L stroke}
>> matrix makepattern
/Pat4 exch def
<< Tile8x8
 /PaintProc {0.5 setlinewidth pop -4 0 M 8 12 L
	0 -4 M 12 8 L stroke}
>> matrix makepattern
/Pat5 exch def
<< Tile8x8
 /PaintProc {0.5 setlinewidth pop -2 8 M 4 -4 L
	0 12 M 8 -4 L 4 12 M 10 0 L stroke}
>> matrix makepattern
/Pat6 exch def
<< Tile8x8
 /PaintProc {0.5 setlinewidth pop -2 0 M 4 12 L
	0 -4 M 8 12 L 4 -4 M 10 8 L stroke}
>> matrix makepattern
/Pat7 exch def
<< Tile8x8
 /PaintProc {0.5 setlinewidth pop 8 -2 M -4 4 L
	12 0 M -4 8 L 12 4 M 0 10 L stroke}
>> matrix makepattern
/Pat8 exch def
<< Tile8x8
 /PaintProc {0.5 setlinewidth pop 0 -2 M 12 4 L
	-4 0 M 12 8 L -4 4 M 8 10 L stroke}
>> matrix makepattern
/Pat9 exch def
/Pattern1 {PatternBgnd KeepColor Pat1 setpattern} bind def
/Pattern2 {PatternBgnd KeepColor Pat2 setpattern} bind def
/Pattern3 {PatternBgnd KeepColor Pat3 setpattern} bind def
/Pattern4 {PatternBgnd KeepColor Landscape {Pat5} {Pat4} ifelse setpattern} bind def
/Pattern5 {PatternBgnd KeepColor Landscape {Pat4} {Pat5} ifelse setpattern} bind def
/Pattern6 {PatternBgnd KeepColor Landscape {Pat9} {Pat6} ifelse setpattern} bind def
/Pattern7 {PatternBgnd KeepColor Landscape {Pat8} {Pat7} ifelse setpattern} bind def
} def
%
%
%End of PostScript Level 2 code
%
/PatternBgnd {
  TransparentPatterns {} {gsave 1 setgray fill grestore} ifelse
} def
%
% Substitute for Level 2 pattern fill codes with
% grayscale if Level 2 support is not selected.
%
/Level1PatternFill {
/Pattern1 {0.250 Density} bind def
/Pattern2 {0.500 Density} bind def
/Pattern3 {0.750 Density} bind def
/Pattern4 {0.125 Density} bind def
/Pattern5 {0.375 Density} bind def
/Pattern6 {0.625 Density} bind def
/Pattern7 {0.875 Density} bind def
} def
%
% Now test for support of Level 2 code
%
Level1 {Level1PatternFill} {Level2PatternFill} ifelse
%
/Symbol-Oblique /Symbol findfont [1 0 .167 1 0 0] makefont
dup length dict begin {1 index /FID eq {pop pop} {def} ifelse} forall
currentdict end definefont pop
/MFshow {
   { dup 5 get 3 ge
     { 5 get 3 eq {gsave} {grestore} ifelse }
     {dup dup 0 get findfont exch 1 get scalefont setfont
     [ currentpoint ] exch dup 2 get 0 exch R dup 5 get 2 ne {dup dup 6
     get exch 4 get {Gshow} {stringwidth pop 0 R} ifelse }if dup 5 get 0 eq
     {dup 3 get {2 get neg 0 exch R pop} {pop aload pop M} ifelse} {dup 5
     get 1 eq {dup 2 get exch dup 3 get exch 6 get stringwidth pop -2 div
     dup 0 R} {dup 6 get stringwidth pop -2 div 0 R 6 get
     show 2 index {aload pop M neg 3 -1 roll neg R pop pop} {pop pop pop
     pop aload pop M} ifelse }ifelse }ifelse }
     ifelse }
   forall} def
/Gswidth {dup type /stringtype eq {stringwidth} {pop (n) stringwidth} ifelse} def
/MFwidth {0 exch { dup 5 get 3 ge { 5 get 3 eq { 0 } { pop } ifelse }
 {dup 3 get{dup dup 0 get findfont exch 1 get scalefont setfont
     6 get Gswidth pop add} {pop} ifelse} ifelse} forall} def
/MLshow { currentpoint stroke M
  0 exch R
  Blacktext {gsave 0 setgray MFshow grestore} {MFshow} ifelse } bind def
/MRshow { currentpoint stroke M
  exch dup MFwidth neg 3 -1 roll R
  Blacktext {gsave 0 setgray MFshow grestore} {MFshow} ifelse } bind def
/MCshow { currentpoint stroke M
  exch dup MFwidth -2 div 3 -1 roll R
  Blacktext {gsave 0 setgray MFshow grestore} {MFshow} ifelse } bind def
/XYsave    { [( ) 1 2 true false 3 ()] } bind def
/XYrestore { [( ) 1 2 true false 4 ()] } bind def
Level1 SuppressPDFMark or 
{} {
/SDict 10 dict def
systemdict /pdfmark known not {
  userdict /pdfmark systemdict /cleartomark get put
} if
SDict begin [
  /Title (nbrDist.eps)
  /Subject (gnuplot plot)
  /Creator (gnuplot 4.6 patchlevel 2)
  /Author (anju)
%  /Producer (gnuplot)
%  /Keywords ()
  /CreationDate (Thu Sep 19 11:33:47 2019)
  /DOCINFO pdfmark
end
} ifelse
end
%%EndProlog
%%Page: 1 1
gnudict begin
gsave
doclip
50 50 translate
0.050 0.050 scale
0 setgray
newpath
(Helvetica) findfont 160 scalefont setfont
BackgroundColor 0 lt 3 1 roll 0 lt exch 0 lt or or not {BackgroundColor C 1.000 0 0 7200.00 5040.00 BoxColFill} if
1.000 UL
LTb
LCb setrgbcolor
1072 512 M
63 0 V
5776 0 R
-63 0 V
stroke
976 512 M
[ [(Helvetica) 160.0 0.0 true true 0 ( 1)]
] -53.3 MRshow
1.000 UL
LTb
LCb setrgbcolor
1072 698 M
31 0 V
5808 0 R
-31 0 V
1072 945 M
31 0 V
5808 0 R
-31 0 V
1072 1071 M
31 0 V
5808 0 R
-31 0 V
-5808 60 R
63 0 V
5776 0 R
-63 0 V
stroke
976 1131 M
[ [(Helvetica) 160.0 0.0 true true 0 ( 10)]
] -53.3 MRshow
1.000 UL
LTb
LCb setrgbcolor
1072 1318 M
31 0 V
5808 0 R
-31 0 V
1072 1564 M
31 0 V
5808 0 R
-31 0 V
1072 1691 M
31 0 V
5808 0 R
-31 0 V
-5808 60 R
63 0 V
5776 0 R
-63 0 V
stroke
976 1751 M
[ [(Helvetica) 160.0 0.0 true true 0 ( 100)]
] -53.3 MRshow
1.000 UL
LTb
LCb setrgbcolor
1072 1937 M
31 0 V
5808 0 R
-31 0 V
1072 2183 M
31 0 V
5808 0 R
-31 0 V
1072 2310 M
31 0 V
5808 0 R
-31 0 V
-5808 60 R
63 0 V
5776 0 R
-63 0 V
stroke
976 2370 M
[ [(Helvetica) 160.0 0.0 true true 0 ( 1000)]
] -53.3 MRshow
1.000 UL
LTb
LCb setrgbcolor
1072 2556 M
31 0 V
5808 0 R
-31 0 V
1072 2803 M
31 0 V
5808 0 R
-31 0 V
1072 2929 M
31 0 V
5808 0 R
-31 0 V
-5808 60 R
63 0 V
5776 0 R
-63 0 V
stroke
976 2989 M
[ [(Helvetica) 160.0 0.0 true true 0 ( 10000)]
] -53.3 MRshow
1.000 UL
LTb
LCb setrgbcolor
1072 3176 M
31 0 V
5808 0 R
-31 0 V
1072 3422 M
31 0 V
5808 0 R
-31 0 V
1072 3548 M
31 0 V
5808 0 R
-31 0 V
-5808 60 R
63 0 V
5776 0 R
-63 0 V
stroke
976 3608 M
[ [(Helvetica) 160.0 0.0 true true 0 ( 100000)]
] -53.3 MRshow
1.000 UL
LTb
LCb setrgbcolor
1072 3795 M
31 0 V
5808 0 R
-31 0 V
1072 4041 M
31 0 V
5808 0 R
-31 0 V
1072 4168 M
31 0 V
5808 0 R
-31 0 V
-5808 60 R
63 0 V
5776 0 R
-63 0 V
stroke
976 4228 M
[ [(Helvetica) 160.0 0.0 true true 0 ( 1e+06)]
] -53.3 MRshow
1.000 UL
LTb
LCb setrgbcolor
1072 4414 M
31 0 V
5808 0 R
-31 0 V
1072 4661 M
31 0 V
5808 0 R
-31 0 V
1072 4787 M
31 0 V
5808 0 R
-31 0 V
-5808 60 R
63 0 V
5776 0 R
-63 0 V
stroke
976 4847 M
[ [(Helvetica) 160.0 0.0 true true 0 ( 1e+07)]
] -53.3 MRshow
1.000 UL
LTb
LCb setrgbcolor
1072 512 M
0 63 V
0 4272 R
0 -63 V
stroke
1072 352 M
[ [(Helvetica) 160.0 0.0 true true 0 ( 0)]
] -53.3 MCshow
1.000 UL
LTb
LCb setrgbcolor
1721 512 M
0 63 V
0 4272 R
0 -63 V
stroke
1721 352 M
[ [(Helvetica) 160.0 0.0 true true 0 ( 200)]
] -53.3 MCshow
1.000 UL
LTb
LCb setrgbcolor
2370 512 M
0 63 V
0 4272 R
0 -63 V
stroke
2370 352 M
[ [(Helvetica) 160.0 0.0 true true 0 ( 400)]
] -53.3 MCshow
1.000 UL
LTb
LCb setrgbcolor
3018 512 M
0 63 V
0 4272 R
0 -63 V
stroke
3018 352 M
[ [(Helvetica) 160.0 0.0 true true 0 ( 600)]
] -53.3 MCshow
1.000 UL
LTb
LCb setrgbcolor
3667 512 M
0 63 V
0 4272 R
0 -63 V
stroke
3667 352 M
[ [(Helvetica) 160.0 0.0 true true 0 ( 800)]
] -53.3 MCshow
1.000 UL
LTb
LCb setrgbcolor
4316 512 M
0 63 V
0 4272 R
0 -63 V
stroke
4316 352 M
[ [(Helvetica) 160.0 0.0 true true 0 ( 1000)]
] -53.3 MCshow
1.000 UL
LTb
LCb setrgbcolor
4965 512 M
0 63 V
0 4272 R
0 -63 V
stroke
4965 352 M
[ [(Helvetica) 160.0 0.0 true true 0 ( 1200)]
] -53.3 MCshow
1.000 UL
LTb
LCb setrgbcolor
5613 512 M
0 63 V
0 4272 R
0 -63 V
stroke
5613 352 M
[ [(Helvetica) 160.0 0.0 true true 0 ( 1400)]
] -53.3 MCshow
1.000 UL
LTb
LCb setrgbcolor
6262 512 M
0 63 V
0 4272 R
0 -63 V
stroke
6262 352 M
[ [(Helvetica) 160.0 0.0 true true 0 ( 1600)]
] -53.3 MCshow
1.000 UL
LTb
LCb setrgbcolor
6911 512 M
0 63 V
0 4272 R
0 -63 V
stroke
6911 352 M
[ [(Helvetica) 160.0 0.0 true true 0 ( 1800)]
] -53.3 MCshow
1.000 UL
LTb
LCb setrgbcolor
1.000 UL
LTb
LCb setrgbcolor
1072 4847 N
0 -4335 V
5839 0 V
0 4335 V
-5839 0 V
Z stroke
LCb setrgbcolor
128 2679 M
currentpoint gsave translate -270 rotate 0 0 moveto
[ [(Helvetica) 160.0 0.0 true true 0 (Number of points with each degree)]
] -53.3 MCshow
grestore
LTb
LCb setrgbcolor
3991 112 M
[ [(Helvetica) 160.0 0.0 true true 0 (Degree)]
] -53.3 MCshow
LTb
1.000 UP
1.000 UL
LTb
LCb setrgbcolor
% Begin plot #1
0.200 UP
2.000 UL
LT0
0.00 0.38 0.68 C 1072 4585 M
3 -18 V
3 -41 V
4 -45 V
3 -51 V
3 -55 V
3 -56 V
4 -58 V
3 -59 V
3 -60 V
3 -57 V
4 -55 V
3 -54 V
3 -53 V
3 -47 V
4 -46 V
3 -42 V
3 -40 V
3 -36 V
4 -34 V
3 -34 V
3 -28 V
3 -28 V
4 -26 V
3 -18 V
3 -27 V
3 -21 V
4 -17 V
3 -19 V
3 -17 V
3 -19 V
4 -12 V
3 -14 V
3 -13 V
3 -10 V
4 -12 V
3 -9 V
3 -14 V
3 -14 V
4 -8 V
3 -9 V
3 -9 V
3 -12 V
3 -11 V
4 -5 V
3 -9 V
3 -7 V
3 -13 V
4 1 V
3 -12 V
3 -3 V
3 -10 V
4 -5 V
3 -4 V
3 0 V
3 -7 V
4 -13 V
3 -1 V
3 -4 V
3 -13 V
4 4 V
3 -8 V
3 -1 V
3 -10 V
4 -4 V
3 0 V
3 -1 V
3 -3 V
4 -10 V
3 4 V
3 -5 V
3 -4 V
4 4 V
3 -5 V
3 -3 V
3 -4 V
4 3 V
3 -6 V
3 2 V
3 2 V
4 2 V
3 -7 V
3 0 V
3 -6 V
3 6 V
4 -2 V
3 -1 V
3 3 V
3 2 V
4 -2 V
3 0 V
3 -3 V
3 -2 V
4 -2 V
3 3 V
3 -1 V
3 -1 V
4 3 V
3 -1 V
3 8 V
3 -4 V
4 2 V
3 -4 V
3 -1 V
3 -1 V
stroke 1409 3118 M
4 4 V
3 1 V
3 -4 V
3 6 V
4 -4 V
3 6 V
3 -2 V
3 8 V
4 1 V
3 -2 V
3 2 V
3 4 V
4 -7 V
3 -1 V
3 5 V
3 1 V
4 -4 V
3 -2 V
3 4 V
3 -4 V
3 1 V
4 -3 V
3 5 V
3 -4 V
3 -4 V
4 8 V
3 -4 V
3 -1 V
3 -2 V
4 -8 V
3 5 V
3 -2 V
3 3 V
4 -5 V
3 1 V
3 -4 V
3 2 V
4 0 V
3 -3 V
3 6 V
3 -6 V
4 1 V
3 -3 V
3 -5 V
3 1 V
4 -2 V
3 0 V
3 -5 V
3 -5 V
4 0 V
3 -2 V
3 1 V
3 -4 V
4 1 V
3 -3 V
3 -4 V
3 -10 V
4 1 V
3 -7 V
3 -2 V
3 2 V
3 -11 V
4 -4 V
3 -2 V
3 -2 V
3 -5 V
4 -2 V
3 -4 V
3 2 V
3 -7 V
4 -5 V
3 -7 V
3 -4 V
3 -7 V
4 0 V
3 -5 V
3 -1 V
3 -9 V
4 -11 V
3 3 V
3 -1 V
3 -8 V
4 -4 V
3 -6 V
3 0 V
3 -14 V
4 -7 V
3 7 V
3 -17 V
3 2 V
4 -7 V
3 3 V
3 -9 V
3 -7 V
4 -14 V
3 2 V
3 -5 V
3 -4 V
4 2 V
3 -8 V
3 -9 V
3 -6 V
3 -8 V
4 -7 V
stroke 1747 2864 M
3 0 V
3 -9 V
3 -5 V
4 -7 V
3 -4 V
3 -10 V
3 2 V
4 -2 V
3 -5 V
3 -12 V
3 -5 V
4 -4 V
3 -5 V
3 -6 V
3 -7 V
4 -4 V
3 -12 V
3 0 V
3 4 V
4 -10 V
3 -7 V
3 -5 V
3 -6 V
4 11 V
3 -20 V
3 -6 V
3 11 V
4 -16 V
3 -5 V
3 5 V
3 -14 V
4 -1 V
3 1 V
3 -12 V
3 0 V
4 -14 V
3 -3 V
3 -9 V
3 3 V
3 -5 V
4 -9 V
3 -4 V
3 1 V
3 -13 V
4 0 V
3 -13 V
3 10 V
3 -11 V
4 2 V
3 -5 V
3 -15 V
3 6 V
4 -6 V
3 -10 V
3 -6 V
3 -25 V
4 6 V
3 5 V
3 -8 V
3 14 V
4 -11 V
3 12 V
3 2 V
3 -17 V
4 0 V
3 -1 V
3 -23 V
3 -4 V
4 4 V
3 4 V
3 -16 V
3 2 V
4 -12 V
3 2 V
3 -11 V
3 -3 V
4 2 V
3 8 V
3 7 V
3 -15 V
3 -4 V
4 -21 V
3 13 V
3 -7 V
3 -10 V
4 -15 V
3 19 V
3 0 V
3 -6 V
4 -18 V
3 10 V
3 -11 V
3 -19 V
4 3 V
3 -7 V
3 10 V
3 -6 V
4 -1 V
3 -3 V
3 0 V
3 18 V
4 -2 V
3 -5 V
3 -4 V
stroke 2084 2454 M
3 -20 V
4 -16 V
3 18 V
3 -13 V
3 4 V
4 20 V
3 -11 V
3 -32 V
3 -3 V
4 12 V
3 -8 V
3 0 V
3 -5 V
4 -15 V
3 5 V
3 -21 V
3 22 V
3 28 V
4 -2 V
3 -31 V
3 -12 V
3 19 V
4 9 V
3 -9 V
3 16 V
3 -15 V
4 -6 V
3 12 V
3 -8 V
3 21 V
4 -21 V
3 15 V
3 -9 V
3 -5 V
4 -15 V
3 2 V
3 9 V
3 -20 V
4 -12 V
3 19 V
3 -11 V
3 -5 V
4 7 V
3 -9 V
3 10 V
3 2 V
4 7 V
3 -23 V
3 -2 V
3 -18 V
4 17 V
3 -23 V
3 16 V
3 -10 V
4 2 V
3 -7 V
3 -2 V
3 -1 V
3 6 V
4 23 V
3 4 V
3 -18 V
3 2 V
4 -26 V
3 12 V
3 -12 V
3 -2 V
4 -2 V
3 -6 V
3 20 V
3 -7 V
4 -15 V
3 -4 V
3 -32 V
3 6 V
4 -17 V
3 19 V
3 -15 V
3 6 V
4 4 V
3 26 V
3 -23 V
3 23 V
4 -15 V
3 14 V
3 -22 V
3 2 V
4 -16 V
3 17 V
3 -15 V
3 22 V
4 -4 V
3 -13 V
3 -5 V
3 -36 V
4 -5 V
3 20 V
3 -32 V
3 22 V
3 -8 V
4 38 V
3 -5 V
3 -26 V
3 -13 V
stroke 2421 2218 M
4 21 V
3 3 V
3 -14 V
3 -11 V
4 11 V
3 -6 V
3 22 V
3 -27 V
4 19 V
3 4 V
3 -15 V
3 -5 V
4 -8 V
3 -4 V
3 6 V
3 -27 V
4 20 V
3 -8 V
3 -5 V
3 13 V
4 23 V
3 -14 V
3 -10 V
3 6 V
4 -11 V
3 -9 V
3 14 V
3 -41 V
4 8 V
3 0 V
3 23 V
3 1 V
4 30 V
3 7 V
3 -43 V
3 20 V
3 12 V
4 -18 V
3 -6 V
3 -19 V
3 3 V
4 -41 V
3 9 V
3 -26 V
3 -6 V
4 -3 V
3 2 V
3 11 V
3 45 V
4 150 V
3 -176 V
3 4 V
3 -50 V
4 37 V
3 12 V
3 -59 V
3 8 V
4 6 V
3 -18 V
3 -32 V
3 39 V
4 34 V
3 -65 V
3 24 V
3 -36 V
4 -11 V
3 23 V
3 14 V
3 -6 V
4 -16 V
3 -8 V
3 17 V
3 14 V
4 -85 V
3 22 V
3 11 V
3 -15 V
3 -37 V
4 63 V
3 -15 V
3 28 V
3 -9 V
4 -10 V
3 -5 V
3 -1 V
3 18 V
4 1 V
3 -27 V
3 28 V
3 -20 V
4 1 V
3 -14 V
3 40 V
3 -26 V
4 -43 V
3 24 V
3 -7 V
3 12 V
4 -16 V
3 1 V
3 41 V
3 -7 V
4 -12 V
3 -4 V
stroke 2759 2016 M
3 20 V
3 -18 V
4 -35 V
3 36 V
3 -29 V
3 -17 V
4 15 V
3 -29 V
3 -9 V
3 28 V
4 12 V
3 7 V
3 -13 V
3 9 V
3 -24 V
4 10 V
3 -50 V
3 7 V
3 -7 V
4 24 V
3 6 V
3 -36 V
3 35 V
4 -5 V
3 -15 V
3 33 V
3 -26 V
4 24 V
3 -3 V
3 -22 V
3 31 V
4 -58 V
3 33 V
3 -30 V
3 -17 V
4 -13 V
3 17 V
3 -11 V
3 29 V
4 1 V
3 -16 V
3 22 V
3 -23 V
4 -19 V
3 11 V
3 8 V
3 8 V
4 17 V
3 -47 V
3 -5 V
3 -3 V
4 21 V
3 19 V
3 -26 V
3 43 V
3 -20 V
4 77 V
3 -42 V
3 18 V
3 -42 V
4 -1 V
3 25 V
3 -35 V
3 4 V
4 41 V
3 -28 V
3 62 V
3 -26 V
4 -9 V
3 -5 V
3 -39 V
3 -28 V
4 -30 V
3 51 V
3 6 V
3 77 V
4 -124 V
3 6 V
3 1 V
3 -17 V
4 -84 V
3 5 V
3 21 V
3 -12 V
4 61 V
3 23 V
3 21 V
3 -16 V
4 15 V
3 -57 V
3 69 V
3 -20 V
4 -16 V
3 2 V
3 17 V
3 -19 V
3 -41 V
4 80 V
3 -4 V
3 -95 V
3 37 V
4 4 V
3 23 V
3 5 V
stroke 3096 1877 M
3 45 V
4 -61 V
3 -44 V
3 12 V
3 18 V
4 -8 V
3 -53 V
3 68 V
3 -29 V
4 -12 V
3 -73 V
3 39 V
3 -34 V
4 57 V
3 -12 V
3 29 V
3 22 V
4 -60 V
3 -41 V
3 29 V
3 31 V
4 -24 V
3 5 V
3 82 V
3 -55 V
4 11 V
3 -43 V
3 19 V
3 -29 V
4 38 V
3 -64 V
3 36 V
3 -36 V
3 -12 V
4 20 V
3 -23 V
3 3 V
3 17 V
4 -32 V
3 38 V
3 -11 V
3 13 V
4 -40 V
3 73 V
3 -49 V
3 14 V
4 35 V
3 -52 V
3 47 V
3 -74 V
4 41 V
3 5 V
3 35 V
3 -51 V
4 19 V
3 30 V
3 16 V
3 13 V
4 69 V
3 -80 V
3 -23 V
3 14 V
4 -24 V
3 -18 V
3 -43 V
3 71 V
4 -39 V
3 3 V
3 -41 V
3 -17 V
4 17 V
3 57 V
3 -88 V
3 -3 V
3 10 V
4 42 V
3 -25 V
3 19 V
3 -85 V
4 20 V
3 -12 V
3 34 V
3 -11 V
4 29 V
3 -21 V
3 21 V
3 -29 V
4 42 V
3 -78 V
3 -13 V
3 94 V
4 6 V
3 -19 V
3 67 V
3 -95 V
4 -19 V
3 93 V
3 -67 V
3 55 V
4 46 V
3 -67 V
3 -34 V
3 -11 V
4 42 V
stroke 3434 1704 M
3 -78 V
3 -4 V
3 -9 V
4 -14 V
3 23 V
3 -80 V
3 11 V
4 -17 V
3 -19 V
3 25 V
3 113 V
3 -16 V
4 12 V
3 -8 V
3 57 V
3 -20 V
4 -105 V
3 0 V
3 5 V
3 -44 V
4 82 V
3 33 V
3 -56 V
3 63 V
4 12 V
3 -8 V
3 22 V
3 -104 V
4 46 V
3 116 V
3 -103 V
3 4 V
4 -84 V
3 31 V
3 -21 V
3 -21 V
4 -12 V
3 -60 V
3 48 V
3 35 V
4 -161 V
3 155 V
3 51 V
3 5 V
4 -50 V
3 5 V
3 40 V
3 51 V
4 -91 V
3 71 V
3 -17 V
3 -70 V
3 32 V
4 29 V
3 -40 V
3 -5 V
3 -40 V
4 24 V
3 27 V
3 -51 V
3 -41 V
4 76 V
3 -6 V
3 0 V
3 -5 V
4 16 V
3 -28 V
3 -53 V
3 41 V
4 6 V
3 83 V
3 -23 V
3 -79 V
4 -21 V
3 34 V
3 45 V
3 -33 V
4 49 V
3 19 V
3 -45 V
3 10 V
4 -16 V
3 -63 V
3 -102 V
3 136 V
4 -20 V
3 100 V
3 -45 V
3 -17 V
4 22 V
3 -11 V
3 -36 V
3 -13 V
3 0 V
4 95 V
3 -30 V
3 70 V
3 -64 V
4 116 V
3 -60 V
3 -51 V
3 -90 V
4 27 V
3 -139 V
stroke 3771 1378 M
3 139 V
3 -90 V
4 77 V
3 -21 V
3 59 V
3 -115 V
4 0 V
3 56 V
3 -95 V
3 72 V
4 8 V
3 -32 V
3 -28 V
3 75 V
4 -23 V
3 -72 V
3 95 V
3 -95 V
4 -10 V
3 49 V
3 -9 V
3 -129 V
4 15 V
3 39 V
3 -121 V
3 109 V
4 -200 V
3 91 V
3 -119 V
3 155 V
3 -155 V
4 28 V
3 127 V
3 -127 V
3 71 V
4 -167 V
3 205 V
3 -38 V
3 116 V
4 49 V
3 -12 V
3 -51 V
3 -46 V
4 46 V
3 -233 V
3 -36 V
3 269 V
4 74 V
3 -198 V
3 94 V
3 57 V
4 -151 V
3 198 V
3 -11 V
3 -145 V
4 -42 V
3 109 V
3 -186 V
3 119 V
4 -91 V
3 91 V
3 -119 V
3 28 V
4 109 V
3 34 V
3 93 V
3 -165 V
4 72 V
3 -117 V
3 161 V
3 -161 V
3 117 V
4 202 V
3 -58 V
3 -87 V
3 -73 V
4 73 V
3 -27 V
3 0 V
3 -147 V
4 -26 V
3 71 V
3 72 V
3 -143 V
4 -60 V
3 -126 V
3 90 V
3 -337 V
4 187 V
3 150 V
3 -41 V
3 163 V
4 -122 V
3 122 V
3 -122 V
3 -90 V
4 126 V
3 -77 V
3 -109 V
3 -78 V
4 296 V
3 -68 V
6 68 V
4 -158 V
stroke 4112 945 M
3 49 V
3 -187 V
3 -109 V
3 187 V
4 109 V
3 -49 V
3 90 V
3 0 V
4 -41 V
3 -187 V
3 187 V
3 -49 V
4 -60 V
3 150 V
3 68 V
3 -109 V
4 41 V
3 0 V
3 0 V
3 -150 V
4 186 V
3 -264 V
3 228 V
3 -150 V
4 -187 V
3 373 V
3 60 V
3 -28 V
4 -68 V
3 -41 V
3 -49 V
3 -60 V
4 109 V
3 41 V
3 -41 V
3 41 V
4 122 V
3 -26 V
3 -96 V
3 145 V
4 -109 V
3 -126 V
3 -247 V
3 373 V
3 32 V
4 228 V
3 -109 V
3 36 V
3 31 V
4 208 V
3 -208 V
3 -87 V
3 -131 V
4 0 V
3 86 V
3 117 V
3 -52 V
4 -187 V
3 167 V
3 72 V
3 -280 V
4 228 V
3 82 V
3 51 V
3 33 V
4 20 V
3 -53 V
3 113 V
3 -137 V
4 -91 V
3 34 V
3 144 V
3 -216 V
4 -131 V
3 151 V
3 52 V
3 -34 V
4 18 V
3 -56 V
3 -71 V
3 -96 V
4 0 V
3 167 V
3 -22 V
3 -49 V
3 0 V
4 26 V
3 -54 V
3 28 V
3 -324 V
4 138 V
3 158 V
3 -405 V
3 405 V
4 -32 V
3 -77 V
3 0 V
3 109 V
4 -109 V
3 77 V
3 151 V
3 -91 V
4 0 V
3 -137 V
stroke 4449 994 M
3 186 V
3 -49 V
4 -28 V
3 -158 V
3 126 V
3 -36 V
4 -41 V
3 -109 V
3 109 V
3 -49 V
4 49 V
3 163 V
3 -163 V
3 0 V
4 0 V
3 137 V
3 -96 V
3 68 V
4 -158 V
3 257 V
3 -22 V
3 -49 V
3 -28 V
4 -109 V
3 41 V
3 68 V
3 28 V
4 49 V
3 -109 V
3 32 V
3 -68 V
4 223 V
3 -264 V
3 208 V
3 -167 V
4 36 V
3 -36 V
3 36 V
3 109 V
4 -49 V
3 173 V
3 -102 V
3 20 V
4 67 V
3 -295 V
3 163 V
3 -54 V
4 -218 V
3 0 V
3 -78 V
3 228 V
4 -228 V
3 395 V
3 0 V
3 -257 V
4 90 V
3 -90 V
3 0 V
3 126 V
4 -373 V
3 337 V
3 -337 V
3 109 V
3 0 V
4 78 V
3 150 V
3 0 V
3 -337 V
4 109 V
3 78 V
3 -187 V
3 337 V
4 68 V
3 -68 V
3 -90 V
3 90 V
4 0 V
3 -228 V
3 78 V
3 186 V
4 32 V
3 -158 V
3 90 V
3 68 V
4 -296 V
3 0 V
3 187 V
3 -482 V
4 186 V
3 247 V
3 -247 V
3 247 V
4 -247 V
3 0 V
3 337 V
3 -337 V
4 187 V
3 -373 V
3 0 V
3 373 V
4 -187 V
3 -186 V
3 433 V
3 0 V
stroke 4786 945 M
3 186 V
4 -186 V
3 90 V
3 -41 V
3 109 V
4 0 V
3 0 V
3 -296 V
3 0 V
4 0 V
3 78 V
3 109 V
3 -109 V
4 109 V
3 -187 V
3 -295 V
3 559 V
4 -36 V
3 -41 V
3 41 V
3 68 V
4 -109 V
3 -109 V
3 60 V
3 90 V
4 -337 V
3 109 V
3 138 V
3 49 V
4 -49 V
3 -433 V
3 591 V
3 -158 V
4 158 V
3 77 V
3 -145 V
3 96 V
4 26 V
3 23 V
3 60 V
3 -18 V
3 18 V
4 0 V
3 -109 V
3 71 V
3 -22 V
4 -49 V
3 91 V
3 -20 V
3 -22 V
4 109 V
3 42 V
3 -260 V
3 -126 V
4 158 V
3 0 V
3 215 V
3 -161 V
4 -86 V
3 109 V
3 60 V
3 34 V
4 -52 V
3 96 V
3 -138 V
3 -77 V
4 28 V
3 109 V
3 -109 V
3 127 V
4 -56 V
3 -99 V
3 -158 V
3 186 V
4 49 V
3 -109 V
3 218 V
3 -254 V
4 36 V
3 151 V
3 -151 V
3 131 V
3 -131 V
4 0 V
3 109 V
3 -186 V
3 163 V
4 -272 V
3 -78 V
3 324 V
3 -186 V
4 90 V
3 223 V
3 -187 V
3 0 V
4 -36 V
3 223 V
3 -313 V
3 49 V
4 -49 V
3 -60 V
3 272 V
3 -86 V
4 -36 V
stroke 5124 1035 M
3 68 V
3 0 V
3 28 V
4 71 V
3 -22 V
3 -295 V
3 272 V
4 -54 V
3 54 V
3 23 V
3 -49 V
4 236 V
3 -36 V
3 -73 V
3 85 V
4 75 V
3 -63 V
3 -81 V
3 -72 V
3 -257 V
4 235 V
3 -186 V
3 137 V
3 26 V
4 -26 V
3 -60 V
3 32 V
3 -296 V
4 228 V
3 -41 V
3 41 V
3 -41 V
4 -109 V
3 109 V
3 -49 V
3 0 V
4 49 V
3 0 V
3 -109 V
3 -187 V
4 0 V
3 109 V
3 138 V
3 -138 V
4 228 V
3 -90 V
3 0 V
3 -138 V
4 264 V
3 -559 V
3 523 V
3 -228 V
4 138 V
3 -60 V
3 150 V
3 36 V
4 -77 V
3 77 V
3 -77 V
3 -109 V
3 -78 V
4 138 V
3 -433 V
3 523 V
3 -228 V
4 264 V
3 -186 V
3 0 V
3 0 V
4 -187 V
3 187 V
3 -373 V
3 373 V
4 60 V
3 -138 V
3 78 V
3 -78 V
4 78 V
3 0 V
3 -373 V
3 186 V
4 -186 V
3 0 V
6 0 V
7 0 V
3 482 V
3 -296 V
4 109 V
6 0 V
3 -109 V
4 -186 V
3 295 V
3 -295 V
3 186 V
4 -186 V
3 433 V
3 -433 V
3 186 V
3 0 V
4 109 V
6 -295 V
7 295 V
3 0 V
3 -295 V
stroke 5477 512 M
3 0 V
4 186 V
3 0 V
6 -186 V
4 0 V
3 0 V
3 0 V
3 0 V
4 186 V
3 -186 V
3 186 V
3 296 V
4 -482 V
9 0 V
4 186 V
3 -186 V
3 186 V
3 -186 V
4 433 V
3 -433 V
3 295 V
3 -295 V
4 373 V
3 -78 V
6 138 V
4 -433 V
3 0 V
3 0 V
3 186 V
3 109 V
4 0 V
3 -295 V
3 295 V
3 -109 V
4 -186 V
3 295 V
3 -109 V
3 -186 V
4 373 V
3 -373 V
3 0 V
3 186 V
4 187 V
3 109 V
3 0 V
3 -296 V
4 0 V
3 0 V
3 337 V
3 -228 V
4 -295 V
3 482 V
3 -109 V
3 -78 V
4 -109 V
6 109 V
3 -295 V
4 295 V
3 -109 V
3 0 V
3 -186 V
7 186 V
6 0 V
4 247 V
3 -138 V
3 0 V
3 0 V
3 -109 V
4 109 V
3 78 V
3 -373 V
3 186 V
4 109 V
3 138 V
3 -247 V
3 -186 V
4 0 V
3 186 V
3 187 V
3 -78 V
4 0 V
3 78 V
3 -373 V
3 0 V
7 186 V
3 -186 V
3 186 V
7 -186 V
6 186 V
4 0 V
3 0 V
3 0 V
3 109 V
4 -295 V
3 0 V
6 0 V
4 0 V
6 186 V
7 -186 V
3 186 V
3 0 V
3 0 V
3 -186 V
4 0 V
stroke 5857 512 M
3 186 V
6 187 V
4 0 V
3 -373 V
3 295 V
3 -109 V
7 0 V
6 -186 V
7 295 V
3 0 V
7 -109 V
3 0 V
6 -186 V
4 433 V
3 -433 V
3 373 V
3 -373 V
4 186 V
3 0 V
3 0 V
3 0 V
4 -186 V
3 186 V
6 -186 V
4 0 V
3 0 V
3 0 V
7 295 V
3 -295 V
3 0 V
16 0 V
3 0 V
4 0 V
6 0 V
7 0 V
6 186 V
7 -186 V
3 0 V
3 295 V
3 -109 V
13 -186 V
10 186 V
7 -186 V
3 186 V
16 -186 V
10 0 V
3 186 V
13 -186 V
10 186 V
16 -186 V
3 0 V
13 186 V
26 -186 V
10 0 V
3 0 V
3 0 V
20 0 V
3 0 V
3 186 V
7 0 V
6 -186 V
4 0 V
6 0 V
6 0 V
10 0 V
7 186 V
3 109 V
6 -295 V
4 0 V
3 0 V
3 0 V
3 0 V
7 0 V
3 0 V
3 0 V
7 0 V
16 0 V
20 0 V
3 0 V
10 0 V
6 0 V
26 0 V
6 0 V
4 0 V
3 0 V
3 295 V
16 -295 V
13 0 V
7 0 V
3 0 V
42 0 V
26 0 V
10 186 V
6 0 V
4 -186 V
3 0 V
3 0 V
3 186 V
4 -186 V
3 0 V
3 186 V
3 0 V
4 187 V
3 -187 V
stroke 6564 698 M
3 0 V
3 296 V
4 -296 V
9 247 V
7 -247 V
3 187 V
7 0 V
6 -373 V
7 0 V
9 0 V
7 0 V
3 0 V
3 295 V
4 78 V
3 -187 V
3 -186 V
3 186 V
10 -186 V
3 295 V
7 -295 V
3 186 V
3 187 V
3 -78 V
4 78 V
3 -187 V
3 -186 V
3 373 V
4 -373 V
9 0 V
4 186 V
3 0 V
6 -186 V
10 0 V
1072 4585 CircleF
1075 4567 CircleF
1078 4526 CircleF
1082 4481 CircleF
1085 4430 CircleF
1088 4375 CircleF
1091 4319 CircleF
1095 4261 CircleF
1098 4202 CircleF
1101 4142 CircleF
1104 4085 CircleF
1108 4030 CircleF
1111 3976 CircleF
1114 3923 CircleF
1117 3876 CircleF
1121 3830 CircleF
1124 3788 CircleF
1127 3748 CircleF
1130 3712 CircleF
1134 3678 CircleF
1137 3644 CircleF
1140 3616 CircleF
1143 3588 CircleF
1147 3562 CircleF
1150 3544 CircleF
1153 3517 CircleF
1156 3496 CircleF
1160 3479 CircleF
1163 3460 CircleF
1166 3443 CircleF
1169 3424 CircleF
1173 3412 CircleF
1176 3398 CircleF
1179 3385 CircleF
1182 3375 CircleF
1186 3363 CircleF
1189 3354 CircleF
1192 3340 CircleF
1195 3326 CircleF
1199 3318 CircleF
1202 3309 CircleF
1205 3300 CircleF
1208 3288 CircleF
1211 3277 CircleF
1215 3272 CircleF
1218 3263 CircleF
1221 3256 CircleF
1224 3243 CircleF
1228 3244 CircleF
1231 3232 CircleF
1234 3229 CircleF
1237 3219 CircleF
1241 3214 CircleF
1244 3210 CircleF
1247 3210 CircleF
1250 3203 CircleF
1254 3190 CircleF
1257 3189 CircleF
1260 3185 CircleF
1263 3172 CircleF
1267 3176 CircleF
1270 3168 CircleF
1273 3167 CircleF
1276 3157 CircleF
1280 3153 CircleF
1283 3153 CircleF
1286 3152 CircleF
1289 3149 CircleF
1293 3139 CircleF
1296 3143 CircleF
1299 3138 CircleF
1302 3134 CircleF
1306 3138 CircleF
1309 3133 CircleF
1312 3130 CircleF
1315 3126 CircleF
1319 3129 CircleF
1322 3123 CircleF
1325 3125 CircleF
1328 3127 CircleF
1332 3129 CircleF
1335 3122 CircleF
1338 3122 CircleF
1341 3116 CircleF
1344 3122 CircleF
1348 3120 CircleF
1351 3119 CircleF
1354 3122 CircleF
1357 3124 CircleF
1361 3122 CircleF
1364 3122 CircleF
1367 3119 CircleF
1370 3117 CircleF
1374 3115 CircleF
1377 3118 CircleF
1380 3117 CircleF
1383 3116 CircleF
1387 3119 CircleF
1390 3118 CircleF
1393 3126 CircleF
1396 3122 CircleF
1400 3124 CircleF
1403 3120 CircleF
1406 3119 CircleF
1409 3118 CircleF
1413 3122 CircleF
1416 3123 CircleF
1419 3119 CircleF
1422 3125 CircleF
1426 3121 CircleF
1429 3127 CircleF
1432 3125 CircleF
1435 3133 CircleF
1439 3134 CircleF
1442 3132 CircleF
1445 3134 CircleF
1448 3138 CircleF
1452 3131 CircleF
1455 3130 CircleF
1458 3135 CircleF
1461 3136 CircleF
1465 3132 CircleF
1468 3130 CircleF
1471 3134 CircleF
1474 3130 CircleF
1477 3131 CircleF
1481 3128 CircleF
1484 3133 CircleF
1487 3129 CircleF
1490 3125 CircleF
1494 3133 CircleF
1497 3129 CircleF
1500 3128 CircleF
1503 3126 CircleF
1507 3118 CircleF
1510 3123 CircleF
1513 3121 CircleF
1516 3124 CircleF
1520 3119 CircleF
1523 3120 CircleF
1526 3116 CircleF
1529 3118 CircleF
1533 3118 CircleF
1536 3115 CircleF
1539 3121 CircleF
1542 3115 CircleF
1546 3116 CircleF
1549 3113 CircleF
1552 3108 CircleF
1555 3109 CircleF
1559 3107 CircleF
1562 3107 CircleF
1565 3102 CircleF
1568 3097 CircleF
1572 3097 CircleF
1575 3095 CircleF
1578 3096 CircleF
1581 3092 CircleF
1585 3093 CircleF
1588 3090 CircleF
1591 3086 CircleF
1594 3076 CircleF
1598 3077 CircleF
1601 3070 CircleF
1604 3068 CircleF
1607 3070 CircleF
1610 3059 CircleF
1614 3055 CircleF
1617 3053 CircleF
1620 3051 CircleF
1623 3046 CircleF
1627 3044 CircleF
1630 3040 CircleF
1633 3042 CircleF
1636 3035 CircleF
1640 3030 CircleF
1643 3023 CircleF
1646 3019 CircleF
1649 3012 CircleF
1653 3012 CircleF
1656 3007 CircleF
1659 3006 CircleF
1662 2997 CircleF
1666 2986 CircleF
1669 2989 CircleF
1672 2988 CircleF
1675 2980 CircleF
1679 2976 CircleF
1682 2970 CircleF
1685 2970 CircleF
1688 2956 CircleF
1692 2949 CircleF
1695 2956 CircleF
1698 2939 CircleF
1701 2941 CircleF
1705 2934 CircleF
1708 2937 CircleF
1711 2928 CircleF
1714 2921 CircleF
1718 2907 CircleF
1721 2909 CircleF
1724 2904 CircleF
1727 2900 CircleF
1731 2902 CircleF
1734 2894 CircleF
1737 2885 CircleF
1740 2879 CircleF
1743 2871 CircleF
1747 2864 CircleF
1750 2864 CircleF
1753 2855 CircleF
1756 2850 CircleF
1760 2843 CircleF
1763 2839 CircleF
1766 2829 CircleF
1769 2831 CircleF
1773 2829 CircleF
1776 2824 CircleF
1779 2812 CircleF
1782 2807 CircleF
1786 2803 CircleF
1789 2798 CircleF
1792 2792 CircleF
1795 2785 CircleF
1799 2781 CircleF
1802 2769 CircleF
1805 2769 CircleF
1808 2773 CircleF
1812 2763 CircleF
1815 2756 CircleF
1818 2751 CircleF
1821 2745 CircleF
1825 2756 CircleF
1828 2736 CircleF
1831 2730 CircleF
1834 2741 CircleF
1838 2725 CircleF
1841 2720 CircleF
1844 2725 CircleF
1847 2711 CircleF
1851 2710 CircleF
1854 2711 CircleF
1857 2699 CircleF
1860 2699 CircleF
1864 2685 CircleF
1867 2682 CircleF
1870 2673 CircleF
1873 2676 CircleF
1876 2671 CircleF
1880 2662 CircleF
1883 2658 CircleF
1886 2659 CircleF
1889 2646 CircleF
1893 2646 CircleF
1896 2633 CircleF
1899 2643 CircleF
1902 2632 CircleF
1906 2634 CircleF
1909 2629 CircleF
1912 2614 CircleF
1915 2620 CircleF
1919 2614 CircleF
1922 2604 CircleF
1925 2598 CircleF
1928 2573 CircleF
1932 2579 CircleF
1935 2584 CircleF
1938 2576 CircleF
1941 2590 CircleF
1945 2579 CircleF
1948 2591 CircleF
1951 2593 CircleF
1954 2576 CircleF
1958 2576 CircleF
1961 2575 CircleF
1964 2552 CircleF
1967 2548 CircleF
1971 2552 CircleF
1974 2556 CircleF
1977 2540 CircleF
1980 2542 CircleF
1984 2530 CircleF
1987 2532 CircleF
1990 2521 CircleF
1993 2518 CircleF
1997 2520 CircleF
2000 2528 CircleF
2003 2535 CircleF
2006 2520 CircleF
2009 2516 CircleF
2013 2495 CircleF
2016 2508 CircleF
2019 2501 CircleF
2022 2491 CircleF
2026 2476 CircleF
2029 2495 CircleF
2032 2495 CircleF
2035 2489 CircleF
2039 2471 CircleF
2042 2481 CircleF
2045 2470 CircleF
2048 2451 CircleF
2052 2454 CircleF
2055 2447 CircleF
2058 2457 CircleF
2061 2451 CircleF
2065 2450 CircleF
2068 2447 CircleF
2071 2447 CircleF
2074 2465 CircleF
2078 2463 CircleF
2081 2458 CircleF
2084 2454 CircleF
2087 2434 CircleF
2091 2418 CircleF
2094 2436 CircleF
2097 2423 CircleF
2100 2427 CircleF
2104 2447 CircleF
2107 2436 CircleF
2110 2404 CircleF
2113 2401 CircleF
2117 2413 CircleF
2120 2405 CircleF
2123 2405 CircleF
2126 2400 CircleF
2130 2385 CircleF
2133 2390 CircleF
2136 2369 CircleF
2139 2391 CircleF
2142 2419 CircleF
2146 2417 CircleF
2149 2386 CircleF
2152 2374 CircleF
2155 2393 CircleF
2159 2402 CircleF
2162 2393 CircleF
2165 2409 CircleF
2168 2394 CircleF
2172 2388 CircleF
2175 2400 CircleF
2178 2392 CircleF
2181 2413 CircleF
2185 2392 CircleF
2188 2407 CircleF
2191 2398 CircleF
2194 2393 CircleF
2198 2378 CircleF
2201 2380 CircleF
2204 2389 CircleF
2207 2369 CircleF
2211 2357 CircleF
2214 2376 CircleF
2217 2365 CircleF
2220 2360 CircleF
2224 2367 CircleF
2227 2358 CircleF
2230 2368 CircleF
2233 2370 CircleF
2237 2377 CircleF
2240 2354 CircleF
2243 2352 CircleF
2246 2334 CircleF
2250 2351 CircleF
2253 2328 CircleF
2256 2344 CircleF
2259 2334 CircleF
2263 2336 CircleF
2266 2329 CircleF
2269 2327 CircleF
2272 2326 CircleF
2275 2332 CircleF
2279 2355 CircleF
2282 2359 CircleF
2285 2341 CircleF
2288 2343 CircleF
2292 2317 CircleF
2295 2329 CircleF
2298 2317 CircleF
2301 2315 CircleF
2305 2313 CircleF
2308 2307 CircleF
2311 2327 CircleF
2314 2320 CircleF
2318 2305 CircleF
2321 2301 CircleF
2324 2269 CircleF
2327 2275 CircleF
2331 2258 CircleF
2334 2277 CircleF
2337 2262 CircleF
2340 2268 CircleF
2344 2272 CircleF
2347 2298 CircleF
2350 2275 CircleF
2353 2298 CircleF
2357 2283 CircleF
2360 2297 CircleF
2363 2275 CircleF
2366 2277 CircleF
2370 2261 CircleF
2373 2278 CircleF
2376 2263 CircleF
2379 2285 CircleF
2383 2281 CircleF
2386 2268 CircleF
2389 2263 CircleF
2392 2227 CircleF
2396 2222 CircleF
2399 2242 CircleF
2402 2210 CircleF
2405 2232 CircleF
2408 2224 CircleF
2412 2262 CircleF
2415 2257 CircleF
2418 2231 CircleF
2421 2218 CircleF
2425 2239 CircleF
2428 2242 CircleF
2431 2228 CircleF
2434 2217 CircleF
2438 2228 CircleF
2441 2222 CircleF
2444 2244 CircleF
2447 2217 CircleF
2451 2236 CircleF
2454 2240 CircleF
2457 2225 CircleF
2460 2220 CircleF
2464 2212 CircleF
2467 2208 CircleF
2470 2214 CircleF
2473 2187 CircleF
2477 2207 CircleF
2480 2199 CircleF
2483 2194 CircleF
2486 2207 CircleF
2490 2230 CircleF
2493 2216 CircleF
2496 2206 CircleF
2499 2212 CircleF
2503 2201 CircleF
2506 2192 CircleF
2509 2206 CircleF
2512 2165 CircleF
2516 2173 CircleF
2519 2173 CircleF
2522 2196 CircleF
2525 2197 CircleF
2529 2227 CircleF
2532 2234 CircleF
2535 2191 CircleF
2538 2211 CircleF
2541 2223 CircleF
2545 2205 CircleF
2548 2199 CircleF
2551 2180 CircleF
2554 2183 CircleF
2558 2142 CircleF
2561 2151 CircleF
2564 2125 CircleF
2567 2119 CircleF
2571 2116 CircleF
2574 2118 CircleF
2577 2129 CircleF
2580 2174 CircleF
2584 2324 CircleF
2587 2148 CircleF
2590 2152 CircleF
2593 2102 CircleF
2597 2139 CircleF
2600 2151 CircleF
2603 2092 CircleF
2606 2100 CircleF
2610 2106 CircleF
2613 2088 CircleF
2616 2056 CircleF
2619 2095 CircleF
2623 2129 CircleF
2626 2064 CircleF
2629 2088 CircleF
2632 2052 CircleF
2636 2041 CircleF
2639 2064 CircleF
2642 2078 CircleF
2645 2072 CircleF
2649 2056 CircleF
2652 2048 CircleF
2655 2065 CircleF
2658 2079 CircleF
2662 1994 CircleF
2665 2016 CircleF
2668 2027 CircleF
2671 2012 CircleF
2674 1975 CircleF
2678 2038 CircleF
2681 2023 CircleF
2684 2051 CircleF
2687 2042 CircleF
2691 2032 CircleF
2694 2027 CircleF
2697 2026 CircleF
2700 2044 CircleF
2704 2045 CircleF
2707 2018 CircleF
2710 2046 CircleF
2713 2026 CircleF
2717 2027 CircleF
2720 2013 CircleF
2723 2053 CircleF
2726 2027 CircleF
2730 1984 CircleF
2733 2008 CircleF
2736 2001 CircleF
2739 2013 CircleF
2743 1997 CircleF
2746 1998 CircleF
2749 2039 CircleF
2752 2032 CircleF
2756 2020 CircleF
2759 2016 CircleF
2762 2036 CircleF
2765 2018 CircleF
2769 1983 CircleF
2772 2019 CircleF
2775 1990 CircleF
2778 1973 CircleF
2782 1988 CircleF
2785 1959 CircleF
2788 1950 CircleF
2791 1978 CircleF
2795 1990 CircleF
2798 1997 CircleF
2801 1984 CircleF
2804 1993 CircleF
2807 1969 CircleF
2811 1979 CircleF
2814 1929 CircleF
2817 1936 CircleF
2820 1929 CircleF
2824 1953 CircleF
2827 1959 CircleF
2830 1923 CircleF
2833 1958 CircleF
2837 1953 CircleF
2840 1938 CircleF
2843 1971 CircleF
2846 1945 CircleF
2850 1969 CircleF
2853 1966 CircleF
2856 1944 CircleF
2859 1975 CircleF
2863 1917 CircleF
2866 1950 CircleF
2869 1920 CircleF
2872 1903 CircleF
2876 1890 CircleF
2879 1907 CircleF
2882 1896 CircleF
2885 1925 CircleF
2889 1926 CircleF
2892 1910 CircleF
2895 1932 CircleF
2898 1909 CircleF
2902 1890 CircleF
2905 1901 CircleF
2908 1909 CircleF
2911 1917 CircleF
2915 1934 CircleF
2918 1887 CircleF
2921 1882 CircleF
2924 1879 CircleF
2928 1900 CircleF
2931 1919 CircleF
2934 1893 CircleF
2937 1936 CircleF
2940 1916 CircleF
2944 1993 CircleF
2947 1951 CircleF
2950 1969 CircleF
2953 1927 CircleF
2957 1926 CircleF
2960 1951 CircleF
2963 1916 CircleF
2966 1920 CircleF
2970 1961 CircleF
2973 1933 CircleF
2976 1995 CircleF
2979 1969 CircleF
2983 1960 CircleF
2986 1955 CircleF
2989 1916 CircleF
2992 1888 CircleF
2996 1858 CircleF
2999 1909 CircleF
3002 1915 CircleF
3005 1992 CircleF
3009 1868 CircleF
3012 1874 CircleF
3015 1875 CircleF
3018 1858 CircleF
3022 1774 CircleF
3025 1779 CircleF
3028 1800 CircleF
3031 1788 CircleF
3035 1849 CircleF
3038 1872 CircleF
3041 1893 CircleF
3044 1877 CircleF
3048 1892 CircleF
3051 1835 CircleF
3054 1904 CircleF
3057 1884 CircleF
3061 1868 CircleF
3064 1870 CircleF
3067 1887 CircleF
3070 1868 CircleF
3073 1827 CircleF
3077 1907 CircleF
3080 1903 CircleF
3083 1808 CircleF
3086 1845 CircleF
3090 1849 CircleF
3093 1872 CircleF
3096 1877 CircleF
3099 1922 CircleF
3103 1861 CircleF
3106 1817 CircleF
3109 1829 CircleF
3112 1847 CircleF
3116 1839 CircleF
3119 1786 CircleF
3122 1854 CircleF
3125 1825 CircleF
3129 1813 CircleF
3132 1740 CircleF
3135 1779 CircleF
3138 1745 CircleF
3142 1802 CircleF
3145 1790 CircleF
3148 1819 CircleF
3151 1841 CircleF
3155 1781 CircleF
3158 1740 CircleF
3161 1769 CircleF
3164 1800 CircleF
3168 1776 CircleF
3171 1781 CircleF
3174 1863 CircleF
3177 1808 CircleF
3181 1819 CircleF
3184 1776 CircleF
3187 1795 CircleF
3190 1766 CircleF
3194 1804 CircleF
3197 1740 CircleF
3200 1776 CircleF
3203 1740 CircleF
3206 1728 CircleF
3210 1748 CircleF
3213 1725 CircleF
3216 1728 CircleF
3219 1745 CircleF
3223 1713 CircleF
3226 1751 CircleF
3229 1740 CircleF
3232 1753 CircleF
3236 1713 CircleF
3239 1786 CircleF
3242 1737 CircleF
3245 1751 CircleF
3249 1786 CircleF
3252 1734 CircleF
3255 1781 CircleF
3258 1707 CircleF
3262 1748 CircleF
3265 1753 CircleF
3268 1788 CircleF
3271 1737 CircleF
3275 1756 CircleF
3278 1786 CircleF
3281 1802 CircleF
3284 1815 CircleF
3288 1884 CircleF
3291 1804 CircleF
3294 1781 CircleF
3297 1795 CircleF
3301 1771 CircleF
3304 1753 CircleF
3307 1710 CircleF
3310 1781 CircleF
3314 1742 CircleF
3317 1745 CircleF
3320 1704 CircleF
3323 1687 CircleF
3327 1704 CircleF
3330 1761 CircleF
3333 1673 CircleF
3336 1670 CircleF
3339 1680 CircleF
3343 1722 CircleF
3346 1697 CircleF
3349 1716 CircleF
3352 1631 CircleF
3356 1651 CircleF
3359 1639 CircleF
3362 1673 CircleF
3365 1662 CircleF
3369 1691 CircleF
3372 1670 CircleF
3375 1691 CircleF
3378 1662 CircleF
3382 1704 CircleF
3385 1626 CircleF
3388 1613 CircleF
3391 1707 CircleF
3395 1713 CircleF
3398 1694 CircleF
3401 1761 CircleF
3404 1666 CircleF
3408 1647 CircleF
3411 1740 CircleF
3414 1673 CircleF
3417 1728 CircleF
3421 1774 CircleF
3424 1707 CircleF
3427 1673 CircleF
3430 1662 CircleF
3434 1704 CircleF
3437 1626 CircleF
3440 1622 CircleF
3443 1613 CircleF
3447 1599 CircleF
3450 1622 CircleF
3453 1542 CircleF
3456 1553 CircleF
3460 1536 CircleF
3463 1517 CircleF
3466 1542 CircleF
3469 1655 CircleF
3472 1639 CircleF
3476 1651 CircleF
3479 1643 CircleF
3482 1700 CircleF
3485 1680 CircleF
3489 1575 CircleF
3492 1575 CircleF
3495 1580 CircleF
3498 1536 CircleF
3502 1618 CircleF
3505 1651 CircleF
3508 1595 CircleF
3511 1658 CircleF
3515 1670 CircleF
3518 1662 CircleF
3521 1684 CircleF
3524 1580 CircleF
3528 1626 CircleF
3531 1742 CircleF
3534 1639 CircleF
3537 1643 CircleF
3541 1559 CircleF
3544 1590 CircleF
3547 1569 CircleF
3550 1548 CircleF
3554 1536 CircleF
3557 1476 CircleF
3560 1524 CircleF
3563 1559 CircleF
3567 1398 CircleF
3570 1553 CircleF
3573 1604 CircleF
3576 1609 CircleF
3580 1559 CircleF
3583 1564 CircleF
3586 1604 CircleF
3589 1655 CircleF
3593 1564 CircleF
3596 1635 CircleF
3599 1618 CircleF
3602 1548 CircleF
3605 1580 CircleF
3609 1609 CircleF
3612 1569 CircleF
3615 1564 CircleF
3618 1524 CircleF
3622 1548 CircleF
3625 1575 CircleF
3628 1524 CircleF
3631 1483 CircleF
3635 1559 CircleF
3638 1553 CircleF
3641 1553 CircleF
3644 1548 CircleF
3648 1564 CircleF
3651 1536 CircleF
3654 1483 CircleF
3657 1524 CircleF
3661 1530 CircleF
3664 1613 CircleF
3667 1590 CircleF
3670 1511 CircleF
3674 1490 CircleF
3677 1524 CircleF
3680 1569 CircleF
3683 1536 CircleF
3687 1585 CircleF
3690 1604 CircleF
3693 1559 CircleF
3696 1569 CircleF
3700 1553 CircleF
3703 1490 CircleF
3706 1388 CircleF
3709 1524 CircleF
3713 1504 CircleF
3716 1604 CircleF
3719 1559 CircleF
3722 1542 CircleF
3726 1564 CircleF
3729 1553 CircleF
3732 1517 CircleF
3735 1504 CircleF
3738 1504 CircleF
3742 1599 CircleF
3745 1569 CircleF
3748 1639 CircleF
3751 1575 CircleF
3755 1691 CircleF
3758 1631 CircleF
3761 1580 CircleF
3764 1490 CircleF
3768 1517 CircleF
3771 1378 CircleF
3774 1517 CircleF
3777 1427 CircleF
3781 1504 CircleF
3784 1483 CircleF
3787 1542 CircleF
3790 1427 CircleF
3794 1427 CircleF
3797 1483 CircleF
3800 1388 CircleF
3803 1460 CircleF
3807 1468 CircleF
3810 1436 CircleF
3813 1408 CircleF
3816 1483 CircleF
3820 1460 CircleF
3823 1388 CircleF
3826 1483 CircleF
3829 1388 CircleF
3833 1378 CircleF
3836 1427 CircleF
3839 1418 CircleF
3842 1289 CircleF
3846 1304 CircleF
3849 1343 CircleF
3852 1222 CircleF
3855 1331 CircleF
3859 1131 CircleF
3862 1222 CircleF
3865 1103 CircleF
3868 1258 CircleF
3871 1103 CircleF
3875 1131 CircleF
3878 1258 CircleF
3881 1131 CircleF
3884 1202 CircleF
3888 1035 CircleF
3891 1240 CircleF
3894 1202 CircleF
3897 1318 CircleF
3901 1367 CircleF
3904 1355 CircleF
3907 1304 CircleF
3910 1258 CircleF
3914 1304 CircleF
3917 1071 CircleF
3920 1035 CircleF
3923 1304 CircleF
3927 1378 CircleF
3930 1180 CircleF
3933 1274 CircleF
3936 1331 CircleF
3940 1180 CircleF
3943 1378 CircleF
3946 1367 CircleF
3949 1222 CircleF
3953 1180 CircleF
3956 1289 CircleF
3959 1103 CircleF
3962 1222 CircleF
3966 1131 CircleF
3969 1222 CircleF
3972 1103 CircleF
3975 1131 CircleF
3979 1240 CircleF
3982 1274 CircleF
3985 1367 CircleF
3988 1202 CircleF
3992 1274 CircleF
3995 1157 CircleF
3998 1318 CircleF
4001 1157 CircleF
4004 1274 CircleF
4008 1476 CircleF
4011 1418 CircleF
4014 1331 CircleF
4017 1258 CircleF
4021 1331 CircleF
4024 1304 CircleF
4027 1304 CircleF
4030 1157 CircleF
4034 1131 CircleF
4037 1202 CircleF
4040 1274 CircleF
4043 1131 CircleF
4047 1071 CircleF
4050 945 CircleF
4053 1035 CircleF
4056 698 CircleF
4060 885 CircleF
4063 1035 CircleF
4066 994 CircleF
4069 1157 CircleF
4073 1035 CircleF
4076 1157 CircleF
4079 1035 CircleF
4082 945 CircleF
4086 1071 CircleF
4089 994 CircleF
4092 885 CircleF
4095 807 CircleF
4099 1103 CircleF
4102 1035 CircleF
4108 1103 CircleF
4112 945 CircleF
4115 994 CircleF
4118 807 CircleF
4121 698 CircleF
4124 885 CircleF
4128 994 CircleF
4131 945 CircleF
4134 1035 CircleF
4137 1035 CircleF
4141 994 CircleF
4144 807 CircleF
4147 994 CircleF
4150 945 CircleF
4154 885 CircleF
4157 1035 CircleF
4160 1103 CircleF
4163 994 CircleF
4167 1035 CircleF
4170 1035 CircleF
4173 1035 CircleF
4176 885 CircleF
4180 1071 CircleF
4183 807 CircleF
4186 1035 CircleF
4189 885 CircleF
4193 698 CircleF
4196 1071 CircleF
4199 1131 CircleF
4202 1103 CircleF
4206 1035 CircleF
4209 994 CircleF
4212 945 CircleF
4215 885 CircleF
4219 994 CircleF
4222 1035 CircleF
4225 994 CircleF
4228 1035 CircleF
4232 1157 CircleF
4235 1131 CircleF
4238 1035 CircleF
4241 1180 CircleF
4245 1071 CircleF
4248 945 CircleF
4251 698 CircleF
4254 1071 CircleF
4257 1103 CircleF
4261 1331 CircleF
4264 1222 CircleF
4267 1258 CircleF
4270 1289 CircleF
4274 1497 CircleF
4277 1289 CircleF
4280 1202 CircleF
4283 1071 CircleF
4287 1071 CircleF
4290 1157 CircleF
4293 1274 CircleF
4296 1222 CircleF
4300 1035 CircleF
4303 1202 CircleF
4306 1274 CircleF
4309 994 CircleF
4313 1222 CircleF
4316 1304 CircleF
4319 1355 CircleF
4322 1388 CircleF
4326 1408 CircleF
4329 1355 CircleF
4332 1468 CircleF
4335 1331 CircleF
4339 1240 CircleF
4342 1274 CircleF
4345 1418 CircleF
4348 1202 CircleF
4352 1071 CircleF
4355 1222 CircleF
4358 1274 CircleF
4361 1240 CircleF
4365 1258 CircleF
4368 1202 CircleF
4371 1131 CircleF
4374 1035 CircleF
4378 1035 CircleF
4381 1202 CircleF
4384 1180 CircleF
4387 1131 CircleF
4390 1131 CircleF
4394 1157 CircleF
4397 1103 CircleF
4400 1131 CircleF
4403 807 CircleF
4407 945 CircleF
4410 1103 CircleF
4413 698 CircleF
4416 1103 CircleF
4420 1071 CircleF
4423 994 CircleF
4426 994 CircleF
4429 1103 CircleF
4433 994 CircleF
4436 1071 CircleF
4439 1222 CircleF
4442 1131 CircleF
4446 1131 CircleF
4449 994 CircleF
4452 1180 CircleF
4455 1131 CircleF
4459 1103 CircleF
4462 945 CircleF
4465 1071 CircleF
4468 1035 CircleF
4472 994 CircleF
4475 885 CircleF
4478 994 CircleF
4481 945 CircleF
4485 994 CircleF
4488 1157 CircleF
4491 994 CircleF
4494 994 CircleF
4498 994 CircleF
4501 1131 CircleF
4504 1035 CircleF
4507 1103 CircleF
4511 945 CircleF
4514 1202 CircleF
4517 1180 CircleF
4520 1131 CircleF
4523 1103 CircleF
4527 994 CircleF
4530 1035 CircleF
4533 1103 CircleF
4536 1131 CircleF
4540 1180 CircleF
4543 1071 CircleF
4546 1103 CircleF
4549 1035 CircleF
4553 1258 CircleF
4556 994 CircleF
4559 1202 CircleF
4562 1035 CircleF
4566 1071 CircleF
4569 1035 CircleF
4572 1071 CircleF
4575 1180 CircleF
4579 1131 CircleF
4582 1304 CircleF
4585 1202 CircleF
4588 1222 CircleF
4592 1289 CircleF
4595 994 CircleF
4598 1157 CircleF
4601 1103 CircleF
4605 885 CircleF
4608 885 CircleF
4611 807 CircleF
4614 1035 CircleF
4618 807 CircleF
4621 1202 CircleF
4624 1202 CircleF
4627 945 CircleF
4631 1035 CircleF
4634 945 CircleF
4637 945 CircleF
4640 1071 CircleF
4644 698 CircleF
4647 1035 CircleF
4650 698 CircleF
4653 807 CircleF
4656 807 CircleF
4660 885 CircleF
4663 1035 CircleF
4666 1035 CircleF
4669 698 CircleF
4673 807 CircleF
4676 885 CircleF
4679 698 CircleF
4682 1035 CircleF
4686 1103 CircleF
4689 1035 CircleF
4692 945 CircleF
4695 1035 CircleF
4699 1035 CircleF
4702 807 CircleF
4705 885 CircleF
4708 1071 CircleF
4712 1103 CircleF
4715 945 CircleF
4718 1035 CircleF
4721 1103 CircleF
4725 807 CircleF
4728 807 CircleF
4731 994 CircleF
4734 512 CircleF
4738 698 CircleF
4741 945 CircleF
4744 698 CircleF
4747 945 CircleF
4751 698 CircleF
4754 698 CircleF
4757 1035 CircleF
4760 698 CircleF
4764 885 CircleF
4767 512 CircleF
4770 512 CircleF
4773 885 CircleF
4777 698 CircleF
4780 512 CircleF
4783 945 CircleF
4786 945 CircleF
4789 1131 CircleF
4793 945 CircleF
4796 1035 CircleF
4799 994 CircleF
4802 1103 CircleF
4806 1103 CircleF
4809 1103 CircleF
4812 807 CircleF
4815 807 CircleF
4819 807 CircleF
4822 885 CircleF
4825 994 CircleF
4828 885 CircleF
4832 994 CircleF
4835 807 CircleF
4838 512 CircleF
4841 1071 CircleF
4845 1035 CircleF
4848 994 CircleF
4851 1035 CircleF
4854 1103 CircleF
4858 994 CircleF
4861 885 CircleF
4864 945 CircleF
4867 1035 CircleF
4871 698 CircleF
4874 807 CircleF
4877 945 CircleF
4880 994 CircleF
4884 945 CircleF
4887 512 CircleF
4890 1103 CircleF
4893 945 CircleF
4897 1103 CircleF
4900 1180 CircleF
4903 1035 CircleF
4906 1131 CircleF
4910 1157 CircleF
4913 1180 CircleF
4916 1240 CircleF
4919 1222 CircleF
4922 1240 CircleF
4926 1240 CircleF
4929 1131 CircleF
4932 1202 CircleF
4935 1180 CircleF
4939 1131 CircleF
4942 1222 CircleF
4945 1202 CircleF
4948 1180 CircleF
4952 1289 CircleF
4955 1331 CircleF
4958 1071 CircleF
4961 945 CircleF
4965 1103 CircleF
4968 1103 CircleF
4971 1318 CircleF
4974 1157 CircleF
4978 1071 CircleF
4981 1180 CircleF
4984 1240 CircleF
4987 1274 CircleF
4991 1222 CircleF
4994 1318 CircleF
4997 1180 CircleF
5000 1103 CircleF
5004 1131 CircleF
5007 1240 CircleF
5010 1131 CircleF
5013 1258 CircleF
5017 1202 CircleF
5020 1103 CircleF
5023 945 CircleF
5026 1131 CircleF
5030 1180 CircleF
5033 1071 CircleF
5036 1289 CircleF
5039 1035 CircleF
5043 1071 CircleF
5046 1222 CircleF
5049 1071 CircleF
5052 1202 CircleF
5055 1071 CircleF
5059 1071 CircleF
5062 1180 CircleF
5065 994 CircleF
5068 1157 CircleF
5072 885 CircleF
5075 807 CircleF
5078 1131 CircleF
5081 945 CircleF
5085 1035 CircleF
5088 1258 CircleF
5091 1071 CircleF
5094 1071 CircleF
5098 1035 CircleF
5101 1258 CircleF
5104 945 CircleF
5107 994 CircleF
5111 945 CircleF
5114 885 CircleF
5117 1157 CircleF
5120 1071 CircleF
5124 1035 CircleF
5127 1103 CircleF
5130 1103 CircleF
5133 1131 CircleF
5137 1202 CircleF
5140 1180 CircleF
5143 885 CircleF
5146 1157 CircleF
5150 1103 CircleF
5153 1157 CircleF
5156 1180 CircleF
5159 1131 CircleF
5163 1367 CircleF
5166 1331 CircleF
5169 1258 CircleF
5172 1343 CircleF
5176 1418 CircleF
5179 1355 CircleF
5182 1274 CircleF
5185 1202 CircleF
5188 945 CircleF
5192 1180 CircleF
5195 994 CircleF
5198 1131 CircleF
5201 1157 CircleF
5205 1131 CircleF
5208 1071 CircleF
5211 1103 CircleF
5214 807 CircleF
5218 1035 CircleF
5221 994 CircleF
5224 1035 CircleF
5227 994 CircleF
5231 885 CircleF
5234 994 CircleF
5237 945 CircleF
5240 945 CircleF
5244 994 CircleF
5247 994 CircleF
5250 885 CircleF
5253 698 CircleF
5257 698 CircleF
5260 807 CircleF
5263 945 CircleF
5266 807 CircleF
5270 1035 CircleF
5273 945 CircleF
5276 945 CircleF
5279 807 CircleF
5283 1071 CircleF
5286 512 CircleF
5289 1035 CircleF
5292 807 CircleF
5296 945 CircleF
5299 885 CircleF
5302 1035 CircleF
5305 1071 CircleF
5309 994 CircleF
5312 1071 CircleF
5315 994 CircleF
5318 885 CircleF
5321 807 CircleF
5325 945 CircleF
5328 512 CircleF
5331 1035 CircleF
5334 807 CircleF
5338 1071 CircleF
5341 885 CircleF
5344 885 CircleF
5347 885 CircleF
5351 698 CircleF
5354 885 CircleF
5357 512 CircleF
5360 885 CircleF
5364 945 CircleF
5367 807 CircleF
5370 885 CircleF
5373 807 CircleF
5377 885 CircleF
5380 885 CircleF
5383 512 CircleF
5386 698 CircleF
5390 512 CircleF
5393 512 CircleF
5399 512 CircleF
5406 512 CircleF
5409 994 CircleF
5412 698 CircleF
5416 807 CircleF
5422 807 CircleF
5425 698 CircleF
5429 512 CircleF
5432 807 CircleF
5435 512 CircleF
5438 698 CircleF
5442 512 CircleF
5445 945 CircleF
5448 512 CircleF
5451 698 CircleF
5454 698 CircleF
5458 807 CircleF
5464 512 CircleF
5471 807 CircleF
5474 807 CircleF
5477 512 CircleF
5480 512 CircleF
5484 698 CircleF
5487 698 CircleF
5493 512 CircleF
5497 512 CircleF
5500 512 CircleF
5503 512 CircleF
5506 512 CircleF
5510 698 CircleF
5513 512 CircleF
5516 698 CircleF
5519 994 CircleF
5523 512 CircleF
5532 512 CircleF
5536 698 CircleF
5539 512 CircleF
5542 698 CircleF
5545 512 CircleF
5549 945 CircleF
5552 512 CircleF
5555 807 CircleF
5558 512 CircleF
5562 885 CircleF
5565 807 CircleF
5571 945 CircleF
5575 512 CircleF
5578 512 CircleF
5581 512 CircleF
5584 698 CircleF
5587 807 CircleF
5591 807 CircleF
5594 512 CircleF
5597 807 CircleF
5600 698 CircleF
5604 512 CircleF
5607 807 CircleF
5610 698 CircleF
5613 512 CircleF
5617 885 CircleF
5620 512 CircleF
5623 512 CircleF
5626 698 CircleF
5630 885 CircleF
5633 994 CircleF
5636 994 CircleF
5639 698 CircleF
5643 698 CircleF
5646 698 CircleF
5649 1035 CircleF
5652 807 CircleF
5656 512 CircleF
5659 994 CircleF
5662 885 CircleF
5665 807 CircleF
5669 698 CircleF
5675 807 CircleF
5678 512 CircleF
5682 807 CircleF
5685 698 CircleF
5688 698 CircleF
5691 512 CircleF
5698 698 CircleF
5704 698 CircleF
5708 945 CircleF
5711 807 CircleF
5714 807 CircleF
5717 807 CircleF
5720 698 CircleF
5724 807 CircleF
5727 885 CircleF
5730 512 CircleF
5733 698 CircleF
5737 807 CircleF
5740 945 CircleF
5743 698 CircleF
5746 512 CircleF
5750 512 CircleF
5753 698 CircleF
5756 885 CircleF
5759 807 CircleF
5763 807 CircleF
5766 885 CircleF
5769 512 CircleF
5772 512 CircleF
5779 698 CircleF
5782 512 CircleF
5785 698 CircleF
5792 512 CircleF
5798 698 CircleF
5802 698 CircleF
5805 698 CircleF
5808 698 CircleF
5811 807 CircleF
5815 512 CircleF
5818 512 CircleF
5824 512 CircleF
5828 512 CircleF
5834 698 CircleF
5841 512 CircleF
5844 698 CircleF
5847 698 CircleF
5850 698 CircleF
5853 512 CircleF
5857 512 CircleF
5860 698 CircleF
5866 885 CircleF
5870 885 CircleF
5873 512 CircleF
5876 807 CircleF
5879 698 CircleF
5886 698 CircleF
5892 512 CircleF
5899 807 CircleF
5902 807 CircleF
5909 698 CircleF
5912 698 CircleF
5918 512 CircleF
5922 945 CircleF
5925 512 CircleF
5928 885 CircleF
5931 512 CircleF
5935 698 CircleF
5938 698 CircleF
5941 698 CircleF
5944 698 CircleF
5948 512 CircleF
5951 698 CircleF
5957 512 CircleF
5961 512 CircleF
5964 512 CircleF
5967 512 CircleF
5974 807 CircleF
5977 512 CircleF
5980 512 CircleF
5996 512 CircleF
5999 512 CircleF
6003 512 CircleF
6009 512 CircleF
6016 512 CircleF
6022 698 CircleF
6029 512 CircleF
6032 512 CircleF
6035 807 CircleF
6038 698 CircleF
6051 512 CircleF
6061 698 CircleF
6068 512 CircleF
6071 698 CircleF
6087 512 CircleF
6097 512 CircleF
6100 698 CircleF
6113 512 CircleF
6123 698 CircleF
6139 512 CircleF
6142 512 CircleF
6155 698 CircleF
6181 512 CircleF
6191 512 CircleF
6194 512 CircleF
6197 512 CircleF
6217 512 CircleF
6220 512 CircleF
6223 698 CircleF
6230 698 CircleF
6236 512 CircleF
6240 512 CircleF
6246 512 CircleF
6252 512 CircleF
6262 512 CircleF
6269 698 CircleF
6272 807 CircleF
6278 512 CircleF
6282 512 CircleF
6285 512 CircleF
6288 512 CircleF
6291 512 CircleF
6298 512 CircleF
6301 512 CircleF
6304 512 CircleF
6311 512 CircleF
6327 512 CircleF
6347 512 CircleF
6350 512 CircleF
6360 512 CircleF
6366 512 CircleF
6392 512 CircleF
6398 512 CircleF
6402 512 CircleF
6405 512 CircleF
6408 807 CircleF
6424 512 CircleF
6437 512 CircleF
6444 512 CircleF
6447 512 CircleF
6489 512 CircleF
6515 512 CircleF
6525 698 CircleF
6531 698 CircleF
6535 512 CircleF
6538 512 CircleF
6541 512 CircleF
6544 698 CircleF
6548 512 CircleF
6551 512 CircleF
6554 698 CircleF
6557 698 CircleF
6561 885 CircleF
6564 698 CircleF
6567 698 CircleF
6570 994 CircleF
6574 698 CircleF
6583 945 CircleF
6590 698 CircleF
6593 885 CircleF
6600 885 CircleF
6606 512 CircleF
6613 512 CircleF
6622 512 CircleF
6629 512 CircleF
6632 512 CircleF
6635 807 CircleF
6639 885 CircleF
6642 698 CircleF
6645 512 CircleF
6648 698 CircleF
6658 512 CircleF
6661 807 CircleF
6668 512 CircleF
6671 698 CircleF
6674 885 CircleF
6677 807 CircleF
6681 885 CircleF
6684 698 CircleF
6687 512 CircleF
6690 885 CircleF
6694 512 CircleF
6703 512 CircleF
6707 698 CircleF
6710 698 CircleF
6716 512 CircleF
6726 512 CircleF
% End plot #1
1.000 UL
LTb
LCb setrgbcolor
1072 4847 N
0 -4335 V
5839 0 V
0 4335 V
-5839 0 V
Z stroke
1.000 UP
1.000 UL
LTb
LCb setrgbcolor
stroke
grestore
end
showpage
%%Trailer
%%DocumentFonts: Helvetica
