%!PS-Adobe-2.0 EPSF-2.0
%%Title: nbrDist.eps
%%Creator: gnuplot 4.6 patchlevel 2
%%CreationDate: Thu Sep 19 11:38:38 2019
%%DocumentFonts: (atend)
%%BoundingBox: 50 50 410 302
%%EndComments
%%BeginProlog
/gnudict 256 dict def
gnudict begin
%
% The following true/false flags may be edited by hand if desired.
% The unit line width and grayscale image gamma correction may also be changed.
%
/Color true def
/Blacktext false def
/Solid false def
/Dashlength 1 def
/Landscape false def
/Level1 false def
/Rounded false def
/ClipToBoundingBox false def
/SuppressPDFMark false def
/TransparentPatterns false def
/gnulinewidth 5.000 def
/userlinewidth gnulinewidth def
/Gamma 1.0 def
/BackgroundColor {-1.000 -1.000 -1.000} def
%
/vshift -53 def
/dl1 {
  10.0 Dashlength mul mul
  Rounded { currentlinewidth 0.75 mul sub dup 0 le { pop 0.01 } if } if
} def
/dl2 {
  10.0 Dashlength mul mul
  Rounded { currentlinewidth 0.75 mul add } if
} def
/hpt_ 31.5 def
/vpt_ 31.5 def
/hpt hpt_ def
/vpt vpt_ def
/doclip {
  ClipToBoundingBox {
    newpath 50 50 moveto 410 50 lineto 410 302 lineto 50 302 lineto closepath
    clip
  } if
} def
%
% Gnuplot Prolog Version 4.6 (September 2012)
%
%/SuppressPDFMark true def
%
/M {moveto} bind def
/L {lineto} bind def
/R {rmoveto} bind def
/V {rlineto} bind def
/N {newpath moveto} bind def
/Z {closepath} bind def
/C {setrgbcolor} bind def
/f {rlineto fill} bind def
/g {setgray} bind def
/Gshow {show} def   % May be redefined later in the file to support UTF-8
/vpt2 vpt 2 mul def
/hpt2 hpt 2 mul def
/Lshow {currentpoint stroke M 0 vshift R 
	Blacktext {gsave 0 setgray show grestore} {show} ifelse} def
/Rshow {currentpoint stroke M dup stringwidth pop neg vshift R
	Blacktext {gsave 0 setgray show grestore} {show} ifelse} def
/Cshow {currentpoint stroke M dup stringwidth pop -2 div vshift R 
	Blacktext {gsave 0 setgray show grestore} {show} ifelse} def
/UP {dup vpt_ mul /vpt exch def hpt_ mul /hpt exch def
  /hpt2 hpt 2 mul def /vpt2 vpt 2 mul def} def
/DL {Color {setrgbcolor Solid {pop []} if 0 setdash}
 {pop pop pop 0 setgray Solid {pop []} if 0 setdash} ifelse} def
/BL {stroke userlinewidth 2 mul setlinewidth
	Rounded {1 setlinejoin 1 setlinecap} if} def
/AL {stroke userlinewidth 2 div setlinewidth
	Rounded {1 setlinejoin 1 setlinecap} if} def
/UL {dup gnulinewidth mul /userlinewidth exch def
	dup 1 lt {pop 1} if 10 mul /udl exch def} def
/PL {stroke userlinewidth setlinewidth
	Rounded {1 setlinejoin 1 setlinecap} if} def
3.8 setmiterlimit
% Default Line colors
/LCw {1 1 1} def
/LCb {0 0 0} def
/LCa {0 0 0} def
/LC0 {1 0 0} def
/LC1 {0 1 0} def
/LC2 {0 0 1} def
/LC3 {1 0 1} def
/LC4 {0 1 1} def
/LC5 {1 1 0} def
/LC6 {0 0 0} def
/LC7 {1 0.3 0} def
/LC8 {0.5 0.5 0.5} def
% Default Line Types
/LTw {PL [] 1 setgray} def
/LTb {BL [] LCb DL} def
/LTa {AL [1 udl mul 2 udl mul] 0 setdash LCa setrgbcolor} def
/LT0 {PL [] LC0 DL} def
/LT1 {PL [4 dl1 2 dl2] LC1 DL} def
/LT2 {PL [2 dl1 3 dl2] LC2 DL} def
/LT3 {PL [1 dl1 1.5 dl2] LC3 DL} def
/LT4 {PL [6 dl1 2 dl2 1 dl1 2 dl2] LC4 DL} def
/LT5 {PL [3 dl1 3 dl2 1 dl1 3 dl2] LC5 DL} def
/LT6 {PL [2 dl1 2 dl2 2 dl1 6 dl2] LC6 DL} def
/LT7 {PL [1 dl1 2 dl2 6 dl1 2 dl2 1 dl1 2 dl2] LC7 DL} def
/LT8 {PL [2 dl1 2 dl2 2 dl1 2 dl2 2 dl1 2 dl2 2 dl1 4 dl2] LC8 DL} def
/Pnt {stroke [] 0 setdash gsave 1 setlinecap M 0 0 V stroke grestore} def
/Dia {stroke [] 0 setdash 2 copy vpt add M
  hpt neg vpt neg V hpt vpt neg V
  hpt vpt V hpt neg vpt V closepath stroke
  Pnt} def
/Pls {stroke [] 0 setdash vpt sub M 0 vpt2 V
  currentpoint stroke M
  hpt neg vpt neg R hpt2 0 V stroke
 } def
/Box {stroke [] 0 setdash 2 copy exch hpt sub exch vpt add M
  0 vpt2 neg V hpt2 0 V 0 vpt2 V
  hpt2 neg 0 V closepath stroke
  Pnt} def
/Crs {stroke [] 0 setdash exch hpt sub exch vpt add M
  hpt2 vpt2 neg V currentpoint stroke M
  hpt2 neg 0 R hpt2 vpt2 V stroke} def
/TriU {stroke [] 0 setdash 2 copy vpt 1.12 mul add M
  hpt neg vpt -1.62 mul V
  hpt 2 mul 0 V
  hpt neg vpt 1.62 mul V closepath stroke
  Pnt} def
/Star {2 copy Pls Crs} def
/BoxF {stroke [] 0 setdash exch hpt sub exch vpt add M
  0 vpt2 neg V hpt2 0 V 0 vpt2 V
  hpt2 neg 0 V closepath fill} def
/TriUF {stroke [] 0 setdash vpt 1.12 mul add M
  hpt neg vpt -1.62 mul V
  hpt 2 mul 0 V
  hpt neg vpt 1.62 mul V closepath fill} def
/TriD {stroke [] 0 setdash 2 copy vpt 1.12 mul sub M
  hpt neg vpt 1.62 mul V
  hpt 2 mul 0 V
  hpt neg vpt -1.62 mul V closepath stroke
  Pnt} def
/TriDF {stroke [] 0 setdash vpt 1.12 mul sub M
  hpt neg vpt 1.62 mul V
  hpt 2 mul 0 V
  hpt neg vpt -1.62 mul V closepath fill} def
/DiaF {stroke [] 0 setdash vpt add M
  hpt neg vpt neg V hpt vpt neg V
  hpt vpt V hpt neg vpt V closepath fill} def
/Pent {stroke [] 0 setdash 2 copy gsave
  translate 0 hpt M 4 {72 rotate 0 hpt L} repeat
  closepath stroke grestore Pnt} def
/PentF {stroke [] 0 setdash gsave
  translate 0 hpt M 4 {72 rotate 0 hpt L} repeat
  closepath fill grestore} def
/Circle {stroke [] 0 setdash 2 copy
  hpt 0 360 arc stroke Pnt} def
/CircleF {stroke [] 0 setdash hpt 0 360 arc fill} def
/C0 {BL [] 0 setdash 2 copy moveto vpt 90 450 arc} bind def
/C1 {BL [] 0 setdash 2 copy moveto
	2 copy vpt 0 90 arc closepath fill
	vpt 0 360 arc closepath} bind def
/C2 {BL [] 0 setdash 2 copy moveto
	2 copy vpt 90 180 arc closepath fill
	vpt 0 360 arc closepath} bind def
/C3 {BL [] 0 setdash 2 copy moveto
	2 copy vpt 0 180 arc closepath fill
	vpt 0 360 arc closepath} bind def
/C4 {BL [] 0 setdash 2 copy moveto
	2 copy vpt 180 270 arc closepath fill
	vpt 0 360 arc closepath} bind def
/C5 {BL [] 0 setdash 2 copy moveto
	2 copy vpt 0 90 arc
	2 copy moveto
	2 copy vpt 180 270 arc closepath fill
	vpt 0 360 arc} bind def
/C6 {BL [] 0 setdash 2 copy moveto
	2 copy vpt 90 270 arc closepath fill
	vpt 0 360 arc closepath} bind def
/C7 {BL [] 0 setdash 2 copy moveto
	2 copy vpt 0 270 arc closepath fill
	vpt 0 360 arc closepath} bind def
/C8 {BL [] 0 setdash 2 copy moveto
	2 copy vpt 270 360 arc closepath fill
	vpt 0 360 arc closepath} bind def
/C9 {BL [] 0 setdash 2 copy moveto
	2 copy vpt 270 450 arc closepath fill
	vpt 0 360 arc closepath} bind def
/C10 {BL [] 0 setdash 2 copy 2 copy moveto vpt 270 360 arc closepath fill
	2 copy moveto
	2 copy vpt 90 180 arc closepath fill
	vpt 0 360 arc closepath} bind def
/C11 {BL [] 0 setdash 2 copy moveto
	2 copy vpt 0 180 arc closepath fill
	2 copy moveto
	2 copy vpt 270 360 arc closepath fill
	vpt 0 360 arc closepath} bind def
/C12 {BL [] 0 setdash 2 copy moveto
	2 copy vpt 180 360 arc closepath fill
	vpt 0 360 arc closepath} bind def
/C13 {BL [] 0 setdash 2 copy moveto
	2 copy vpt 0 90 arc closepath fill
	2 copy moveto
	2 copy vpt 180 360 arc closepath fill
	vpt 0 360 arc closepath} bind def
/C14 {BL [] 0 setdash 2 copy moveto
	2 copy vpt 90 360 arc closepath fill
	vpt 0 360 arc} bind def
/C15 {BL [] 0 setdash 2 copy vpt 0 360 arc closepath fill
	vpt 0 360 arc closepath} bind def
/Rec {newpath 4 2 roll moveto 1 index 0 rlineto 0 exch rlineto
	neg 0 rlineto closepath} bind def
/Square {dup Rec} bind def
/Bsquare {vpt sub exch vpt sub exch vpt2 Square} bind def
/S0 {BL [] 0 setdash 2 copy moveto 0 vpt rlineto BL Bsquare} bind def
/S1 {BL [] 0 setdash 2 copy vpt Square fill Bsquare} bind def
/S2 {BL [] 0 setdash 2 copy exch vpt sub exch vpt Square fill Bsquare} bind def
/S3 {BL [] 0 setdash 2 copy exch vpt sub exch vpt2 vpt Rec fill Bsquare} bind def
/S4 {BL [] 0 setdash 2 copy exch vpt sub exch vpt sub vpt Square fill Bsquare} bind def
/S5 {BL [] 0 setdash 2 copy 2 copy vpt Square fill
	exch vpt sub exch vpt sub vpt Square fill Bsquare} bind def
/S6 {BL [] 0 setdash 2 copy exch vpt sub exch vpt sub vpt vpt2 Rec fill Bsquare} bind def
/S7 {BL [] 0 setdash 2 copy exch vpt sub exch vpt sub vpt vpt2 Rec fill
	2 copy vpt Square fill Bsquare} bind def
/S8 {BL [] 0 setdash 2 copy vpt sub vpt Square fill Bsquare} bind def
/S9 {BL [] 0 setdash 2 copy vpt sub vpt vpt2 Rec fill Bsquare} bind def
/S10 {BL [] 0 setdash 2 copy vpt sub vpt Square fill 2 copy exch vpt sub exch vpt Square fill
	Bsquare} bind def
/S11 {BL [] 0 setdash 2 copy vpt sub vpt Square fill 2 copy exch vpt sub exch vpt2 vpt Rec fill
	Bsquare} bind def
/S12 {BL [] 0 setdash 2 copy exch vpt sub exch vpt sub vpt2 vpt Rec fill Bsquare} bind def
/S13 {BL [] 0 setdash 2 copy exch vpt sub exch vpt sub vpt2 vpt Rec fill
	2 copy vpt Square fill Bsquare} bind def
/S14 {BL [] 0 setdash 2 copy exch vpt sub exch vpt sub vpt2 vpt Rec fill
	2 copy exch vpt sub exch vpt Square fill Bsquare} bind def
/S15 {BL [] 0 setdash 2 copy Bsquare fill Bsquare} bind def
/D0 {gsave translate 45 rotate 0 0 S0 stroke grestore} bind def
/D1 {gsave translate 45 rotate 0 0 S1 stroke grestore} bind def
/D2 {gsave translate 45 rotate 0 0 S2 stroke grestore} bind def
/D3 {gsave translate 45 rotate 0 0 S3 stroke grestore} bind def
/D4 {gsave translate 45 rotate 0 0 S4 stroke grestore} bind def
/D5 {gsave translate 45 rotate 0 0 S5 stroke grestore} bind def
/D6 {gsave translate 45 rotate 0 0 S6 stroke grestore} bind def
/D7 {gsave translate 45 rotate 0 0 S7 stroke grestore} bind def
/D8 {gsave translate 45 rotate 0 0 S8 stroke grestore} bind def
/D9 {gsave translate 45 rotate 0 0 S9 stroke grestore} bind def
/D10 {gsave translate 45 rotate 0 0 S10 stroke grestore} bind def
/D11 {gsave translate 45 rotate 0 0 S11 stroke grestore} bind def
/D12 {gsave translate 45 rotate 0 0 S12 stroke grestore} bind def
/D13 {gsave translate 45 rotate 0 0 S13 stroke grestore} bind def
/D14 {gsave translate 45 rotate 0 0 S14 stroke grestore} bind def
/D15 {gsave translate 45 rotate 0 0 S15 stroke grestore} bind def
/DiaE {stroke [] 0 setdash vpt add M
  hpt neg vpt neg V hpt vpt neg V
  hpt vpt V hpt neg vpt V closepath stroke} def
/BoxE {stroke [] 0 setdash exch hpt sub exch vpt add M
  0 vpt2 neg V hpt2 0 V 0 vpt2 V
  hpt2 neg 0 V closepath stroke} def
/TriUE {stroke [] 0 setdash vpt 1.12 mul add M
  hpt neg vpt -1.62 mul V
  hpt 2 mul 0 V
  hpt neg vpt 1.62 mul V closepath stroke} def
/TriDE {stroke [] 0 setdash vpt 1.12 mul sub M
  hpt neg vpt 1.62 mul V
  hpt 2 mul 0 V
  hpt neg vpt -1.62 mul V closepath stroke} def
/PentE {stroke [] 0 setdash gsave
  translate 0 hpt M 4 {72 rotate 0 hpt L} repeat
  closepath stroke grestore} def
/CircE {stroke [] 0 setdash 
  hpt 0 360 arc stroke} def
/Opaque {gsave closepath 1 setgray fill grestore 0 setgray closepath} def
/DiaW {stroke [] 0 setdash vpt add M
  hpt neg vpt neg V hpt vpt neg V
  hpt vpt V hpt neg vpt V Opaque stroke} def
/BoxW {stroke [] 0 setdash exch hpt sub exch vpt add M
  0 vpt2 neg V hpt2 0 V 0 vpt2 V
  hpt2 neg 0 V Opaque stroke} def
/TriUW {stroke [] 0 setdash vpt 1.12 mul add M
  hpt neg vpt -1.62 mul V
  hpt 2 mul 0 V
  hpt neg vpt 1.62 mul V Opaque stroke} def
/TriDW {stroke [] 0 setdash vpt 1.12 mul sub M
  hpt neg vpt 1.62 mul V
  hpt 2 mul 0 V
  hpt neg vpt -1.62 mul V Opaque stroke} def
/PentW {stroke [] 0 setdash gsave
  translate 0 hpt M 4 {72 rotate 0 hpt L} repeat
  Opaque stroke grestore} def
/CircW {stroke [] 0 setdash 
  hpt 0 360 arc Opaque stroke} def
/BoxFill {gsave Rec 1 setgray fill grestore} def
/Density {
  /Fillden exch def
  currentrgbcolor
  /ColB exch def /ColG exch def /ColR exch def
  /ColR ColR Fillden mul Fillden sub 1 add def
  /ColG ColG Fillden mul Fillden sub 1 add def
  /ColB ColB Fillden mul Fillden sub 1 add def
  ColR ColG ColB setrgbcolor} def
/BoxColFill {gsave Rec PolyFill} def
/PolyFill {gsave Density fill grestore grestore} def
/h {rlineto rlineto rlineto gsave closepath fill grestore} bind def
%
% PostScript Level 1 Pattern Fill routine for rectangles
% Usage: x y w h s a XX PatternFill
%	x,y = lower left corner of box to be filled
%	w,h = width and height of box
%	  a = angle in degrees between lines and x-axis
%	 XX = 0/1 for no/yes cross-hatch
%
/PatternFill {gsave /PFa [ 9 2 roll ] def
  PFa 0 get PFa 2 get 2 div add PFa 1 get PFa 3 get 2 div add translate
  PFa 2 get -2 div PFa 3 get -2 div PFa 2 get PFa 3 get Rec
  TransparentPatterns {} {gsave 1 setgray fill grestore} ifelse
  clip
  currentlinewidth 0.5 mul setlinewidth
  /PFs PFa 2 get dup mul PFa 3 get dup mul add sqrt def
  0 0 M PFa 5 get rotate PFs -2 div dup translate
  0 1 PFs PFa 4 get div 1 add floor cvi
	{PFa 4 get mul 0 M 0 PFs V} for
  0 PFa 6 get ne {
	0 1 PFs PFa 4 get div 1 add floor cvi
	{PFa 4 get mul 0 2 1 roll M PFs 0 V} for
 } if
  stroke grestore} def
%
/languagelevel where
 {pop languagelevel} {1} ifelse
 2 lt
	{/InterpretLevel1 true def}
	{/InterpretLevel1 Level1 def}
 ifelse
%
% PostScript level 2 pattern fill definitions
%
/Level2PatternFill {
/Tile8x8 {/PaintType 2 /PatternType 1 /TilingType 1 /BBox [0 0 8 8] /XStep 8 /YStep 8}
	bind def
/KeepColor {currentrgbcolor [/Pattern /DeviceRGB] setcolorspace} bind def
<< Tile8x8
 /PaintProc {0.5 setlinewidth pop 0 0 M 8 8 L 0 8 M 8 0 L stroke} 
>> matrix makepattern
/Pat1 exch def
<< Tile8x8
 /PaintProc {0.5 setlinewidth pop 0 0 M 8 8 L 0 8 M 8 0 L stroke
	0 4 M 4 8 L 8 4 L 4 0 L 0 4 L stroke}
>> matrix makepattern
/Pat2 exch def
<< Tile8x8
 /PaintProc {0.5 setlinewidth pop 0 0 M 0 8 L
	8 8 L 8 0 L 0 0 L fill}
>> matrix makepattern
/Pat3 exch def
<< Tile8x8
 /PaintProc {0.5 setlinewidth pop -4 8 M 8 -4 L
	0 12 M 12 0 L stroke}
>> matrix makepattern
/Pat4 exch def
<< Tile8x8
 /PaintProc {0.5 setlinewidth pop -4 0 M 8 12 L
	0 -4 M 12 8 L stroke}
>> matrix makepattern
/Pat5 exch def
<< Tile8x8
 /PaintProc {0.5 setlinewidth pop -2 8 M 4 -4 L
	0 12 M 8 -4 L 4 12 M 10 0 L stroke}
>> matrix makepattern
/Pat6 exch def
<< Tile8x8
 /PaintProc {0.5 setlinewidth pop -2 0 M 4 12 L
	0 -4 M 8 12 L 4 -4 M 10 8 L stroke}
>> matrix makepattern
/Pat7 exch def
<< Tile8x8
 /PaintProc {0.5 setlinewidth pop 8 -2 M -4 4 L
	12 0 M -4 8 L 12 4 M 0 10 L stroke}
>> matrix makepattern
/Pat8 exch def
<< Tile8x8
 /PaintProc {0.5 setlinewidth pop 0 -2 M 12 4 L
	-4 0 M 12 8 L -4 4 M 8 10 L stroke}
>> matrix makepattern
/Pat9 exch def
/Pattern1 {PatternBgnd KeepColor Pat1 setpattern} bind def
/Pattern2 {PatternBgnd KeepColor Pat2 setpattern} bind def
/Pattern3 {PatternBgnd KeepColor Pat3 setpattern} bind def
/Pattern4 {PatternBgnd KeepColor Landscape {Pat5} {Pat4} ifelse setpattern} bind def
/Pattern5 {PatternBgnd KeepColor Landscape {Pat4} {Pat5} ifelse setpattern} bind def
/Pattern6 {PatternBgnd KeepColor Landscape {Pat9} {Pat6} ifelse setpattern} bind def
/Pattern7 {PatternBgnd KeepColor Landscape {Pat8} {Pat7} ifelse setpattern} bind def
} def
%
%
%End of PostScript Level 2 code
%
/PatternBgnd {
  TransparentPatterns {} {gsave 1 setgray fill grestore} ifelse
} def
%
% Substitute for Level 2 pattern fill codes with
% grayscale if Level 2 support is not selected.
%
/Level1PatternFill {
/Pattern1 {0.250 Density} bind def
/Pattern2 {0.500 Density} bind def
/Pattern3 {0.750 Density} bind def
/Pattern4 {0.125 Density} bind def
/Pattern5 {0.375 Density} bind def
/Pattern6 {0.625 Density} bind def
/Pattern7 {0.875 Density} bind def
} def
%
% Now test for support of Level 2 code
%
Level1 {Level1PatternFill} {Level2PatternFill} ifelse
%
/Symbol-Oblique /Symbol findfont [1 0 .167 1 0 0] makefont
dup length dict begin {1 index /FID eq {pop pop} {def} ifelse} forall
currentdict end definefont pop
/MFshow {
   { dup 5 get 3 ge
     { 5 get 3 eq {gsave} {grestore} ifelse }
     {dup dup 0 get findfont exch 1 get scalefont setfont
     [ currentpoint ] exch dup 2 get 0 exch R dup 5 get 2 ne {dup dup 6
     get exch 4 get {Gshow} {stringwidth pop 0 R} ifelse }if dup 5 get 0 eq
     {dup 3 get {2 get neg 0 exch R pop} {pop aload pop M} ifelse} {dup 5
     get 1 eq {dup 2 get exch dup 3 get exch 6 get stringwidth pop -2 div
     dup 0 R} {dup 6 get stringwidth pop -2 div 0 R 6 get
     show 2 index {aload pop M neg 3 -1 roll neg R pop pop} {pop pop pop
     pop aload pop M} ifelse }ifelse }ifelse }
     ifelse }
   forall} def
/Gswidth {dup type /stringtype eq {stringwidth} {pop (n) stringwidth} ifelse} def
/MFwidth {0 exch { dup 5 get 3 ge { 5 get 3 eq { 0 } { pop } ifelse }
 {dup 3 get{dup dup 0 get findfont exch 1 get scalefont setfont
     6 get Gswidth pop add} {pop} ifelse} ifelse} forall} def
/MLshow { currentpoint stroke M
  0 exch R
  Blacktext {gsave 0 setgray MFshow grestore} {MFshow} ifelse } bind def
/MRshow { currentpoint stroke M
  exch dup MFwidth neg 3 -1 roll R
  Blacktext {gsave 0 setgray MFshow grestore} {MFshow} ifelse } bind def
/MCshow { currentpoint stroke M
  exch dup MFwidth -2 div 3 -1 roll R
  Blacktext {gsave 0 setgray MFshow grestore} {MFshow} ifelse } bind def
/XYsave    { [( ) 1 2 true false 3 ()] } bind def
/XYrestore { [( ) 1 2 true false 4 ()] } bind def
Level1 SuppressPDFMark or 
{} {
/SDict 10 dict def
systemdict /pdfmark known not {
  userdict /pdfmark systemdict /cleartomark get put
} if
SDict begin [
  /Title (nbrDist.eps)
  /Subject (gnuplot plot)
  /Creator (gnuplot 4.6 patchlevel 2)
  /Author (anju)
%  /Producer (gnuplot)
%  /Keywords ()
  /CreationDate (Thu Sep 19 11:38:38 2019)
  /DOCINFO pdfmark
end
} ifelse
end
%%EndProlog
%%Page: 1 1
gnudict begin
gsave
doclip
50 50 translate
0.050 0.050 scale
0 setgray
newpath
(Helvetica) findfont 160 scalefont setfont
BackgroundColor 0 lt 3 1 roll 0 lt exch 0 lt or or not {BackgroundColor C 1.000 0 0 7200.00 5040.00 BoxColFill} if
1.000 UL
LTb
LCb setrgbcolor
1072 512 M
63 0 V
5776 0 R
-63 0 V
stroke
976 512 M
[ [(Helvetica) 160.0 0.0 true true 0 ( 1)]
] -53.3 MRshow
1.000 UL
LTb
LCb setrgbcolor
1072 698 M
31 0 V
5808 0 R
-31 0 V
1072 945 M
31 0 V
5808 0 R
-31 0 V
1072 1071 M
31 0 V
5808 0 R
-31 0 V
-5808 60 R
63 0 V
5776 0 R
-63 0 V
stroke
976 1131 M
[ [(Helvetica) 160.0 0.0 true true 0 ( 10)]
] -53.3 MRshow
1.000 UL
LTb
LCb setrgbcolor
1072 1318 M
31 0 V
5808 0 R
-31 0 V
1072 1564 M
31 0 V
5808 0 R
-31 0 V
1072 1691 M
31 0 V
5808 0 R
-31 0 V
-5808 60 R
63 0 V
5776 0 R
-63 0 V
stroke
976 1751 M
[ [(Helvetica) 160.0 0.0 true true 0 ( 100)]
] -53.3 MRshow
1.000 UL
LTb
LCb setrgbcolor
1072 1937 M
31 0 V
5808 0 R
-31 0 V
1072 2183 M
31 0 V
5808 0 R
-31 0 V
1072 2310 M
31 0 V
5808 0 R
-31 0 V
-5808 60 R
63 0 V
5776 0 R
-63 0 V
stroke
976 2370 M
[ [(Helvetica) 160.0 0.0 true true 0 ( 1000)]
] -53.3 MRshow
1.000 UL
LTb
LCb setrgbcolor
1072 2556 M
31 0 V
5808 0 R
-31 0 V
1072 2803 M
31 0 V
5808 0 R
-31 0 V
1072 2929 M
31 0 V
5808 0 R
-31 0 V
-5808 60 R
63 0 V
5776 0 R
-63 0 V
stroke
976 2989 M
[ [(Helvetica) 160.0 0.0 true true 0 ( 10000)]
] -53.3 MRshow
1.000 UL
LTb
LCb setrgbcolor
1072 3176 M
31 0 V
5808 0 R
-31 0 V
1072 3422 M
31 0 V
5808 0 R
-31 0 V
1072 3548 M
31 0 V
5808 0 R
-31 0 V
-5808 60 R
63 0 V
5776 0 R
-63 0 V
stroke
976 3608 M
[ [(Helvetica) 160.0 0.0 true true 0 ( 100000)]
] -53.3 MRshow
1.000 UL
LTb
LCb setrgbcolor
1072 3795 M
31 0 V
5808 0 R
-31 0 V
1072 4041 M
31 0 V
5808 0 R
-31 0 V
1072 4168 M
31 0 V
5808 0 R
-31 0 V
-5808 60 R
63 0 V
5776 0 R
-63 0 V
stroke
976 4228 M
[ [(Helvetica) 160.0 0.0 true true 0 ( 1e+06)]
] -53.3 MRshow
1.000 UL
LTb
LCb setrgbcolor
1072 4414 M
31 0 V
5808 0 R
-31 0 V
1072 4661 M
31 0 V
5808 0 R
-31 0 V
1072 4787 M
31 0 V
5808 0 R
-31 0 V
-5808 60 R
63 0 V
5776 0 R
-63 0 V
stroke
976 4847 M
[ [(Helvetica) 160.0 0.0 true true 0 ( 1e+07)]
] -53.3 MRshow
1.000 UL
LTb
LCb setrgbcolor
1072 512 M
0 63 V
0 4272 R
0 -63 V
stroke
1072 352 M
[ [(Helvetica) 160.0 0.0 true true 0 ( 0)]
] -53.3 MCshow
1.000 UL
LTb
LCb setrgbcolor
1721 512 M
0 63 V
0 4272 R
0 -63 V
stroke
1721 352 M
[ [(Helvetica) 160.0 0.0 true true 0 ( 200)]
] -53.3 MCshow
1.000 UL
LTb
LCb setrgbcolor
2370 512 M
0 63 V
0 4272 R
0 -63 V
stroke
2370 352 M
[ [(Helvetica) 160.0 0.0 true true 0 ( 400)]
] -53.3 MCshow
1.000 UL
LTb
LCb setrgbcolor
3018 512 M
0 63 V
0 4272 R
0 -63 V
stroke
3018 352 M
[ [(Helvetica) 160.0 0.0 true true 0 ( 600)]
] -53.3 MCshow
1.000 UL
LTb
LCb setrgbcolor
3667 512 M
0 63 V
0 4272 R
0 -63 V
stroke
3667 352 M
[ [(Helvetica) 160.0 0.0 true true 0 ( 800)]
] -53.3 MCshow
1.000 UL
LTb
LCb setrgbcolor
4316 512 M
0 63 V
0 4272 R
0 -63 V
stroke
4316 352 M
[ [(Helvetica) 160.0 0.0 true true 0 ( 1000)]
] -53.3 MCshow
1.000 UL
LTb
LCb setrgbcolor
4965 512 M
0 63 V
0 4272 R
0 -63 V
stroke
4965 352 M
[ [(Helvetica) 160.0 0.0 true true 0 ( 1200)]
] -53.3 MCshow
1.000 UL
LTb
LCb setrgbcolor
5613 512 M
0 63 V
0 4272 R
0 -63 V
stroke
5613 352 M
[ [(Helvetica) 160.0 0.0 true true 0 ( 1400)]
] -53.3 MCshow
1.000 UL
LTb
LCb setrgbcolor
6262 512 M
0 63 V
0 4272 R
0 -63 V
stroke
6262 352 M
[ [(Helvetica) 160.0 0.0 true true 0 ( 1600)]
] -53.3 MCshow
1.000 UL
LTb
LCb setrgbcolor
6911 512 M
0 63 V
0 4272 R
0 -63 V
stroke
6911 352 M
[ [(Helvetica) 160.0 0.0 true true 0 ( 1800)]
] -53.3 MCshow
1.000 UL
LTb
LCb setrgbcolor
1.000 UL
LTb
LCb setrgbcolor
1072 4847 N
0 -4335 V
5839 0 V
0 4335 V
-5839 0 V
Z stroke
LCb setrgbcolor
128 2679 M
currentpoint gsave translate -270 rotate 0 0 moveto
[ [(Helvetica) 160.0 0.0 true true 0 (Number of points with each degree)]
] -53.3 MCshow
grestore
LTb
LCb setrgbcolor
3991 112 M
[ [(Helvetica) 160.0 0.0 true true 0 (Degree)]
] -53.3 MCshow
LTb
1.000 UP
1.000 UL
LTb
LCb setrgbcolor
% Begin plot #1
0.200 UP
2.000 UL
LT0
0.00 0.38 0.68 C 1072 4584 M
3 -19 V
3 -41 V
4 -48 V
3 -51 V
3 -56 V
3 -58 V
4 -60 V
3 -60 V
3 -61 V
3 -57 V
4 -56 V
3 -56 V
3 -51 V
3 -48 V
4 -45 V
3 -42 V
3 -43 V
3 -32 V
4 -35 V
3 -33 V
3 -28 V
3 -29 V
4 -24 V
3 -24 V
3 -20 V
3 -19 V
4 -20 V
3 -17 V
3 -19 V
3 -15 V
4 -14 V
3 -13 V
3 -16 V
3 -7 V
4 -11 V
3 -14 V
3 -12 V
3 -10 V
4 -11 V
3 -11 V
3 -4 V
3 -16 V
3 -11 V
4 -1 V
3 -14 V
3 -4 V
3 -13 V
4 -7 V
3 -1 V
3 -8 V
3 -6 V
4 1 V
3 -8 V
3 -9 V
3 -4 V
4 -6 V
3 -6 V
3 -9 V
3 3 V
4 -3 V
3 -8 V
3 -9 V
3 0 V
4 -3 V
3 -3 V
3 -2 V
3 -3 V
4 2 V
3 -9 V
3 -5 V
3 -5 V
4 4 V
3 -6 V
3 0 V
3 1 V
4 -7 V
3 4 V
3 0 V
3 -3 V
4 6 V
3 -7 V
3 -1 V
3 5 V
3 4 V
4 -8 V
3 4 V
3 4 V
3 -9 V
4 4 V
3 5 V
3 -8 V
3 -2 V
4 1 V
3 5 V
3 -4 V
3 4 V
4 1 V
3 -5 V
3 -1 V
3 -1 V
4 2 V
3 3 V
3 5 V
3 -8 V
stroke 1409 3119 M
4 6 V
3 -2 V
3 3 V
3 1 V
4 0 V
3 -3 V
3 0 V
3 4 V
4 6 V
3 -6 V
3 9 V
3 -8 V
4 4 V
3 -2 V
3 -1 V
3 1 V
4 2 V
3 1 V
3 -8 V
3 -2 V
3 7 V
4 -6 V
3 4 V
3 0 V
3 -4 V
4 3 V
3 2 V
3 -2 V
3 -6 V
4 3 V
3 -6 V
3 4 V
3 -1 V
4 -2 V
3 0 V
3 -6 V
3 -1 V
4 -3 V
3 5 V
3 0 V
3 0 V
4 -4 V
3 -1 V
3 -2 V
3 -4 V
4 -8 V
3 5 V
3 3 V
3 -13 V
4 2 V
3 -4 V
3 -10 V
3 -1 V
4 -1 V
3 -7 V
3 -7 V
3 -2 V
4 -4 V
3 0 V
3 1 V
3 -8 V
3 0 V
4 0 V
3 -7 V
3 -9 V
3 -4 V
4 0 V
3 -2 V
3 -4 V
3 -2 V
4 -3 V
3 -4 V
3 -3 V
3 -8 V
4 -5 V
3 -8 V
3 -5 V
3 -9 V
4 -3 V
3 -7 V
3 -3 V
3 -10 V
4 -1 V
3 -4 V
3 -5 V
3 -3 V
4 -1 V
3 -13 V
3 -11 V
3 -6 V
4 1 V
3 -4 V
3 0 V
3 -5 V
4 -6 V
3 -15 V
3 -3 V
3 -8 V
4 1 V
3 -6 V
3 -9 V
3 12 V
3 -19 V
4 -12 V
stroke 1747 2837 M
3 -11 V
3 6 V
3 -10 V
4 -11 V
3 -7 V
3 6 V
3 -13 V
4 -6 V
3 7 V
3 -10 V
3 0 V
4 -7 V
3 8 V
3 -19 V
3 -2 V
4 -14 V
3 -2 V
3 -7 V
3 -8 V
4 -4 V
3 6 V
3 -13 V
3 1 V
4 -12 V
3 -5 V
3 6 V
3 -6 V
4 -14 V
3 -2 V
3 3 V
3 -9 V
4 1 V
3 -8 V
3 -14 V
3 -2 V
4 -9 V
3 -17 V
3 3 V
3 -3 V
3 -3 V
4 -11 V
3 7 V
3 -7 V
3 2 V
4 -14 V
3 21 V
3 -19 V
3 -4 V
4 -6 V
3 5 V
3 -1 V
3 -3 V
4 -18 V
3 -10 V
3 -5 V
3 0 V
4 11 V
3 -15 V
3 -3 V
3 -14 V
4 9 V
3 -11 V
3 3 V
3 0 V
4 -7 V
3 -18 V
3 6 V
3 -7 V
4 -3 V
3 21 V
3 -11 V
3 1 V
4 -16 V
3 -6 V
3 7 V
3 -16 V
4 2 V
3 1 V
3 -5 V
3 -10 V
3 -15 V
4 9 V
3 -11 V
3 5 V
3 -20 V
4 2 V
3 -4 V
3 -1 V
3 8 V
4 -4 V
3 -7 V
3 4 V
3 -5 V
4 -10 V
3 -5 V
3 12 V
3 -23 V
4 0 V
3 -3 V
3 -9 V
3 20 V
4 -2 V
3 -14 V
3 -1 V
stroke 2084 2418 M
3 -1 V
4 3 V
3 -20 V
3 -9 V
3 0 V
4 10 V
3 5 V
3 8 V
3 12 V
4 -30 V
3 26 V
3 -10 V
3 8 V
4 -25 V
3 12 V
3 -15 V
3 -4 V
3 13 V
4 2 V
3 -6 V
3 15 V
3 -21 V
4 -5 V
3 0 V
3 -2 V
3 -14 V
4 30 V
3 -5 V
3 -12 V
3 0 V
4 -16 V
3 -47 V
3 38 V
3 -14 V
4 7 V
3 -1 V
3 24 V
3 -10 V
4 0 V
3 -12 V
3 -14 V
3 32 V
4 -30 V
3 4 V
3 5 V
3 -1 V
4 14 V
3 -7 V
3 -4 V
3 -18 V
4 8 V
3 -16 V
3 1 V
3 18 V
4 -1 V
3 -8 V
3 -13 V
3 23 V
3 -19 V
4 1 V
3 -41 V
3 34 V
3 -17 V
4 -8 V
3 -20 V
3 12 V
3 -17 V
4 31 V
3 -24 V
3 7 V
3 7 V
4 -27 V
3 15 V
3 -12 V
3 -18 V
4 4 V
3 19 V
3 0 V
3 27 V
4 4 V
3 -54 V
3 13 V
3 -6 V
4 1 V
3 7 V
3 1 V
3 -5 V
4 3 V
3 -17 V
3 -10 V
3 -2 V
4 14 V
3 -9 V
3 7 V
3 -37 V
4 27 V
3 -29 V
3 16 V
3 8 V
3 -22 V
4 -1 V
3 -16 V
3 20 V
3 6 V
stroke 2421 2218 M
4 28 V
3 -31 V
3 16 V
3 -21 V
4 -2 V
3 4 V
3 -35 V
3 16 V
4 -28 V
3 30 V
3 15 V
3 20 V
4 -19 V
3 37 V
3 -24 V
3 -26 V
4 19 V
3 -14 V
3 2 V
3 5 V
4 10 V
3 1 V
3 -17 V
3 -4 V
4 -15 V
3 18 V
3 -11 V
3 4 V
4 -26 V
3 46 V
3 -38 V
3 -31 V
4 22 V
3 105 V
3 -56 V
3 -93 V
3 -13 V
4 16 V
3 13 V
3 -39 V
3 -30 V
4 44 V
3 8 V
3 -3 V
3 -30 V
4 14 V
3 18 V
3 -27 V
3 8 V
4 -29 V
3 10 V
3 22 V
3 -24 V
4 9 V
3 -22 V
3 27 V
3 -20 V
4 -9 V
3 -23 V
3 31 V
3 -12 V
4 11 V
3 1 V
3 -31 V
3 -6 V
4 -1 V
3 13 V
3 2 V
3 10 V
4 -51 V
3 8 V
3 24 V
3 11 V
4 -29 V
3 8 V
3 22 V
3 -32 V
3 20 V
4 -43 V
3 7 V
3 27 V
3 -23 V
4 50 V
3 -45 V
3 49 V
3 -74 V
4 -3 V
3 22 V
3 16 V
3 4 V
4 -42 V
3 -30 V
3 34 V
3 -27 V
4 36 V
3 -30 V
3 -31 V
3 -19 V
4 4 V
3 32 V
3 -14 V
3 12 V
4 -7 V
3 37 V
stroke 2759 1986 M
3 -25 V
3 9 V
4 2 V
3 6 V
3 -1 V
3 0 V
4 -39 V
3 6 V
3 1 V
3 70 V
4 -33 V
3 -10 V
3 -12 V
3 17 V
3 -1 V
4 -44 V
3 17 V
3 -13 V
3 6 V
4 -25 V
3 15 V
3 23 V
3 -18 V
4 -50 V
3 85 V
3 -26 V
3 0 V
4 -30 V
3 -16 V
3 -26 V
3 70 V
4 7 V
3 -32 V
3 26 V
3 -5 V
4 48 V
3 13 V
3 -50 V
3 -44 V
4 38 V
3 -15 V
3 -20 V
3 -69 V
4 79 V
3 9 V
3 30 V
3 -18 V
4 -81 V
3 67 V
3 -26 V
3 66 V
4 8 V
3 -38 V
3 -10 V
3 -2 V
3 -13 V
4 -2 V
3 17 V
3 33 V
3 -41 V
4 -13 V
3 -3 V
3 -36 V
3 23 V
4 -25 V
3 0 V
3 47 V
3 -30 V
4 38 V
3 -43 V
3 49 V
3 -61 V
4 38 V
3 -70 V
3 44 V
3 -3 V
4 -35 V
3 21 V
3 5 V
3 -4 V
4 85 V
3 -88 V
3 -19 V
3 12 V
4 -14 V
3 -18 V
3 56 V
3 -17 V
4 49 V
3 -46 V
3 29 V
3 -25 V
4 23 V
3 -9 V
3 -14 V
3 -52 V
3 54 V
4 -101 V
3 22 V
3 37 V
3 -10 V
4 -84 V
3 25 V
3 37 V
stroke 3096 1793 M
3 28 V
4 -47 V
3 5 V
3 0 V
3 2 V
4 -22 V
3 15 V
3 21 V
3 18 V
4 -23 V
3 27 V
3 -72 V
3 55 V
4 -41 V
3 31 V
3 -74 V
3 63 V
4 18 V
3 -7 V
3 53 V
3 -87 V
4 -59 V
3 -27 V
3 67 V
3 -24 V
4 3 V
3 48 V
3 -80 V
3 26 V
4 -84 V
3 44 V
3 99 V
3 64 V
3 -139 V
4 77 V
3 -64 V
3 0 V
3 -49 V
4 15 V
3 80 V
3 16 V
3 33 V
4 -74 V
3 -31 V
3 -24 V
3 52 V
4 -18 V
3 -45 V
3 22 V
3 10 V
4 -7 V
3 61 V
3 -48 V
3 28 V
4 43 V
3 8 V
3 -140 V
3 161 V
4 -84 V
3 -29 V
3 -32 V
3 45 V
4 -49 V
3 7 V
3 167 V
3 -64 V
4 -64 V
3 22 V
3 -12 V
3 35 V
4 -95 V
3 47 V
3 -21 V
3 -47 V
3 36 V
4 -11 V
3 49 V
3 0 V
3 28 V
4 -3 V
3 -28 V
3 -58 V
3 -8 V
4 0 V
3 24 V
3 15 V
3 -23 V
4 47 V
3 6 V
3 37 V
3 -64 V
4 24 V
3 7 V
3 -61 V
3 57 V
4 -16 V
3 56 V
3 -30 V
3 -79 V
4 27 V
3 -36 V
3 29 V
3 19 V
4 61 V
stroke 3434 1731 M
3 -141 V
3 80 V
3 -153 V
4 87 V
3 93 V
3 79 V
3 -48 V
4 -55 V
3 58 V
3 35 V
3 -15 V
3 -20 V
4 -76 V
3 -51 V
3 14 V
3 -82 V
4 77 V
3 -77 V
3 -32 V
3 143 V
4 -111 V
3 95 V
3 -36 V
3 -5 V
4 23 V
3 49 V
3 -82 V
3 33 V
4 -71 V
3 71 V
3 13 V
3 -78 V
4 16 V
3 40 V
3 -9 V
3 -71 V
4 56 V
3 33 V
3 -137 V
3 41 V
4 68 V
3 -16 V
3 -5 V
3 58 V
4 -42 V
3 33 V
3 -44 V
3 16 V
4 -55 V
3 34 V
3 21 V
3 -16 V
3 -10 V
4 -76 V
3 97 V
3 -69 V
3 84 V
4 52 V
3 0 V
3 -78 V
3 -52 V
4 -34 V
3 -39 V
3 60 V
3 -52 V
4 117 V
3 -58 V
3 -28 V
3 7 V
4 34 V
3 71 V
3 -47 V
3 -18 V
4 12 V
3 -59 V
3 7 V
3 14 V
4 -44 V
3 -16 V
3 32 V
3 54 V
4 88 V
3 -23 V
3 -91 V
3 38 V
4 -31 V
3 -28 V
3 -7 V
3 -58 V
4 135 V
3 -23 V
3 -78 V
3 8 V
3 64 V
4 -88 V
3 68 V
3 32 V
3 -138 V
4 -80 V
3 49 V
3 -24 V
3 12 V
4 -153 V
3 186 V
stroke 3771 1388 M
3 39 V
3 -60 V
4 -93 V
3 15 V
3 -49 V
3 -169 V
4 32 V
3 77 V
3 -109 V
3 151 V
4 -42 V
3 0 V
3 0 V
3 -109 V
4 131 V
3 20 V
3 96 V
3 -29 V
4 29 V
3 100 V
3 18 V
3 -58 V
4 -74 V
3 51 V
3 53 V
3 -186 V
4 -20 V
3 -45 V
3 101 V
3 0 V
3 46 V
4 51 V
3 -81 V
3 69 V
3 -103 V
4 64 V
3 14 V
3 37 V
3 -97 V
4 -18 V
3 115 V
3 105 V
3 -202 V
4 -78 V
3 78 V
3 109 V
3 -93 V
4 15 V
3 -87 V
3 -167 V
3 -150 V
4 186 V
3 86 V
3 -459 V
3 187 V
4 186 V
3 -126 V
3 90 V
3 0 V
4 36 V
3 60 V
3 109 V
3 78 V
4 -116 V
3 -131 V
3 -126 V
3 126 V
4 -126 V
3 49 V
3 186 V
3 -109 V
3 109 V
4 -109 V
3 -77 V
3 -109 V
3 60 V
4 0 V
3 -247 V
3 296 V
3 41 V
4 -90 V
3 0 V
3 212 V
3 -212 V
4 49 V
3 77 V
3 109 V
3 0 V
4 -295 V
3 186 V
3 -77 V
3 0 V
4 -49 V
3 -60 V
3 -187 V
3 373 V
4 -77 V
3 -109 V
3 186 V
3 -36 V
4 -41 V
3 0 V
3 0 V
3 -187 V
stroke 4108 807 M
4 296 V
3 -68 V
3 -41 V
3 -49 V
3 -60 V
4 150 V
3 -337 V
3 109 V
3 264 V
4 -77 V
3 163 V
3 -122 V
3 36 V
4 109 V
3 -49 V
3 -60 V
3 -77 V
4 109 V
3 -158 V
3 386 V
3 -228 V
4 99 V
3 -99 V
3 99 V
3 141 V
4 -25 V
3 13 V
3 -42 V
3 155 V
4 -46 V
3 -31 V
3 -12 V
3 -133 V
4 133 V
3 23 V
3 -47 V
3 -42 V
4 78 V
3 -49 V
3 49 V
3 -236 V
4 0 V
3 -28 V
3 119 V
3 52 V
3 -143 V
4 26 V
3 -54 V
3 119 V
3 -20 V
4 -167 V
3 145 V
3 0 V
3 -109 V
4 -36 V
3 0 V
3 145 V
3 -186 V
4 41 V
3 96 V
3 -324 V
3 296 V
4 0 V
3 -158 V
3 90 V
3 -150 V
4 -187 V
3 -186 V
3 373 V
3 60 V
4 90 V
3 96 V
3 -60 V
3 86 V
4 -54 V
3 77 V
3 22 V
3 -99 V
4 54 V
3 45 V
3 -257 V
3 186 V
4 -433 V
3 405 V
3 -158 V
3 90 V
3 0 V
4 205 V
3 -60 V
3 -373 V
3 228 V
4 96 V
3 26 V
3 65 V
3 18 V
4 18 V
3 -155 V
3 137 V
3 -137 V
4 54 V
3 -212 V
3 -60 V
3 109 V
4 109 V
stroke 4446 1103 M
3 137 V
3 0 V
3 -205 V
4 96 V
3 -137 V
3 186 V
3 60 V
4 18 V
3 -36 V
3 -42 V
3 -77 V
4 54 V
3 -163 V
3 41 V
3 36 V
4 -373 V
3 296 V
3 -187 V
3 78 V
4 0 V
3 109 V
3 -482 V
3 295 V
3 228 V
4 -228 V
3 78 V
3 -187 V
3 187 V
4 -187 V
3 0 V
3 -186 V
3 186 V
4 -186 V
3 373 V
3 60 V
3 -247 V
4 109 V
3 138 V
3 -138 V
3 -295 V
4 523 V
3 -90 V
3 -138 V
3 -295 V
4 433 V
3 0 V
3 -138 V
3 -295 V
4 0 V
3 186 V
3 296 V
3 77 V
4 -186 V
3 60 V
3 126 V
3 -77 V
4 -49 V
3 -138 V
3 324 V
3 -186 V
4 126 V
3 60 V
3 -96 V
3 -228 V
3 -109 V
4 109 V
3 0 V
3 0 V
3 0 V
4 0 V
3 228 V
3 -90 V
3 126 V
4 -186 V
3 109 V
3 -109 V
3 -187 V
4 0 V
3 247 V
3 -433 V
3 482 V
4 163 V
3 -212 V
3 -138 V
3 138 V
4 126 V
3 -186 V
3 109 V
3 77 V
4 -126 V
3 -433 V
3 373 V
3 186 V
4 -36 V
3 -41 V
3 -109 V
3 150 V
4 -228 V
3 264 V
3 -77 V
3 41 V
4 -90 V
3 49 V
3 77 V
stroke 4783 1071 M
3 0 V
3 109 V
4 -49 V
3 91 V
3 -119 V
3 0 V
4 -32 V
3 109 V
3 0 V
3 -145 V
4 296 V
3 -446 V
3 218 V
3 186 V
4 -49 V
3 -137 V
3 28 V
3 109 V
4 -60 V
3 -77 V
3 99 V
3 38 V
4 -137 V
3 137 V
3 0 V
3 -83 V
4 23 V
3 60 V
3 -83 V
3 23 V
4 -77 V
3 0 V
3 54 V
3 -54 V
4 99 V
3 -71 V
3 71 V
3 56 V
4 -451 V
3 296 V
3 54 V
3 83 V
3 -246 V
4 208 V
3 -208 V
3 163 V
3 147 V
4 -102 V
3 -71 V
3 0 V
3 26 V
4 -122 V
3 68 V
3 -68 V
3 -90 V
4 90 V
3 68 V
3 -68 V
3 -337 V
4 373 V
3 0 V
3 32 V
3 -109 V
4 -187 V
3 264 V
3 -77 V
3 -109 V
4 0 V
3 295 V
3 0 V
3 -23 V
4 0 V
3 23 V
3 -77 V
3 99 V
4 20 V
3 -65 V
3 -86 V
3 169 V
4 -83 V
3 45 V
3 -71 V
3 200 V
3 47 V
4 -35 V
3 65 V
3 -104 V
3 0 V
4 0 V
3 -173 V
3 91 V
3 -228 V
4 0 V
3 0 V
3 41 V
3 145 V
4 -109 V
3 -126 V
3 -60 V
3 109 V
4 -109 V
3 60 V
3 -138 V
3 78 V
stroke 5120 885 M
4 186 V
3 0 V
3 -36 V
3 -523 V
4 591 V
3 -158 V
3 -60 V
3 -78 V
4 138 V
3 49 V
3 -109 V
3 60 V
4 -60 V
3 186 V
3 -186 V
3 0 V
4 60 V
3 -60 V
3 0 V
3 109 V
3 -49 V
4 158 V
3 -405 V
3 247 V
3 90 V
4 -150 V
3 246 V
3 -137 V
3 -296 V
4 109 V
3 -109 V
3 0 V
3 247 V
4 0 V
3 -138 V
3 138 V
7 -247 V
3 0 V
3 187 V
3 -78 V
4 -109 V
3 -186 V
3 373 V
3 -187 V
4 0 V
3 0 V
3 109 V
7 138 V
3 -138 V
3 138 V
3 0 V
4 -138 V
3 78 V
3 -187 V
3 0 V
4 -186 V
6 0 V
6 373 V
4 -373 V
3 0 V
3 186 V
3 -186 V
4 373 V
3 -373 V
3 0 V
3 373 V
4 -187 V
3 -186 V
3 186 V
3 -186 V
4 186 V
3 0 V
3 -186 V
3 186 V
4 0 V
13 0 V
6 109 V
7 -295 V
3 0 V
3 0 V
7 0 V
3 186 V
6 0 V
4 0 V
3 0 V
3 0 V
7 187 V
3 -78 V
3 -109 V
3 -186 V
3 0 V
4 295 V
6 138 V
3 -138 V
4 -295 V
3 295 V
3 0 V
7 -109 V
3 0 V
3 109 V
3 138 V
4 -138 V
3 -109 V
3 187 V
stroke 5503 885 M
3 -78 V
4 138 V
3 -247 V
3 187 V
3 109 V
4 -296 V
3 247 V
3 0 V
3 -247 V
4 109 V
3 -109 V
3 109 V
3 78 V
4 60 V
3 0 V
3 -247 V
3 109 V
4 187 V
3 -482 V
3 295 V
3 0 V
4 78 V
6 -187 V
3 -186 V
3 186 V
4 109 V
3 -295 V
3 295 V
10 0 V
3 -109 V
3 0 V
7 109 V
3 78 V
3 -187 V
4 187 V
3 -78 V
3 -109 V
3 187 V
4 -187 V
6 0 V
3 0 V
4 -186 V
3 0 V
13 0 V
6 295 V
4 -295 V
3 295 V
6 -295 V
4 186 V
3 -186 V
3 0 V
3 186 V
7 109 V
6 -109 V
3 -186 V
4 295 V
3 -295 V
3 0 V
3 482 V
4 -296 V
3 109 V
3 -109 V
3 -186 V
10 373 V
3 -187 V
4 0 V
3 109 V
3 0 V
7 -295 V
6 373 V
3 -187 V
4 -186 V
6 0 V
3 186 V
4 -186 V
3 186 V
3 109 V
7 -295 V
3 186 V
6 -186 V
7 186 V
3 0 V
3 109 V
4 -295 V
6 0 V
3 186 V
10 -186 V
3 186 V
13 -186 V
3 0 V
7 0 V
3 186 V
7 0 V
3 -186 V
3 186 V
7 -186 V
3 0 V
16 0 V
3 0 V
4 186 V
9 -186 V
4 0 V
13 0 V
3 0 V
stroke 5964 512 M
19 0 V
3 0 V
17 0 V
16 373 V
6 -373 V
17 186 V
6 0 V
7 0 V
6 -186 V
3 0 V
17 0 V
6 186 V
7 -186 V
3 0 V
16 0 V
3 0 V
3 0 V
4 186 V
6 -186 V
7 373 V
3 -373 V
6 0 V
10 186 V
3 0 V
17 -186 V
13 0 V
9 0 V
13 0 V
20 0 V
3 186 V
7 -186 V
9 0 V
3 0 V
7 0 V
3 0 V
3 0 V
33 186 V
3 -186 V
16 0 V
10 0 V
3 0 V
10 0 V
3 186 V
10 -186 V
3 186 V
4 109 V
6 -109 V
7 0 V
9 0 V
3 187 V
17 0 V
3 60 V
3 -433 V
3 0 V
4 186 V
3 109 V
10 0 V
3 -295 V
10 0 V
3 186 V
3 -186 V
7 0 V
3 0 V
3 186 V
3 0 V
4 0 V
3 0 V
3 -186 V
3 186 V
4 -186 V
6 0 V
3 295 V
4 -295 V
3 186 V
3 0 V
3 109 V
4 78 V
3 -78 V
6 0 V
3 0 V
4 -109 V
3 -186 V
3 0 V
3 0 V
4 0 V
3 0 V
3 0 V
10 0 V
1072 4584 CircleF
1075 4565 CircleF
1078 4524 CircleF
1082 4476 CircleF
1085 4425 CircleF
1088 4369 CircleF
1091 4311 CircleF
1095 4251 CircleF
1098 4191 CircleF
1101 4130 CircleF
1104 4073 CircleF
1108 4017 CircleF
1111 3961 CircleF
1114 3910 CircleF
1117 3862 CircleF
1121 3817 CircleF
1124 3775 CircleF
1127 3732 CircleF
1130 3700 CircleF
1134 3665 CircleF
1137 3632 CircleF
1140 3604 CircleF
1143 3575 CircleF
1147 3551 CircleF
1150 3527 CircleF
1153 3507 CircleF
1156 3488 CircleF
1160 3468 CircleF
1163 3451 CircleF
1166 3432 CircleF
1169 3417 CircleF
1173 3403 CircleF
1176 3390 CircleF
1179 3374 CircleF
1182 3367 CircleF
1186 3356 CircleF
1189 3342 CircleF
1192 3330 CircleF
1195 3320 CircleF
1199 3309 CircleF
1202 3298 CircleF
1205 3294 CircleF
1208 3278 CircleF
1211 3267 CircleF
1215 3266 CircleF
1218 3252 CircleF
1221 3248 CircleF
1224 3235 CircleF
1228 3228 CircleF
1231 3227 CircleF
1234 3219 CircleF
1237 3213 CircleF
1241 3214 CircleF
1244 3206 CircleF
1247 3197 CircleF
1250 3193 CircleF
1254 3187 CircleF
1257 3181 CircleF
1260 3172 CircleF
1263 3175 CircleF
1267 3172 CircleF
1270 3164 CircleF
1273 3155 CircleF
1276 3155 CircleF
1280 3152 CircleF
1283 3149 CircleF
1286 3147 CircleF
1289 3144 CircleF
1293 3146 CircleF
1296 3137 CircleF
1299 3132 CircleF
1302 3127 CircleF
1306 3131 CircleF
1309 3125 CircleF
1312 3125 CircleF
1315 3126 CircleF
1319 3119 CircleF
1322 3123 CircleF
1325 3123 CircleF
1328 3120 CircleF
1332 3126 CircleF
1335 3119 CircleF
1338 3118 CircleF
1341 3123 CircleF
1344 3127 CircleF
1348 3119 CircleF
1351 3123 CircleF
1354 3127 CircleF
1357 3118 CircleF
1361 3122 CircleF
1364 3127 CircleF
1367 3119 CircleF
1370 3117 CircleF
1374 3118 CircleF
1377 3123 CircleF
1380 3119 CircleF
1383 3123 CircleF
1387 3124 CircleF
1390 3119 CircleF
1393 3118 CircleF
1396 3117 CircleF
1400 3119 CircleF
1403 3122 CircleF
1406 3127 CircleF
1409 3119 CircleF
1413 3125 CircleF
1416 3123 CircleF
1419 3126 CircleF
1422 3127 CircleF
1426 3127 CircleF
1429 3124 CircleF
1432 3124 CircleF
1435 3128 CircleF
1439 3134 CircleF
1442 3128 CircleF
1445 3137 CircleF
1448 3129 CircleF
1452 3133 CircleF
1455 3131 CircleF
1458 3130 CircleF
1461 3131 CircleF
1465 3133 CircleF
1468 3134 CircleF
1471 3126 CircleF
1474 3124 CircleF
1477 3131 CircleF
1481 3125 CircleF
1484 3129 CircleF
1487 3129 CircleF
1490 3125 CircleF
1494 3128 CircleF
1497 3130 CircleF
1500 3128 CircleF
1503 3122 CircleF
1507 3125 CircleF
1510 3119 CircleF
1513 3123 CircleF
1516 3122 CircleF
1520 3120 CircleF
1523 3120 CircleF
1526 3114 CircleF
1529 3113 CircleF
1533 3110 CircleF
1536 3115 CircleF
1539 3115 CircleF
1542 3115 CircleF
1546 3111 CircleF
1549 3110 CircleF
1552 3108 CircleF
1555 3104 CircleF
1559 3096 CircleF
1562 3101 CircleF
1565 3104 CircleF
1568 3091 CircleF
1572 3093 CircleF
1575 3089 CircleF
1578 3079 CircleF
1581 3078 CircleF
1585 3077 CircleF
1588 3070 CircleF
1591 3063 CircleF
1594 3061 CircleF
1598 3057 CircleF
1601 3057 CircleF
1604 3058 CircleF
1607 3050 CircleF
1610 3050 CircleF
1614 3050 CircleF
1617 3043 CircleF
1620 3034 CircleF
1623 3030 CircleF
1627 3030 CircleF
1630 3028 CircleF
1633 3024 CircleF
1636 3022 CircleF
1640 3019 CircleF
1643 3015 CircleF
1646 3012 CircleF
1649 3004 CircleF
1653 2999 CircleF
1656 2991 CircleF
1659 2986 CircleF
1662 2977 CircleF
1666 2974 CircleF
1669 2967 CircleF
1672 2964 CircleF
1675 2954 CircleF
1679 2953 CircleF
1682 2949 CircleF
1685 2944 CircleF
1688 2941 CircleF
1692 2940 CircleF
1695 2927 CircleF
1698 2916 CircleF
1701 2910 CircleF
1705 2911 CircleF
1708 2907 CircleF
1711 2907 CircleF
1714 2902 CircleF
1718 2896 CircleF
1721 2881 CircleF
1724 2878 CircleF
1727 2870 CircleF
1731 2871 CircleF
1734 2865 CircleF
1737 2856 CircleF
1740 2868 CircleF
1743 2849 CircleF
1747 2837 CircleF
1750 2826 CircleF
1753 2832 CircleF
1756 2822 CircleF
1760 2811 CircleF
1763 2804 CircleF
1766 2810 CircleF
1769 2797 CircleF
1773 2791 CircleF
1776 2798 CircleF
1779 2788 CircleF
1782 2788 CircleF
1786 2781 CircleF
1789 2789 CircleF
1792 2770 CircleF
1795 2768 CircleF
1799 2754 CircleF
1802 2752 CircleF
1805 2745 CircleF
1808 2737 CircleF
1812 2733 CircleF
1815 2739 CircleF
1818 2726 CircleF
1821 2727 CircleF
1825 2715 CircleF
1828 2710 CircleF
1831 2716 CircleF
1834 2710 CircleF
1838 2696 CircleF
1841 2694 CircleF
1844 2697 CircleF
1847 2688 CircleF
1851 2689 CircleF
1854 2681 CircleF
1857 2667 CircleF
1860 2665 CircleF
1864 2656 CircleF
1867 2639 CircleF
1870 2642 CircleF
1873 2639 CircleF
1876 2636 CircleF
1880 2625 CircleF
1883 2632 CircleF
1886 2625 CircleF
1889 2627 CircleF
1893 2613 CircleF
1896 2634 CircleF
1899 2615 CircleF
1902 2611 CircleF
1906 2605 CircleF
1909 2610 CircleF
1912 2609 CircleF
1915 2606 CircleF
1919 2588 CircleF
1922 2578 CircleF
1925 2573 CircleF
1928 2573 CircleF
1932 2584 CircleF
1935 2569 CircleF
1938 2566 CircleF
1941 2552 CircleF
1945 2561 CircleF
1948 2550 CircleF
1951 2553 CircleF
1954 2553 CircleF
1958 2546 CircleF
1961 2528 CircleF
1964 2534 CircleF
1967 2527 CircleF
1971 2524 CircleF
1974 2545 CircleF
1977 2534 CircleF
1980 2535 CircleF
1984 2519 CircleF
1987 2513 CircleF
1990 2520 CircleF
1993 2504 CircleF
1997 2506 CircleF
2000 2507 CircleF
2003 2502 CircleF
2006 2492 CircleF
2009 2477 CircleF
2013 2486 CircleF
2016 2475 CircleF
2019 2480 CircleF
2022 2460 CircleF
2026 2462 CircleF
2029 2458 CircleF
2032 2457 CircleF
2035 2465 CircleF
2039 2461 CircleF
2042 2454 CircleF
2045 2458 CircleF
2048 2453 CircleF
2052 2443 CircleF
2055 2438 CircleF
2058 2450 CircleF
2061 2427 CircleF
2065 2427 CircleF
2068 2424 CircleF
2071 2415 CircleF
2074 2435 CircleF
2078 2433 CircleF
2081 2419 CircleF
2084 2418 CircleF
2087 2417 CircleF
2091 2420 CircleF
2094 2400 CircleF
2097 2391 CircleF
2100 2391 CircleF
2104 2401 CircleF
2107 2406 CircleF
2110 2414 CircleF
2113 2426 CircleF
2117 2396 CircleF
2120 2422 CircleF
2123 2412 CircleF
2126 2420 CircleF
2130 2395 CircleF
2133 2407 CircleF
2136 2392 CircleF
2139 2388 CircleF
2142 2401 CircleF
2146 2403 CircleF
2149 2397 CircleF
2152 2412 CircleF
2155 2391 CircleF
2159 2386 CircleF
2162 2386 CircleF
2165 2384 CircleF
2168 2370 CircleF
2172 2400 CircleF
2175 2395 CircleF
2178 2383 CircleF
2181 2383 CircleF
2185 2367 CircleF
2188 2320 CircleF
2191 2358 CircleF
2194 2344 CircleF
2198 2351 CircleF
2201 2350 CircleF
2204 2374 CircleF
2207 2364 CircleF
2211 2364 CircleF
2214 2352 CircleF
2217 2338 CircleF
2220 2370 CircleF
2224 2340 CircleF
2227 2344 CircleF
2230 2349 CircleF
2233 2348 CircleF
2237 2362 CircleF
2240 2355 CircleF
2243 2351 CircleF
2246 2333 CircleF
2250 2341 CircleF
2253 2325 CircleF
2256 2326 CircleF
2259 2344 CircleF
2263 2343 CircleF
2266 2335 CircleF
2269 2322 CircleF
2272 2345 CircleF
2275 2326 CircleF
2279 2327 CircleF
2282 2286 CircleF
2285 2320 CircleF
2288 2303 CircleF
2292 2295 CircleF
2295 2275 CircleF
2298 2287 CircleF
2301 2270 CircleF
2305 2301 CircleF
2308 2277 CircleF
2311 2284 CircleF
2314 2291 CircleF
2318 2264 CircleF
2321 2279 CircleF
2324 2267 CircleF
2327 2249 CircleF
2331 2253 CircleF
2334 2272 CircleF
2337 2272 CircleF
2340 2299 CircleF
2344 2303 CircleF
2347 2249 CircleF
2350 2262 CircleF
2353 2256 CircleF
2357 2257 CircleF
2360 2264 CircleF
2363 2265 CircleF
2366 2260 CircleF
2370 2263 CircleF
2373 2246 CircleF
2376 2236 CircleF
2379 2234 CircleF
2383 2248 CircleF
2386 2239 CircleF
2389 2246 CircleF
2392 2209 CircleF
2396 2236 CircleF
2399 2207 CircleF
2402 2223 CircleF
2405 2231 CircleF
2408 2209 CircleF
2412 2208 CircleF
2415 2192 CircleF
2418 2212 CircleF
2421 2218 CircleF
2425 2246 CircleF
2428 2215 CircleF
2431 2231 CircleF
2434 2210 CircleF
2438 2208 CircleF
2441 2212 CircleF
2444 2177 CircleF
2447 2193 CircleF
2451 2165 CircleF
2454 2195 CircleF
2457 2210 CircleF
2460 2230 CircleF
2464 2211 CircleF
2467 2248 CircleF
2470 2224 CircleF
2473 2198 CircleF
2477 2217 CircleF
2480 2203 CircleF
2483 2205 CircleF
2486 2210 CircleF
2490 2220 CircleF
2493 2221 CircleF
2496 2204 CircleF
2499 2200 CircleF
2503 2185 CircleF
2506 2203 CircleF
2509 2192 CircleF
2512 2196 CircleF
2516 2170 CircleF
2519 2216 CircleF
2522 2178 CircleF
2525 2147 CircleF
2529 2169 CircleF
2532 2274 CircleF
2535 2218 CircleF
2538 2125 CircleF
2541 2112 CircleF
2545 2128 CircleF
2548 2141 CircleF
2551 2102 CircleF
2554 2072 CircleF
2558 2116 CircleF
2561 2124 CircleF
2564 2121 CircleF
2567 2091 CircleF
2571 2105 CircleF
2574 2123 CircleF
2577 2096 CircleF
2580 2104 CircleF
2584 2075 CircleF
2587 2085 CircleF
2590 2107 CircleF
2593 2083 CircleF
2597 2092 CircleF
2600 2070 CircleF
2603 2097 CircleF
2606 2077 CircleF
2610 2068 CircleF
2613 2045 CircleF
2616 2076 CircleF
2619 2064 CircleF
2623 2075 CircleF
2626 2076 CircleF
2629 2045 CircleF
2632 2039 CircleF
2636 2038 CircleF
2639 2051 CircleF
2642 2053 CircleF
2645 2063 CircleF
2649 2012 CircleF
2652 2020 CircleF
2655 2044 CircleF
2658 2055 CircleF
2662 2026 CircleF
2665 2034 CircleF
2668 2056 CircleF
2671 2024 CircleF
2674 2044 CircleF
2678 2001 CircleF
2681 2008 CircleF
2684 2035 CircleF
2687 2012 CircleF
2691 2062 CircleF
2694 2017 CircleF
2697 2066 CircleF
2700 1992 CircleF
2704 1989 CircleF
2707 2011 CircleF
2710 2027 CircleF
2713 2031 CircleF
2717 1989 CircleF
2720 1959 CircleF
2723 1993 CircleF
2726 1966 CircleF
2730 2002 CircleF
2733 1972 CircleF
2736 1941 CircleF
2739 1922 CircleF
2743 1926 CircleF
2746 1958 CircleF
2749 1944 CircleF
2752 1956 CircleF
2756 1949 CircleF
2759 1986 CircleF
2762 1961 CircleF
2765 1970 CircleF
2769 1972 CircleF
2772 1978 CircleF
2775 1977 CircleF
2778 1977 CircleF
2782 1938 CircleF
2785 1944 CircleF
2788 1945 CircleF
2791 2015 CircleF
2795 1982 CircleF
2798 1972 CircleF
2801 1960 CircleF
2804 1977 CircleF
2807 1976 CircleF
2811 1932 CircleF
2814 1949 CircleF
2817 1936 CircleF
2820 1942 CircleF
2824 1917 CircleF
2827 1932 CircleF
2830 1955 CircleF
2833 1937 CircleF
2837 1887 CircleF
2840 1972 CircleF
2843 1946 CircleF
2846 1946 CircleF
2850 1916 CircleF
2853 1900 CircleF
2856 1874 CircleF
2859 1944 CircleF
2863 1951 CircleF
2866 1919 CircleF
2869 1945 CircleF
2872 1940 CircleF
2876 1988 CircleF
2879 2001 CircleF
2882 1951 CircleF
2885 1907 CircleF
2889 1945 CircleF
2892 1930 CircleF
2895 1910 CircleF
2898 1841 CircleF
2902 1920 CircleF
2905 1929 CircleF
2908 1959 CircleF
2911 1941 CircleF
2915 1860 CircleF
2918 1927 CircleF
2921 1901 CircleF
2924 1967 CircleF
2928 1975 CircleF
2931 1937 CircleF
2934 1927 CircleF
2937 1925 CircleF
2940 1912 CircleF
2944 1910 CircleF
2947 1927 CircleF
2950 1960 CircleF
2953 1919 CircleF
2957 1906 CircleF
2960 1903 CircleF
2963 1867 CircleF
2966 1890 CircleF
2970 1865 CircleF
2973 1865 CircleF
2976 1912 CircleF
2979 1882 CircleF
2983 1920 CircleF
2986 1877 CircleF
2989 1926 CircleF
2992 1865 CircleF
2996 1903 CircleF
2999 1833 CircleF
3002 1877 CircleF
3005 1874 CircleF
3009 1839 CircleF
3012 1860 CircleF
3015 1865 CircleF
3018 1861 CircleF
3022 1946 CircleF
3025 1858 CircleF
3028 1839 CircleF
3031 1851 CircleF
3035 1837 CircleF
3038 1819 CircleF
3041 1875 CircleF
3044 1858 CircleF
3048 1907 CircleF
3051 1861 CircleF
3054 1890 CircleF
3057 1865 CircleF
3061 1888 CircleF
3064 1879 CircleF
3067 1865 CircleF
3070 1813 CircleF
3073 1867 CircleF
3077 1766 CircleF
3080 1788 CircleF
3083 1825 CircleF
3086 1815 CircleF
3090 1731 CircleF
3093 1756 CircleF
3096 1793 CircleF
3099 1821 CircleF
3103 1774 CircleF
3106 1779 CircleF
3109 1779 CircleF
3112 1781 CircleF
3116 1759 CircleF
3119 1774 CircleF
3122 1795 CircleF
3125 1813 CircleF
3129 1790 CircleF
3132 1817 CircleF
3135 1745 CircleF
3138 1800 CircleF
3142 1759 CircleF
3145 1790 CircleF
3148 1716 CircleF
3151 1779 CircleF
3155 1797 CircleF
3158 1790 CircleF
3161 1843 CircleF
3164 1756 CircleF
3168 1697 CircleF
3171 1670 CircleF
3174 1737 CircleF
3177 1713 CircleF
3181 1716 CircleF
3184 1764 CircleF
3187 1684 CircleF
3190 1710 CircleF
3194 1626 CircleF
3197 1670 CircleF
3200 1769 CircleF
3203 1833 CircleF
3206 1694 CircleF
3210 1771 CircleF
3213 1707 CircleF
3216 1707 CircleF
3219 1658 CircleF
3223 1673 CircleF
3226 1753 CircleF
3229 1769 CircleF
3232 1802 CircleF
3236 1728 CircleF
3239 1697 CircleF
3242 1673 CircleF
3245 1725 CircleF
3249 1707 CircleF
3252 1662 CircleF
3255 1684 CircleF
3258 1694 CircleF
3262 1687 CircleF
3265 1748 CircleF
3268 1700 CircleF
3271 1728 CircleF
3275 1771 CircleF
3278 1779 CircleF
3281 1639 CircleF
3284 1800 CircleF
3288 1716 CircleF
3291 1687 CircleF
3294 1655 CircleF
3297 1700 CircleF
3301 1651 CircleF
3304 1658 CircleF
3307 1825 CircleF
3310 1761 CircleF
3314 1697 CircleF
3317 1719 CircleF
3320 1707 CircleF
3323 1742 CircleF
3327 1647 CircleF
3330 1694 CircleF
3333 1673 CircleF
3336 1626 CircleF
3339 1662 CircleF
3343 1651 CircleF
3346 1700 CircleF
3349 1700 CircleF
3352 1728 CircleF
3356 1725 CircleF
3359 1697 CircleF
3362 1639 CircleF
3365 1631 CircleF
3369 1631 CircleF
3372 1655 CircleF
3375 1670 CircleF
3378 1647 CircleF
3382 1694 CircleF
3385 1700 CircleF
3388 1737 CircleF
3391 1673 CircleF
3395 1697 CircleF
3398 1704 CircleF
3401 1643 CircleF
3404 1700 CircleF
3408 1684 CircleF
3411 1740 CircleF
3414 1710 CircleF
3417 1631 CircleF
3421 1658 CircleF
3424 1622 CircleF
3427 1651 CircleF
3430 1670 CircleF
3434 1731 CircleF
3437 1590 CircleF
3440 1670 CircleF
3443 1517 CircleF
3447 1604 CircleF
3450 1697 CircleF
3453 1776 CircleF
3456 1728 CircleF
3460 1673 CircleF
3463 1731 CircleF
3466 1766 CircleF
3469 1751 CircleF
3472 1731 CircleF
3476 1655 CircleF
3479 1604 CircleF
3482 1618 CircleF
3485 1536 CircleF
3489 1613 CircleF
3492 1536 CircleF
3495 1504 CircleF
3498 1647 CircleF
3502 1536 CircleF
3505 1631 CircleF
3508 1595 CircleF
3511 1590 CircleF
3515 1613 CircleF
3518 1662 CircleF
3521 1580 CircleF
3524 1613 CircleF
3528 1542 CircleF
3531 1613 CircleF
3534 1626 CircleF
3537 1548 CircleF
3541 1564 CircleF
3544 1604 CircleF
3547 1595 CircleF
3550 1524 CircleF
3554 1580 CircleF
3557 1613 CircleF
3560 1476 CircleF
3563 1517 CircleF
3567 1585 CircleF
3570 1569 CircleF
3573 1564 CircleF
3576 1622 CircleF
3580 1580 CircleF
3583 1613 CircleF
3586 1569 CircleF
3589 1585 CircleF
3593 1530 CircleF
3596 1564 CircleF
3599 1585 CircleF
3602 1569 CircleF
3605 1559 CircleF
3609 1483 CircleF
3612 1580 CircleF
3615 1511 CircleF
3618 1595 CircleF
3622 1647 CircleF
3625 1647 CircleF
3628 1569 CircleF
3631 1517 CircleF
3635 1483 CircleF
3638 1444 CircleF
3641 1504 CircleF
3644 1452 CircleF
3648 1569 CircleF
3651 1511 CircleF
3654 1483 CircleF
3657 1490 CircleF
3661 1524 CircleF
3664 1595 CircleF
3667 1548 CircleF
3670 1530 CircleF
3674 1542 CircleF
3677 1483 CircleF
3680 1490 CircleF
3683 1504 CircleF
3687 1460 CircleF
3690 1444 CircleF
3693 1476 CircleF
3696 1530 CircleF
3700 1618 CircleF
3703 1595 CircleF
3706 1504 CircleF
3709 1542 CircleF
3713 1511 CircleF
3716 1483 CircleF
3719 1476 CircleF
3722 1418 CircleF
3726 1553 CircleF
3729 1530 CircleF
3732 1452 CircleF
3735 1460 CircleF
3738 1524 CircleF
3742 1436 CircleF
3745 1504 CircleF
3748 1536 CircleF
3751 1398 CircleF
3755 1318 CircleF
3758 1367 CircleF
3761 1343 CircleF
3764 1355 CircleF
3768 1202 CircleF
3771 1388 CircleF
3774 1427 CircleF
3777 1367 CircleF
3781 1274 CircleF
3784 1289 CircleF
3787 1240 CircleF
3790 1071 CircleF
3794 1103 CircleF
3797 1180 CircleF
3800 1071 CircleF
3803 1222 CircleF
3807 1180 CircleF
3810 1180 CircleF
3813 1180 CircleF
3816 1071 CircleF
3820 1202 CircleF
3823 1222 CircleF
3826 1318 CircleF
3829 1289 CircleF
3833 1318 CircleF
3836 1418 CircleF
3839 1436 CircleF
3842 1378 CircleF
3846 1304 CircleF
3849 1355 CircleF
3852 1408 CircleF
3855 1222 CircleF
3859 1202 CircleF
3862 1157 CircleF
3865 1258 CircleF
3868 1258 CircleF
3871 1304 CircleF
3875 1355 CircleF
3878 1274 CircleF
3881 1343 CircleF
3884 1240 CircleF
3888 1304 CircleF
3891 1318 CircleF
3894 1355 CircleF
3897 1258 CircleF
3901 1240 CircleF
3904 1355 CircleF
3907 1460 CircleF
3910 1258 CircleF
3914 1180 CircleF
3917 1258 CircleF
3920 1367 CircleF
3923 1274 CircleF
3927 1289 CircleF
3930 1202 CircleF
3933 1035 CircleF
3936 885 CircleF
3940 1071 CircleF
3943 1157 CircleF
3946 698 CircleF
3949 885 CircleF
3953 1071 CircleF
3956 945 CircleF
3959 1035 CircleF
3962 1035 CircleF
3966 1071 CircleF
3969 1131 CircleF
3972 1240 CircleF
3975 1318 CircleF
3979 1202 CircleF
3982 1071 CircleF
3985 945 CircleF
3988 1071 CircleF
3992 945 CircleF
3995 994 CircleF
3998 1180 CircleF
4001 1071 CircleF
4004 1180 CircleF
4008 1071 CircleF
4011 994 CircleF
4014 885 CircleF
4017 945 CircleF
4021 945 CircleF
4024 698 CircleF
4027 994 CircleF
4030 1035 CircleF
4034 945 CircleF
4037 945 CircleF
4040 1157 CircleF
4043 945 CircleF
4047 994 CircleF
4050 1071 CircleF
4053 1180 CircleF
4056 1180 CircleF
4060 885 CircleF
4063 1071 CircleF
4066 994 CircleF
4069 994 CircleF
4073 945 CircleF
4076 885 CircleF
4079 698 CircleF
4082 1071 CircleF
4086 994 CircleF
4089 885 CircleF
4092 1071 CircleF
4095 1035 CircleF
4099 994 CircleF
4102 994 CircleF
4105 994 CircleF
4108 807 CircleF
4112 1103 CircleF
4115 1035 CircleF
4118 994 CircleF
4121 945 CircleF
4124 885 CircleF
4128 1035 CircleF
4131 698 CircleF
4134 807 CircleF
4137 1071 CircleF
4141 994 CircleF
4144 1157 CircleF
4147 1035 CircleF
4150 1071 CircleF
4154 1180 CircleF
4157 1131 CircleF
4160 1071 CircleF
4163 994 CircleF
4167 1103 CircleF
4170 945 CircleF
4173 1331 CircleF
4176 1103 CircleF
4180 1202 CircleF
4183 1103 CircleF
4186 1202 CircleF
4189 1343 CircleF
4193 1318 CircleF
4196 1331 CircleF
4199 1289 CircleF
4202 1444 CircleF
4206 1398 CircleF
4209 1367 CircleF
4212 1355 CircleF
4215 1222 CircleF
4219 1355 CircleF
4222 1378 CircleF
4225 1331 CircleF
4228 1289 CircleF
4232 1367 CircleF
4235 1318 CircleF
4238 1367 CircleF
4241 1131 CircleF
4245 1131 CircleF
4248 1103 CircleF
4251 1222 CircleF
4254 1274 CircleF
4257 1131 CircleF
4261 1157 CircleF
4264 1103 CircleF
4267 1222 CircleF
4270 1202 CircleF
4274 1035 CircleF
4277 1180 CircleF
4280 1180 CircleF
4283 1071 CircleF
4287 1035 CircleF
4290 1035 CircleF
4293 1180 CircleF
4296 994 CircleF
4300 1035 CircleF
4303 1131 CircleF
4306 807 CircleF
4309 1103 CircleF
4313 1103 CircleF
4316 945 CircleF
4319 1035 CircleF
4322 885 CircleF
4326 698 CircleF
4329 512 CircleF
4332 885 CircleF
4335 945 CircleF
4339 1035 CircleF
4342 1131 CircleF
4345 1071 CircleF
4348 1157 CircleF
4352 1103 CircleF
4355 1180 CircleF
4358 1202 CircleF
4361 1103 CircleF
4365 1157 CircleF
4368 1202 CircleF
4371 945 CircleF
4374 1131 CircleF
4378 698 CircleF
4381 1103 CircleF
4384 945 CircleF
4387 1035 CircleF
4390 1035 CircleF
4394 1240 CircleF
4397 1180 CircleF
4400 807 CircleF
4403 1035 CircleF
4407 1131 CircleF
4410 1157 CircleF
4413 1222 CircleF
4416 1240 CircleF
4420 1258 CircleF
4423 1103 CircleF
4426 1240 CircleF
4429 1103 CircleF
4433 1157 CircleF
4436 945 CircleF
4439 885 CircleF
4442 994 CircleF
4446 1103 CircleF
4449 1240 CircleF
4452 1240 CircleF
4455 1035 CircleF
4459 1131 CircleF
4462 994 CircleF
4465 1180 CircleF
4468 1240 CircleF
4472 1258 CircleF
4475 1222 CircleF
4478 1180 CircleF
4481 1103 CircleF
4485 1157 CircleF
4488 994 CircleF
4491 1035 CircleF
4494 1071 CircleF
4498 698 CircleF
4501 994 CircleF
4504 807 CircleF
4507 885 CircleF
4511 885 CircleF
4514 994 CircleF
4517 512 CircleF
4520 807 CircleF
4523 1035 CircleF
4527 807 CircleF
4530 885 CircleF
4533 698 CircleF
4536 885 CircleF
4540 698 CircleF
4543 698 CircleF
4546 512 CircleF
4549 698 CircleF
4553 512 CircleF
4556 885 CircleF
4559 945 CircleF
4562 698 CircleF
4566 807 CircleF
4569 945 CircleF
4572 807 CircleF
4575 512 CircleF
4579 1035 CircleF
4582 945 CircleF
4585 807 CircleF
4588 512 CircleF
4592 945 CircleF
4595 945 CircleF
4598 807 CircleF
4601 512 CircleF
4605 512 CircleF
4608 698 CircleF
4611 994 CircleF
4614 1071 CircleF
4618 885 CircleF
4621 945 CircleF
4624 1071 CircleF
4627 994 CircleF
4631 945 CircleF
4634 807 CircleF
4637 1131 CircleF
4640 945 CircleF
4644 1071 CircleF
4647 1131 CircleF
4650 1035 CircleF
4653 807 CircleF
4656 698 CircleF
4660 807 CircleF
4663 807 CircleF
4666 807 CircleF
4669 807 CircleF
4673 807 CircleF
4676 1035 CircleF
4679 945 CircleF
4682 1071 CircleF
4686 885 CircleF
4689 994 CircleF
4692 885 CircleF
4695 698 CircleF
4699 698 CircleF
4702 945 CircleF
4705 512 CircleF
4708 994 CircleF
4712 1157 CircleF
4715 945 CircleF
4718 807 CircleF
4721 945 CircleF
4725 1071 CircleF
4728 885 CircleF
4731 994 CircleF
4734 1071 CircleF
4738 945 CircleF
4741 512 CircleF
4744 885 CircleF
4747 1071 CircleF
4751 1035 CircleF
4754 994 CircleF
4757 885 CircleF
4760 1035 CircleF
4764 807 CircleF
4767 1071 CircleF
4770 994 CircleF
4773 1035 CircleF
4777 945 CircleF
4780 994 CircleF
4783 1071 CircleF
4786 1071 CircleF
4789 1180 CircleF
4793 1131 CircleF
4796 1222 CircleF
4799 1103 CircleF
4802 1103 CircleF
4806 1071 CircleF
4809 1180 CircleF
4812 1180 CircleF
4815 1035 CircleF
4819 1331 CircleF
4822 885 CircleF
4825 1103 CircleF
4828 1289 CircleF
4832 1240 CircleF
4835 1103 CircleF
4838 1131 CircleF
4841 1240 CircleF
4845 1180 CircleF
4848 1103 CircleF
4851 1202 CircleF
4854 1240 CircleF
4858 1103 CircleF
4861 1240 CircleF
4864 1240 CircleF
4867 1157 CircleF
4871 1180 CircleF
4874 1240 CircleF
4877 1157 CircleF
4880 1180 CircleF
4884 1103 CircleF
4887 1103 CircleF
4890 1157 CircleF
4893 1103 CircleF
4897 1202 CircleF
4900 1131 CircleF
4903 1202 CircleF
4906 1258 CircleF
4910 807 CircleF
4913 1103 CircleF
4916 1157 CircleF
4919 1240 CircleF
4922 994 CircleF
4926 1202 CircleF
4929 994 CircleF
4932 1157 CircleF
4935 1304 CircleF
4939 1202 CircleF
4942 1131 CircleF
4945 1131 CircleF
4948 1157 CircleF
4952 1035 CircleF
4955 1103 CircleF
4958 1035 CircleF
4961 945 CircleF
4965 1035 CircleF
4968 1103 CircleF
4971 1035 CircleF
4974 698 CircleF
4978 1071 CircleF
4981 1071 CircleF
4984 1103 CircleF
4987 994 CircleF
4991 807 CircleF
4994 1071 CircleF
4997 994 CircleF
5000 885 CircleF
5004 885 CircleF
5007 1180 CircleF
5010 1180 CircleF
5013 1157 CircleF
5017 1157 CircleF
5020 1180 CircleF
5023 1103 CircleF
5026 1202 CircleF
5030 1222 CircleF
5033 1157 CircleF
5036 1071 CircleF
5039 1240 CircleF
5043 1157 CircleF
5046 1202 CircleF
5049 1131 CircleF
5052 1331 CircleF
5055 1378 CircleF
5059 1343 CircleF
5062 1408 CircleF
5065 1304 CircleF
5068 1304 CircleF
5072 1304 CircleF
5075 1131 CircleF
5078 1222 CircleF
5081 994 CircleF
5085 994 CircleF
5088 994 CircleF
5091 1035 CircleF
5094 1180 CircleF
5098 1071 CircleF
5101 945 CircleF
5104 885 CircleF
5107 994 CircleF
5111 885 CircleF
5114 945 CircleF
5117 807 CircleF
5120 885 CircleF
5124 1071 CircleF
5127 1071 CircleF
5130 1035 CircleF
5133 512 CircleF
5137 1103 CircleF
5140 945 CircleF
5143 885 CircleF
5146 807 CircleF
5150 945 CircleF
5153 994 CircleF
5156 885 CircleF
5159 945 CircleF
5163 885 CircleF
5166 1071 CircleF
5169 885 CircleF
5172 885 CircleF
5176 945 CircleF
5179 885 CircleF
5182 885 CircleF
5185 994 CircleF
5188 945 CircleF
5192 1103 CircleF
5195 698 CircleF
5198 945 CircleF
5201 1035 CircleF
5205 885 CircleF
5208 1131 CircleF
5211 994 CircleF
5214 698 CircleF
5218 807 CircleF
5221 698 CircleF
5224 698 CircleF
5227 945 CircleF
5231 945 CircleF
5234 807 CircleF
5237 945 CircleF
5244 698 CircleF
5247 698 CircleF
5250 885 CircleF
5253 807 CircleF
5257 698 CircleF
5260 512 CircleF
5263 885 CircleF
5266 698 CircleF
5270 698 CircleF
5273 698 CircleF
5276 807 CircleF
5283 945 CircleF
5286 807 CircleF
5289 945 CircleF
5292 945 CircleF
5296 807 CircleF
5299 885 CircleF
5302 698 CircleF
5305 698 CircleF
5309 512 CircleF
5315 512 CircleF
5321 885 CircleF
5325 512 CircleF
5328 512 CircleF
5331 698 CircleF
5334 512 CircleF
5338 885 CircleF
5341 512 CircleF
5344 512 CircleF
5347 885 CircleF
5351 698 CircleF
5354 512 CircleF
5357 698 CircleF
5360 512 CircleF
5364 698 CircleF
5367 698 CircleF
5370 512 CircleF
5373 698 CircleF
5377 698 CircleF
5390 698 CircleF
5396 807 CircleF
5403 512 CircleF
5406 512 CircleF
5409 512 CircleF
5416 512 CircleF
5419 698 CircleF
5425 698 CircleF
5429 698 CircleF
5432 698 CircleF
5435 698 CircleF
5442 885 CircleF
5445 807 CircleF
5448 698 CircleF
5451 512 CircleF
5454 512 CircleF
5458 807 CircleF
5464 945 CircleF
5467 807 CircleF
5471 512 CircleF
5474 807 CircleF
5477 807 CircleF
5484 698 CircleF
5487 698 CircleF
5490 807 CircleF
5493 945 CircleF
5497 807 CircleF
5500 698 CircleF
5503 885 CircleF
5506 807 CircleF
5510 945 CircleF
5513 698 CircleF
5516 885 CircleF
5519 994 CircleF
5523 698 CircleF
5526 945 CircleF
5529 945 CircleF
5532 698 CircleF
5536 807 CircleF
5539 698 CircleF
5542 807 CircleF
5545 885 CircleF
5549 945 CircleF
5552 945 CircleF
5555 698 CircleF
5558 807 CircleF
5562 994 CircleF
5565 512 CircleF
5568 807 CircleF
5571 807 CircleF
5575 885 CircleF
5581 698 CircleF
5584 512 CircleF
5587 698 CircleF
5591 807 CircleF
5594 512 CircleF
5597 807 CircleF
5607 807 CircleF
5610 698 CircleF
5613 698 CircleF
5620 807 CircleF
5623 885 CircleF
5626 698 CircleF
5630 885 CircleF
5633 807 CircleF
5636 698 CircleF
5639 885 CircleF
5643 698 CircleF
5649 698 CircleF
5652 698 CircleF
5656 512 CircleF
5659 512 CircleF
5672 512 CircleF
5678 807 CircleF
5682 512 CircleF
5685 807 CircleF
5691 512 CircleF
5695 698 CircleF
5698 512 CircleF
5701 512 CircleF
5704 698 CircleF
5711 807 CircleF
5717 698 CircleF
5720 512 CircleF
5724 807 CircleF
5727 512 CircleF
5730 512 CircleF
5733 994 CircleF
5737 698 CircleF
5740 807 CircleF
5743 698 CircleF
5746 512 CircleF
5756 885 CircleF
5759 698 CircleF
5763 698 CircleF
5766 807 CircleF
5769 807 CircleF
5776 512 CircleF
5782 885 CircleF
5785 698 CircleF
5789 512 CircleF
5795 512 CircleF
5798 698 CircleF
5802 512 CircleF
5805 698 CircleF
5808 807 CircleF
5815 512 CircleF
5818 698 CircleF
5824 512 CircleF
5831 698 CircleF
5834 698 CircleF
5837 807 CircleF
5841 512 CircleF
5847 512 CircleF
5850 698 CircleF
5860 512 CircleF
5863 698 CircleF
5876 512 CircleF
5879 512 CircleF
5886 512 CircleF
5889 698 CircleF
5896 698 CircleF
5899 512 CircleF
5902 698 CircleF
5909 512 CircleF
5912 512 CircleF
5928 512 CircleF
5931 512 CircleF
5935 698 CircleF
5944 512 CircleF
5948 512 CircleF
5961 512 CircleF
5964 512 CircleF
5983 512 CircleF
5986 512 CircleF
6003 512 CircleF
6019 885 CircleF
6025 512 CircleF
6042 698 CircleF
6048 698 CircleF
6055 698 CircleF
6061 512 CircleF
6064 512 CircleF
6081 512 CircleF
6087 698 CircleF
6094 512 CircleF
6097 512 CircleF
6113 512 CircleF
6116 512 CircleF
6119 512 CircleF
6123 698 CircleF
6129 512 CircleF
6136 885 CircleF
6139 512 CircleF
6145 512 CircleF
6155 698 CircleF
6158 698 CircleF
6175 512 CircleF
6188 512 CircleF
6197 512 CircleF
6210 512 CircleF
6230 512 CircleF
6233 698 CircleF
6240 512 CircleF
6249 512 CircleF
6252 512 CircleF
6259 512 CircleF
6262 512 CircleF
6265 512 CircleF
6298 698 CircleF
6301 512 CircleF
6317 512 CircleF
6327 512 CircleF
6330 512 CircleF
6340 512 CircleF
6343 698 CircleF
6353 512 CircleF
6356 698 CircleF
6360 807 CircleF
6366 698 CircleF
6373 698 CircleF
6382 698 CircleF
6385 885 CircleF
6402 885 CircleF
6405 945 CircleF
6408 512 CircleF
6411 512 CircleF
6415 698 CircleF
6418 807 CircleF
6428 807 CircleF
6431 512 CircleF
6441 512 CircleF
6444 698 CircleF
6447 512 CircleF
6454 512 CircleF
6457 512 CircleF
6460 698 CircleF
6463 698 CircleF
6467 698 CircleF
6470 698 CircleF
6473 512 CircleF
6476 698 CircleF
6480 512 CircleF
6486 512 CircleF
6489 807 CircleF
6493 512 CircleF
6496 698 CircleF
6499 698 CircleF
6502 807 CircleF
6506 885 CircleF
6509 807 CircleF
6515 807 CircleF
6518 807 CircleF
6522 698 CircleF
6525 512 CircleF
6528 512 CircleF
6531 512 CircleF
6535 512 CircleF
6538 512 CircleF
6541 512 CircleF
6551 512 CircleF
% End plot #1
1.000 UL
LTb
LCb setrgbcolor
1072 4847 N
0 -4335 V
5839 0 V
0 4335 V
-5839 0 V
Z stroke
1.000 UP
1.000 UL
LTb
LCb setrgbcolor
stroke
grestore
end
showpage
%%Trailer
%%DocumentFonts: Helvetica
