%!PS-Adobe-2.0 EPSF-2.0
%%Title: nbrDist.eps
%%Creator: gnuplot 4.6 patchlevel 2
%%CreationDate: Thu Sep 19 11:36:14 2019
%%DocumentFonts: (atend)
%%BoundingBox: 50 50 410 302
%%EndComments
%%BeginProlog
/gnudict 256 dict def
gnudict begin
%
% The following true/false flags may be edited by hand if desired.
% The unit line width and grayscale image gamma correction may also be changed.
%
/Color true def
/Blacktext false def
/Solid false def
/Dashlength 1 def
/Landscape false def
/Level1 false def
/Rounded false def
/ClipToBoundingBox false def
/SuppressPDFMark false def
/TransparentPatterns false def
/gnulinewidth 5.000 def
/userlinewidth gnulinewidth def
/Gamma 1.0 def
/BackgroundColor {-1.000 -1.000 -1.000} def
%
/vshift -53 def
/dl1 {
  10.0 Dashlength mul mul
  Rounded { currentlinewidth 0.75 mul sub dup 0 le { pop 0.01 } if } if
} def
/dl2 {
  10.0 Dashlength mul mul
  Rounded { currentlinewidth 0.75 mul add } if
} def
/hpt_ 31.5 def
/vpt_ 31.5 def
/hpt hpt_ def
/vpt vpt_ def
/doclip {
  ClipToBoundingBox {
    newpath 50 50 moveto 410 50 lineto 410 302 lineto 50 302 lineto closepath
    clip
  } if
} def
%
% Gnuplot Prolog Version 4.6 (September 2012)
%
%/SuppressPDFMark true def
%
/M {moveto} bind def
/L {lineto} bind def
/R {rmoveto} bind def
/V {rlineto} bind def
/N {newpath moveto} bind def
/Z {closepath} bind def
/C {setrgbcolor} bind def
/f {rlineto fill} bind def
/g {setgray} bind def
/Gshow {show} def   % May be redefined later in the file to support UTF-8
/vpt2 vpt 2 mul def
/hpt2 hpt 2 mul def
/Lshow {currentpoint stroke M 0 vshift R 
	Blacktext {gsave 0 setgray show grestore} {show} ifelse} def
/Rshow {currentpoint stroke M dup stringwidth pop neg vshift R
	Blacktext {gsave 0 setgray show grestore} {show} ifelse} def
/Cshow {currentpoint stroke M dup stringwidth pop -2 div vshift R 
	Blacktext {gsave 0 setgray show grestore} {show} ifelse} def
/UP {dup vpt_ mul /vpt exch def hpt_ mul /hpt exch def
  /hpt2 hpt 2 mul def /vpt2 vpt 2 mul def} def
/DL {Color {setrgbcolor Solid {pop []} if 0 setdash}
 {pop pop pop 0 setgray Solid {pop []} if 0 setdash} ifelse} def
/BL {stroke userlinewidth 2 mul setlinewidth
	Rounded {1 setlinejoin 1 setlinecap} if} def
/AL {stroke userlinewidth 2 div setlinewidth
	Rounded {1 setlinejoin 1 setlinecap} if} def
/UL {dup gnulinewidth mul /userlinewidth exch def
	dup 1 lt {pop 1} if 10 mul /udl exch def} def
/PL {stroke userlinewidth setlinewidth
	Rounded {1 setlinejoin 1 setlinecap} if} def
3.8 setmiterlimit
% Default Line colors
/LCw {1 1 1} def
/LCb {0 0 0} def
/LCa {0 0 0} def
/LC0 {1 0 0} def
/LC1 {0 1 0} def
/LC2 {0 0 1} def
/LC3 {1 0 1} def
/LC4 {0 1 1} def
/LC5 {1 1 0} def
/LC6 {0 0 0} def
/LC7 {1 0.3 0} def
/LC8 {0.5 0.5 0.5} def
% Default Line Types
/LTw {PL [] 1 setgray} def
/LTb {BL [] LCb DL} def
/LTa {AL [1 udl mul 2 udl mul] 0 setdash LCa setrgbcolor} def
/LT0 {PL [] LC0 DL} def
/LT1 {PL [4 dl1 2 dl2] LC1 DL} def
/LT2 {PL [2 dl1 3 dl2] LC2 DL} def
/LT3 {PL [1 dl1 1.5 dl2] LC3 DL} def
/LT4 {PL [6 dl1 2 dl2 1 dl1 2 dl2] LC4 DL} def
/LT5 {PL [3 dl1 3 dl2 1 dl1 3 dl2] LC5 DL} def
/LT6 {PL [2 dl1 2 dl2 2 dl1 6 dl2] LC6 DL} def
/LT7 {PL [1 dl1 2 dl2 6 dl1 2 dl2 1 dl1 2 dl2] LC7 DL} def
/LT8 {PL [2 dl1 2 dl2 2 dl1 2 dl2 2 dl1 2 dl2 2 dl1 4 dl2] LC8 DL} def
/Pnt {stroke [] 0 setdash gsave 1 setlinecap M 0 0 V stroke grestore} def
/Dia {stroke [] 0 setdash 2 copy vpt add M
  hpt neg vpt neg V hpt vpt neg V
  hpt vpt V hpt neg vpt V closepath stroke
  Pnt} def
/Pls {stroke [] 0 setdash vpt sub M 0 vpt2 V
  currentpoint stroke M
  hpt neg vpt neg R hpt2 0 V stroke
 } def
/Box {stroke [] 0 setdash 2 copy exch hpt sub exch vpt add M
  0 vpt2 neg V hpt2 0 V 0 vpt2 V
  hpt2 neg 0 V closepath stroke
  Pnt} def
/Crs {stroke [] 0 setdash exch hpt sub exch vpt add M
  hpt2 vpt2 neg V currentpoint stroke M
  hpt2 neg 0 R hpt2 vpt2 V stroke} def
/TriU {stroke [] 0 setdash 2 copy vpt 1.12 mul add M
  hpt neg vpt -1.62 mul V
  hpt 2 mul 0 V
  hpt neg vpt 1.62 mul V closepath stroke
  Pnt} def
/Star {2 copy Pls Crs} def
/BoxF {stroke [] 0 setdash exch hpt sub exch vpt add M
  0 vpt2 neg V hpt2 0 V 0 vpt2 V
  hpt2 neg 0 V closepath fill} def
/TriUF {stroke [] 0 setdash vpt 1.12 mul add M
  hpt neg vpt -1.62 mul V
  hpt 2 mul 0 V
  hpt neg vpt 1.62 mul V closepath fill} def
/TriD {stroke [] 0 setdash 2 copy vpt 1.12 mul sub M
  hpt neg vpt 1.62 mul V
  hpt 2 mul 0 V
  hpt neg vpt -1.62 mul V closepath stroke
  Pnt} def
/TriDF {stroke [] 0 setdash vpt 1.12 mul sub M
  hpt neg vpt 1.62 mul V
  hpt 2 mul 0 V
  hpt neg vpt -1.62 mul V closepath fill} def
/DiaF {stroke [] 0 setdash vpt add M
  hpt neg vpt neg V hpt vpt neg V
  hpt vpt V hpt neg vpt V closepath fill} def
/Pent {stroke [] 0 setdash 2 copy gsave
  translate 0 hpt M 4 {72 rotate 0 hpt L} repeat
  closepath stroke grestore Pnt} def
/PentF {stroke [] 0 setdash gsave
  translate 0 hpt M 4 {72 rotate 0 hpt L} repeat
  closepath fill grestore} def
/Circle {stroke [] 0 setdash 2 copy
  hpt 0 360 arc stroke Pnt} def
/CircleF {stroke [] 0 setdash hpt 0 360 arc fill} def
/C0 {BL [] 0 setdash 2 copy moveto vpt 90 450 arc} bind def
/C1 {BL [] 0 setdash 2 copy moveto
	2 copy vpt 0 90 arc closepath fill
	vpt 0 360 arc closepath} bind def
/C2 {BL [] 0 setdash 2 copy moveto
	2 copy vpt 90 180 arc closepath fill
	vpt 0 360 arc closepath} bind def
/C3 {BL [] 0 setdash 2 copy moveto
	2 copy vpt 0 180 arc closepath fill
	vpt 0 360 arc closepath} bind def
/C4 {BL [] 0 setdash 2 copy moveto
	2 copy vpt 180 270 arc closepath fill
	vpt 0 360 arc closepath} bind def
/C5 {BL [] 0 setdash 2 copy moveto
	2 copy vpt 0 90 arc
	2 copy moveto
	2 copy vpt 180 270 arc closepath fill
	vpt 0 360 arc} bind def
/C6 {BL [] 0 setdash 2 copy moveto
	2 copy vpt 90 270 arc closepath fill
	vpt 0 360 arc closepath} bind def
/C7 {BL [] 0 setdash 2 copy moveto
	2 copy vpt 0 270 arc closepath fill
	vpt 0 360 arc closepath} bind def
/C8 {BL [] 0 setdash 2 copy moveto
	2 copy vpt 270 360 arc closepath fill
	vpt 0 360 arc closepath} bind def
/C9 {BL [] 0 setdash 2 copy moveto
	2 copy vpt 270 450 arc closepath fill
	vpt 0 360 arc closepath} bind def
/C10 {BL [] 0 setdash 2 copy 2 copy moveto vpt 270 360 arc closepath fill
	2 copy moveto
	2 copy vpt 90 180 arc closepath fill
	vpt 0 360 arc closepath} bind def
/C11 {BL [] 0 setdash 2 copy moveto
	2 copy vpt 0 180 arc closepath fill
	2 copy moveto
	2 copy vpt 270 360 arc closepath fill
	vpt 0 360 arc closepath} bind def
/C12 {BL [] 0 setdash 2 copy moveto
	2 copy vpt 180 360 arc closepath fill
	vpt 0 360 arc closepath} bind def
/C13 {BL [] 0 setdash 2 copy moveto
	2 copy vpt 0 90 arc closepath fill
	2 copy moveto
	2 copy vpt 180 360 arc closepath fill
	vpt 0 360 arc closepath} bind def
/C14 {BL [] 0 setdash 2 copy moveto
	2 copy vpt 90 360 arc closepath fill
	vpt 0 360 arc} bind def
/C15 {BL [] 0 setdash 2 copy vpt 0 360 arc closepath fill
	vpt 0 360 arc closepath} bind def
/Rec {newpath 4 2 roll moveto 1 index 0 rlineto 0 exch rlineto
	neg 0 rlineto closepath} bind def
/Square {dup Rec} bind def
/Bsquare {vpt sub exch vpt sub exch vpt2 Square} bind def
/S0 {BL [] 0 setdash 2 copy moveto 0 vpt rlineto BL Bsquare} bind def
/S1 {BL [] 0 setdash 2 copy vpt Square fill Bsquare} bind def
/S2 {BL [] 0 setdash 2 copy exch vpt sub exch vpt Square fill Bsquare} bind def
/S3 {BL [] 0 setdash 2 copy exch vpt sub exch vpt2 vpt Rec fill Bsquare} bind def
/S4 {BL [] 0 setdash 2 copy exch vpt sub exch vpt sub vpt Square fill Bsquare} bind def
/S5 {BL [] 0 setdash 2 copy 2 copy vpt Square fill
	exch vpt sub exch vpt sub vpt Square fill Bsquare} bind def
/S6 {BL [] 0 setdash 2 copy exch vpt sub exch vpt sub vpt vpt2 Rec fill Bsquare} bind def
/S7 {BL [] 0 setdash 2 copy exch vpt sub exch vpt sub vpt vpt2 Rec fill
	2 copy vpt Square fill Bsquare} bind def
/S8 {BL [] 0 setdash 2 copy vpt sub vpt Square fill Bsquare} bind def
/S9 {BL [] 0 setdash 2 copy vpt sub vpt vpt2 Rec fill Bsquare} bind def
/S10 {BL [] 0 setdash 2 copy vpt sub vpt Square fill 2 copy exch vpt sub exch vpt Square fill
	Bsquare} bind def
/S11 {BL [] 0 setdash 2 copy vpt sub vpt Square fill 2 copy exch vpt sub exch vpt2 vpt Rec fill
	Bsquare} bind def
/S12 {BL [] 0 setdash 2 copy exch vpt sub exch vpt sub vpt2 vpt Rec fill Bsquare} bind def
/S13 {BL [] 0 setdash 2 copy exch vpt sub exch vpt sub vpt2 vpt Rec fill
	2 copy vpt Square fill Bsquare} bind def
/S14 {BL [] 0 setdash 2 copy exch vpt sub exch vpt sub vpt2 vpt Rec fill
	2 copy exch vpt sub exch vpt Square fill Bsquare} bind def
/S15 {BL [] 0 setdash 2 copy Bsquare fill Bsquare} bind def
/D0 {gsave translate 45 rotate 0 0 S0 stroke grestore} bind def
/D1 {gsave translate 45 rotate 0 0 S1 stroke grestore} bind def
/D2 {gsave translate 45 rotate 0 0 S2 stroke grestore} bind def
/D3 {gsave translate 45 rotate 0 0 S3 stroke grestore} bind def
/D4 {gsave translate 45 rotate 0 0 S4 stroke grestore} bind def
/D5 {gsave translate 45 rotate 0 0 S5 stroke grestore} bind def
/D6 {gsave translate 45 rotate 0 0 S6 stroke grestore} bind def
/D7 {gsave translate 45 rotate 0 0 S7 stroke grestore} bind def
/D8 {gsave translate 45 rotate 0 0 S8 stroke grestore} bind def
/D9 {gsave translate 45 rotate 0 0 S9 stroke grestore} bind def
/D10 {gsave translate 45 rotate 0 0 S10 stroke grestore} bind def
/D11 {gsave translate 45 rotate 0 0 S11 stroke grestore} bind def
/D12 {gsave translate 45 rotate 0 0 S12 stroke grestore} bind def
/D13 {gsave translate 45 rotate 0 0 S13 stroke grestore} bind def
/D14 {gsave translate 45 rotate 0 0 S14 stroke grestore} bind def
/D15 {gsave translate 45 rotate 0 0 S15 stroke grestore} bind def
/DiaE {stroke [] 0 setdash vpt add M
  hpt neg vpt neg V hpt vpt neg V
  hpt vpt V hpt neg vpt V closepath stroke} def
/BoxE {stroke [] 0 setdash exch hpt sub exch vpt add M
  0 vpt2 neg V hpt2 0 V 0 vpt2 V
  hpt2 neg 0 V closepath stroke} def
/TriUE {stroke [] 0 setdash vpt 1.12 mul add M
  hpt neg vpt -1.62 mul V
  hpt 2 mul 0 V
  hpt neg vpt 1.62 mul V closepath stroke} def
/TriDE {stroke [] 0 setdash vpt 1.12 mul sub M
  hpt neg vpt 1.62 mul V
  hpt 2 mul 0 V
  hpt neg vpt -1.62 mul V closepath stroke} def
/PentE {stroke [] 0 setdash gsave
  translate 0 hpt M 4 {72 rotate 0 hpt L} repeat
  closepath stroke grestore} def
/CircE {stroke [] 0 setdash 
  hpt 0 360 arc stroke} def
/Opaque {gsave closepath 1 setgray fill grestore 0 setgray closepath} def
/DiaW {stroke [] 0 setdash vpt add M
  hpt neg vpt neg V hpt vpt neg V
  hpt vpt V hpt neg vpt V Opaque stroke} def
/BoxW {stroke [] 0 setdash exch hpt sub exch vpt add M
  0 vpt2 neg V hpt2 0 V 0 vpt2 V
  hpt2 neg 0 V Opaque stroke} def
/TriUW {stroke [] 0 setdash vpt 1.12 mul add M
  hpt neg vpt -1.62 mul V
  hpt 2 mul 0 V
  hpt neg vpt 1.62 mul V Opaque stroke} def
/TriDW {stroke [] 0 setdash vpt 1.12 mul sub M
  hpt neg vpt 1.62 mul V
  hpt 2 mul 0 V
  hpt neg vpt -1.62 mul V Opaque stroke} def
/PentW {stroke [] 0 setdash gsave
  translate 0 hpt M 4 {72 rotate 0 hpt L} repeat
  Opaque stroke grestore} def
/CircW {stroke [] 0 setdash 
  hpt 0 360 arc Opaque stroke} def
/BoxFill {gsave Rec 1 setgray fill grestore} def
/Density {
  /Fillden exch def
  currentrgbcolor
  /ColB exch def /ColG exch def /ColR exch def
  /ColR ColR Fillden mul Fillden sub 1 add def
  /ColG ColG Fillden mul Fillden sub 1 add def
  /ColB ColB Fillden mul Fillden sub 1 add def
  ColR ColG ColB setrgbcolor} def
/BoxColFill {gsave Rec PolyFill} def
/PolyFill {gsave Density fill grestore grestore} def
/h {rlineto rlineto rlineto gsave closepath fill grestore} bind def
%
% PostScript Level 1 Pattern Fill routine for rectangles
% Usage: x y w h s a XX PatternFill
%	x,y = lower left corner of box to be filled
%	w,h = width and height of box
%	  a = angle in degrees between lines and x-axis
%	 XX = 0/1 for no/yes cross-hatch
%
/PatternFill {gsave /PFa [ 9 2 roll ] def
  PFa 0 get PFa 2 get 2 div add PFa 1 get PFa 3 get 2 div add translate
  PFa 2 get -2 div PFa 3 get -2 div PFa 2 get PFa 3 get Rec
  TransparentPatterns {} {gsave 1 setgray fill grestore} ifelse
  clip
  currentlinewidth 0.5 mul setlinewidth
  /PFs PFa 2 get dup mul PFa 3 get dup mul add sqrt def
  0 0 M PFa 5 get rotate PFs -2 div dup translate
  0 1 PFs PFa 4 get div 1 add floor cvi
	{PFa 4 get mul 0 M 0 PFs V} for
  0 PFa 6 get ne {
	0 1 PFs PFa 4 get div 1 add floor cvi
	{PFa 4 get mul 0 2 1 roll M PFs 0 V} for
 } if
  stroke grestore} def
%
/languagelevel where
 {pop languagelevel} {1} ifelse
 2 lt
	{/InterpretLevel1 true def}
	{/InterpretLevel1 Level1 def}
 ifelse
%
% PostScript level 2 pattern fill definitions
%
/Level2PatternFill {
/Tile8x8 {/PaintType 2 /PatternType 1 /TilingType 1 /BBox [0 0 8 8] /XStep 8 /YStep 8}
	bind def
/KeepColor {currentrgbcolor [/Pattern /DeviceRGB] setcolorspace} bind def
<< Tile8x8
 /PaintProc {0.5 setlinewidth pop 0 0 M 8 8 L 0 8 M 8 0 L stroke} 
>> matrix makepattern
/Pat1 exch def
<< Tile8x8
 /PaintProc {0.5 setlinewidth pop 0 0 M 8 8 L 0 8 M 8 0 L stroke
	0 4 M 4 8 L 8 4 L 4 0 L 0 4 L stroke}
>> matrix makepattern
/Pat2 exch def
<< Tile8x8
 /PaintProc {0.5 setlinewidth pop 0 0 M 0 8 L
	8 8 L 8 0 L 0 0 L fill}
>> matrix makepattern
/Pat3 exch def
<< Tile8x8
 /PaintProc {0.5 setlinewidth pop -4 8 M 8 -4 L
	0 12 M 12 0 L stroke}
>> matrix makepattern
/Pat4 exch def
<< Tile8x8
 /PaintProc {0.5 setlinewidth pop -4 0 M 8 12 L
	0 -4 M 12 8 L stroke}
>> matrix makepattern
/Pat5 exch def
<< Tile8x8
 /PaintProc {0.5 setlinewidth pop -2 8 M 4 -4 L
	0 12 M 8 -4 L 4 12 M 10 0 L stroke}
>> matrix makepattern
/Pat6 exch def
<< Tile8x8
 /PaintProc {0.5 setlinewidth pop -2 0 M 4 12 L
	0 -4 M 8 12 L 4 -4 M 10 8 L stroke}
>> matrix makepattern
/Pat7 exch def
<< Tile8x8
 /PaintProc {0.5 setlinewidth pop 8 -2 M -4 4 L
	12 0 M -4 8 L 12 4 M 0 10 L stroke}
>> matrix makepattern
/Pat8 exch def
<< Tile8x8
 /PaintProc {0.5 setlinewidth pop 0 -2 M 12 4 L
	-4 0 M 12 8 L -4 4 M 8 10 L stroke}
>> matrix makepattern
/Pat9 exch def
/Pattern1 {PatternBgnd KeepColor Pat1 setpattern} bind def
/Pattern2 {PatternBgnd KeepColor Pat2 setpattern} bind def
/Pattern3 {PatternBgnd KeepColor Pat3 setpattern} bind def
/Pattern4 {PatternBgnd KeepColor Landscape {Pat5} {Pat4} ifelse setpattern} bind def
/Pattern5 {PatternBgnd KeepColor Landscape {Pat4} {Pat5} ifelse setpattern} bind def
/Pattern6 {PatternBgnd KeepColor Landscape {Pat9} {Pat6} ifelse setpattern} bind def
/Pattern7 {PatternBgnd KeepColor Landscape {Pat8} {Pat7} ifelse setpattern} bind def
} def
%
%
%End of PostScript Level 2 code
%
/PatternBgnd {
  TransparentPatterns {} {gsave 1 setgray fill grestore} ifelse
} def
%
% Substitute for Level 2 pattern fill codes with
% grayscale if Level 2 support is not selected.
%
/Level1PatternFill {
/Pattern1 {0.250 Density} bind def
/Pattern2 {0.500 Density} bind def
/Pattern3 {0.750 Density} bind def
/Pattern4 {0.125 Density} bind def
/Pattern5 {0.375 Density} bind def
/Pattern6 {0.625 Density} bind def
/Pattern7 {0.875 Density} bind def
} def
%
% Now test for support of Level 2 code
%
Level1 {Level1PatternFill} {Level2PatternFill} ifelse
%
/Symbol-Oblique /Symbol findfont [1 0 .167 1 0 0] makefont
dup length dict begin {1 index /FID eq {pop pop} {def} ifelse} forall
currentdict end definefont pop
/MFshow {
   { dup 5 get 3 ge
     { 5 get 3 eq {gsave} {grestore} ifelse }
     {dup dup 0 get findfont exch 1 get scalefont setfont
     [ currentpoint ] exch dup 2 get 0 exch R dup 5 get 2 ne {dup dup 6
     get exch 4 get {Gshow} {stringwidth pop 0 R} ifelse }if dup 5 get 0 eq
     {dup 3 get {2 get neg 0 exch R pop} {pop aload pop M} ifelse} {dup 5
     get 1 eq {dup 2 get exch dup 3 get exch 6 get stringwidth pop -2 div
     dup 0 R} {dup 6 get stringwidth pop -2 div 0 R 6 get
     show 2 index {aload pop M neg 3 -1 roll neg R pop pop} {pop pop pop
     pop aload pop M} ifelse }ifelse }ifelse }
     ifelse }
   forall} def
/Gswidth {dup type /stringtype eq {stringwidth} {pop (n) stringwidth} ifelse} def
/MFwidth {0 exch { dup 5 get 3 ge { 5 get 3 eq { 0 } { pop } ifelse }
 {dup 3 get{dup dup 0 get findfont exch 1 get scalefont setfont
     6 get Gswidth pop add} {pop} ifelse} ifelse} forall} def
/MLshow { currentpoint stroke M
  0 exch R
  Blacktext {gsave 0 setgray MFshow grestore} {MFshow} ifelse } bind def
/MRshow { currentpoint stroke M
  exch dup MFwidth neg 3 -1 roll R
  Blacktext {gsave 0 setgray MFshow grestore} {MFshow} ifelse } bind def
/MCshow { currentpoint stroke M
  exch dup MFwidth -2 div 3 -1 roll R
  Blacktext {gsave 0 setgray MFshow grestore} {MFshow} ifelse } bind def
/XYsave    { [( ) 1 2 true false 3 ()] } bind def
/XYrestore { [( ) 1 2 true false 4 ()] } bind def
Level1 SuppressPDFMark or 
{} {
/SDict 10 dict def
systemdict /pdfmark known not {
  userdict /pdfmark systemdict /cleartomark get put
} if
SDict begin [
  /Title (nbrDist.eps)
  /Subject (gnuplot plot)
  /Creator (gnuplot 4.6 patchlevel 2)
  /Author (anju)
%  /Producer (gnuplot)
%  /Keywords ()
  /CreationDate (Thu Sep 19 11:36:14 2019)
  /DOCINFO pdfmark
end
} ifelse
end
%%EndProlog
%%Page: 1 1
gnudict begin
gsave
doclip
50 50 translate
0.050 0.050 scale
0 setgray
newpath
(Helvetica) findfont 160 scalefont setfont
BackgroundColor 0 lt 3 1 roll 0 lt exch 0 lt or or not {BackgroundColor C 1.000 0 0 7200.00 5040.00 BoxColFill} if
1.000 UL
LTb
LCb setrgbcolor
1072 512 M
63 0 V
5776 0 R
-63 0 V
stroke
976 512 M
[ [(Helvetica) 160.0 0.0 true true 0 ( 1)]
] -53.3 MRshow
1.000 UL
LTb
LCb setrgbcolor
1072 698 M
31 0 V
5808 0 R
-31 0 V
1072 945 M
31 0 V
5808 0 R
-31 0 V
1072 1071 M
31 0 V
5808 0 R
-31 0 V
-5808 60 R
63 0 V
5776 0 R
-63 0 V
stroke
976 1131 M
[ [(Helvetica) 160.0 0.0 true true 0 ( 10)]
] -53.3 MRshow
1.000 UL
LTb
LCb setrgbcolor
1072 1318 M
31 0 V
5808 0 R
-31 0 V
1072 1564 M
31 0 V
5808 0 R
-31 0 V
1072 1691 M
31 0 V
5808 0 R
-31 0 V
-5808 60 R
63 0 V
5776 0 R
-63 0 V
stroke
976 1751 M
[ [(Helvetica) 160.0 0.0 true true 0 ( 100)]
] -53.3 MRshow
1.000 UL
LTb
LCb setrgbcolor
1072 1937 M
31 0 V
5808 0 R
-31 0 V
1072 2183 M
31 0 V
5808 0 R
-31 0 V
1072 2310 M
31 0 V
5808 0 R
-31 0 V
-5808 60 R
63 0 V
5776 0 R
-63 0 V
stroke
976 2370 M
[ [(Helvetica) 160.0 0.0 true true 0 ( 1000)]
] -53.3 MRshow
1.000 UL
LTb
LCb setrgbcolor
1072 2556 M
31 0 V
5808 0 R
-31 0 V
1072 2803 M
31 0 V
5808 0 R
-31 0 V
1072 2929 M
31 0 V
5808 0 R
-31 0 V
-5808 60 R
63 0 V
5776 0 R
-63 0 V
stroke
976 2989 M
[ [(Helvetica) 160.0 0.0 true true 0 ( 10000)]
] -53.3 MRshow
1.000 UL
LTb
LCb setrgbcolor
1072 3176 M
31 0 V
5808 0 R
-31 0 V
1072 3422 M
31 0 V
5808 0 R
-31 0 V
1072 3548 M
31 0 V
5808 0 R
-31 0 V
-5808 60 R
63 0 V
5776 0 R
-63 0 V
stroke
976 3608 M
[ [(Helvetica) 160.0 0.0 true true 0 ( 100000)]
] -53.3 MRshow
1.000 UL
LTb
LCb setrgbcolor
1072 3795 M
31 0 V
5808 0 R
-31 0 V
1072 4041 M
31 0 V
5808 0 R
-31 0 V
1072 4168 M
31 0 V
5808 0 R
-31 0 V
-5808 60 R
63 0 V
5776 0 R
-63 0 V
stroke
976 4228 M
[ [(Helvetica) 160.0 0.0 true true 0 ( 1e+06)]
] -53.3 MRshow
1.000 UL
LTb
LCb setrgbcolor
1072 4414 M
31 0 V
5808 0 R
-31 0 V
1072 4661 M
31 0 V
5808 0 R
-31 0 V
1072 4787 M
31 0 V
5808 0 R
-31 0 V
-5808 60 R
63 0 V
5776 0 R
-63 0 V
stroke
976 4847 M
[ [(Helvetica) 160.0 0.0 true true 0 ( 1e+07)]
] -53.3 MRshow
1.000 UL
LTb
LCb setrgbcolor
1072 512 M
0 63 V
0 4272 R
0 -63 V
stroke
1072 352 M
[ [(Helvetica) 160.0 0.0 true true 0 ( 0)]
] -53.3 MCshow
1.000 UL
LTb
LCb setrgbcolor
1721 512 M
0 63 V
0 4272 R
0 -63 V
stroke
1721 352 M
[ [(Helvetica) 160.0 0.0 true true 0 ( 200)]
] -53.3 MCshow
1.000 UL
LTb
LCb setrgbcolor
2370 512 M
0 63 V
0 4272 R
0 -63 V
stroke
2370 352 M
[ [(Helvetica) 160.0 0.0 true true 0 ( 400)]
] -53.3 MCshow
1.000 UL
LTb
LCb setrgbcolor
3018 512 M
0 63 V
0 4272 R
0 -63 V
stroke
3018 352 M
[ [(Helvetica) 160.0 0.0 true true 0 ( 600)]
] -53.3 MCshow
1.000 UL
LTb
LCb setrgbcolor
3667 512 M
0 63 V
0 4272 R
0 -63 V
stroke
3667 352 M
[ [(Helvetica) 160.0 0.0 true true 0 ( 800)]
] -53.3 MCshow
1.000 UL
LTb
LCb setrgbcolor
4316 512 M
0 63 V
0 4272 R
0 -63 V
stroke
4316 352 M
[ [(Helvetica) 160.0 0.0 true true 0 ( 1000)]
] -53.3 MCshow
1.000 UL
LTb
LCb setrgbcolor
4965 512 M
0 63 V
0 4272 R
0 -63 V
stroke
4965 352 M
[ [(Helvetica) 160.0 0.0 true true 0 ( 1200)]
] -53.3 MCshow
1.000 UL
LTb
LCb setrgbcolor
5613 512 M
0 63 V
0 4272 R
0 -63 V
stroke
5613 352 M
[ [(Helvetica) 160.0 0.0 true true 0 ( 1400)]
] -53.3 MCshow
1.000 UL
LTb
LCb setrgbcolor
6262 512 M
0 63 V
0 4272 R
0 -63 V
stroke
6262 352 M
[ [(Helvetica) 160.0 0.0 true true 0 ( 1600)]
] -53.3 MCshow
1.000 UL
LTb
LCb setrgbcolor
6911 512 M
0 63 V
0 4272 R
0 -63 V
stroke
6911 352 M
[ [(Helvetica) 160.0 0.0 true true 0 ( 1800)]
] -53.3 MCshow
1.000 UL
LTb
LCb setrgbcolor
1.000 UL
LTb
LCb setrgbcolor
1072 4847 N
0 -4335 V
5839 0 V
0 4335 V
-5839 0 V
Z stroke
LCb setrgbcolor
128 2679 M
currentpoint gsave translate -270 rotate 0 0 moveto
[ [(Helvetica) 160.0 0.0 true true 0 (Number of points with each degree)]
] -53.3 MCshow
grestore
LTb
LCb setrgbcolor
3991 112 M
[ [(Helvetica) 160.0 0.0 true true 0 (Degree)]
] -53.3 MCshow
LTb
1.000 UP
1.000 UL
LTb
LCb setrgbcolor
% Begin plot #1
0.200 UP
2.000 UL
LT0
0.00 0.38 0.68 C 1072 4585 M
3 -20 V
3 -40 V
4 -46 V
3 -52 V
3 -55 V
3 -57 V
4 -59 V
3 -59 V
3 -60 V
3 -58 V
4 -56 V
3 -55 V
3 -51 V
3 -49 V
4 -45 V
3 -43 V
3 -39 V
3 -37 V
4 -34 V
3 -29 V
3 -32 V
3 -28 V
4 -22 V
3 -23 V
3 -25 V
3 -16 V
4 -20 V
3 -19 V
3 -17 V
3 -19 V
4 -15 V
3 -12 V
3 -11 V
3 -13 V
4 -10 V
3 -13 V
3 -8 V
3 -11 V
4 -11 V
3 -13 V
3 -13 V
3 -3 V
3 -12 V
4 -11 V
3 -7 V
3 -5 V
3 -10 V
4 -6 V
3 -4 V
3 -11 V
3 -5 V
4 -7 V
3 -8 V
3 -1 V
3 -6 V
4 -9 V
3 0 V
3 -8 V
3 -2 V
4 -1 V
3 -7 V
3 -5 V
3 -2 V
4 0 V
3 -4 V
3 -8 V
3 -8 V
4 -1 V
3 3 V
3 -5 V
3 -3 V
4 3 V
3 -10 V
3 7 V
3 -3 V
4 -3 V
3 -5 V
3 2 V
3 -1 V
4 -2 V
3 -2 V
3 -1 V
3 0 V
3 2 V
4 0 V
3 -3 V
3 1 V
3 -1 V
4 1 V
3 4 V
3 -4 V
3 0 V
4 5 V
3 -1 V
3 -3 V
3 0 V
4 1 V
3 -5 V
3 0 V
3 1 V
4 0 V
3 4 V
3 -2 V
3 5 V
stroke 1409 3124 M
4 0 V
3 -2 V
3 1 V
3 5 V
4 1 V
3 -1 V
3 2 V
3 -1 V
4 1 V
3 2 V
3 -5 V
3 10 V
4 -2 V
3 -6 V
3 0 V
3 2 V
4 3 V
3 -3 V
3 -1 V
3 1 V
3 -1 V
4 5 V
3 -4 V
3 -4 V
3 1 V
4 -2 V
3 -2 V
3 2 V
3 -4 V
4 -2 V
3 2 V
3 0 V
3 2 V
4 1 V
3 -3 V
3 2 V
3 -7 V
4 -1 V
3 2 V
3 -1 V
3 -7 V
4 0 V
3 1 V
3 -2 V
3 -5 V
4 4 V
3 -7 V
3 1 V
3 -6 V
4 -9 V
3 6 V
3 -4 V
3 -1 V
4 -7 V
3 -3 V
3 -5 V
3 -4 V
4 1 V
3 -4 V
3 -4 V
3 4 V
3 -10 V
4 -4 V
3 -4 V
3 -5 V
3 -2 V
4 -8 V
3 8 V
3 -11 V
3 -13 V
4 3 V
3 -3 V
3 -9 V
3 2 V
4 -5 V
3 -10 V
3 6 V
3 -12 V
4 -4 V
3 -5 V
3 2 V
3 -8 V
4 -5 V
3 -4 V
3 -5 V
3 -12 V
4 -5 V
3 0 V
3 -15 V
3 -9 V
4 2 V
3 6 V
3 -8 V
3 -14 V
4 0 V
3 -4 V
3 -14 V
3 4 V
4 2 V
3 -12 V
3 -13 V
3 -4 V
3 -5 V
4 -4 V
stroke 1747 2855 M
3 -11 V
3 3 V
3 -7 V
4 -14 V
3 -5 V
3 8 V
3 -10 V
4 -23 V
3 0 V
3 -4 V
3 -11 V
4 9 V
3 -9 V
3 -8 V
3 0 V
4 -3 V
3 1 V
3 -13 V
3 -2 V
4 1 V
3 2 V
3 -22 V
3 -8 V
4 13 V
3 -7 V
3 -15 V
3 -3 V
4 9 V
3 -8 V
3 -12 V
3 -1 V
4 -19 V
3 -3 V
3 8 V
3 -7 V
4 -2 V
3 -17 V
3 5 V
3 5 V
3 -22 V
4 -6 V
3 1 V
3 -5 V
3 -4 V
4 -7 V
3 -1 V
3 -12 V
3 15 V
4 -19 V
3 7 V
3 -22 V
3 21 V
4 -18 V
3 10 V
3 -11 V
3 -12 V
4 6 V
3 -15 V
3 6 V
3 -18 V
4 4 V
3 -19 V
3 -11 V
3 18 V
4 -18 V
3 -6 V
3 4 V
3 -5 V
4 -2 V
3 -8 V
3 4 V
3 2 V
4 1 V
3 -12 V
3 -12 V
3 9 V
4 1 V
3 1 V
3 -5 V
3 -25 V
3 14 V
4 7 V
3 -32 V
3 -5 V
3 11 V
4 -16 V
3 -8 V
3 5 V
3 -6 V
4 -13 V
3 14 V
3 7 V
3 -8 V
4 -11 V
3 -7 V
3 -1 V
3 1 V
4 -1 V
3 -24 V
3 14 V
3 31 V
4 -27 V
3 1 V
3 -10 V
stroke 2084 2426 M
3 11 V
4 0 V
3 -1 V
3 3 V
3 -3 V
4 -14 V
3 -20 V
3 18 V
3 -17 V
4 -7 V
3 -2 V
3 1 V
3 -7 V
4 -13 V
3 12 V
3 -5 V
3 24 V
3 -6 V
4 7 V
3 -20 V
3 6 V
3 -6 V
4 -13 V
3 9 V
3 -1 V
3 6 V
4 2 V
3 -10 V
3 29 V
3 -31 V
4 37 V
3 -18 V
3 -12 V
3 -11 V
4 -5 V
3 16 V
3 -7 V
3 -20 V
4 21 V
3 -13 V
3 4 V
3 -21 V
4 -12 V
3 4 V
3 15 V
3 -4 V
4 -1 V
3 -9 V
3 2 V
3 10 V
4 -9 V
3 12 V
3 -23 V
3 23 V
4 -3 V
3 0 V
3 -8 V
3 -11 V
3 -23 V
4 18 V
3 5 V
3 -8 V
3 -11 V
4 -6 V
3 -15 V
3 -1 V
3 -4 V
4 14 V
3 -16 V
3 15 V
3 -20 V
4 39 V
3 -36 V
3 11 V
3 -36 V
4 22 V
3 10 V
3 18 V
3 -20 V
4 5 V
3 -30 V
3 -4 V
3 10 V
4 -11 V
3 -5 V
3 -1 V
3 -26 V
4 -7 V
3 24 V
3 21 V
3 -4 V
4 5 V
3 -32 V
3 12 V
3 -2 V
4 -5 V
3 -14 V
3 18 V
3 8 V
3 -18 V
4 -6 V
3 25 V
3 1 V
3 -13 V
stroke 2421 2242 M
4 -14 V
3 5 V
3 -1 V
3 -15 V
4 2 V
3 -5 V
3 1 V
3 -8 V
4 -19 V
3 19 V
3 39 V
3 -13 V
4 -27 V
3 20 V
3 -20 V
3 29 V
4 -27 V
3 18 V
3 -20 V
3 -10 V
4 28 V
3 -38 V
3 23 V
3 -17 V
4 5 V
3 -20 V
3 -14 V
3 1 V
4 -6 V
3 -38 V
3 19 V
3 8 V
4 37 V
3 -26 V
3 4 V
3 -16 V
3 15 V
4 14 V
3 15 V
3 -16 V
3 -10 V
4 -23 V
3 35 V
3 17 V
3 0 V
4 4 V
3 64 V
3 -51 V
3 -98 V
4 -5 V
3 -6 V
3 -13 V
3 8 V
4 -19 V
3 7 V
3 15 V
3 -36 V
4 0 V
3 3 V
3 9 V
3 28 V
4 -45 V
3 -10 V
3 -4 V
3 24 V
4 -35 V
3 31 V
3 -10 V
3 9 V
4 -8 V
3 -5 V
3 -24 V
3 1 V
4 7 V
3 -10 V
3 15 V
3 -13 V
3 -27 V
4 19 V
3 -9 V
3 41 V
3 7 V
4 3 V
3 -29 V
3 -10 V
3 27 V
4 -19 V
3 11 V
3 -47 V
3 44 V
4 -49 V
3 54 V
3 -1 V
3 -18 V
4 -53 V
3 31 V
3 -6 V
3 36 V
4 -26 V
3 -20 V
3 23 V
3 -11 V
4 24 V
3 -37 V
stroke 2759 1984 M
3 -51 V
3 38 V
4 16 V
3 -20 V
3 -11 V
3 65 V
4 -8 V
3 -15 V
3 -34 V
3 11 V
4 -56 V
3 54 V
3 -8 V
3 20 V
3 -10 V
4 12 V
3 -55 V
3 32 V
3 -39 V
4 -16 V
3 -2 V
3 49 V
3 -58 V
4 57 V
3 -78 V
3 23 V
3 36 V
4 39 V
3 -21 V
3 -4 V
3 -28 V
4 0 V
3 -7 V
3 -25 V
3 66 V
4 -33 V
3 -1 V
3 12 V
3 -11 V
4 -23 V
3 -13 V
3 11 V
3 18 V
4 -7 V
3 -16 V
3 34 V
3 9 V
4 -20 V
3 -3 V
3 3 V
3 -6 V
4 -28 V
3 34 V
3 3 V
3 -7 V
3 18 V
4 -18 V
3 74 V
3 -37 V
3 17 V
4 -34 V
3 -5 V
3 13 V
3 0 V
4 -2 V
3 -28 V
3 -26 V
3 -10 V
4 24 V
3 -18 V
3 53 V
3 -35 V
4 -59 V
3 38 V
3 -2 V
3 -24 V
4 -10 V
3 22 V
3 9 V
3 28 V
4 -59 V
3 -8 V
3 30 V
3 -30 V
4 46 V
3 0 V
3 -14 V
3 12 V
4 11 V
3 -59 V
3 69 V
3 -81 V
4 20 V
3 14 V
3 9 V
3 -27 V
3 62 V
4 -58 V
3 26 V
3 -40 V
3 -23 V
4 -12 V
3 -9 V
3 52 V
stroke 3096 1831 M
3 -31 V
4 54 V
3 -2 V
3 -17 V
3 -8 V
4 -10 V
3 -17 V
3 51 V
3 -72 V
4 54 V
3 -102 V
3 62 V
3 -22 V
4 19 V
3 -11 V
3 40 V
3 -29 V
4 10 V
3 0 V
3 11 V
3 -50 V
4 32 V
3 15 V
3 -27 V
3 -77 V
4 84 V
3 37 V
3 4 V
3 23 V
4 -46 V
3 -64 V
3 58 V
3 -44 V
3 59 V
4 -18 V
3 -69 V
3 -24 V
3 52 V
4 -34 V
3 9 V
3 40 V
3 -7 V
4 22 V
3 -86 V
3 48 V
3 73 V
4 -117 V
3 21 V
3 58 V
3 -24 V
4 -8 V
3 -3 V
3 -51 V
3 40 V
4 -71 V
3 31 V
3 3 V
3 7 V
4 -37 V
3 21 V
3 -56 V
3 20 V
4 -16 V
3 103 V
3 -29 V
3 -19 V
4 34 V
3 6 V
3 -37 V
3 -79 V
4 59 V
3 -7 V
3 43 V
3 -74 V
3 98 V
4 -12 V
3 -48 V
3 63 V
3 8 V
4 -86 V
3 25 V
3 10 V
3 -13 V
4 23 V
3 69 V
3 -57 V
3 0 V
4 -15 V
3 -61 V
3 73 V
3 -39 V
4 3 V
3 -29 V
3 -33 V
3 59 V
4 3 V
3 -45 V
3 23 V
3 -19 V
4 34 V
3 -60 V
3 34 V
3 37 V
4 -11 V
stroke 3434 1673 M
3 -114 V
3 67 V
3 5 V
4 60 V
3 -44 V
3 53 V
3 69 V
4 -99 V
3 37 V
3 -27 V
3 17 V
3 -46 V
4 -61 V
3 -86 V
3 131 V
3 8 V
4 -95 V
3 95 V
3 27 V
3 49 V
4 -42 V
3 -73 V
3 43 V
3 -8 V
4 -44 V
3 -112 V
3 41 V
3 45 V
4 -33 V
3 0 V
3 -25 V
3 79 V
4 -48 V
3 -12 V
3 6 V
3 86 V
4 -125 V
3 72 V
3 0 V
3 86 V
4 -60 V
3 56 V
3 -29 V
3 9 V
4 -46 V
3 58 V
3 -95 V
3 74 V
4 -53 V
3 -45 V
3 98 V
3 -32 V
3 -10 V
4 -104 V
3 119 V
3 52 V
3 -25 V
4 -18 V
3 -107 V
3 0 V
3 -7 V
4 -22 V
3 145 V
3 -89 V
3 29 V
4 6 V
3 -11 V
3 16 V
3 58 V
4 -132 V
3 14 V
3 -28 V
3 28 V
4 13 V
3 -13 V
3 32 V
3 -6 V
4 -6 V
3 18 V
3 33 V
3 68 V
4 -4 V
3 -109 V
3 -54 V
3 83 V
4 -35 V
3 -7 V
3 -20 V
3 0 V
4 -119 V
3 98 V
3 -145 V
3 113 V
3 -8 V
4 75 V
3 0 V
3 -168 V
3 -25 V
4 186 V
3 -96 V
3 -65 V
3 174 V
4 -34 V
3 -75 V
stroke 3771 1408 M
3 28 V
3 -93 V
4 101 V
3 -36 V
3 -119 V
3 15 V
4 148 V
3 -64 V
3 39 V
3 -49 V
4 -23 V
3 -24 V
3 -260 V
3 247 V
4 -78 V
3 228 V
3 -125 V
3 -85 V
4 -18 V
3 -83 V
3 23 V
3 138 V
4 -44 V
3 44 V
3 -14 V
3 39 V
4 -39 V
3 39 V
3 -186 V
3 45 V
3 56 V
4 -56 V
3 56 V
3 0 V
3 73 V
4 -260 V
3 218 V
3 -31 V
3 0 V
4 97 V
3 -115 V
3 18 V
3 73 V
4 -73 V
3 0 V
3 232 V
3 -201 V
4 -109 V
3 60 V
3 34 V
3 15 V
4 0 V
3 -158 V
3 109 V
3 -205 V
4 269 V
3 -64 V
3 127 V
3 -63 V
4 -64 V
3 34 V
3 -117 V
3 174 V
4 -174 V
3 -86 V
3 32 V
3 -109 V
4 137 V
3 -96 V
3 96 V
3 -137 V
3 77 V
4 -373 V
3 0 V
3 247 V
3 212 V
4 -163 V
3 228 V
3 -277 V
3 0 V
4 158 V
3 28 V
3 -246 V
3 0 V
4 60 V
3 49 V
6 -109 V
4 0 V
3 60 V
3 49 V
3 41 V
4 -228 V
3 138 V
3 -138 V
3 228 V
4 -150 V
3 -78 V
6 296 V
4 -109 V
3 77 V
3 -559 V
3 433 V
4 -433 V
3 559 V
stroke 4115 1071 M
3 0 V
3 32 V
3 0 V
4 -109 V
3 -49 V
3 90 V
3 68 V
4 -109 V
3 41 V
3 -90 V
3 90 V
4 -90 V
3 0 V
3 158 V
3 -296 V
4 395 V
3 -99 V
3 -32 V
3 -77 V
4 -187 V
3 296 V
3 0 V
3 0 V
4 0 V
3 -158 V
3 90 V
3 -90 V
4 212 V
3 -86 V
3 -36 V
3 122 V
4 45 V
3 -257 V
3 -60 V
3 355 V
4 -109 V
3 -28 V
3 -68 V
3 68 V
4 -68 V
3 0 V
3 187 V
3 109 V
3 0 V
4 47 V
3 82 V
3 -258 V
3 87 V
4 -15 V
3 -203 V
3 233 V
3 -82 V
4 166 V
3 -21 V
3 41 V
3 0 V
4 -10 V
3 0 V
3 -55 V
3 109 V
4 -134 V
3 -14 V
3 -147 V
3 65 V
4 -151 V
3 60 V
3 49 V
3 22 V
4 -71 V
3 127 V
3 -78 V
3 -49 V
4 -60 V
3 32 V
3 54 V
3 23 V
4 22 V
3 -99 V
3 28 V
3 -28 V
4 -32 V
3 131 V
3 -131 V
3 169 V
3 -38 V
4 -257 V
3 212 V
3 -163 V
3 41 V
4 0 V
3 0 V
3 -228 V
3 0 V
4 -109 V
3 109 V
3 138 V
3 -60 V
4 150 V
3 -228 V
3 264 V
3 32 V
4 -158 V
3 90 V
3 68 V
stroke 4452 1103 M
3 54 V
4 -122 V
3 36 V
3 -373 V
3 187 V
4 218 V
3 -32 V
3 32 V
3 119 V
4 -119 V
3 119 V
3 -65 V
3 -122 V
4 187 V
3 -151 V
3 60 V
3 -137 V
4 137 V
3 127 V
3 -560 V
3 433 V
3 71 V
4 56 V
3 31 V
3 15 V
3 -124 V
4 -77 V
3 77 V
3 -77 V
3 -109 V
4 137 V
3 -96 V
3 -228 V
3 78 V
4 60 V
3 0 V
3 126 V
3 0 V
4 86 V
3 -459 V
3 337 V
3 0 V
4 -228 V
3 228 V
3 -228 V
3 -109 V
4 296 V
3 41 V
3 -41 V
3 -49 V
4 -60 V
3 -187 V
3 187 V
3 0 V
4 0 V
3 246 V
3 -186 V
3 0 V
4 49 V
3 0 V
3 109 V
3 -296 V
3 228 V
4 68 V
3 0 V
3 -218 V
3 -78 V
4 187 V
3 0 V
3 -187 V
3 -109 V
4 0 V
3 -186 V
3 295 V
3 78 V
4 -78 V
3 228 V
6 -337 V
4 0 V
3 109 V
3 0 V
3 0 V
4 0 V
3 187 V
3 -482 V
3 186 V
4 187 V
3 218 V
3 -109 V
3 -109 V
4 218 V
3 -32 V
3 -36 V
3 -337 V
4 337 V
3 -41 V
3 -49 V
3 -60 V
4 -78 V
3 -109 V
3 187 V
3 0 V
3 109 V
4 -49 V
stroke 4793 945 M
3 212 V
3 -122 V
3 -228 V
4 187 V
3 -109 V
3 -373 V
3 482 V
4 -109 V
3 186 V
3 -373 V
3 187 V
4 150 V
3 96 V
3 -186 V
3 -138 V
4 138 V
3 49 V
3 -49 V
3 186 V
4 -96 V
3 36 V
3 -126 V
3 126 V
4 -36 V
3 -90 V
3 49 V
3 41 V
4 36 V
3 -77 V
3 41 V
3 122 V
4 23 V
3 -109 V
3 60 V
3 26 V
4 83 V
3 18 V
3 -187 V
3 109 V
3 -145 V
4 269 V
3 -46 V
3 -127 V
3 127 V
4 -78 V
3 22 V
3 56 V
3 -18 V
4 -18 V
3 0 V
3 67 V
3 -132 V
4 23 V
3 -109 V
3 109 V
3 -49 V
4 71 V
3 -257 V
3 212 V
3 -86 V
4 109 V
3 -186 V
3 208 V
3 -45 V
4 23 V
3 -109 V
3 169 V
3 34 V
4 -171 V
3 0 V
3 28 V
3 49 V
4 42 V
3 -91 V
3 -96 V
3 0 V
4 -90 V
3 212 V
3 -26 V
3 26 V
3 45 V
4 -395 V
3 228 V
3 36 V
3 131 V
4 -99 V
3 -32 V
3 60 V
3 0 V
4 49 V
3 -145 V
3 0 V
3 -90 V
4 90 V
3 -228 V
3 138 V
3 158 V
4 -405 V
3 247 V
3 90 V
3 -41 V
4 -49 V
3 212 V
3 0 V
stroke 5130 1157 M
3 45 V
4 -22 V
3 42 V
3 67 V
3 89 V
4 -89 V
3 138 V
3 -109 V
3 0 V
4 37 V
3 -252 V
3 -68 V
3 122 V
4 -122 V
3 -41 V
3 163 V
3 -122 V
3 36 V
4 -36 V
3 -150 V
3 -187 V
3 187 V
4 0 V
3 -78 V
3 296 V
3 -32 V
4 -36 V
3 -150 V
3 109 V
3 -109 V
4 60 V
3 49 V
3 -187 V
3 0 V
4 138 V
3 0 V
3 -138 V
3 78 V
4 -187 V
3 187 V
3 -187 V
3 0 V
4 373 V
3 -126 V
3 -247 V
3 0 V
4 109 V
3 138 V
3 0 V
3 90 V
4 -228 V
3 138 V
3 90 V
3 -150 V
4 186 V
3 -77 V
3 41 V
3 -523 V
3 482 V
4 -49 V
3 -138 V
6 228 V
4 -150 V
3 -187 V
3 -186 V
3 186 V
4 247 V
3 -247 V
3 -186 V
7 186 V
3 187 V
3 -187 V
3 187 V
4 0 V
9 -373 V
4 295 V
3 78 V
6 -373 V
4 186 V
3 109 V
3 -109 V
3 109 V
4 -295 V
3 186 V
3 0 V
3 -186 V
4 186 V
3 -186 V
3 186 V
3 -186 V
7 295 V
3 0 V
3 78 V
3 0 V
4 -187 V
3 -186 V
3 295 V
3 0 V
4 78 V
3 -373 V
3 373 V
3 60 V
4 0 V
3 -433 V
stroke 5487 512 M
3 373 V
3 -78 V
13 -109 V
4 0 V
6 0 V
3 0 V
4 109 V
3 -109 V
3 247 V
3 -433 V
4 295 V
3 -295 V
3 373 V
3 -373 V
4 0 V
3 295 V
3 187 V
3 -187 V
4 78 V
3 150 V
3 -228 V
3 -109 V
4 109 V
3 78 V
3 -187 V
3 247 V
3 -60 V
4 -187 V
3 0 V
3 187 V
7 0 V
3 -187 V
3 187 V
3 -373 V
4 0 V
3 295 V
3 78 V
3 -373 V
4 433 V
3 -433 V
3 0 V
7 186 V
3 0 V
3 247 V
3 -247 V
4 109 V
3 78 V
3 -373 V
3 373 V
4 -187 V
3 187 V
3 -373 V
3 433 V
4 -247 V
3 187 V
3 -373 V
3 295 V
4 -109 V
3 187 V
3 -187 V
3 -186 V
4 0 V
3 186 V
3 0 V
3 -186 V
3 0 V
4 0 V
3 186 V
3 -186 V
3 0 V
4 0 V
3 186 V
3 -186 V
3 186 V
4 -186 V
3 0 V
3 186 V
3 109 V
4 -109 V
3 -186 V
6 0 V
4 295 V
3 -109 V
3 296 V
3 -296 V
4 -186 V
3 0 V
6 0 V
4 295 V
3 -295 V
3 295 V
3 -295 V
10 186 V
3 -186 V
4 186 V
6 109 V
3 -295 V
4 0 V
6 0 V
3 0 V
7 295 V
6 -109 V
3 -186 V
4 186 V
stroke 5870 698 M
6 296 V
3 -482 V
4 0 V
6 295 V
3 -295 V
7 186 V
3 -186 V
3 295 V
4 -109 V
6 -186 V
3 0 V
7 0 V
6 0 V
4 0 V
13 186 V
3 0 V
6 -186 V
13 186 V
7 109 V
6 -295 V
7 0 V
6 0 V
13 0 V
3 0 V
7 0 V
3 0 V
3 0 V
10 0 V
7 0 V
3 186 V
29 -186 V
10 0 V
13 0 V
3 0 V
16 0 V
7 186 V
6 -186 V
3 0 V
7 0 V
10 0 V
6 0 V
7 0 V
3 186 V
6 0 V
7 109 V
3 -295 V
7 0 V
3 0 V
6 0 V
4 0 V
19 0 V
16 0 V
10 0 V
10 0 V
19 0 V
7 0 V
3 0 V
10 0 V
19 0 V
3 0 V
17 295 V
16 -295 V
13 0 V
3 0 V
7 0 V
3 0 V
16 0 V
10 0 V
9 0 V
10 0 V
3 0 V
13 0 V
4 0 V
3 0 V
6 433 V
4 -247 V
3 0 V
3 0 V
7 187 V
3 0 V
3 -373 V
3 295 V
4 0 V
3 0 V
3 -109 V
3 0 V
4 -186 V
3 0 V
3 295 V
3 -109 V
4 0 V
6 0 V
3 -186 V
3 186 V
4 0 V
3 -186 V
3 0 V
3 295 V
4 -295 V
3 0 V
3 186 V
7 0 V
3 0 V
6 247 V
stroke 6557 945 M
4 -60 V
3 -187 V
3 0 V
7 0 V
3 0 V
3 0 V
3 109 V
4 -295 V
3 0 V
6 186 V
1072 4585 CircleF
1075 4565 CircleF
1078 4525 CircleF
1082 4479 CircleF
1085 4427 CircleF
1088 4372 CircleF
1091 4315 CircleF
1095 4256 CircleF
1098 4197 CircleF
1101 4137 CircleF
1104 4079 CircleF
1108 4023 CircleF
1111 3968 CircleF
1114 3917 CircleF
1117 3868 CircleF
1121 3823 CircleF
1124 3780 CircleF
1127 3741 CircleF
1130 3704 CircleF
1134 3670 CircleF
1137 3641 CircleF
1140 3609 CircleF
1143 3581 CircleF
1147 3559 CircleF
1150 3536 CircleF
1153 3511 CircleF
1156 3495 CircleF
1160 3475 CircleF
1163 3456 CircleF
1166 3439 CircleF
1169 3420 CircleF
1173 3405 CircleF
1176 3393 CircleF
1179 3382 CircleF
1182 3369 CircleF
1186 3359 CircleF
1189 3346 CircleF
1192 3338 CircleF
1195 3327 CircleF
1199 3316 CircleF
1202 3303 CircleF
1205 3290 CircleF
1208 3287 CircleF
1211 3275 CircleF
1215 3264 CircleF
1218 3257 CircleF
1221 3252 CircleF
1224 3242 CircleF
1228 3236 CircleF
1231 3232 CircleF
1234 3221 CircleF
1237 3216 CircleF
1241 3209 CircleF
1244 3201 CircleF
1247 3200 CircleF
1250 3194 CircleF
1254 3185 CircleF
1257 3185 CircleF
1260 3177 CircleF
1263 3175 CircleF
1267 3174 CircleF
1270 3167 CircleF
1273 3162 CircleF
1276 3160 CircleF
1280 3160 CircleF
1283 3156 CircleF
1286 3148 CircleF
1289 3140 CircleF
1293 3139 CircleF
1296 3142 CircleF
1299 3137 CircleF
1302 3134 CircleF
1306 3137 CircleF
1309 3127 CircleF
1312 3134 CircleF
1315 3131 CircleF
1319 3128 CircleF
1322 3123 CircleF
1325 3125 CircleF
1328 3124 CircleF
1332 3122 CircleF
1335 3120 CircleF
1338 3119 CircleF
1341 3119 CircleF
1344 3121 CircleF
1348 3121 CircleF
1351 3118 CircleF
1354 3119 CircleF
1357 3118 CircleF
1361 3119 CircleF
1364 3123 CircleF
1367 3119 CircleF
1370 3119 CircleF
1374 3124 CircleF
1377 3123 CircleF
1380 3120 CircleF
1383 3120 CircleF
1387 3121 CircleF
1390 3116 CircleF
1393 3116 CircleF
1396 3117 CircleF
1400 3117 CircleF
1403 3121 CircleF
1406 3119 CircleF
1409 3124 CircleF
1413 3124 CircleF
1416 3122 CircleF
1419 3123 CircleF
1422 3128 CircleF
1426 3129 CircleF
1429 3128 CircleF
1432 3130 CircleF
1435 3129 CircleF
1439 3130 CircleF
1442 3132 CircleF
1445 3127 CircleF
1448 3137 CircleF
1452 3135 CircleF
1455 3129 CircleF
1458 3129 CircleF
1461 3131 CircleF
1465 3134 CircleF
1468 3131 CircleF
1471 3130 CircleF
1474 3131 CircleF
1477 3130 CircleF
1481 3135 CircleF
1484 3131 CircleF
1487 3127 CircleF
1490 3128 CircleF
1494 3126 CircleF
1497 3124 CircleF
1500 3126 CircleF
1503 3122 CircleF
1507 3120 CircleF
1510 3122 CircleF
1513 3122 CircleF
1516 3124 CircleF
1520 3125 CircleF
1523 3122 CircleF
1526 3124 CircleF
1529 3117 CircleF
1533 3116 CircleF
1536 3118 CircleF
1539 3117 CircleF
1542 3110 CircleF
1546 3110 CircleF
1549 3111 CircleF
1552 3109 CircleF
1555 3104 CircleF
1559 3108 CircleF
1562 3101 CircleF
1565 3102 CircleF
1568 3096 CircleF
1572 3087 CircleF
1575 3093 CircleF
1578 3089 CircleF
1581 3088 CircleF
1585 3081 CircleF
1588 3078 CircleF
1591 3073 CircleF
1594 3069 CircleF
1598 3070 CircleF
1601 3066 CircleF
1604 3062 CircleF
1607 3066 CircleF
1610 3056 CircleF
1614 3052 CircleF
1617 3048 CircleF
1620 3043 CircleF
1623 3041 CircleF
1627 3033 CircleF
1630 3041 CircleF
1633 3030 CircleF
1636 3017 CircleF
1640 3020 CircleF
1643 3017 CircleF
1646 3008 CircleF
1649 3010 CircleF
1653 3005 CircleF
1656 2995 CircleF
1659 3001 CircleF
1662 2989 CircleF
1666 2985 CircleF
1669 2980 CircleF
1672 2982 CircleF
1675 2974 CircleF
1679 2969 CircleF
1682 2965 CircleF
1685 2960 CircleF
1688 2948 CircleF
1692 2943 CircleF
1695 2943 CircleF
1698 2928 CircleF
1701 2919 CircleF
1705 2921 CircleF
1708 2927 CircleF
1711 2919 CircleF
1714 2905 CircleF
1718 2905 CircleF
1721 2901 CircleF
1724 2887 CircleF
1727 2891 CircleF
1731 2893 CircleF
1734 2881 CircleF
1737 2868 CircleF
1740 2864 CircleF
1743 2859 CircleF
1747 2855 CircleF
1750 2844 CircleF
1753 2847 CircleF
1756 2840 CircleF
1760 2826 CircleF
1763 2821 CircleF
1766 2829 CircleF
1769 2819 CircleF
1773 2796 CircleF
1776 2796 CircleF
1779 2792 CircleF
1782 2781 CircleF
1786 2790 CircleF
1789 2781 CircleF
1792 2773 CircleF
1795 2773 CircleF
1799 2770 CircleF
1802 2771 CircleF
1805 2758 CircleF
1808 2756 CircleF
1812 2757 CircleF
1815 2759 CircleF
1818 2737 CircleF
1821 2729 CircleF
1825 2742 CircleF
1828 2735 CircleF
1831 2720 CircleF
1834 2717 CircleF
1838 2726 CircleF
1841 2718 CircleF
1844 2706 CircleF
1847 2705 CircleF
1851 2686 CircleF
1854 2683 CircleF
1857 2691 CircleF
1860 2684 CircleF
1864 2682 CircleF
1867 2665 CircleF
1870 2670 CircleF
1873 2675 CircleF
1876 2653 CircleF
1880 2647 CircleF
1883 2648 CircleF
1886 2643 CircleF
1889 2639 CircleF
1893 2632 CircleF
1896 2631 CircleF
1899 2619 CircleF
1902 2634 CircleF
1906 2615 CircleF
1909 2622 CircleF
1912 2600 CircleF
1915 2621 CircleF
1919 2603 CircleF
1922 2613 CircleF
1925 2602 CircleF
1928 2590 CircleF
1932 2596 CircleF
1935 2581 CircleF
1938 2587 CircleF
1941 2569 CircleF
1945 2573 CircleF
1948 2554 CircleF
1951 2543 CircleF
1954 2561 CircleF
1958 2543 CircleF
1961 2537 CircleF
1964 2541 CircleF
1967 2536 CircleF
1971 2534 CircleF
1974 2526 CircleF
1977 2530 CircleF
1980 2532 CircleF
1984 2533 CircleF
1987 2521 CircleF
1990 2509 CircleF
1993 2518 CircleF
1997 2519 CircleF
2000 2520 CircleF
2003 2515 CircleF
2006 2490 CircleF
2009 2504 CircleF
2013 2511 CircleF
2016 2479 CircleF
2019 2474 CircleF
2022 2485 CircleF
2026 2469 CircleF
2029 2461 CircleF
2032 2466 CircleF
2035 2460 CircleF
2039 2447 CircleF
2042 2461 CircleF
2045 2468 CircleF
2048 2460 CircleF
2052 2449 CircleF
2055 2442 CircleF
2058 2441 CircleF
2061 2442 CircleF
2065 2441 CircleF
2068 2417 CircleF
2071 2431 CircleF
2074 2462 CircleF
2078 2435 CircleF
2081 2436 CircleF
2084 2426 CircleF
2087 2437 CircleF
2091 2437 CircleF
2094 2436 CircleF
2097 2439 CircleF
2100 2436 CircleF
2104 2422 CircleF
2107 2402 CircleF
2110 2420 CircleF
2113 2403 CircleF
2117 2396 CircleF
2120 2394 CircleF
2123 2395 CircleF
2126 2388 CircleF
2130 2375 CircleF
2133 2387 CircleF
2136 2382 CircleF
2139 2406 CircleF
2142 2400 CircleF
2146 2407 CircleF
2149 2387 CircleF
2152 2393 CircleF
2155 2387 CircleF
2159 2374 CircleF
2162 2383 CircleF
2165 2382 CircleF
2168 2388 CircleF
2172 2390 CircleF
2175 2380 CircleF
2178 2409 CircleF
2181 2378 CircleF
2185 2415 CircleF
2188 2397 CircleF
2191 2385 CircleF
2194 2374 CircleF
2198 2369 CircleF
2201 2385 CircleF
2204 2378 CircleF
2207 2358 CircleF
2211 2379 CircleF
2214 2366 CircleF
2217 2370 CircleF
2220 2349 CircleF
2224 2337 CircleF
2227 2341 CircleF
2230 2356 CircleF
2233 2352 CircleF
2237 2351 CircleF
2240 2342 CircleF
2243 2344 CircleF
2246 2354 CircleF
2250 2345 CircleF
2253 2357 CircleF
2256 2334 CircleF
2259 2357 CircleF
2263 2354 CircleF
2266 2354 CircleF
2269 2346 CircleF
2272 2335 CircleF
2275 2312 CircleF
2279 2330 CircleF
2282 2335 CircleF
2285 2327 CircleF
2288 2316 CircleF
2292 2310 CircleF
2295 2295 CircleF
2298 2294 CircleF
2301 2290 CircleF
2305 2304 CircleF
2308 2288 CircleF
2311 2303 CircleF
2314 2283 CircleF
2318 2322 CircleF
2321 2286 CircleF
2324 2297 CircleF
2327 2261 CircleF
2331 2283 CircleF
2334 2293 CircleF
2337 2311 CircleF
2340 2291 CircleF
2344 2296 CircleF
2347 2266 CircleF
2350 2262 CircleF
2353 2272 CircleF
2357 2261 CircleF
2360 2256 CircleF
2363 2255 CircleF
2366 2229 CircleF
2370 2222 CircleF
2373 2246 CircleF
2376 2267 CircleF
2379 2263 CircleF
2383 2268 CircleF
2386 2236 CircleF
2389 2248 CircleF
2392 2246 CircleF
2396 2241 CircleF
2399 2227 CircleF
2402 2245 CircleF
2405 2253 CircleF
2408 2235 CircleF
2412 2229 CircleF
2415 2254 CircleF
2418 2255 CircleF
2421 2242 CircleF
2425 2228 CircleF
2428 2233 CircleF
2431 2232 CircleF
2434 2217 CircleF
2438 2219 CircleF
2441 2214 CircleF
2444 2215 CircleF
2447 2207 CircleF
2451 2188 CircleF
2454 2207 CircleF
2457 2246 CircleF
2460 2233 CircleF
2464 2206 CircleF
2467 2226 CircleF
2470 2206 CircleF
2473 2235 CircleF
2477 2208 CircleF
2480 2226 CircleF
2483 2206 CircleF
2486 2196 CircleF
2490 2224 CircleF
2493 2186 CircleF
2496 2209 CircleF
2499 2192 CircleF
2503 2197 CircleF
2506 2177 CircleF
2509 2163 CircleF
2512 2164 CircleF
2516 2158 CircleF
2519 2120 CircleF
2522 2139 CircleF
2525 2147 CircleF
2529 2184 CircleF
2532 2158 CircleF
2535 2162 CircleF
2538 2146 CircleF
2541 2161 CircleF
2545 2175 CircleF
2548 2190 CircleF
2551 2174 CircleF
2554 2164 CircleF
2558 2141 CircleF
2561 2176 CircleF
2564 2193 CircleF
2567 2193 CircleF
2571 2197 CircleF
2574 2261 CircleF
2577 2210 CircleF
2580 2112 CircleF
2584 2107 CircleF
2587 2101 CircleF
2590 2088 CircleF
2593 2096 CircleF
2597 2077 CircleF
2600 2084 CircleF
2603 2099 CircleF
2606 2063 CircleF
2610 2063 CircleF
2613 2066 CircleF
2616 2075 CircleF
2619 2103 CircleF
2623 2058 CircleF
2626 2048 CircleF
2629 2044 CircleF
2632 2068 CircleF
2636 2033 CircleF
2639 2064 CircleF
2642 2054 CircleF
2645 2063 CircleF
2649 2055 CircleF
2652 2050 CircleF
2655 2026 CircleF
2658 2027 CircleF
2662 2034 CircleF
2665 2024 CircleF
2668 2039 CircleF
2671 2026 CircleF
2674 1999 CircleF
2678 2018 CircleF
2681 2009 CircleF
2684 2050 CircleF
2687 2057 CircleF
2691 2060 CircleF
2694 2031 CircleF
2697 2021 CircleF
2700 2048 CircleF
2704 2029 CircleF
2707 2040 CircleF
2710 1993 CircleF
2713 2037 CircleF
2717 1988 CircleF
2720 2042 CircleF
2723 2041 CircleF
2726 2023 CircleF
2730 1970 CircleF
2733 2001 CircleF
2736 1995 CircleF
2739 2031 CircleF
2743 2005 CircleF
2746 1985 CircleF
2749 2008 CircleF
2752 1997 CircleF
2756 2021 CircleF
2759 1984 CircleF
2762 1933 CircleF
2765 1971 CircleF
2769 1987 CircleF
2772 1967 CircleF
2775 1956 CircleF
2778 2021 CircleF
2782 2013 CircleF
2785 1998 CircleF
2788 1964 CircleF
2791 1975 CircleF
2795 1919 CircleF
2798 1973 CircleF
2801 1965 CircleF
2804 1985 CircleF
2807 1975 CircleF
2811 1987 CircleF
2814 1932 CircleF
2817 1964 CircleF
2820 1925 CircleF
2824 1909 CircleF
2827 1907 CircleF
2830 1956 CircleF
2833 1898 CircleF
2837 1955 CircleF
2840 1877 CircleF
2843 1900 CircleF
2846 1936 CircleF
2850 1975 CircleF
2853 1954 CircleF
2856 1950 CircleF
2859 1922 CircleF
2863 1922 CircleF
2866 1915 CircleF
2869 1890 CircleF
2872 1956 CircleF
2876 1923 CircleF
2879 1922 CircleF
2882 1934 CircleF
2885 1923 CircleF
2889 1900 CircleF
2892 1887 CircleF
2895 1898 CircleF
2898 1916 CircleF
2902 1909 CircleF
2905 1893 CircleF
2908 1927 CircleF
2911 1936 CircleF
2915 1916 CircleF
2918 1913 CircleF
2921 1916 CircleF
2924 1910 CircleF
2928 1882 CircleF
2931 1916 CircleF
2934 1919 CircleF
2937 1912 CircleF
2940 1930 CircleF
2944 1912 CircleF
2947 1986 CircleF
2950 1949 CircleF
2953 1966 CircleF
2957 1932 CircleF
2960 1927 CircleF
2963 1940 CircleF
2966 1940 CircleF
2970 1938 CircleF
2973 1910 CircleF
2976 1884 CircleF
2979 1874 CircleF
2983 1898 CircleF
2986 1880 CircleF
2989 1933 CircleF
2992 1898 CircleF
2996 1839 CircleF
2999 1877 CircleF
3002 1875 CircleF
3005 1851 CircleF
3009 1841 CircleF
3012 1863 CircleF
3015 1872 CircleF
3018 1900 CircleF
3022 1841 CircleF
3025 1833 CircleF
3028 1863 CircleF
3031 1833 CircleF
3035 1879 CircleF
3038 1879 CircleF
3041 1865 CircleF
3044 1877 CircleF
3048 1888 CircleF
3051 1829 CircleF
3054 1898 CircleF
3057 1817 CircleF
3061 1837 CircleF
3064 1851 CircleF
3067 1860 CircleF
3070 1833 CircleF
3073 1895 CircleF
3077 1837 CircleF
3080 1863 CircleF
3083 1823 CircleF
3086 1800 CircleF
3090 1788 CircleF
3093 1779 CircleF
3096 1831 CircleF
3099 1800 CircleF
3103 1854 CircleF
3106 1852 CircleF
3109 1835 CircleF
3112 1827 CircleF
3116 1817 CircleF
3119 1800 CircleF
3122 1851 CircleF
3125 1779 CircleF
3129 1833 CircleF
3132 1731 CircleF
3135 1793 CircleF
3138 1771 CircleF
3142 1790 CircleF
3145 1779 CircleF
3148 1819 CircleF
3151 1790 CircleF
3155 1800 CircleF
3158 1800 CircleF
3161 1811 CircleF
3164 1761 CircleF
3168 1793 CircleF
3171 1808 CircleF
3174 1781 CircleF
3177 1704 CircleF
3181 1788 CircleF
3184 1825 CircleF
3187 1829 CircleF
3190 1852 CircleF
3194 1806 CircleF
3197 1742 CircleF
3200 1800 CircleF
3203 1756 CircleF
3206 1815 CircleF
3210 1797 CircleF
3213 1728 CircleF
3216 1704 CircleF
3219 1756 CircleF
3223 1722 CircleF
3226 1731 CircleF
3229 1771 CircleF
3232 1764 CircleF
3236 1786 CircleF
3239 1700 CircleF
3242 1748 CircleF
3245 1821 CircleF
3249 1704 CircleF
3252 1725 CircleF
3255 1783 CircleF
3258 1759 CircleF
3262 1751 CircleF
3265 1748 CircleF
3268 1697 CircleF
3271 1737 CircleF
3275 1666 CircleF
3278 1697 CircleF
3281 1700 CircleF
3284 1707 CircleF
3288 1670 CircleF
3291 1691 CircleF
3294 1635 CircleF
3297 1655 CircleF
3301 1639 CircleF
3304 1742 CircleF
3307 1713 CircleF
3310 1694 CircleF
3314 1728 CircleF
3317 1734 CircleF
3320 1697 CircleF
3323 1618 CircleF
3327 1677 CircleF
3330 1670 CircleF
3333 1713 CircleF
3336 1639 CircleF
3339 1737 CircleF
3343 1725 CircleF
3346 1677 CircleF
3349 1740 CircleF
3352 1748 CircleF
3356 1662 CircleF
3359 1687 CircleF
3362 1697 CircleF
3365 1684 CircleF
3369 1707 CircleF
3372 1776 CircleF
3375 1719 CircleF
3378 1719 CircleF
3382 1704 CircleF
3385 1643 CircleF
3388 1716 CircleF
3391 1677 CircleF
3395 1680 CircleF
3398 1651 CircleF
3401 1618 CircleF
3404 1677 CircleF
3408 1680 CircleF
3411 1635 CircleF
3414 1658 CircleF
3417 1639 CircleF
3421 1673 CircleF
3424 1613 CircleF
3427 1647 CircleF
3430 1684 CircleF
3434 1673 CircleF
3437 1559 CircleF
3440 1626 CircleF
3443 1631 CircleF
3447 1691 CircleF
3450 1647 CircleF
3453 1700 CircleF
3456 1769 CircleF
3460 1670 CircleF
3463 1707 CircleF
3466 1680 CircleF
3469 1697 CircleF
3472 1651 CircleF
3476 1590 CircleF
3479 1504 CircleF
3482 1635 CircleF
3485 1643 CircleF
3489 1548 CircleF
3492 1643 CircleF
3495 1670 CircleF
3498 1719 CircleF
3502 1677 CircleF
3505 1604 CircleF
3508 1647 CircleF
3511 1639 CircleF
3515 1595 CircleF
3518 1483 CircleF
3521 1524 CircleF
3524 1569 CircleF
3528 1536 CircleF
3531 1536 CircleF
3534 1511 CircleF
3537 1590 CircleF
3541 1542 CircleF
3544 1530 CircleF
3547 1536 CircleF
3550 1622 CircleF
3554 1497 CircleF
3557 1569 CircleF
3560 1569 CircleF
3563 1655 CircleF
3567 1595 CircleF
3570 1651 CircleF
3573 1622 CircleF
3576 1631 CircleF
3580 1585 CircleF
3583 1643 CircleF
3586 1548 CircleF
3589 1622 CircleF
3593 1569 CircleF
3596 1524 CircleF
3599 1622 CircleF
3602 1590 CircleF
3605 1580 CircleF
3609 1476 CircleF
3612 1595 CircleF
3615 1647 CircleF
3618 1622 CircleF
3622 1604 CircleF
3625 1497 CircleF
3628 1497 CircleF
3631 1490 CircleF
3635 1468 CircleF
3638 1613 CircleF
3641 1524 CircleF
3644 1553 CircleF
3648 1559 CircleF
3651 1548 CircleF
3654 1564 CircleF
3657 1622 CircleF
3661 1490 CircleF
3664 1504 CircleF
3667 1476 CircleF
3670 1504 CircleF
3674 1517 CircleF
3677 1504 CircleF
3680 1536 CircleF
3683 1530 CircleF
3687 1524 CircleF
3690 1542 CircleF
3693 1575 CircleF
3696 1643 CircleF
3700 1639 CircleF
3703 1530 CircleF
3706 1476 CircleF
3709 1559 CircleF
3713 1524 CircleF
3716 1517 CircleF
3719 1497 CircleF
3722 1497 CircleF
3726 1378 CircleF
3729 1476 CircleF
3732 1331 CircleF
3735 1444 CircleF
3738 1436 CircleF
3742 1511 CircleF
3745 1511 CircleF
3748 1343 CircleF
3751 1318 CircleF
3755 1504 CircleF
3758 1408 CircleF
3761 1343 CircleF
3764 1517 CircleF
3768 1483 CircleF
3771 1408 CircleF
3774 1436 CircleF
3777 1343 CircleF
3781 1444 CircleF
3784 1408 CircleF
3787 1289 CircleF
3790 1304 CircleF
3794 1452 CircleF
3797 1388 CircleF
3800 1427 CircleF
3803 1378 CircleF
3807 1355 CircleF
3810 1331 CircleF
3813 1071 CircleF
3816 1318 CircleF
3820 1240 CircleF
3823 1468 CircleF
3826 1343 CircleF
3829 1258 CircleF
3833 1240 CircleF
3836 1157 CircleF
3839 1180 CircleF
3842 1318 CircleF
3846 1274 CircleF
3849 1318 CircleF
3852 1304 CircleF
3855 1343 CircleF
3859 1304 CircleF
3862 1343 CircleF
3865 1157 CircleF
3868 1202 CircleF
3871 1258 CircleF
3875 1202 CircleF
3878 1258 CircleF
3881 1258 CircleF
3884 1331 CircleF
3888 1071 CircleF
3891 1289 CircleF
3894 1258 CircleF
3897 1258 CircleF
3901 1355 CircleF
3904 1240 CircleF
3907 1258 CircleF
3910 1331 CircleF
3914 1258 CircleF
3917 1258 CircleF
3920 1490 CircleF
3923 1289 CircleF
3927 1180 CircleF
3930 1240 CircleF
3933 1274 CircleF
3936 1289 CircleF
3940 1289 CircleF
3943 1131 CircleF
3946 1240 CircleF
3949 1035 CircleF
3953 1304 CircleF
3956 1240 CircleF
3959 1367 CircleF
3962 1304 CircleF
3966 1240 CircleF
3969 1274 CircleF
3972 1157 CircleF
3975 1331 CircleF
3979 1157 CircleF
3982 1071 CircleF
3985 1103 CircleF
3988 994 CircleF
3992 1131 CircleF
3995 1035 CircleF
3998 1131 CircleF
4001 994 CircleF
4004 1071 CircleF
4008 698 CircleF
4011 698 CircleF
4014 945 CircleF
4017 1157 CircleF
4021 994 CircleF
4024 1222 CircleF
4027 945 CircleF
4030 945 CircleF
4034 1103 CircleF
4037 1131 CircleF
4040 885 CircleF
4043 885 CircleF
4047 945 CircleF
4050 994 CircleF
4056 885 CircleF
4060 885 CircleF
4063 945 CircleF
4066 994 CircleF
4069 1035 CircleF
4073 807 CircleF
4076 945 CircleF
4079 807 CircleF
4082 1035 CircleF
4086 885 CircleF
4089 807 CircleF
4095 1103 CircleF
4099 994 CircleF
4102 1071 CircleF
4105 512 CircleF
4108 945 CircleF
4112 512 CircleF
4115 1071 CircleF
4118 1071 CircleF
4121 1103 CircleF
4124 1103 CircleF
4128 994 CircleF
4131 945 CircleF
4134 1035 CircleF
4137 1103 CircleF
4141 994 CircleF
4144 1035 CircleF
4147 945 CircleF
4150 1035 CircleF
4154 945 CircleF
4157 945 CircleF
4160 1103 CircleF
4163 807 CircleF
4167 1202 CircleF
4170 1103 CircleF
4173 1071 CircleF
4176 994 CircleF
4180 807 CircleF
4183 1103 CircleF
4186 1103 CircleF
4189 1103 CircleF
4193 1103 CircleF
4196 945 CircleF
4199 1035 CircleF
4202 945 CircleF
4206 1157 CircleF
4209 1071 CircleF
4212 1035 CircleF
4215 1157 CircleF
4219 1202 CircleF
4222 945 CircleF
4225 885 CircleF
4228 1240 CircleF
4232 1131 CircleF
4235 1103 CircleF
4238 1035 CircleF
4241 1103 CircleF
4245 1035 CircleF
4248 1035 CircleF
4251 1222 CircleF
4254 1331 CircleF
4257 1331 CircleF
4261 1378 CircleF
4264 1460 CircleF
4267 1202 CircleF
4270 1289 CircleF
4274 1274 CircleF
4277 1071 CircleF
4280 1304 CircleF
4283 1222 CircleF
4287 1388 CircleF
4290 1367 CircleF
4293 1408 CircleF
4296 1408 CircleF
4300 1398 CircleF
4303 1398 CircleF
4306 1343 CircleF
4309 1452 CircleF
4313 1318 CircleF
4316 1304 CircleF
4319 1157 CircleF
4322 1222 CircleF
4326 1071 CircleF
4329 1131 CircleF
4332 1180 CircleF
4335 1202 CircleF
4339 1131 CircleF
4342 1258 CircleF
4345 1180 CircleF
4348 1131 CircleF
4352 1071 CircleF
4355 1103 CircleF
4358 1157 CircleF
4361 1180 CircleF
4365 1202 CircleF
4368 1103 CircleF
4371 1131 CircleF
4374 1103 CircleF
4378 1071 CircleF
4381 1202 CircleF
4384 1071 CircleF
4387 1240 CircleF
4390 1202 CircleF
4394 945 CircleF
4397 1157 CircleF
4400 994 CircleF
4403 1035 CircleF
4407 1035 CircleF
4410 1035 CircleF
4413 807 CircleF
4416 807 CircleF
4420 698 CircleF
4423 807 CircleF
4426 945 CircleF
4429 885 CircleF
4433 1035 CircleF
4436 807 CircleF
4439 1071 CircleF
4442 1103 CircleF
4446 945 CircleF
4449 1035 CircleF
4452 1103 CircleF
4455 1157 CircleF
4459 1035 CircleF
4462 1071 CircleF
4465 698 CircleF
4468 885 CircleF
4472 1103 CircleF
4475 1071 CircleF
4478 1103 CircleF
4481 1222 CircleF
4485 1103 CircleF
4488 1222 CircleF
4491 1157 CircleF
4494 1035 CircleF
4498 1222 CircleF
4501 1071 CircleF
4504 1131 CircleF
4507 994 CircleF
4511 1131 CircleF
4514 1258 CircleF
4517 698 CircleF
4520 1131 CircleF
4523 1202 CircleF
4527 1258 CircleF
4530 1289 CircleF
4533 1304 CircleF
4536 1180 CircleF
4540 1103 CircleF
4543 1180 CircleF
4546 1103 CircleF
4549 994 CircleF
4553 1131 CircleF
4556 1035 CircleF
4559 807 CircleF
4562 885 CircleF
4566 945 CircleF
4569 945 CircleF
4572 1071 CircleF
4575 1071 CircleF
4579 1157 CircleF
4582 698 CircleF
4585 1035 CircleF
4588 1035 CircleF
4592 807 CircleF
4595 1035 CircleF
4598 807 CircleF
4601 698 CircleF
4605 994 CircleF
4608 1035 CircleF
4611 994 CircleF
4614 945 CircleF
4618 885 CircleF
4621 698 CircleF
4624 885 CircleF
4627 885 CircleF
4631 885 CircleF
4634 1131 CircleF
4637 945 CircleF
4640 945 CircleF
4644 994 CircleF
4647 994 CircleF
4650 1103 CircleF
4653 807 CircleF
4656 1035 CircleF
4660 1103 CircleF
4663 1103 CircleF
4666 885 CircleF
4669 807 CircleF
4673 994 CircleF
4676 994 CircleF
4679 807 CircleF
4682 698 CircleF
4686 698 CircleF
4689 512 CircleF
4692 807 CircleF
4695 885 CircleF
4699 807 CircleF
4702 1035 CircleF
4708 698 CircleF
4712 698 CircleF
4715 807 CircleF
4718 807 CircleF
4721 807 CircleF
4725 807 CircleF
4728 994 CircleF
4731 512 CircleF
4734 698 CircleF
4738 885 CircleF
4741 1103 CircleF
4744 994 CircleF
4747 885 CircleF
4751 1103 CircleF
4754 1071 CircleF
4757 1035 CircleF
4760 698 CircleF
4764 1035 CircleF
4767 994 CircleF
4770 945 CircleF
4773 885 CircleF
4777 807 CircleF
4780 698 CircleF
4783 885 CircleF
4786 885 CircleF
4789 994 CircleF
4793 945 CircleF
4796 1157 CircleF
4799 1035 CircleF
4802 807 CircleF
4806 994 CircleF
4809 885 CircleF
4812 512 CircleF
4815 994 CircleF
4819 885 CircleF
4822 1071 CircleF
4825 698 CircleF
4828 885 CircleF
4832 1035 CircleF
4835 1131 CircleF
4838 945 CircleF
4841 807 CircleF
4845 945 CircleF
4848 994 CircleF
4851 945 CircleF
4854 1131 CircleF
4858 1035 CircleF
4861 1071 CircleF
4864 945 CircleF
4867 1071 CircleF
4871 1035 CircleF
4874 945 CircleF
4877 994 CircleF
4880 1035 CircleF
4884 1071 CircleF
4887 994 CircleF
4890 1035 CircleF
4893 1157 CircleF
4897 1180 CircleF
4900 1071 CircleF
4903 1131 CircleF
4906 1157 CircleF
4910 1240 CircleF
4913 1258 CircleF
4916 1071 CircleF
4919 1180 CircleF
4922 1035 CircleF
4926 1304 CircleF
4929 1258 CircleF
4932 1131 CircleF
4935 1258 CircleF
4939 1180 CircleF
4942 1202 CircleF
4945 1258 CircleF
4948 1240 CircleF
4952 1222 CircleF
4955 1222 CircleF
4958 1289 CircleF
4961 1157 CircleF
4965 1180 CircleF
4968 1071 CircleF
4971 1180 CircleF
4974 1131 CircleF
4978 1202 CircleF
4981 945 CircleF
4984 1157 CircleF
4987 1071 CircleF
4991 1180 CircleF
4994 994 CircleF
4997 1202 CircleF
5000 1157 CircleF
5004 1180 CircleF
5007 1071 CircleF
5010 1240 CircleF
5013 1274 CircleF
5017 1103 CircleF
5020 1103 CircleF
5023 1131 CircleF
5026 1180 CircleF
5030 1222 CircleF
5033 1131 CircleF
5036 1035 CircleF
5039 1035 CircleF
5043 945 CircleF
5046 1157 CircleF
5049 1131 CircleF
5052 1157 CircleF
5055 1202 CircleF
5059 807 CircleF
5062 1035 CircleF
5065 1071 CircleF
5068 1202 CircleF
5072 1103 CircleF
5075 1071 CircleF
5078 1131 CircleF
5081 1131 CircleF
5085 1180 CircleF
5088 1035 CircleF
5091 1035 CircleF
5094 945 CircleF
5098 1035 CircleF
5101 807 CircleF
5104 945 CircleF
5107 1103 CircleF
5111 698 CircleF
5114 945 CircleF
5117 1035 CircleF
5120 994 CircleF
5124 945 CircleF
5127 1157 CircleF
5130 1157 CircleF
5133 1202 CircleF
5137 1180 CircleF
5140 1222 CircleF
5143 1289 CircleF
5146 1378 CircleF
5150 1289 CircleF
5153 1427 CircleF
5156 1318 CircleF
5159 1318 CircleF
5163 1355 CircleF
5166 1103 CircleF
5169 1035 CircleF
5172 1157 CircleF
5176 1035 CircleF
5179 994 CircleF
5182 1157 CircleF
5185 1035 CircleF
5188 1071 CircleF
5192 1035 CircleF
5195 885 CircleF
5198 698 CircleF
5201 885 CircleF
5205 885 CircleF
5208 807 CircleF
5211 1103 CircleF
5214 1071 CircleF
5218 1035 CircleF
5221 885 CircleF
5224 994 CircleF
5227 885 CircleF
5231 945 CircleF
5234 994 CircleF
5237 807 CircleF
5240 807 CircleF
5244 945 CircleF
5247 945 CircleF
5250 807 CircleF
5253 885 CircleF
5257 698 CircleF
5260 885 CircleF
5263 698 CircleF
5266 698 CircleF
5270 1071 CircleF
5273 945 CircleF
5276 698 CircleF
5279 698 CircleF
5283 807 CircleF
5286 945 CircleF
5289 945 CircleF
5292 1035 CircleF
5296 807 CircleF
5299 945 CircleF
5302 1035 CircleF
5305 885 CircleF
5309 1071 CircleF
5312 994 CircleF
5315 1035 CircleF
5318 512 CircleF
5321 994 CircleF
5325 945 CircleF
5328 807 CircleF
5334 1035 CircleF
5338 885 CircleF
5341 698 CircleF
5344 512 CircleF
5347 698 CircleF
5351 945 CircleF
5354 698 CircleF
5357 512 CircleF
5364 698 CircleF
5367 885 CircleF
5370 698 CircleF
5373 885 CircleF
5377 885 CircleF
5386 512 CircleF
5390 807 CircleF
5393 885 CircleF
5399 512 CircleF
5403 698 CircleF
5406 807 CircleF
5409 698 CircleF
5412 807 CircleF
5416 512 CircleF
5419 698 CircleF
5422 698 CircleF
5425 512 CircleF
5429 698 CircleF
5432 512 CircleF
5435 698 CircleF
5438 512 CircleF
5445 807 CircleF
5448 807 CircleF
5451 885 CircleF
5454 885 CircleF
5458 698 CircleF
5461 512 CircleF
5464 807 CircleF
5467 807 CircleF
5471 885 CircleF
5474 512 CircleF
5477 885 CircleF
5480 945 CircleF
5484 945 CircleF
5487 512 CircleF
5490 885 CircleF
5493 807 CircleF
5506 698 CircleF
5510 698 CircleF
5516 698 CircleF
5519 698 CircleF
5523 807 CircleF
5526 698 CircleF
5529 945 CircleF
5532 512 CircleF
5536 807 CircleF
5539 512 CircleF
5542 885 CircleF
5545 512 CircleF
5549 512 CircleF
5552 807 CircleF
5555 994 CircleF
5558 807 CircleF
5562 885 CircleF
5565 1035 CircleF
5568 807 CircleF
5571 698 CircleF
5575 807 CircleF
5578 885 CircleF
5581 698 CircleF
5584 945 CircleF
5587 885 CircleF
5591 698 CircleF
5594 698 CircleF
5597 885 CircleF
5604 885 CircleF
5607 698 CircleF
5610 885 CircleF
5613 512 CircleF
5617 512 CircleF
5620 807 CircleF
5623 885 CircleF
5626 512 CircleF
5630 945 CircleF
5633 512 CircleF
5636 512 CircleF
5643 698 CircleF
5646 698 CircleF
5649 945 CircleF
5652 698 CircleF
5656 807 CircleF
5659 885 CircleF
5662 512 CircleF
5665 885 CircleF
5669 698 CircleF
5672 885 CircleF
5675 512 CircleF
5678 945 CircleF
5682 698 CircleF
5685 885 CircleF
5688 512 CircleF
5691 807 CircleF
5695 698 CircleF
5698 885 CircleF
5701 698 CircleF
5704 512 CircleF
5708 512 CircleF
5711 698 CircleF
5714 698 CircleF
5717 512 CircleF
5720 512 CircleF
5724 512 CircleF
5727 698 CircleF
5730 512 CircleF
5733 512 CircleF
5737 512 CircleF
5740 698 CircleF
5743 512 CircleF
5746 698 CircleF
5750 512 CircleF
5753 512 CircleF
5756 698 CircleF
5759 807 CircleF
5763 698 CircleF
5766 512 CircleF
5772 512 CircleF
5776 807 CircleF
5779 698 CircleF
5782 994 CircleF
5785 698 CircleF
5789 512 CircleF
5792 512 CircleF
5798 512 CircleF
5802 807 CircleF
5805 512 CircleF
5808 807 CircleF
5811 512 CircleF
5821 698 CircleF
5824 512 CircleF
5828 698 CircleF
5834 807 CircleF
5837 512 CircleF
5841 512 CircleF
5847 512 CircleF
5850 512 CircleF
5857 807 CircleF
5863 698 CircleF
5866 512 CircleF
5870 698 CircleF
5876 994 CircleF
5879 512 CircleF
5883 512 CircleF
5889 807 CircleF
5892 512 CircleF
5899 698 CircleF
5902 512 CircleF
5905 807 CircleF
5909 698 CircleF
5915 512 CircleF
5918 512 CircleF
5925 512 CircleF
5931 512 CircleF
5935 512 CircleF
5948 698 CircleF
5951 698 CircleF
5957 512 CircleF
5970 698 CircleF
5977 807 CircleF
5983 512 CircleF
5990 512 CircleF
5996 512 CircleF
6009 512 CircleF
6012 512 CircleF
6019 512 CircleF
6022 512 CircleF
6025 512 CircleF
6035 512 CircleF
6042 512 CircleF
6045 698 CircleF
6074 512 CircleF
6084 512 CircleF
6097 512 CircleF
6100 512 CircleF
6116 512 CircleF
6123 698 CircleF
6129 512 CircleF
6132 512 CircleF
6139 512 CircleF
6149 512 CircleF
6155 512 CircleF
6162 512 CircleF
6165 698 CircleF
6171 698 CircleF
6178 807 CircleF
6181 512 CircleF
6188 512 CircleF
6191 512 CircleF
6197 512 CircleF
6201 512 CircleF
6220 512 CircleF
6236 512 CircleF
6246 512 CircleF
6256 512 CircleF
6275 512 CircleF
6282 512 CircleF
6285 512 CircleF
6295 512 CircleF
6314 512 CircleF
6317 512 CircleF
6334 807 CircleF
6350 512 CircleF
6363 512 CircleF
6366 512 CircleF
6373 512 CircleF
6376 512 CircleF
6392 512 CircleF
6402 512 CircleF
6411 512 CircleF
6421 512 CircleF
6424 512 CircleF
6437 512 CircleF
6441 512 CircleF
6444 512 CircleF
6450 945 CircleF
6454 698 CircleF
6457 698 CircleF
6460 698 CircleF
6467 885 CircleF
6470 885 CircleF
6473 512 CircleF
6476 807 CircleF
6480 807 CircleF
6483 807 CircleF
6486 698 CircleF
6489 698 CircleF
6493 512 CircleF
6496 512 CircleF
6499 807 CircleF
6502 698 CircleF
6506 698 CircleF
6512 698 CircleF
6515 512 CircleF
6518 698 CircleF
6522 698 CircleF
6525 512 CircleF
6528 512 CircleF
6531 807 CircleF
6535 512 CircleF
6538 512 CircleF
6541 698 CircleF
6548 698 CircleF
6551 698 CircleF
6557 945 CircleF
6561 885 CircleF
6564 698 CircleF
6567 698 CircleF
6574 698 CircleF
6577 698 CircleF
6580 698 CircleF
6583 807 CircleF
6587 512 CircleF
6590 512 CircleF
6596 698 CircleF
% End plot #1
1.000 UL
LTb
LCb setrgbcolor
1072 4847 N
0 -4335 V
5839 0 V
0 4335 V
-5839 0 V
Z stroke
1.000 UP
1.000 UL
LTb
LCb setrgbcolor
stroke
grestore
end
showpage
%%Trailer
%%DocumentFonts: Helvetica
