------------
pokec.txt
31523194	933.04825000		52	1		0.11441107		99.88558888		1000	thresh_2000_pokec.txt	0	0.00000000	0.00000000
31523194	930.31268750		52	1		0.11480369		99.88519549		1000	thresh_2000_pokec.txt	0	0.00000000	0.00000000
31523194	930.23493750		52	1		0.11463781		99.88536239		1000	thresh_2000_pokec.txt	0	0.00000000	0.00000000
31523194	930.69912500		52	1		0.11474633		99.88525510		1000	thresh_2000_pokec.txt	0	0.00000000	0.00000000
31523194	930.63475000		52	1		0.11449711		99.88549948		1000	thresh_2000_pokec.txt	0	0.00000000	0.00000000
************
------------
orkut.txt
118085743	1820.25300000		249429	1		0.08487046		99.91512895		1000	thresh_2000_orkut.txt	0	0.00000000	0.00000000
118085743	1750.40037500		249429	1		0.08698258		99.91301894		1000	thresh_2000_orkut.txt	0	0.00000000	0.00000000
118085743	1744.33225000		249429	1		0.08594978		99.91405010		1000	thresh_2000_orkut.txt	0	0.00000000	0.00000000
118085743	1741.71462500		249429	1		0.08590524		99.91409183		1000	thresh_2000_orkut.txt	0	0.00000000	0.00000000
118085743	1739.20287500		249429	1		0.08601118		99.91399050		1000	thresh_2000_orkut.txt	0	0.00000000	0.00000000
************
------------
usaRoadNet.txt
58608258	208.06940625		1284642	1		0.53269872		99.46729541		1000	thresh_2000_usaRoadNet.txt	0	0.00000000	0.00000000
58608258	208.03020313		1284642	1		0.53522675		99.46477413		1000	thresh_2000_usaRoadNet.txt	0	0.00000000	0.00000000
58608258	207.90237500		1284642	1		0.53425375		99.46575165		1000	thresh_2000_usaRoadNet.txt	0	0.00000000	0.00000000
58608258	208.17215625		1284642	1		0.53390171		99.46609735		1000	thresh_2000_usaRoadNet.txt	0	0.00000000	0.00000000
58608258	207.94182813		1284642	1		0.53529125		99.46470857		1000	thresh_2000_usaRoadNet.txt	0	0.00000000	0.00000000
************
------------
lj.txt
69893721	717.05975000		469991	1		0.16054432		99.83945489		1000	thresh_2000_lj.txt	0	0.00000000	0.00000000
69893721	717.10893750		469991	1		0.16016179		99.83983636		1000	thresh_2000_lj.txt	0	0.00000000	0.00000000
69893721	716.84381250		469991	1		0.16030530		99.83969927		1000	thresh_2000_lj.txt	0	0.00000000	0.00000000
69893721	716.57600000		469991	1		0.15986854		99.84013438		1000	thresh_2000_lj.txt	0	0.00000000	0.00000000
69893721	716.93918750		469991	1		0.16029864		99.83969927		1000	thresh_2000_lj.txt	0	0.00000000	0.00000000
************
------------
patents.txt
17417530	257.34520313		852324	1		0.34532866		99.65466857		1000	thresh_2000_patents.txt	0	0.00000000	0.00000000
17417530	257.43192188		852324	1		0.34619828		99.65380430		1000	thresh_2000_patents.txt	0	0.00000000	0.00000000
17417530	257.53365625		852324	1		0.34547753		99.65452552		1000	thresh_2000_patents.txt	0	0.00000000	0.00000000
17417530	257.28550000		852324	1		0.34530472		99.65469241		1000	thresh_2000_patents.txt	0	0.00000000	0.00000000
17417530	257.64056250		852324	1		0.34509352		99.65490699		1000	thresh_2000_patents.txt	0	0.00000000	0.00000000
************
