------------
1
31523194	938.75143750		52	1		0.11328433		99.88671541		1000	pokec_original_thresh_2k.txt	53	1.88679245	5701.11350000
31523194	939.11412500		52	1		0.11323473		99.88676906		1000	pokec_original_thresh_2k.txt	53	1.88679245	5698.04400000
31523194	939.44481250		52	1		0.11336934		99.88662601		1000	pokec_original_thresh_2k.txt	53	1.88679245	5713.82050000
31523194	939.03462500		52	1		0.11353514		99.88646507		1000	pokec_original_thresh_2k.txt	53	1.88679245	5701.68000000
31523194	938.30168750		52	1		0.11350558		99.88649487		1000	pokec_original_thresh_2k.txt	53	1.88679245	5694.59550000
************
------------
2
31524239	546.99575000		52	2		0.13609418		99.86390471		1000	pokec_original_thresh_2k.txt	53	1.88679245	2943.82975000
31524500	546.28987500		52	2		0.13661663		99.86338615		1000	pokec_original_thresh_2k.txt	53	1.88679245	2947.47525000
31524514	546.05506250		52	2		0.13648652		99.86351132		1000	pokec_original_thresh_2k.txt	53	1.88679245	2945.90325000
31524186	545.83531250		52	2		0.13683713		99.86316562		1000	pokec_original_thresh_2k.txt	53	1.88679245	2943.92100000
31524417	547.27462500		52	2		0.13585662		99.86414313		1000	pokec_original_thresh_2k.txt	53	1.88679245	2954.66875000
************
------------
4
31526461	349.91637500		52	4		0.13726064		99.86273646		1000	pokec_original_thresh_2k.txt	53	1.88679245	1581.29350000
31527174	349.36300000		52	4		0.13689777		99.86310005		1000	pokec_original_thresh_2k.txt	53	1.88679245	1577.56562500
31526438	349.42628125		52	4		0.13556863		99.86442924		1000	pokec_original_thresh_2k.txt	53	1.88679245	1579.37175000
31526633	349.46559375		52	4		0.13565946		99.86433983		1000	pokec_original_thresh_2k.txt	53	1.88679245	1579.36387500
31526432	349.50112500		52	4		0.13623569		99.86376166		1000	pokec_original_thresh_2k.txt	53	1.88679245	1581.20237500
************
------------
8
31531591	294.55328125		52	8		0.10779778		99.89219904		1000	pokec_original_thresh_2k.txt	53	1.88679245	927.15475000
31531943	294.46728125		52	8		0.10846877		99.89153147		1000	pokec_original_thresh_2k.txt	53	1.88679245	927.33937500
31531832	294.45018750		52	8		0.10937431		99.89061952		1000	pokec_original_thresh_2k.txt	53	1.88679245	928.54625000
31531861	294.56290625		52	8		0.10874651		99.89125729		1000	pokec_original_thresh_2k.txt	53	1.88679245	927.18025000
31531863	294.40618750		52	8		0.10843043		99.89157319		1000	pokec_original_thresh_2k.txt	53	1.88679245	926.29337500
************
------------
16
31541204	190.44459375		52	16		0.22722781		99.77276921		1000	pokec_original_thresh_2k.txt	53	1.88679245	646.00618750
31540867	188.73048438		52	16		0.23332702		99.76667166		1000	pokec_original_thresh_2k.txt	53	1.88679245	641.40168750
31540893	190.27268750		52	16		0.22789980		99.77210164		1000	pokec_original_thresh_2k.txt	53	1.88679245	643.05150000
31541693	186.26979687		52	16		0.23174246		99.76825714		1000	pokec_original_thresh_2k.txt	53	1.88679245	649.64481250
31542644	187.79784375		52	16		0.23015074		99.76984859		1000	pokec_original_thresh_2k.txt	53	1.88679245	647.75443750
************
------------
20
31547067	178.52281250		52	20		0.22121028		99.77879524		1000	pokec_original_thresh_2k.txt	53	1.88679245	591.49962500
31546627	181.19268750		52	20		0.21849056		99.78150725		1000	pokec_original_thresh_2k.txt	53	1.88679245	588.32081250
31547173	177.71256250		52	20		0.22960992		99.77039099		1000	pokec_original_thresh_2k.txt	53	1.88679245	583.98812500
31546494	177.69592188		52	20		0.22561916		99.77437854		1000	pokec_original_thresh_2k.txt	53	1.88679245	596.14593750
31546476	179.61243750		52	20		0.22554502		99.77445602		1000	pokec_original_thresh_2k.txt	53	1.88679245	593.36068750
************
------------
32
31555408	180.14910937		52	32		0.18653381		99.81347322		1000	pokec_original_thresh_2k.txt	53	1.88679245	662.62487500
31556204	180.01154687		52	32		0.20737164		99.79262352		1000	pokec_original_thresh_2k.txt	53	1.88679245	669.36881250
31557561	181.90537500		52	32		0.19459290		99.80540872		1000	pokec_original_thresh_2k.txt	53	1.88679245	666.54956250
31555483	179.18210938		52	32		0.21195794		99.78803992		1000	pokec_original_thresh_2k.txt	53	1.88679245	660.98843750
31555072	182.13450000		52	32		0.19810854		99.80189204		1000	pokec_original_thresh_2k.txt	53	1.88679245	666.22656250
************
------------
40
31559735	179.89653125		52	40		0.20156754		99.79843497		1000	pokec_original_thresh_2k.txt	53	1.88679245	687.43050000
31560195	173.88207812		52	40		0.21699301		99.78300929		1000	pokec_original_thresh_2k.txt	53	1.88679245	692.91837500
31560777	179.06343750		52	40		0.26368336		99.73632097		1000	pokec_original_thresh_2k.txt	53	1.88679245	685.70675000
31560372	175.57367188		52	40		0.21229947		99.78770614		1000	pokec_original_thresh_2k.txt	53	1.88679245	689.39806250
31559649	172.55375000		52	40		0.21476373		99.78523850		1000	pokec_original_thresh_2k.txt	53	1.88679245	689.55006250
************
